Message Drop for scenario SimBetHaggleInfocom_#DF_0.1
sim_time: 274883.0000

6	343
7	462
28	258
21	391
10	107
1	110
11	99
26	111
17	94
15	196
0	270
4	1563
31	275
37	133
19	275
20	245
12	216
29	182
36	421
9	241
8	217
33	1043
24	228
35	137
3	397
2	174
23	297
16	323
27	133
40	142
18	161
14	106
25	179
5	165
30	92
13	115
22	226
32	246
38	389
39	282
34	118

