Node 10		0.15	0.3	0.8999999999999999	0.8999999999999999	1.2	1.5	1.6500000000000001	1.7999999999999998	2.1	2.25	2.55	2.55	2.7	2.55	2.1	2.25	2.25	2.1	2.1	2.1	1.95	2.25	1.95	1.95	1.7999999999999998	1.95	2.1	2.25	2.1	2.4	2.55	2.7	2.55	2.25	2.55	2.55	2.55	2.55	2.4	2.55	2.55	2.25	2.4	2.1	2.1	2.25	2.25	2.55	2.55	2.7	2.7	2.55	2.7	2.85	3.0	3.45	3.75	4.35	3.9	4.05	4.35	4.35	4.5	4.35	4.05	3.75	3.15	2.7	2.4	2.25	2.4	1.7999999999999998	1.2	0.75	0.3
Node 12		0.0	0.3	0.8999999999999999	1.05	1.5	1.5	1.7999999999999998	2.1	2.1	2.25	2.55	2.55	2.7	2.7	2.1	2.25	2.1	2.25	1.95	1.6500000000000001	1.6500000000000001	1.7999999999999998	1.6500000000000001	1.7999999999999998	1.95	1.6500000000000001	1.6500000000000001	1.5	1.2	1.5	2.25	2.55	2.85	3.0	3.15	3.9	4.05	4.35	4.65	4.5	4.65	4.65	4.05	3.75	3.9	3.9	3.75	3.15	2.7	2.55	2.4	2.7	2.7	2.55	2.7	2.85	2.55	2.4	2.55	2.4	2.55	2.4	2.55	2.4	2.25	1.95	1.6500000000000001	5.7	6.15	5.25	4.2	3.0	2.25	1.35	0.44999999999999996
Node 0		0.3	0.75	0.8999999999999999	1.05	2.4	16.2	16.5	16.650000000000002	17.1	17.549999999999997	17.7	16.2	13.05	11.1	8.25	6.3	4.35	2.7	2.7	6.3	5.55	5.7	5.25	5.25	5.1	4.95	5.25	4.95	4.65	4.35	4.05	3.45	3.15	2.55	2.55	2.4	1.95	1.35	1.05	1.2	1.35	1.2	1.5	1.2	1.5	1.6500000000000001	1.6500000000000001	1.95	2.1	2.1	2.1	1.95	1.95	1.95	1.7999999999999998	2.1	2.1	2.4	2.25	2.1	2.4	2.4	2.4	2.25	2.1	2.1	1.95	1.6500000000000001	1.35	0.8999999999999999	0.8999999999999999	0.6	0.15	0.0	0.0
Node 5		0.8999999999999999	1.2	1.35	1.95	2.1	2.4	2.55	2.55	2.55	2.85	3.0	3.0	2.55	2.25	2.7	2.25	2.4	2.25	2.85	3.0	3.75	3.75	3.75	3.9	4.65	4.95	5.4	6.45	7.35	7.95	7.5	7.5	6.75	6.9	6.9	6.6000000000000005	5.7	6.0	4.5	3.3000000000000003	2.55	2.25	2.1	2.25	2.55	2.7	2.85	3.3000000000000003	3.5999999999999996	3.75	4.2	4.8	5.1	5.25	5.25	5.1	4.8	4.65	4.35	3.5999999999999996	3.15	3.0	2.7	2.1	1.6500000000000001	1.35	1.2	1.05	2.85	2.4	2.1	1.7999999999999998	1.35	0.75	0.3
Node 29		0.75	1.2	1.95	1.95	2.1	7.5	8.1	8.25	8.7	9.6	9.9	9.15	8.4	7.5	6.45	5.4	5.25	4.65	4.8	6.9	6.0	7.35	7.049999999999999	8.4	7.35	7.049999999999999	6.15	6.0	5.4	4.65	3.5999999999999996	3.45	3.3000000000000003	2.7	2.55	2.1	2.55	3.15	3.5999999999999996	3.45	3.45	3.5999999999999996	4.05	3.75	3.75	3.5999999999999996	3.45	3.45	3.5999999999999996	3.15	2.4	2.4	2.25	2.1	1.6500000000000001	2.4	2.4	2.55	2.4	2.7	2.55	2.55	2.7	2.4	2.25	2.1	1.95	1.2	1.05	0.75	0.75	0.3	0.15	0.15	0.0
Node 14		0.75	1.2	1.35	1.6500000000000001	2.1	2.4	2.7	3.15	3.5999999999999996	3.9	4.05	3.9	3.75	3.5999999999999996	3.45	3.15	3.0	2.85	2.85	2.7	2.7	2.4	2.55	2.4	2.1	1.7999999999999998	2.1	2.25	2.25	2.55	2.7	2.4	2.25	2.55	2.4	2.4	2.7	3.0	3.0	3.15	3.0	2.55	2.7	3.15	3.0	2.85	2.85	3.3000000000000003	3.3000000000000003	3.15	3.0	2.7	2.85	3.0	2.85	2.7	3.0	3.15	3.15	2.85	2.7	2.85	3.0	3.0	2.7	2.25	2.1	1.7999999999999998	1.35	1.05	0.8999999999999999	0.75	0.6	0.3	0.0
Node 8		0.44999999999999996	0.75	1.05	1.05	1.35	1.5	2.1	2.7	3.45	3.75	3.9	3.9	3.9	3.9	3.5999999999999996	4.2	4.8	4.95	4.65	6.0	7.049999999999999	7.35	8.1	12.45	12.6	13.05	13.05	12.45	11.85	10.8	11.1	10.95	10.35	8.4	6.3	4.5	4.05	3.9	3.5999999999999996	3.5999999999999996	3.0	3.5999999999999996	2.85	2.4	2.1	2.4	2.55	2.4	2.4	2.55	2.85	2.7	2.85	2.4	2.55	2.7	3.0	3.0	5.1	7.35	7.5	7.5	7.95	7.95	7.35	6.45	5.7	4.95	4.05	3.15	2.55	2.25	1.7999999999999998	1.35	0.44999999999999996
Node 34		0.6	0.6	0.75	1.2	2.7	4.35	4.8	5.25	5.7	5.8500000000000005	6.15	5.7	5.4	5.1	4.8	4.35	3.3000000000000003	3.0	3.3000000000000003	3.75	4.05	4.35	4.65	4.8	5.25	5.4	5.8500000000000005	5.4	5.4	5.4	4.8	3.9	3.15	2.85	2.55	2.1	1.7999999999999998	1.6500000000000001	1.35	1.7999999999999998	2.1	2.25	2.25	2.25	2.25	1.95	2.55	2.7	2.7	3.0	2.7	2.25	1.95	1.7999999999999998	2.1	2.1	2.4	2.55	1.95	2.1	1.95	1.95	2.25	2.25	2.25	2.1	1.7999999999999998	1.7999999999999998	1.5	1.35	1.2	0.8999999999999999	0.75	0.3	0.0
Node 15		0.3	0.6	0.75	0.8999999999999999	1.2	1.7999999999999998	1.95	2.1	2.25	2.4	2.55	2.4	2.55	2.85	2.7	2.7	2.85	2.4	2.7	2.85	3.75	4.35	5.1	9.0	9.45	8.7	9.0	8.85	8.55	8.7	8.85	8.7	7.199999999999999	6.0	4.65	3.45	3.3000000000000003	3.5999999999999996	3.5999999999999996	3.9	3.9	3.45	2.7	3.15	3.0	3.15	3.75	4.2	3.9	5.1	4.8	4.65	4.65	4.95	5.1	4.8	4.95	4.5	4.35	3.9	4.05	3.0	3.15	3.15	2.85	2.4	2.25	3.75	6.0	5.1	3.75	2.85	1.6500000000000001	0.8999999999999999	0.0
Node 18		0.15	0.3	0.8999999999999999	1.05	1.2	11.700000000000001	11.85	12.15	12.3	12.6	13.350000000000001	12.3	11.1	10.2	8.25	6.0	4.95	3.3000000000000003	3.3000000000000003	4.65	4.95	4.8	4.2	4.65	3.9	3.5999999999999996	3.5999999999999996	3.75	3.5999999999999996	3.3000000000000003	3.45	2.85	2.7	3.3000000000000003	3.15	3.0	3.0	3.15	3.3000000000000003	3.3000000000000003	3.75	4.05	3.5999999999999996	3.9	3.9	3.45	3.5999999999999996	3.3000000000000003	3.45	3.3000000000000003	3.15	3.15	2.55	2.55	2.7	2.55	2.1	2.1	2.4	2.7	2.85	2.7	2.85	3.0	2.85	2.4	2.25	2.1	2.1	1.7999999999999998	1.35	1.05	0.6	0.6	0.3
Node 21		0.0	0.0	0.6	0.75	1.7999999999999998	4.05	4.65	6.6000000000000005	7.199999999999999	7.35	7.6499999999999995	7.6499999999999995	7.35	6.9	6.3	5.4	4.8	3.9	3.0	2.7	2.55	4.2	5.4	10.65	10.35	11.700000000000001	11.85	12.0	12.9	13.8	13.65	15.45	15.75	14.099999999999998	12.0	12.9	12.6	10.95	10.35	9.75	9.0	7.8	7.049999999999999	14.549999999999999	12.9	11.55	10.5	8.85	7.95	7.8	7.049999999999999	6.15	4.95	4.8	5.1	4.35	4.8	5.4	5.4	5.7	7.199999999999999	7.199999999999999	8.1	8.25	7.8	6.6000000000000005	5.4	4.65	7.049999999999999	6.3	6.15	5.1	4.5	2.7	0.6
Node 1		0.6	0.8999999999999999	1.05	1.05	1.5	1.6500000000000001	1.6500000000000001	1.6500000000000001	1.7999999999999998	2.1	2.25	2.25	2.55	2.55	2.7	3.0	2.85	3.0	3.45	3.45	3.5999999999999996	3.3000000000000003	3.5999999999999996	3.45	3.3000000000000003	3.3000000000000003	3.15	3.15	3.15	3.45	3.3000000000000003	3.5999999999999996	3.45	3.5999999999999996	3.45	3.3000000000000003	3.0	3.15	3.0	2.7	2.7	2.25	2.1	1.95	2.4	2.55	2.7	2.85	3.0	2.7	3.0	3.3000000000000003	3.5999999999999996	4.05	4.05	4.05	3.9	3.9	3.5999999999999996	3.75	3.5999999999999996	3.5999999999999996	3.5999999999999996	3.3000000000000003	2.55	2.1	1.95	1.6500000000000001	1.35	1.05	0.8999999999999999	0.6	0.44999999999999996	0.3	0.0
Node 17		0.8999999999999999	1.2	1.2	1.5	1.5	1.7999999999999998	2.25	2.7	2.7	2.85	3.3000000000000003	3.0	2.85	2.85	3.0	2.85	3.15	3.15	2.7	2.25	2.55	2.55	2.4	2.25	2.55	2.25	2.1	1.95	2.1	1.7999999999999998	1.95	2.1	1.7999999999999998	1.7999999999999998	2.1	2.1	1.95	1.95	2.1	2.25	2.1	2.1	2.25	2.25	2.7	2.7	2.4	2.4	2.1	2.4	2.4	2.4	2.55	2.7	2.7	2.7	2.4	2.1	2.1	2.1	2.55	2.25	2.55	2.25	1.95	1.6500000000000001	1.5	1.35	1.6500000000000001	1.5	1.35	1.2	0.75	0.6	0.0
Node 20		0.6	0.75	0.8999999999999999	1.05	1.2	1.6500000000000001	3.45	3.5999999999999996	6.0	6.45	6.6000000000000005	6.0	5.1	4.95	4.8	4.35	3.9	3.15	2.85	2.85	2.85	2.55	2.4	2.55	2.7	2.85	2.7	2.4	2.55	2.1	2.1	1.95	1.95	1.7999999999999998	2.1	6.75	6.6000000000000005	5.7	5.7	5.55	5.55	5.25	4.95	4.05	3.15	2.85	2.7	2.4	2.85	3.15	3.3000000000000003	3.45	3.45	3.5999999999999996	3.9	4.05	4.5	4.2	4.2	4.05	3.45	3.75	3.75	3.75	3.45	3.15	2.85	2.55	2.25	2.1	1.7999999999999998	1.6500000000000001	1.5	1.05	0.44999999999999996
Node 30		0.75	0.8999999999999999	1.05	1.6500000000000001	1.95	2.4	2.4	2.55	2.85	3.0	3.3000000000000003	2.85	2.85	3.15	3.3000000000000003	3.0	2.85	2.55	3.0	3.0	2.85	3.0	3.0	3.0	3.0	2.7	2.7	2.85	3.0	3.0	3.0	3.15	3.0	2.7	2.4	2.4	2.4	2.25	2.25	2.1	2.25	2.25	2.1	1.95	2.1	2.1	2.25	2.1	1.95	1.95	1.95	1.7999999999999998	1.35	1.5	1.5	1.6500000000000001	1.7999999999999998	1.7999999999999998	1.95	1.95	2.25	2.4	2.4	2.4	2.4	2.1	1.7999999999999998	1.5	1.2	1.2	0.8999999999999999	0.8999999999999999	0.6	0.3	0.0
Node 31		0.75	0.8999999999999999	0.8999999999999999	1.05	1.95	3.0	4.65	5.55	6.15	6.75	7.049999999999999	7.049999999999999	6.75	6.45	6.3	6.15	6.0	5.1	4.2	3.3000000000000003	2.85	2.4	2.4	2.25	2.25	2.55	2.4	2.7	2.85	2.85	3.3000000000000003	4.05	4.2	4.35	4.5	4.5	4.65	4.65	4.5	4.5	4.5	4.8	4.5	8.1	8.25	7.95	10.05	10.95	10.65	10.5	10.5	10.05	9.75	9.3	9.15	8.7	8.4	7.8	5.7	4.95	4.5	3.9	3.5999999999999996	3.45	2.7	2.4	1.7999999999999998	3.0	7.199999999999999	5.7	4.35	3.75	3.0	1.95	0.44999999999999996
Node 3		0.44999999999999996	0.44999999999999996	0.75	0.8999999999999999	1.05	24.0	27.450000000000003	27.6	27.6	27.900000000000002	28.199999999999996	25.8	21.6	18.45	14.7	11.1	8.25	3.75	1.95	2.25	2.85	2.85	2.7	2.55	2.85	2.85	2.85	3.0	3.3000000000000003	3.75	3.3000000000000003	3.45	2.85	2.85	2.7	2.85	2.55	2.55	2.85	2.7	2.4	1.7999999999999998	1.6500000000000001	1.6500000000000001	1.95	1.7999999999999998	2.7	3.45	3.9	4.2	3.75	4.05	4.35	4.35	4.65	4.5	4.2	4.05	3.5999999999999996	2.85	2.85	2.4	2.4	2.1	1.7999999999999998	1.7999999999999998	1.35	4.8	7.199999999999999	6.45	5.25	3.5999999999999996	2.1	1.05	0.44999999999999996
Node 24		0.15	0.44999999999999996	0.75	1.2	4.65	13.05	13.5	13.5	13.65	13.65	13.8	12.75	10.8	8.7	7.6499999999999995	5.4	3.45	2.25	2.1	2.25	2.4	2.85	4.65	4.5	4.05	4.5	3.75	3.45	3.3000000000000003	3.15	3.0	3.0	2.7	2.55	3.15	3.0	3.45	3.15	3.45	3.5999999999999996	3.75	3.9	4.05	3.9	3.9	3.3000000000000003	3.0	3.15	2.7	2.55	2.25	1.95	1.7999999999999998	1.7999999999999998	1.6500000000000001	1.7999999999999998	1.7999999999999998	1.6500000000000001	1.6500000000000001	1.6500000000000001	1.7999999999999998	1.7999999999999998	1.95	1.95	1.7999999999999998	1.5	1.35	1.05	0.8999999999999999	0.8999999999999999	0.6	0.44999999999999996	0.3	0.44999999999999996	0.15
Node 27		0.44999999999999996	0.75	0.8999999999999999	1.2	1.7999999999999998	2.85	3.45	4.35	4.35	4.5	4.8	4.65	4.95	4.5	4.65	4.8	4.65	3.75	3.5999999999999996	3.0	3.45	3.9	3.5999999999999996	3.45	3.15	3.0	2.7	2.55	2.55	3.0	3.45	3.5999999999999996	3.45	3.15	3.75	4.05	4.35	4.35	4.5	4.35	4.35	4.05	4.05	3.9	3.5999999999999996	3.45	2.85	2.85	2.55	2.7	2.4	2.7	2.7	2.55	2.1	2.4	2.85	2.85	3.15	2.85	3.15	3.0	3.0	2.55	2.4	2.4	2.25	1.7999999999999998	1.35	1.2	0.8999999999999999	0.75	0.3	0.15	0.0
Node 9		0.75	0.75	1.05	1.05	2.7	3.5999999999999996	3.9	4.35	5.25	5.4	5.8500000000000005	5.7	5.7	5.25	4.8	4.5	4.2	6.9	6.15	5.25	4.65	4.35	4.5	4.65	3.5999999999999996	3.5999999999999996	3.9	3.3000000000000003	3.45	3.45	3.75	3.9	4.05	3.9	3.5999999999999996	3.15	3.45	3.15	3.0	2.85	2.7	2.7	3.15	3.5999999999999996	4.5	5.25	5.4	5.55	5.55	5.7	5.25	5.1	4.5	4.05	4.05	3.75	3.45	3.0	3.0	3.3000000000000003	3.3000000000000003	3.3000000000000003	3.45	3.3000000000000003	3.15	3.0	2.85	2.55	2.55	2.25	1.7999999999999998	1.5	1.6500000000000001	5.7	1.5
Node 2		0.0	0.44999999999999996	0.6	0.75	1.2	1.35	1.7999999999999998	2.1	2.4	2.55	2.55	2.55	3.0	2.85	2.7	3.3000000000000003	3.3000000000000003	3.45	3.0	3.15	3.5999999999999996	3.9	4.65	5.8500000000000005	5.55	5.8500000000000005	5.8500000000000005	5.25	4.8	4.8	5.55	5.7	4.95	5.1	4.5	3.45	3.15	2.7	3.0	3.3000000000000003	3.15	2.85	2.1	3.9	3.9	3.45	3.15	3.3000000000000003	3.5999999999999996	3.9	4.35	4.65	5.1	5.1	4.95	4.65	4.65	4.95	4.65	4.35	3.9	3.3000000000000003	2.7	2.25	1.6500000000000001	1.35	1.2	1.2	3.15	2.7	2.1	1.7999999999999998	1.6500000000000001	1.2	0.44999999999999996
Node 32		0.6	0.8999999999999999	0.8999999999999999	1.2	4.65	5.4	7.95	8.4	8.85	9.15	9.6	9.0	7.5	6.9	6.3	4.5	4.05	3.75	4.05	3.75	3.9	3.9	3.5999999999999996	3.5999999999999996	4.35	3.9	5.7	5.7	5.8500000000000005	5.55	5.55	5.4	5.4	5.4	5.4	5.1	4.65	4.35	3.3000000000000003	3.0	2.7	2.85	2.85	3.0	2.7	2.55	2.55	2.25	2.55	2.4	2.25	2.4	2.4	2.4	2.4	2.55	2.55	2.4	2.4	2.55	2.1	2.4	2.4	2.1	1.95	1.6500000000000001	1.5	1.2	0.8999999999999999	0.8999999999999999	0.6	0.44999999999999996	0.44999999999999996	0.15	0.0
Node 22		0.6	0.8999999999999999	0.8999999999999999	1.2	1.35	1.5	1.95	2.1	2.25	2.4	2.85	3.5999999999999996	3.5999999999999996	3.5999999999999996	3.9	3.75	3.9	3.9	3.45	3.5999999999999996	3.5999999999999996	4.2	4.5	4.35	4.05	4.8	4.8	5.4	5.55	5.7	5.8500000000000005	6.0	6.0	6.0	5.4	4.8	4.65	4.65	4.35	4.2	4.2	4.05	4.2	4.2	5.1	4.95	5.55	5.4	8.7	8.25	8.1	8.1	7.8	8.1	7.95	7.6499999999999995	7.199999999999999	6.75	5.7	4.95	4.65	4.8	5.25	4.95	4.65	3.9	3.15	6.15	5.4	4.05	3.5999999999999996	2.85	2.25	1.5	0.44999999999999996
Node 23		0.75	0.75	0.75	0.8999999999999999	1.2	5.25	5.25	5.55	5.7	5.7	5.8500000000000005	5.55	4.65	4.35	3.9	3.15	2.1	2.4	2.55	7.6499999999999995	6.9	7.199999999999999	7.049999999999999	7.049999999999999	6.75	6.15	5.8500000000000005	6.15	6.0	6.75	6.75	6.9	7.5	7.199999999999999	7.35	6.9	6.75	6.6000000000000005	6.6000000000000005	5.7	5.25	4.35	7.8	10.95	10.35	9.9	9.15	8.7	8.1	7.8	7.5	6.45	5.8500000000000005	5.25	4.35	4.05	4.2	3.75	3.5999999999999996	3.15	3.0	2.25	2.25	2.55	2.25	2.25	2.25	2.4	3.3000000000000003	2.4	2.1	1.6500000000000001	0.8999999999999999	0.75	0.3
Node 19		0.3	0.75	1.2	1.5	1.7999999999999998	12.9	13.5	14.249999999999998	14.549999999999999	14.85	15.299999999999999	15.45	13.200000000000001	11.55	9.9	7.95	6.0	4.8	4.65	4.65	5.1	5.25	4.95	4.65	4.95	5.1	5.25	5.4	5.55	5.1	5.1	4.2	3.5999999999999996	3.45	3.3000000000000003	3.0	2.7	2.1	1.7999999999999998	1.95	1.95	1.95	1.7999999999999998	2.25	2.7	2.55	2.7	3.0	3.15	3.75	3.75	3.5999999999999996	3.9	3.9	3.9	3.45	2.85	3.0	2.85	2.55	2.85	2.4	2.25	2.1	1.5	1.5	1.35	1.35	1.35	0.8999999999999999	0.8999999999999999	0.75	0.3	0.15	0.0
Node 28		0.3	0.3	0.6	0.8999999999999999	2.1	11.85	12.0	12.3	13.05	13.350000000000001	13.8	12.9	10.95	9.75	7.8	6.3	4.2	4.2	4.2	8.25	6.9	6.6000000000000005	5.55	5.8500000000000005	5.25	4.95	4.5	4.2	4.05	3.45	2.7	3.45	3.9	4.35	4.95	4.8	4.95	5.1	5.25	5.7	5.8500000000000005	6.0	6.3	5.55	5.4	5.25	4.8	5.4	5.25	5.1	5.7	4.95	4.65	4.65	4.8	4.8	4.5	4.2	3.75	3.45	3.75	3.5999999999999996	3.3000000000000003	3.15	3.0	2.7	2.1	4.65	4.35	4.05	3.0	2.25	1.2	0.8999999999999999	0.15
Node 38		0.3	0.6	0.8999999999999999	0.8999999999999999	1.35	9.9	10.5	10.5	10.65	11.700000000000001	11.85	11.4	10.5	9.15	8.1	6.45	5.4	4.8	4.5	4.65	4.8	9.0	9.3	10.35	10.05	9.45	9.0	8.55	8.1	8.25	8.1	7.8	7.8	6.6000000000000005	6.3	5.1	5.25	6.0	6.15	6.3	6.3	5.25	4.5	14.099999999999998	14.549999999999999	13.5	11.700000000000001	11.55	10.5	9.45	7.95	6.9	5.7	4.95	3.9	3.5999999999999996	3.15	2.55	2.55	2.7	2.4	1.95	1.6500000000000001	1.2	1.05	0.75	3.0	4.5	4.65	4.2	3.15	2.55	1.7999999999999998	1.5	0.6
Node 11		0.75	1.05	1.2	1.2	1.35	1.35	1.5	1.6500000000000001	2.25	2.85	3.45	2.85	3.0	2.85	2.85	3.15	3.15	3.3000000000000003	3.3000000000000003	3.0	2.85	2.55	2.1	2.25	2.4	2.55	2.7	2.85	3.3000000000000003	3.15	3.3000000000000003	3.45	3.5999999999999996	3.45	3.3000000000000003	3.45	3.3000000000000003	3.15	3.45	3.0	2.7	2.85	2.85	2.85	2.7	2.55	2.85	2.7	2.7	2.7	2.4	2.7	2.55	2.55	2.25	2.25	1.95	2.1	1.95	2.1	1.95	2.25	2.1	1.95	1.7999999999999998	1.6500000000000001	1.6500000000000001	1.5	1.5	1.35	1.2	0.8999999999999999	0.75	0.3	0.15
Node 6		0.3	0.75	0.8999999999999999	1.05	1.35	3.75	4.05	4.65	5.1	5.25	5.8500000000000005	5.8500000000000005	5.55	5.4	5.4	5.25	5.1	4.35	8.1	18.0	20.549999999999997	20.549999999999997	19.2	20.25	19.2	18.6	17.549999999999997	17.549999999999997	16.05	14.249999999999998	13.350000000000001	13.350000000000001	12.6	10.35	10.35	9.3	6.6000000000000005	6.15	5.55	5.7	6.0	6.6000000000000005	6.3	6.0	5.7	5.1	4.35	4.65	4.5	4.65	4.65	4.05	3.75	3.15	4.05	4.2	4.05	4.2	4.35	4.05	4.35	4.5	4.8	4.35	3.5999999999999996	3.0	2.85	2.55	2.25	2.1	1.6500000000000001	1.2	0.75	0.44999999999999996	0.0
Node 7		0.3	0.6	0.6	0.8999999999999999	4.05	4.65	23.7	23.849999999999998	24.6	24.75	24.75	22.35	18.45	15.75	13.05	10.05	7.95	4.5	3.75	7.35	7.049999999999999	11.700000000000001	13.350000000000001	16.05	16.650000000000002	16.2	16.5	15.75	14.399999999999999	14.249999999999998	13.950000000000001	13.05	11.25	7.8	6.45	5.1	4.2	3.9	3.15	3.3000000000000003	3.0	2.85	2.7	8.25	8.1	7.8	6.6000000000000005	6.3	5.7	6.0	5.25	4.65	4.2	3.3000000000000003	2.55	2.85	2.7	2.25	2.55	2.85	2.7	2.85	2.85	2.85	2.7	2.7	2.55	2.25	2.1	1.95	1.6500000000000001	1.35	0.8999999999999999	0.44999999999999996	0.15
Node 36		0.44999999999999996	0.44999999999999996	0.8999999999999999	1.05	1.2	1.95	5.1	5.7	6.15	6.45	6.45	10.2	9.15	9.3	12.45	10.8	9.6	8.85	8.25	7.95	7.049999999999999	7.049999999999999	7.35	6.15	6.0	5.55	4.8	4.5	6.3	5.4	5.25	4.95	4.95	4.5	5.8500000000000005	6.45	6.3	6.0	6.15	6.15	6.15	6.15	6.3	7.35	10.2	9.45	9.45	9.45	10.95	10.05	9.45	8.7	8.25	7.6499999999999995	7.199999999999999	6.9	6.45	6.3	5.7	5.1	3.75	4.2	3.75	6.3	6.0	5.55	6.3	5.55	7.049999999999999	5.8500000000000005	4.65	3.15	2.25	1.2	0.3
Node 39		0.15	0.6	0.8999999999999999	1.6500000000000001	2.85	3.5999999999999996	4.5	4.65	4.65	5.4	5.7	5.55	5.8500000000000005	5.4	4.95	4.5	3.9	4.05	3.3000000000000003	13.350000000000001	13.05	11.85	10.8	10.35	9.45	8.55	7.8	6.3	6.3	5.55	5.25	4.8	4.2	3.5999999999999996	3.45	3.3000000000000003	3.45	3.3000000000000003	3.3000000000000003	3.45	3.3000000000000003	3.15	3.15	2.55	2.85	2.85	2.7	2.7	2.85	3.15	3.45	3.3000000000000003	3.15	3.3000000000000003	3.0	3.15	2.7	2.7	3.3000000000000003	3.3000000000000003	2.85	2.55	2.25	2.1	2.1	1.7999999999999998	1.6500000000000001	1.35	1.5	1.5	2.1	1.5	1.2	5.8500000000000005	1.5
Node 4		0.15	0.15	0.75	0.75	0.8999999999999999	4.95	4.95	4.95	5.1	5.25	5.7	5.8500000000000005	5.4	4.8	3.75	3.45	2.85	3.0	6.9	40.5	52.2	53.25	54.0	73.2	70.5	65.25	60.150000000000006	57.75	51.74999999999999	68.25	63.3	56.85	49.8	42.75	35.099999999999994	27.450000000000003	22.5	17.4	11.85	7.35	3.45	2.25	2.25	22.95	38.1	40.35	44.7	46.35	43.05	44.25	44.25	39.45	34.949999999999996	29.849999999999998	24.9	19.650000000000002	15.45	12.45	9.75	7.8	6.3	4.05	3.15	2.7	2.1	1.95	1.7999999999999998	1.6500000000000001	1.6500000000000001	1.5	1.05	12.3	10.65	6.0	1.5
Node 16		0.3	0.44999999999999996	0.44999999999999996	0.6	0.75	1.5	1.6500000000000001	1.95	2.1	2.4	2.7	2.85	2.7	2.7	2.7	2.85	2.55	2.1	2.1	6.15	5.8500000000000005	5.1	4.65	4.8	4.35	4.35	4.05	3.5999999999999996	4.05	4.05	4.05	3.15	3.0	3.15	3.15	3.0	3.45	3.15	3.15	3.0	2.55	2.25	2.4	14.249999999999998	15.299999999999999	14.549999999999999	15.6	15.299999999999999	13.8	15.75	13.8	12.3	11.1	9.0	7.049999999999999	6.3	6.3	5.55	3.9	3.0	3.0	2.4	2.55	2.25	2.1	1.95	1.7999999999999998	3.9	7.5	6.6000000000000005	5.4	5.4	4.2	2.4	0.75
Node 40		0.0	0.0	0.0	0.0	5.25	19.950000000000003	20.4	21.45	21.6	21.6	21.6	19.650000000000002	16.2	13.350000000000001	10.65	7.35	4.5	1.5	1.05	0.15	0.0	0.0	0.0	0.0	0.0	0.0	0.0	0.0	0.0	0.0	0.0	0.0	0.0	0.0	0.0	0.0	0.0	0.0	0.0	0.0	0.0	0.0	0.0	0.0	0.0	0.0	0.0	0.0	0.0	0.0	0.0	0.0	0.0	0.0	0.0	0.0	0.0	0.0	0.0	0.0	0.0	0.0	0.0	0.0	0.0	0.0	0.0	0.0	0.0	0.0	0.0	0.0	0.0	0.0	0.0
Node 25		0.0	0.3	0.3	0.75	1.05	1.35	1.35	1.5	1.7999999999999998	2.25	2.55	2.85	3.3000000000000003	3.3000000000000003	3.5999999999999996	3.15	3.15	3.3000000000000003	3.3000000000000003	3.5999999999999996	3.45	3.15	3.3000000000000003	3.45	3.3000000000000003	3.0	2.7	2.85	2.7	2.7	2.7	2.25	2.4	2.55	2.4	2.25	2.1	2.25	2.25	2.4	2.55	2.55	3.15	3.75	4.2	3.75	3.9	3.9	4.05	3.9	3.9	3.9	3.75	3.75	3.3000000000000003	3.0	2.55	3.0	2.85	3.0	2.85	3.15	3.15	2.85	2.7	2.55	2.4	2.1	1.7999999999999998	1.35	1.05	0.75	0.44999999999999996	5.8500000000000005	1.5
Node 26		0.75	0.8999999999999999	1.05	1.5	2.55	2.85	3.3000000000000003	3.45	3.75	4.05	4.2	3.9	3.45	3.75	3.45	3.15	2.7	2.7	2.4	2.55	2.55	2.4	2.25	2.25	1.95	1.6500000000000001	1.7999999999999998	2.25	2.25	2.55	2.7	3.45	3.5999999999999996	3.5999999999999996	3.9	3.9	4.35	4.35	3.9	3.45	3.45	3.3000000000000003	3.45	2.25	2.1	2.1	1.7999999999999998	2.1	1.7999999999999998	1.7999999999999998	2.1	2.1	2.1	1.7999999999999998	1.7999999999999998	1.95	1.95	1.7999999999999998	2.4	2.4	2.55	2.55	2.25	2.4	2.25	2.25	1.95	1.7999999999999998	1.6500000000000001	1.6500000000000001	1.05	0.75	0.44999999999999996	0.44999999999999996	0.15
Node 35		0.6	0.6	0.75	1.05	2.1	5.55	5.7	6.15	6.15	6.3	6.45	5.4	5.1	4.65	4.95	3.75	2.7	1.95	2.25	1.95	1.95	2.25	2.4	2.7	3.0	3.5999999999999996	3.45	3.9	4.2	7.049999999999999	6.9	7.049999999999999	7.049999999999999	6.9	6.6000000000000005	6.6000000000000005	6.15	5.25	4.8	4.05	3.45	3.45	3.45	3.5999999999999996	3.5999999999999996	3.5999999999999996	3.5999999999999996	3.45	3.45	3.0	2.7	2.7	2.55	2.1	2.1	1.95	2.1	1.7999999999999998	1.7999999999999998	1.6500000000000001	1.6500000000000001	1.7999999999999998	1.7999999999999998	1.6500000000000001	1.5	1.35	1.05	0.8999999999999999	0.75	0.75	0.75	0.75	0.44999999999999996	0.3	0.0
Node 37		0.75	1.05	1.2	1.35	3.0	3.5999999999999996	3.9	4.35	4.5	4.65	7.199999999999999	7.5	6.75	6.3	6.3	6.0	5.55	5.25	5.4	5.1	4.2	3.9	4.05	3.5999999999999996	4.05	4.8	4.2	4.2	3.9	3.9	3.3000000000000003	3.45	3.75	3.75	3.75	3.9	3.3000000000000003	2.7	2.7	2.55	2.55	2.4	2.55	2.4	2.25	2.4	2.4	2.25	2.7	2.7	2.85	3.0	3.3000000000000003	3.45	3.3000000000000003	3.15	3.3000000000000003	3.15	3.15	3.0	3.0	2.7	2.4	2.25	1.95	1.6500000000000001	1.6500000000000001	1.6500000000000001	1.35	0.75	0.6	0.44999999999999996	0.0	0.0	0.0
Node 33		0.75	1.05	1.05	1.05	1.35	3.3000000000000003	3.5999999999999996	4.5	4.8	4.8	4.95	4.35	4.35	3.9	4.35	4.2	3.75	3.15	3.0	2.1	2.1	2.25	7.5	19.5	21.0	21.75	24.3	24.9	32.25	41.699999999999996	51.449999999999996	55.800000000000004	51.6	45.9	39.900000000000006	33.0	28.499999999999996	23.849999999999998	18.75	14.549999999999999	10.35	6.45	3.3000000000000003	2.4	8.7	11.1	32.85	34.5	45.300000000000004	42.3	39.45	36.3	31.95	28.499999999999996	23.400000000000002	19.35	15.45	13.5	9.3	6.3	3.5999999999999996	3.75	3.0	2.55	2.4	2.25	1.95	1.7999999999999998	3.9	6.9	12.15	10.35	8.25	4.65	1.35
Node 13		0.3	0.3	0.44999999999999996	0.8999999999999999	1.35	1.35	1.6500000000000001	1.6500000000000001	1.95	2.1	2.25	2.1	2.1	2.1	2.25	1.95	1.95	2.1	2.1	2.25	1.95	2.4	2.55	2.55	2.4	2.85	2.7	2.7	2.55	2.4	2.7	3.15	3.45	2.85	2.55	2.7	2.85	2.7	2.7	2.7	2.7	2.85	2.25	4.2	4.2	4.8	4.95	4.95	4.65	4.65	4.35	4.05	3.75	3.75	3.5999999999999996	3.45	3.15	3.15	3.15	2.7	2.85	2.85	2.85	2.55	2.4	2.1	1.7999999999999998	1.6500000000000001	2.1	1.35	1.2	1.2	0.75	0.15	0.0
