13 2.488815789473684
21 7.411184210526318
10 2.7809210526315784
18 4.255263157894739
11 2.3427631578947357
30 2.1750000000000007
34 3.2230263157894736
3 5.634868421052633
19 4.203947368421052
27 2.7907894736842107
40 2.475
6 7.245394736842105
35 3.467763157894736
5 3.248684210526315
9 3.9157894736842116
22 4.308552631578945
15 3.9098684210526313
26 2.471052631578948
28 5.064473684210523
29 3.903947368421051
37 3.6907894736842106
32 3.376973684210527
17 2.1513157894736836
24 4.006578947368421
7 6.471710526315791
4 20.40197368421053
12 2.376315789473685
16 4.819736842105264
38 6.2546052631578934
14 2.5519736842105267
31 4.618421052631579
23 5.151315789473683
36 5.994078947368423
0 2.61907894736842
2 3.3513157894736842
25 2.7236842105263164
1 2.6013157894736847
39 4.2631578947368425
8 4.914473684210527
20 2.666447368421053
33 14.534210526315789
