Message Drop for scenario SimBetHaggleInfocom_#DF_0.7
sim_time: 274883.0000

23	266
11	99
29	203
8	235
6	369
0	170
27	126
31	266
33	950
7	391
9	230
12	132
19	200
36	327
37	147
10	112
13	111
4	1461
35	147
1	110
38	355
18	188
28	262
21	388
39	266
25	172
15	190
3	322
20	141
2	156
14	107
34	134
30	92
40	136
17	93
24	183
32	146
5	157
22	216
16	324
26	111

