21	146
29	69
14	35
23	63
34	63
8	59
17	11
32	46
10	19
22	32
37	53
9	61
33	49
40	81
36	115
6	165
7	100
13	19
18	71
20	6
26	17
2	15
3	88
15	28
0	23
24	84
12	11
38	101
39	97
19	47
28	74
35	60
31	43
16	38
27	9
25	30
1	4
4	149
