21 35
29 8
14 16
23 13
34 12
8 14
17 1
32 19
22 14
37 20
9 14
33 5
40 26
36 30
6 40
7 29
13 5
18 14
20 3
26 3
2 4
3 19
15 9
0 3
24 21
12 6
38 17
39 26
19 5
28 21
35 15
31 11
16 5
27 2
25 5
1 3
4 54
