9	127
18	63
15	96
27	19
32	133
3	305
22	119
23	206
37	44
2	68
31	160
39	170
0	175
13	30
12	123
4	1458
16	236
19	158
40	140
33	962
24	139
10	13
26	17
34	26
21	281
8	123
35	53
25	78
5	64
36	304
14	1
29	78
6	245
20	148
38	290
17	4
7	358
28	138
