Node 6		0.3	0.75	0.8999999999999999	1.05	1.35	3.0	3.3000000000000003	3.9	4.35	4.5	5.1	5.25	5.1	5.1	5.1	4.95	4.95	4.35	8.1	16.8	19.8	19.35	18.0	17.7	16.8	16.35	15.45	15.6	14.399999999999999	12.6	12.0	12.0	11.700000000000001	9.9	10.05	9.15	6.6000000000000005	6.15	5.55	5.7	6.0	6.6000000000000005	6.3	6.0	5.7	5.1	4.35	4.65	4.5	4.65	4.65	4.05	3.75	3.15	4.05	4.2	4.05	4.2	4.35	4.05	4.35	4.5	4.8	4.35	3.5999999999999996	3.0	2.85	2.55	2.25	2.1	1.6500000000000001	1.2	0.75	0.44999999999999996	0.0
Node 7		0.3	0.6	0.6	0.8999999999999999	3.5999999999999996	4.2	28.499999999999996	28.65	29.4	29.549999999999997	29.549999999999997	26.1	21.6	18.0	14.399999999999999	10.8	8.1	4.5	3.75	8.1	7.5	12.3	13.65	16.2	16.35	15.9	16.35	15.75	14.399999999999999	14.399999999999999	14.099999999999998	13.5	11.55	7.5	6.45	5.1	4.2	3.9	3.15	3.3000000000000003	3.0	2.85	2.7	8.25	8.1	7.8	6.6000000000000005	6.3	5.7	6.0	5.25	4.65	4.2	3.3000000000000003	2.55	2.85	2.7	2.25	2.55	2.85	2.7	2.85	2.85	2.85	2.7	2.7	2.55	2.25	3.9	3.3000000000000003	2.7	2.1	1.5	0.75	0.15
Node 10		0.15	0.3	0.8999999999999999	0.8999999999999999	1.2	1.5	1.6500000000000001	1.7999999999999998	2.1	2.25	2.55	2.55	2.7	2.55	2.1	2.25	2.25	2.1	2.1	2.1	1.95	2.25	1.95	1.95	1.7999999999999998	1.95	2.1	2.25	2.1	2.4	2.55	2.55	2.4	2.1	2.4	2.4	2.4	2.4	2.25	2.4	2.4	2.1	2.25	2.1	2.1	2.25	2.25	2.55	2.55	2.7	2.7	2.55	2.7	2.85	3.0	3.45	3.75	4.35	3.9	4.05	4.35	4.35	4.5	4.35	4.05	3.75	3.15	2.7	2.4	2.25	2.4	1.95	1.05	0.6	0.15
Node 21		0.0	0.0	0.6	0.75	1.35	3.75	4.35	6.15	6.75	6.9	7.199999999999999	7.35	7.049999999999999	6.6000000000000005	6.15	5.55	4.95	4.05	3.0	2.7	2.55	4.5	5.55	9.15	9.0	10.35	10.65	10.95	12.15	13.200000000000001	13.200000000000001	15.15	15.6	13.950000000000001	11.85	13.05	12.75	11.1	10.5	9.9	9.15	7.95	7.049999999999999	14.549999999999999	12.9	11.55	10.5	8.85	7.8	7.8	7.049999999999999	6.15	4.95	4.95	5.25	4.5	4.95	5.55	5.55	5.8500000000000005	7.35	7.199999999999999	8.1	8.25	7.8	6.6000000000000005	5.4	4.65	7.199999999999999	8.25	7.95	6.45	5.4	3.15	0.75
Node 28		0.3	0.3	0.6	0.8999999999999999	2.1	12.3	12.45	12.75	13.5	13.8	14.249999999999998	13.200000000000001	10.65	9.3	7.6499999999999995	6.15	4.2	4.2	4.2	7.199999999999999	6.15	5.8500000000000005	4.95	5.25	4.95	4.8	4.5	4.35	4.05	3.45	2.7	3.45	3.9	4.35	4.95	4.8	4.95	5.1	5.25	5.7	5.8500000000000005	6.0	6.3	5.55	5.4	5.25	4.8	5.25	5.1	4.95	5.55	4.8	4.5	4.5	4.65	4.65	4.35	4.2	3.75	3.45	3.75	3.5999999999999996	3.3000000000000003	3.15	3.0	2.7	2.1	4.65	4.35	4.05	3.0	2.25	1.2	0.8999999999999999	0.15
Node 1		0.6	0.8999999999999999	1.05	1.05	1.5	1.6500000000000001	1.6500000000000001	1.6500000000000001	1.7999999999999998	2.1	2.25	2.25	2.55	2.55	2.7	3.0	2.85	3.0	3.45	3.45	3.5999999999999996	3.3000000000000003	3.5999999999999996	3.45	3.3000000000000003	3.3000000000000003	3.15	3.15	3.15	3.45	3.3000000000000003	3.5999999999999996	3.45	3.5999999999999996	3.45	3.3000000000000003	3.0	3.15	3.0	2.7	2.7	2.25	2.1	1.95	2.4	2.55	2.7	2.85	3.0	2.7	3.0	3.3000000000000003	3.5999999999999996	4.05	4.05	4.05	3.9	3.9	3.5999999999999996	3.75	3.5999999999999996	3.5999999999999996	3.5999999999999996	3.3000000000000003	2.55	2.1	1.95	1.6500000000000001	1.35	1.05	0.8999999999999999	0.6	0.44999999999999996	0.3	0.0
Node 11		0.75	1.05	1.2	1.2	1.35	1.35	1.5	1.6500000000000001	2.25	2.85	3.45	2.85	3.0	2.85	2.85	3.15	3.15	3.3000000000000003	3.3000000000000003	3.0	2.85	2.55	2.1	2.25	2.4	2.55	2.7	2.85	3.3000000000000003	3.15	3.3000000000000003	3.45	3.5999999999999996	3.45	3.3000000000000003	3.45	3.3000000000000003	3.15	3.45	3.0	2.7	2.85	2.85	2.85	2.7	2.55	2.85	2.7	2.7	2.7	2.4	2.7	2.55	2.55	2.25	2.25	1.95	2.1	1.95	2.1	1.95	2.25	2.1	1.95	1.7999999999999998	1.6500000000000001	1.6500000000000001	1.5	1.5	1.35	1.2	0.8999999999999999	0.75	0.3	0.15
Node 26		0.75	0.8999999999999999	1.05	1.5	2.55	3.0	3.3000000000000003	3.45	3.75	4.05	4.2	3.75	3.3000000000000003	3.5999999999999996	3.45	3.15	2.7	2.7	2.4	2.55	2.55	2.4	2.25	2.25	1.95	1.6500000000000001	1.7999999999999998	2.25	2.25	2.55	2.7	3.45	3.5999999999999996	3.5999999999999996	3.9	3.9	4.35	4.35	3.9	3.45	3.45	3.3000000000000003	3.45	2.25	2.1	2.1	1.7999999999999998	2.1	1.7999999999999998	1.7999999999999998	2.1	2.1	2.1	1.7999999999999998	1.7999999999999998	1.95	1.95	1.7999999999999998	2.4	2.4	2.55	2.55	2.25	2.4	2.25	2.25	1.95	1.7999999999999998	1.6500000000000001	1.6500000000000001	1.05	0.75	0.44999999999999996	0.6	0.15
Node 15		0.3	0.6	0.75	0.8999999999999999	1.2	1.7999999999999998	1.95	2.1	2.25	2.4	2.55	2.4	2.55	2.85	2.7	2.7	2.85	2.4	2.7	2.85	3.9	4.8	6.75	9.6	9.75	9.15	9.45	9.3	9.15	9.3	9.45	9.15	7.6499999999999995	5.8500000000000005	4.65	3.15	3.15	3.45	3.45	3.75	3.75	3.3000000000000003	2.7	3.15	2.85	3.0	3.45	3.9	3.5999999999999996	4.8	4.65	4.5	4.5	4.8	4.95	4.65	4.8	4.5	4.35	3.9	4.05	3.0	3.15	3.15	2.85	2.4	2.25	3.5999999999999996	6.3	5.25	3.75	2.85	1.6500000000000001	0.8999999999999999	0.0
Node 17		0.8999999999999999	1.2	1.2	1.5	1.5	1.7999999999999998	2.25	2.7	2.7	2.85	3.3000000000000003	3.0	2.85	2.85	3.0	2.85	3.15	3.15	2.7	2.25	2.55	2.55	2.4	2.25	2.55	2.25	2.1	1.95	2.1	1.7999999999999998	1.95	2.1	1.7999999999999998	1.7999999999999998	2.1	2.1	1.95	1.95	2.1	2.25	2.1	2.1	2.25	2.25	2.7	2.7	2.4	2.4	2.4	2.7	2.7	2.7	2.85	3.0	3.0	3.0	2.7	2.4	2.4	2.4	2.55	2.25	2.55	2.25	1.95	1.6500000000000001	1.5	1.35	1.6500000000000001	1.5	1.35	1.2	0.75	0.6	0.0
Node 0		0.3	0.75	0.8999999999999999	1.05	2.7	22.05	22.35	22.5	22.95	23.400000000000002	23.549999999999997	20.849999999999998	16.950000000000003	14.249999999999998	10.35	7.6499999999999995	4.5	2.7	2.7	9.45	7.95	7.8	6.75	6.6000000000000005	5.8500000000000005	5.8500000000000005	5.8500000000000005	5.55	5.25	4.95	4.5	3.3000000000000003	3.15	2.55	2.55	2.4	1.95	1.35	1.05	1.2	1.35	1.2	1.5	1.2	1.5	1.6500000000000001	1.6500000000000001	1.95	2.1	2.1	2.1	1.95	1.95	1.95	1.7999999999999998	2.1	2.1	2.4	2.25	2.1	2.4	2.4	2.4	2.25	2.1	2.1	1.95	1.6500000000000001	1.35	0.8999999999999999	0.8999999999999999	0.6	0.15	0.0	0.0
Node 4		0.15	0.15	0.75	0.75	0.8999999999999999	6.0	6.0	6.0	6.15	6.3	6.75	6.75	6.15	5.7	4.2	3.9	2.85	3.0	7.049999999999999	43.95	54.300000000000004	55.35	55.95	74.25	71.39999999999999	65.85	60.9	58.5	52.05	68.85	64.05	57.45	50.24999999999999	42.9	35.099999999999994	27.450000000000003	22.650000000000002	17.4	11.85	7.35	3.45	2.25	2.25	25.05	40.5	42.15	46.050000000000004	47.25	43.8	46.35	46.800000000000004	41.699999999999996	37.2	31.95	26.85	21.6	17.25	13.5	10.5	8.25	6.3	4.05	3.15	2.7	2.1	1.95	1.7999999999999998	1.6500000000000001	1.6500000000000001	1.5	1.05	14.85	12.0	7.049999999999999	1.6500000000000001
Node 31		0.75	0.8999999999999999	0.8999999999999999	1.05	1.95	4.65	5.8500000000000005	6.75	7.35	7.95	8.25	8.1	7.6499999999999995	7.049999999999999	7.049999999999999	6.75	6.3	5.1	4.2	3.3000000000000003	2.85	2.4	2.4	2.25	2.25	2.55	2.4	2.7	2.85	2.85	3.3000000000000003	4.2	4.35	4.5	4.65	4.65	4.8	4.8	4.65	4.65	4.65	4.95	4.35	7.8	7.95	7.6499999999999995	10.5	11.25	10.95	10.35	10.35	9.9	9.75	9.3	9.15	8.7	8.4	7.8	5.4	4.8	4.35	3.9	3.5999999999999996	3.45	2.7	2.4	1.7999999999999998	3.0	7.6499999999999995	6.15	4.8	4.05	3.3000000000000003	2.25	0.44999999999999996
Node 37		0.75	1.05	1.2	1.35	2.4	2.85	3.15	3.5999999999999996	3.75	3.9	6.15	6.6000000000000005	6.0	5.8500000000000005	6.0	5.7	5.4	5.25	5.4	4.95	4.05	3.75	3.9	3.45	3.9	4.65	4.05	4.05	3.9	3.9	3.3000000000000003	3.45	3.75	3.75	3.75	3.9	3.3000000000000003	2.7	2.7	2.55	2.55	2.4	2.55	2.4	2.25	2.4	2.4	2.25	2.7	2.7	2.85	3.0	3.3000000000000003	3.45	3.3000000000000003	3.15	3.3000000000000003	3.15	3.15	3.0	3.0	2.7	2.4	2.25	1.95	1.6500000000000001	1.6500000000000001	1.6500000000000001	1.35	0.75	0.6	0.44999999999999996	0.0	0.0	0.0
Node 12		0.0	0.3	0.8999999999999999	1.05	1.5	1.5	1.7999999999999998	2.1	2.1	2.25	2.55	2.55	2.7	2.7	2.1	2.25	2.1	2.25	1.95	1.6500000000000001	1.6500000000000001	1.7999999999999998	1.6500000000000001	1.7999999999999998	1.95	1.6500000000000001	1.6500000000000001	1.5	1.2	1.5	2.25	2.55	2.85	3.0	3.15	3.9	4.05	4.35	4.65	4.5	4.65	4.65	4.05	3.75	3.9	3.9	3.75	3.15	2.7	2.55	2.4	2.7	2.7	2.55	2.7	2.85	2.55	2.4	2.55	2.4	2.55	2.4	2.55	2.4	2.25	1.95	1.6500000000000001	13.8	16.950000000000003	15.15	12.3	9.6	6.0	3.45	0.8999999999999999
Node 19		0.3	0.75	1.2	1.5	1.7999999999999998	22.8	23.7	24.45	24.75	25.2	25.650000000000002	23.849999999999998	19.950000000000003	16.8	13.950000000000001	10.05	6.3	4.8	4.65	4.65	5.1	5.4	5.1	4.8	5.1	5.25	5.4	5.8500000000000005	6.15	5.7	5.7	4.8	4.2	3.9	3.75	3.45	3.15	2.55	2.25	2.1	1.95	1.95	1.7999999999999998	2.25	2.7	2.55	2.7	3.0	3.15	3.75	3.75	3.5999999999999996	3.9	3.9	3.9	3.45	2.85	3.0	2.85	2.55	2.85	2.4	2.25	2.1	1.5	1.5	1.35	1.35	1.35	0.8999999999999999	0.8999999999999999	0.75	0.3	0.15	0.0
Node 20		0.6	0.75	0.8999999999999999	1.05	1.2	1.95	3.3000000000000003	3.3000000000000003	9.75	10.2	10.35	9.45	7.35	6.75	6.3	5.1	4.05	3.3000000000000003	3.0	2.85	2.85	2.55	2.4	2.55	2.7	2.85	2.7	2.4	2.55	2.1	2.1	1.95	1.95	1.7999999999999998	2.1	12.45	11.85	10.05	9.3	8.55	7.8	6.45	5.4	4.5	3.45	3.0	2.85	2.4	2.85	3.15	3.3000000000000003	3.45	3.45	3.5999999999999996	3.9	4.05	4.5	4.2	4.2	4.05	3.45	3.75	3.75	3.75	3.45	3.15	2.85	2.55	4.95	4.5	3.9	3.3000000000000003	2.55	1.35	0.44999999999999996
Node 29		0.75	1.2	1.95	1.95	2.1	5.55	5.8500000000000005	6.0	6.45	7.35	7.6499999999999995	6.75	6.75	6.0	5.55	5.1	4.8	4.65	4.8	6.9	6.0	7.35	7.049999999999999	8.7	7.6499999999999995	7.35	6.45	6.3	5.55	4.8	3.75	3.5999999999999996	3.45	2.85	2.55	2.1	2.55	3.15	3.5999999999999996	3.45	3.45	3.5999999999999996	4.05	3.75	3.75	3.5999999999999996	3.45	3.45	3.5999999999999996	3.15	2.4	2.4	2.25	2.1	1.6500000000000001	2.4	2.4	2.55	2.4	2.7	2.55	2.55	2.7	2.4	2.25	2.1	1.95	1.2	1.05	0.75	0.75	0.3	0.15	0.15	0.0
Node 9		0.75	0.75	1.05	1.05	3.5999999999999996	4.65	4.95	5.4	6.45	6.6000000000000005	7.049999999999999	6.75	6.45	5.8500000000000005	5.25	4.8	4.35	7.049999999999999	6.3	5.25	4.65	4.35	4.5	4.65	3.5999999999999996	3.5999999999999996	3.9	3.3000000000000003	3.45	3.45	3.75	3.9	4.05	3.9	3.5999999999999996	3.15	3.45	3.15	3.0	2.85	2.7	2.7	3.15	3.45	4.35	4.95	5.1	5.25	5.25	5.4	4.95	4.8	4.2	4.05	4.05	3.75	3.45	3.0	3.0	3.3000000000000003	3.3000000000000003	3.3000000000000003	3.45	3.3000000000000003	3.15	3.0	2.85	2.55	2.4	2.1	1.6500000000000001	1.2	1.35	6.75	1.6500000000000001
Node 36		0.44999999999999996	0.44999999999999996	0.8999999999999999	1.05	1.2	1.95	17.4	18.0	18.45	18.75	18.75	21.75	18.45	16.35	16.05	12.75	9.6	8.85	8.25	7.6499999999999995	6.75	6.75	6.75	5.7	5.55	5.1	4.35	4.2	6.0	5.25	5.1	4.95	4.95	4.5	5.8500000000000005	6.45	6.3	6.0	6.15	6.15	6.15	6.15	6.3	7.35	10.2	9.45	10.05	10.05	11.700000000000001	10.8	10.05	9.3	8.85	8.25	7.8	7.5	7.049999999999999	6.9	5.8500000000000005	5.1	3.75	4.2	3.75	6.45	6.15	5.7	6.3	5.55	7.049999999999999	5.8500000000000005	4.65	3.15	2.25	1.2	0.3
Node 8		0.44999999999999996	0.75	1.05	1.05	1.2	1.35	1.95	2.55	3.3000000000000003	3.5999999999999996	3.75	3.75	3.9	3.9	3.5999999999999996	4.2	4.8	4.95	4.65	4.65	4.8	5.55	6.75	11.1	11.1	11.55	11.700000000000001	11.25	10.95	10.5	10.8	10.95	10.35	8.1	6.15	4.5	4.05	3.9	3.5999999999999996	3.5999999999999996	3.0	3.5999999999999996	2.85	2.4	2.1	2.4	2.55	2.4	2.4	2.55	2.85	2.7	2.85	2.4	2.55	2.7	3.0	3.0	5.1	7.35	7.5	7.5	7.95	7.95	7.35	6.45	5.7	4.95	4.05	3.15	2.55	2.25	1.7999999999999998	1.35	0.44999999999999996
Node 33		0.75	1.05	1.05	1.05	1.35	2.4	2.7	3.5999999999999996	3.9	3.9	4.05	3.45	3.5999999999999996	3.3000000000000003	3.75	3.9	3.75	3.15	3.0	2.1	2.1	2.55	7.95	19.5	20.4	22.5	25.05	25.8	33.0	42.6	52.2	55.35	51.449999999999996	45.9	39.900000000000006	33.0	28.499999999999996	23.849999999999998	18.75	14.549999999999999	10.35	6.45	3.3000000000000003	2.4	8.7	10.65	38.25	41.25	51.6	47.55	44.4	40.5	35.55	31.5	25.95	21.0	16.05	13.5	9.3	6.15	3.5999999999999996	3.75	3.0	2.55	2.4	2.25	1.95	1.7999999999999998	5.55	7.95	17.549999999999997	14.85	10.65	6.0	1.5
Node 24		0.15	0.44999999999999996	0.75	1.2	11.85	20.1	20.549999999999997	20.549999999999997	20.7	20.7	20.849999999999998	18.3	15.9	12.6	9.75	6.75	3.45	2.25	2.1	2.25	2.4	2.85	4.65	4.5	4.05	4.5	3.75	3.45	3.3000000000000003	3.15	3.0	3.0	2.7	2.55	3.15	3.0	3.45	3.15	3.45	3.5999999999999996	3.75	3.9	4.05	3.9	3.9	3.3000000000000003	3.0	3.15	2.7	2.55	2.25	1.95	1.7999999999999998	1.7999999999999998	1.6500000000000001	1.7999999999999998	1.7999999999999998	1.6500000000000001	1.6500000000000001	1.6500000000000001	1.7999999999999998	1.7999999999999998	1.95	1.95	1.7999999999999998	1.5	1.35	1.05	0.8999999999999999	0.8999999999999999	0.6	0.44999999999999996	0.3	0.3	0.15
Node 35		0.6	0.6	0.75	1.05	2.1	4.5	4.65	5.1	5.1	5.25	5.4	4.35	4.05	3.9	4.05	3.15	2.55	1.95	2.25	1.95	1.95	2.25	2.4	2.7	3.0	3.5999999999999996	3.45	3.9	4.2	7.049999999999999	6.9	7.049999999999999	7.049999999999999	6.9	6.6000000000000005	6.6000000000000005	6.15	5.25	4.8	4.05	3.45	3.45	3.45	3.5999999999999996	3.5999999999999996	3.5999999999999996	3.5999999999999996	3.45	3.45	3.0	2.7	2.7	2.55	2.1	2.1	1.95	2.1	1.7999999999999998	1.7999999999999998	1.6500000000000001	1.6500000000000001	1.7999999999999998	1.7999999999999998	1.6500000000000001	1.5	1.35	1.05	0.8999999999999999	0.75	0.75	0.75	0.75	0.44999999999999996	0.3	0.0
Node 2		0.0	0.44999999999999996	0.6	0.75	1.2	1.35	1.7999999999999998	2.1	2.4	2.55	2.55	2.55	3.0	2.85	2.7	3.3000000000000003	3.3000000000000003	3.45	3.0	3.0	3.5999999999999996	3.9	4.65	5.8500000000000005	5.55	5.8500000000000005	5.8500000000000005	5.1	4.8	4.8	5.55	5.7	4.8	4.95	4.35	3.3000000000000003	3.15	2.7	3.0	3.3000000000000003	3.15	2.85	2.1	3.9	3.9	3.45	3.15	3.3000000000000003	3.5999999999999996	3.9	4.35	4.65	5.1	5.1	4.95	4.65	4.65	4.95	4.65	4.35	3.9	3.3000000000000003	2.7	2.25	1.6500000000000001	1.35	1.2	1.2	5.8500000000000005	5.1	4.35	3.5999999999999996	2.85	1.6500000000000001	0.6
Node 3		0.44999999999999996	0.44999999999999996	0.75	0.8999999999999999	1.05	29.549999999999997	32.85	33.0	33.0	33.300000000000004	33.6	30.0	24.9	21.0	16.35	12.0	8.25	3.75	1.95	2.25	2.85	2.85	2.7	2.55	2.85	2.85	2.85	3.0	3.3000000000000003	3.75	3.3000000000000003	3.3000000000000003	2.7	2.7	2.55	2.7	2.4	2.4	2.7	2.55	2.25	1.6500000000000001	1.6500000000000001	1.6500000000000001	1.95	1.7999999999999998	2.55	3.15	3.5999999999999996	3.9	3.5999999999999996	3.9	4.2	4.2	4.5	4.35	4.05	3.9	3.45	2.85	2.85	2.4	2.4	2.1	1.7999999999999998	1.7999999999999998	1.35	4.5	13.350000000000001	12.15	10.2	7.8	4.5	2.4	0.75
Node 23		0.75	0.75	0.75	0.8999999999999999	1.2	6.75	6.75	7.049999999999999	7.199999999999999	7.199999999999999	7.35	6.9	5.1	4.65	4.35	3.15	2.1	2.4	2.55	8.7	7.95	8.55	8.1	7.8	7.5	7.049999999999999	6.6000000000000005	6.45	6.3	7.199999999999999	7.199999999999999	7.049999999999999	7.6499999999999995	7.199999999999999	7.35	6.9	6.75	6.6000000000000005	6.6000000000000005	5.7	5.25	4.35	9.75	12.6	12.0	11.4	10.2	9.6	8.85	8.55	8.1	6.75	6.15	5.4	4.35	4.05	4.2	3.75	3.5999999999999996	3.15	3.0	2.25	2.25	2.55	2.25	2.25	2.25	2.4	3.3000000000000003	2.4	2.1	1.6500000000000001	0.8999999999999999	0.75	0.3
Node 16		0.3	0.44999999999999996	0.44999999999999996	0.6	0.75	1.5	1.6500000000000001	1.95	2.1	2.4	2.7	2.85	2.7	2.7	2.7	2.85	2.55	2.1	2.1	4.35	4.35	3.9	3.5999999999999996	3.5999999999999996	3.3000000000000003	3.5999999999999996	3.45	3.15	3.5999999999999996	3.9	3.9	3.15	3.0	3.15	3.15	3.0	3.45	3.15	3.15	3.0	2.55	2.25	2.4	16.35	17.4	16.35	16.950000000000003	16.35	14.7	16.8	14.549999999999999	12.75	11.4	9.3	7.199999999999999	6.45	6.45	5.7	3.9	3.0	3.0	2.4	2.55	2.25	2.1	1.95	1.7999999999999998	3.9	7.6499999999999995	6.6000000000000005	5.55	5.55	4.35	2.4	0.75
Node 27		0.44999999999999996	0.75	0.8999999999999999	1.2	1.2	3.45	4.2	5.1	5.1	5.25	5.55	5.4	5.55	5.1	5.1	5.25	5.25	3.9	3.5999999999999996	3.0	3.45	3.9	3.5999999999999996	3.5999999999999996	3.3000000000000003	3.15	2.85	2.7	2.7	3.15	3.5999999999999996	3.75	3.5999999999999996	3.3000000000000003	3.9	4.05	4.35	4.35	4.5	4.35	4.35	4.05	4.05	3.9	3.5999999999999996	3.45	2.85	2.85	2.55	2.7	2.4	2.7	2.7	2.55	2.1	2.4	2.85	2.85	3.15	2.85	3.15	3.0	3.0	2.55	2.4	2.4	2.25	1.7999999999999998	1.35	1.2	0.8999999999999999	0.75	0.3	0.15	0.0
Node 40		0.0	0.0	0.0	0.0	3.45	19.650000000000002	20.1	21.15	21.3	21.3	21.3	18.75	15.15	12.45	10.2	7.049999999999999	3.9	1.5	1.05	0.15	0.0	0.0	0.0	0.0	0.0	0.0	0.0	0.0	0.0	0.0	0.0	0.0	0.0	0.0	0.0	0.0	0.0	0.0	0.0	0.0	0.0	0.0	0.0	0.0	0.0	0.0	0.0	0.0	0.0	0.0	0.0	0.0	0.0	0.0	0.0	0.0	0.0	0.0	0.0	0.0	0.0	0.0	0.0	0.0	0.0	0.0	0.0	0.0	0.0	0.0	0.0	0.0	0.0	0.0	0.0
Node 14		0.75	1.2	1.35	1.6500000000000001	2.1	2.4	2.7	3.15	3.5999999999999996	3.9	4.05	3.9	3.75	3.5999999999999996	3.45	3.15	3.0	2.85	2.85	2.7	2.7	2.4	2.55	2.4	2.1	1.7999999999999998	2.1	2.25	2.25	2.55	2.7	2.4	2.25	2.55	2.4	2.4	2.7	3.0	3.0	3.15	3.0	2.55	2.7	3.15	3.0	2.85	2.85	3.3000000000000003	3.3000000000000003	3.15	3.0	2.7	2.85	3.0	2.85	2.7	3.0	3.15	3.15	2.85	2.7	2.85	3.0	3.0	2.7	2.25	2.1	1.7999999999999998	1.35	1.05	0.8999999999999999	0.75	0.6	0.3	0.0
Node 18		0.15	0.3	0.8999999999999999	1.05	1.05	8.1	8.25	8.55	8.7	9.0	9.75	8.55	8.25	7.6499999999999995	6.75	5.55	4.65	3.3000000000000003	3.3000000000000003	4.35	4.05	3.9	3.3000000000000003	3.75	3.0	2.7	2.7	2.85	2.85	2.7	3.0	2.7	2.7	3.3000000000000003	3.15	3.0	3.0	3.15	3.3000000000000003	3.3000000000000003	3.75	4.05	3.5999999999999996	3.9	3.9	3.45	3.5999999999999996	3.3000000000000003	3.45	3.3000000000000003	3.15	3.15	2.55	2.55	2.7	2.55	2.1	2.1	2.4	2.7	2.85	2.7	2.85	3.0	2.85	2.4	2.25	2.1	2.1	1.7999999999999998	1.35	1.05	0.6	0.6	0.3
Node 25		0.0	0.3	0.3	0.75	1.05	1.35	1.35	1.5	1.7999999999999998	2.25	2.55	2.85	3.3000000000000003	3.3000000000000003	3.5999999999999996	3.15	3.15	3.3000000000000003	3.3000000000000003	3.5999999999999996	3.45	3.15	3.15	3.3000000000000003	3.15	2.85	2.55	2.7	2.55	2.55	2.55	2.1	2.25	2.55	2.4	2.25	2.1	2.25	2.25	2.4	2.55	2.55	3.15	3.75	4.2	3.75	3.9	3.9	4.05	3.9	3.9	3.9	3.75	3.75	3.3000000000000003	3.0	2.55	3.0	2.85	3.0	2.85	3.15	3.15	2.85	2.7	2.55	2.4	2.1	1.7999999999999998	1.35	1.05	0.75	0.44999999999999996	7.049999999999999	1.6500000000000001
Node 5		0.8999999999999999	1.2	1.35	1.95	2.1	2.4	2.55	2.55	2.55	2.85	3.0	3.0	2.55	2.25	2.7	2.25	2.4	2.25	2.85	3.0	4.2	4.95	4.95	5.1	5.7	6.0	6.45	7.5	8.4	9.0	8.55	8.55	7.199999999999999	6.75	6.75	6.45	5.7	6.0	4.5	3.3000000000000003	2.55	2.25	2.1	2.25	2.55	2.7	2.85	3.45	3.75	3.9	4.35	4.95	5.25	5.4	5.4	5.25	4.95	4.8	4.5	3.5999999999999996	3.15	3.0	2.7	2.1	1.6500000000000001	1.35	1.2	1.05	2.85	2.4	2.25	1.95	1.5	0.75	0.3
Node 30		0.75	0.8999999999999999	1.05	1.6500000000000001	1.95	2.4	2.4	2.55	2.85	3.0	3.3000000000000003	2.85	2.85	3.15	3.3000000000000003	3.0	2.85	2.55	3.0	3.0	2.85	3.0	3.0	3.0	3.0	2.7	2.7	2.85	3.0	3.0	3.0	3.15	3.0	2.7	2.4	2.4	2.4	2.25	2.25	2.1	2.25	2.25	2.1	1.95	2.1	2.1	2.25	2.1	1.95	1.95	1.95	1.7999999999999998	1.35	1.5	1.5	1.6500000000000001	1.7999999999999998	1.7999999999999998	1.95	1.95	2.25	2.4	2.4	2.4	2.4	2.1	1.7999999999999998	1.5	1.2	1.2	0.8999999999999999	0.8999999999999999	0.6	0.3	0.0
Node 13		0.3	0.3	0.44999999999999996	0.8999999999999999	1.7999999999999998	1.7999999999999998	2.1	2.1	2.4	2.55	2.7	2.55	2.4	2.4	2.4	2.1	1.95	2.1	2.1	2.25	1.95	2.4	2.55	2.55	2.4	2.85	2.7	2.7	2.55	2.4	2.7	3.15	3.45	2.85	2.55	2.7	2.85	2.7	2.7	2.7	2.7	2.85	2.25	4.2	4.2	4.8	4.95	4.95	4.65	4.65	4.35	4.05	3.75	3.75	3.5999999999999996	3.45	3.15	3.15	3.15	2.7	2.85	2.85	2.85	2.55	2.4	2.1	1.7999999999999998	1.6500000000000001	2.1	1.35	1.2	1.2	0.75	0.15	0.0
Node 22		0.6	0.8999999999999999	0.8999999999999999	1.2	1.35	1.5	1.95	2.1	2.25	2.4	2.85	3.5999999999999996	3.5999999999999996	3.5999999999999996	3.9	3.75	3.9	3.9	3.45	3.5999999999999996	3.75	4.2	4.5	4.5	4.2	4.95	4.95	5.55	5.7	5.8500000000000005	6.0	6.15	6.0	6.0	5.4	4.8	4.65	4.65	4.35	4.2	4.2	4.05	4.2	4.2	5.1	4.8	6.6000000000000005	6.6000000000000005	10.05	9.6	9.3	9.3	9.0	9.45	9.3	8.85	8.4	7.8	6.0	4.95	4.65	4.8	5.25	4.95	4.65	3.9	3.15	6.3	5.4	4.05	3.5999999999999996	2.85	2.25	1.5	0.44999999999999996
Node 32		0.6	0.8999999999999999	0.8999999999999999	1.2	4.05	4.65	21.6	22.05	22.5	22.8	23.25	20.7	16.950000000000003	14.399999999999999	11.55	8.4	5.25	3.75	4.05	3.75	3.9	4.05	3.75	3.75	4.5	4.05	4.8	4.8	4.8	4.5	4.5	4.35	4.35	4.2	4.2	3.9	3.45	3.5999999999999996	3.15	2.85	2.7	2.85	2.85	3.0	2.7	2.55	2.55	2.25	2.55	2.4	2.25	2.4	2.4	2.4	2.4	2.55	2.55	2.4	2.4	2.55	2.1	2.4	2.4	2.1	1.95	1.6500000000000001	1.5	1.2	0.8999999999999999	0.8999999999999999	0.6	0.44999999999999996	0.44999999999999996	0.15	0.0
Node 38		0.3	0.6	0.8999999999999999	0.8999999999999999	1.05	19.5	20.1	20.1	20.25	21.3	21.45	19.2	17.1	14.099999999999998	11.25	8.25	5.55	4.8	4.5	4.65	4.8	8.4	8.55	9.3	9.0	8.4	8.1	7.6499999999999995	7.35	7.6499999999999995	7.6499999999999995	7.5	7.8	6.6000000000000005	6.3	5.1	5.25	6.0	6.15	6.3	6.3	5.25	4.5	14.549999999999999	15.0	13.8	11.85	11.700000000000001	10.65	9.6	8.1	7.049999999999999	5.8500000000000005	5.25	4.05	3.5999999999999996	3.15	2.55	2.55	2.7	2.4	1.95	1.6500000000000001	1.2	1.05	0.75	3.0	2.85	3.15	2.7	2.25	1.7999999999999998	1.2	1.05	0.3
Node 39		0.15	0.6	0.8999999999999999	1.6500000000000001	2.7	3.3000000000000003	4.05	4.2	4.2	4.95	5.25	5.25	5.55	5.25	4.8	4.5	3.9	4.05	3.3000000000000003	14.399999999999999	13.350000000000001	12.15	10.8	10.35	8.85	7.8	7.199999999999999	5.8500000000000005	5.7	4.95	4.65	4.5	4.2	3.5999999999999996	3.45	3.3000000000000003	3.45	3.3000000000000003	3.3000000000000003	3.45	3.3000000000000003	3.15	3.15	2.55	2.85	2.85	2.7	2.7	2.85	3.15	3.45	3.3000000000000003	3.15	3.3000000000000003	3.0	3.15	2.7	2.7	3.3000000000000003	3.3000000000000003	2.85	2.55	2.25	2.1	2.1	1.7999999999999998	1.6500000000000001	1.35	1.5	1.5	2.1	1.5	1.2	6.9	1.6500000000000001
Node 34		0.6	0.6	0.75	1.2	1.95	3.0	3.3000000000000003	3.75	4.2	4.35	4.65	4.5	4.05	4.05	4.05	3.9	3.3000000000000003	3.0	3.3000000000000003	3.75	4.05	4.35	4.65	4.8	5.25	5.4	5.8500000000000005	5.4	5.4	5.4	4.8	3.9	3.15	2.85	2.55	2.1	1.7999999999999998	1.6500000000000001	1.35	1.7999999999999998	2.1	2.25	2.25	2.25	2.25	1.95	2.55	2.7	2.7	3.15	2.85	2.4	2.1	1.95	2.25	2.25	2.55	2.7	2.1	2.25	2.1	1.95	2.25	2.25	2.25	2.1	1.7999999999999998	1.7999999999999998	1.5	1.35	1.2	0.8999999999999999	0.75	0.3	0.0
