A13 0.3855114983980366 
A31 0.5117489905455712 
A39 0.41010606290606955 
A15 0.5633588572497288 
A20 0.6846548897007441 
A14 0.33979216932106726 
A10 0.4341455685603175 
A29 0.49900429737683627 
A7 0.5750667459353551 
A11 0.24098222823171964 
A35 0.5485496487920708 
A18 0.36408786686382627 
A38 0.5611557186249686 
A21 0.5455716325814163 
A40 0.46897617383954127 
A0 0.3995975969254527 
A33 0.6956751917190105 
A36 0.6314705092249328 
A28 0.5566549196153227 
A5 0.5605468947044511 
A16 0.5270878683623217 
A27 0.395630701292723 
A6 0.6742799060518849 
A4 0.6497891233128975 
A19 0.5678644124283837 
A26 0.36079544350063 
A34 0.42278946969900405 
A23 0.4826502635824545 
A2 0.5209749882997837 
A30 0.007692307692307692 
A1 0.22400379502743498 
A32 0.48118613137497035 
A9 0.45974146375269603 
A3 0.4822170120475792 
A12 0.512461323525744 
A37 0.4712123149258695 
A24 0.29716393030683996 
A22 0.6069284928897118 
A25 0.42318147219390906 
A17 0.2986415698658337 
A8 0.6254120144121816 
