28 4.940131578947367
22 4.642105263157894
16 4.855263157894735
11 2.3427631578947357
35 3.1125000000000003
25 2.591447368421053
14 2.5065789473684212
0 4.876973684210526
10 2.3664473684210527
40 2.358552631578948
37 2.9743421052631582
31 4.999342105263157
9 3.8763157894736837
26 2.4217105263157905
19 5.613157894736842
23 5.6427631578947395
4 22.28486842105263
38 6.986842105263159
34 2.755263157894737
7 7.770394736842108
20 3.945394736842104
24 4.499999999999997
18 3.2644736842105266
13 2.510526315789474
29 3.4796052631578953
33 15.432236842105262
8 4.6381578947368425
17 2.1138157894736835
21 7.125
27 2.994078947368421
5 3.657236842105263
15 3.976973684210526
36 7.257236842105261
1 2.6013157894736847
6 6.238815789473685
2 3.3434210526315784
12 3.1875000000000013
30 2.1750000000000007
3 6.7124999999999995
32 4.790131578947367
39 3.856578947368422
