Message stats for scenario SimBetHaggleInfocom_#DF_0.6
sim_time: 274883.0000
created: 3892
started: 11315
relayed: 8500
aborted: 2815
dropped: 10311
removed: 0
delivered: 2081
delivery_prob: 0.5347
response_prob: 0.0000
overhead_ratio: 3.0846
latency_avg: 17470.2624
latency_med: 15692.0000
hopcount_avg: 1.6160
hopcount_med: 1
buffertime_avg: 33530.7996
buffertime_med: 42068.0000
rtt_avg: NaN
rtt_med: NaN
