23 4.867105263157894
11 2.3427631578947357
29 4.008552631578945
0 3.4934210526315774
6 6.649342105263159
8 4.845394736842106
27 2.9309210526315788
31 5.00921052631579
33 14.735526315789475
7 7.296710526315792
9 3.720394736842106
12 2.563815789473685
19 4.318421052631578
36 5.891447368421052
10 2.455263157894737
37 3.2940789473684213
13 2.45328947368421
4 21.1717105263158
35 3.1973684210526314
1 2.6013157894736847
38 6.30986842105263
18 3.9513157894736874
21 7.194078947368421
28 5.078289473684208
39 3.9493421052631597
25 2.632894736842106
15 3.795394736842105
3 5.899342105263161
20 3.001973684210526
2 3.258552631578947
14 2.530263157894737
34 3.0374999999999996
30 2.1750000000000007
17 2.127631578947368
40 2.5401315789473684
24 3.7125
5 3.463815789473685
16 4.8296052631578945
22 4.405263157894734
32 3.321710526315791
26 2.425657894736843
