Message stats for scenario SimBetHaggleInfocom_#DF_0.2
sim_time: 274883.0000
created: 3892
started: 12011
relayed: 9244
aborted: 2767
dropped: 11044
removed: 0
delivered: 2092
delivery_prob: 0.5375
response_prob: 0.0000
overhead_ratio: 3.4187
latency_avg: 17595.7796
latency_med: 15853.0000
hopcount_avg: 1.6343
hopcount_med: 1
buffertime_avg: 32646.8649
buffertime_med: 40901.0000
rtt_avg: NaN
rtt_med: NaN
