Message Drop for scenario SimBetHaggleInfocom_#DF_0.4
sim_time: 274883.0000

8	221
39	282
32	221
34	126
3	385
28	268
25	177
2	156
12	204
33	993
17	92
4	1527
23	272
13	114
22	222
6	355
30	92
5	160
10	108
14	106
16	316
9	233
29	201
15	193
7	445
31	259
40	155
20	194
35	139
19	245
18	193
0	255
24	204
37	134
1	110
27	130
26	117
36	388
11	99
21	384
38	338

