Node 21		0.0	0.0	0.6	0.75	1.95	3.75	4.5	4.5	4.8	4.95	5.1	5.25	4.8	4.5	4.05	3.75	3.0	2.55	2.1	2.4	2.4	2.7	3.0	4.2	3.9	4.2	4.05	4.35	4.65	6.45	6.45	7.8	8.7	8.7	8.25	10.5	10.35	9.3	8.85	8.55	7.95	6.9	6.45	10.05	9.0	7.95	7.35	5.8500000000000005	5.1	4.95	4.65	4.35	3.5999999999999996	3.75	4.35	3.45	3.9	4.2	4.2	4.5	6.15	6.3	7.199999999999999	7.35	7.049999999999999	6.0	4.95	4.65	4.2	3.45	3.3000000000000003	2.7	2.4	1.5	0.44999999999999996
Node 29		0.75	1.2	1.95	1.95	2.1	5.1	6.0	6.15	6.6000000000000005	7.35	7.6499999999999995	7.199999999999999	7.049999999999999	6.15	5.1	4.95	4.95	4.65	4.65	7.6499999999999995	6.6000000000000005	6.15	6.3	6.75	5.8500000000000005	5.7	5.25	5.4	5.4	4.65	4.05	3.75	3.5999999999999996	3.45	3.15	2.55	3.0	3.5999999999999996	3.9	3.75	3.45	3.5999999999999996	3.9	3.5999999999999996	3.5999999999999996	3.45	3.3000000000000003	3.3000000000000003	3.45	3.0	2.25	2.25	2.1	1.95	1.6500000000000001	2.4	2.4	2.55	2.4	2.7	2.55	2.55	2.7	2.4	2.25	2.1	1.95	1.2	1.05	0.75	0.75	0.3	0.15	0.15	0.0
Node 14		0.75	1.2	1.35	1.6500000000000001	2.1	2.4	2.7	3.15	3.5999999999999996	3.9	4.05	3.9	3.75	3.5999999999999996	3.45	3.15	3.0	2.85	2.85	2.7	3.15	2.85	3.3000000000000003	3.15	2.85	2.55	3.0	3.0	3.0	3.3000000000000003	3.45	3.15	3.0	3.3000000000000003	2.85	2.7	3.0	3.3000000000000003	3.0	3.15	3.0	2.55	2.7	3.15	3.0	2.85	2.85	6.15	6.6000000000000005	6.15	6.0	5.55	5.4	5.25	4.95	4.5	4.35	3.9	3.75	3.15	2.85	3.0	3.15	3.15	2.85	2.4	2.25	1.7999999999999998	1.35	1.05	0.8999999999999999	0.75	0.6	0.3	0.0
Node 23		0.75	0.75	0.75	0.8999999999999999	1.2	4.95	4.95	5.25	5.4	5.4	5.55	5.4	3.9	3.75	3.45	2.85	2.1	2.4	2.55	3.75	3.5999999999999996	4.35	4.65	5.1	5.25	5.1	4.8	5.25	5.1	5.25	5.55	5.4	6.0	5.7	5.7	5.25	5.1	4.95	5.1	4.5	4.35	3.5999999999999996	3.0	2.55	2.4	2.7	2.55	3.0	3.3000000000000003	3.45	3.45	3.15	3.45	3.3000000000000003	3.3000000000000003	3.0	3.15	2.85	3.0	2.55	2.4	2.1	2.1	2.4	2.1	2.1	2.1	2.1	1.5	1.35	1.05	0.75	0.44999999999999996	0.44999999999999996	0.15
Node 34		0.6	0.6	0.75	1.2	2.55	7.35	7.95	8.4	8.85	9.0	9.3	8.7	7.049999999999999	6.3	5.55	4.95	3.45	3.15	3.3000000000000003	4.05	4.2	5.25	5.25	5.55	5.55	5.55	6.0	5.4	5.4	5.25	4.65	3.5999999999999996	2.85	2.7	2.4	1.7999999999999998	1.6500000000000001	1.6500000000000001	1.35	1.7999999999999998	2.1	2.25	2.25	2.25	2.25	1.95	2.4	2.4	2.4	3.3000000000000003	3.0	2.55	2.25	1.7999999999999998	2.1	1.95	2.1	2.25	1.7999999999999998	2.1	2.1	2.1	2.4	2.4	2.25	2.1	1.7999999999999998	1.7999999999999998	1.5	1.35	1.2	0.8999999999999999	0.75	0.3	0.0
Node 8		0.44999999999999996	0.75	1.05	1.05	1.5	1.7999999999999998	2.1	2.7	3.3000000000000003	3.5999999999999996	3.75	4.05	4.05	4.05	3.75	4.35	4.65	4.8	4.5	5.55	5.4	5.4	6.45	5.8500000000000005	6.0	6.15	6.45	5.8500000000000005	5.55	5.1	4.95	4.2	4.05	3.5999999999999996	3.3000000000000003	3.15	2.7	2.7	2.4	2.4	1.95	2.55	2.55	2.4	2.1	2.4	2.7	2.55	2.55	2.7	3.0	2.7	2.85	2.4	2.55	2.7	3.0	3.0	3.75	3.9	3.9	3.9	4.35	4.65	4.5	3.9	3.5999999999999996	3.3000000000000003	3.0	2.4	2.1	1.7999999999999998	1.5	1.2	0.44999999999999996
Node 17		0.8999999999999999	1.2	1.2	1.5	1.5	2.7	3.15	3.5999999999999996	3.75	3.9	4.35	3.9	3.5999999999999996	3.15	3.15	3.0	3.15	3.15	2.7	2.25	2.55	2.55	2.4	2.25	2.55	2.25	2.1	1.95	2.1	1.7999999999999998	1.95	2.1	1.7999999999999998	1.7999999999999998	2.1	2.1	1.95	1.95	2.1	2.25	2.1	2.1	2.25	2.25	2.7	2.7	2.4	2.4	2.25	2.7	2.7	2.85	3.0	3.15	3.15	3.15	2.85	2.55	2.55	2.4	2.7	2.25	2.55	2.25	1.95	1.6500000000000001	1.5	1.35	1.2	1.2	1.05	0.8999999999999999	0.44999999999999996	0.44999999999999996	0.0
Node 10		0.15	0.3	0.8999999999999999	0.8999999999999999	1.2	2.1	2.25	3.3000000000000003	3.9	4.5	4.8	4.95	5.1	4.5	4.05	4.2	4.2	4.05	3.9	3.15	2.7	2.55	2.25	1.95	1.7999999999999998	1.95	2.1	2.25	2.1	2.4	2.55	2.7	2.55	2.25	2.55	2.55	2.55	2.55	2.4	2.55	2.55	2.25	2.4	2.1	2.1	2.25	2.25	2.55	2.55	2.55	2.4	2.1	2.25	2.4	2.55	2.85	3.15	3.75	3.3000000000000003	3.45	3.75	4.05	4.35	4.35	4.05	3.75	3.15	2.7	2.4	1.5	1.5	1.05	0.75	0.44999999999999996	0.15
Node 22		0.6	0.8999999999999999	0.8999999999999999	1.2	1.35	1.5	1.95	2.1	2.25	2.4	2.85	3.5999999999999996	3.5999999999999996	3.5999999999999996	3.9	3.75	3.9	3.9	3.45	3.5999999999999996	3.5999999999999996	3.9	3.9	3.45	3.15	3.9	3.9	4.05	3.9	3.9	4.05	4.05	3.9	4.05	3.75	3.5999999999999996	3.45	3.45	3.3000000000000003	3.45	3.75	3.75	3.9	3.75	4.05	3.75	4.35	4.05	3.9	4.05	3.9	3.75	3.5999999999999996	3.75	3.9	3.9	4.2	4.35	3.75	3.75	3.75	3.9	4.35	4.2	3.9	3.5999999999999996	2.85	3.15	2.7	2.25	1.95	1.6500000000000001	1.35	0.75	0.3
Node 32		0.6	0.8999999999999999	0.8999999999999999	1.2	3.15	3.75	4.2	4.65	5.1	5.4	5.8500000000000005	5.8500000000000005	5.25	5.1	4.65	4.5	4.05	3.9	4.05	3.75	4.05	4.2	3.9	3.5999999999999996	4.35	4.05	5.8500000000000005	5.8500000000000005	6.0	5.7	5.7	5.55	5.4	5.25	5.4	5.25	4.8	4.35	3.3000000000000003	3.0	2.7	2.85	2.85	3.0	2.7	2.55	2.4	2.25	2.55	2.7	2.55	2.7	2.7	2.55	2.55	2.7	2.7	2.55	2.55	2.55	2.1	2.4	2.4	2.1	1.95	1.6500000000000001	1.5	1.2	1.2	1.2	0.75	0.6	0.6	0.15	0.0
Node 9		0.75	0.75	1.05	1.05	1.7999999999999998	5.8500000000000005	6.15	6.6000000000000005	6.6000000000000005	6.75	7.199999999999999	7.199999999999999	5.7	5.4	4.65	4.05	3.75	3.45	3.15	3.15	3.15	3.0	3.15	3.3000000000000003	2.7	2.7	3.15	3.15	3.5999999999999996	3.75	4.05	4.2	4.35	4.2	3.9	3.45	3.75	3.45	3.15	3.0	2.85	2.7	2.85	3.0	3.75	4.65	4.8	4.95	5.1	5.4	5.25	5.1	4.35	4.2	4.2	3.9	3.45	2.85	2.85	3.15	3.3000000000000003	3.3000000000000003	3.45	3.3000000000000003	3.15	3.0	2.85	2.55	2.55	2.25	1.7999999999999998	1.2	1.6500000000000001	1.05	0.0
Node 33		0.75	1.05	1.05	1.05	1.35	6.75	7.049999999999999	7.95	8.25	8.25	8.4	7.5	6.15	5.1	4.95	4.2	3.75	3.15	3.0	2.1	2.1	2.25	2.55	3.5999999999999996	3.75	4.2	3.9	4.05	3.75	3.75	3.9	3.9	3.9	3.9	3.45	2.7	2.55	2.1	1.95	1.7999999999999998	1.95	2.1	2.25	2.4	2.25	2.25	2.55	2.55	2.7	2.4	2.85	3.0	2.85	2.55	2.4	2.4	2.25	2.4	2.4	2.55	2.25	3.0	2.7	2.4	2.4	2.25	1.95	1.7999999999999998	1.7999999999999998	1.5	1.2	0.8999999999999999	0.8999999999999999	0.15	0.0
Node 37		0.75	1.05	1.2	1.35	3.15	4.5	4.8	4.95	5.1	5.25	6.15	6.3	5.25	4.5	4.35	3.9	3.45	3.15	3.45	4.95	4.5	3.9	3.75	3.15	3.5999999999999996	4.65	4.05	4.05	3.9	4.2	3.75	3.75	4.05	4.05	3.9	4.2	3.5999999999999996	2.85	2.85	2.55	2.55	2.4	2.55	2.4	2.25	2.4	2.4	2.25	2.7	2.7	2.85	3.0	3.3000000000000003	3.45	3.3000000000000003	3.15	3.3000000000000003	3.15	3.15	3.0	3.0	2.7	2.4	2.25	1.95	1.6500000000000001	1.6500000000000001	1.6500000000000001	1.35	0.75	0.6	0.44999999999999996	0.0	0.0	0.0
Node 40		0.0	0.0	0.0	0.0	4.05	10.2	10.65	11.25	11.4	11.4	11.4	10.35	8.1	6.3	5.1	3.3000000000000003	1.7999999999999998	1.05	0.75	0.0	0.0	0.0	0.0	0.0	0.0	0.0	0.0	0.0	0.0	0.0	0.0	0.0	0.0	0.0	0.0	0.0	0.0	0.0	0.0	0.0	0.0	0.0	0.0	0.0	0.0	0.0	0.0	0.0	0.0	0.15	0.44999999999999996	0.44999999999999996	0.44999999999999996	0.44999999999999996	0.44999999999999996	0.6	0.6	0.44999999999999996	0.44999999999999996	0.44999999999999996	0.44999999999999996	0.3	0.15	0.15	0.15	0.15	0.15	0.15	0.15	0.15	0.15	0.15	0.15	0.15	0.0
Node 36		0.44999999999999996	0.44999999999999996	0.8999999999999999	1.05	1.2	2.4	3.75	4.35	4.8	5.1	5.1	6.75	6.9	7.049999999999999	7.199999999999999	7.35	7.5	7.049999999999999	6.6000000000000005	7.049999999999999	6.6000000000000005	7.049999999999999	7.199999999999999	6.15	6.0	5.8500000000000005	5.1	4.95	6.6000000000000005	5.7	5.55	5.1	4.65	4.2	5.55	6.15	6.0	5.55	5.7	5.8500000000000005	6.0	5.8500000000000005	6.0	7.199999999999999	6.75	6.6000000000000005	6.45	6.3	6.6000000000000005	6.3	6.0	5.25	4.95	4.95	4.5	4.35	4.35	4.35	4.35	4.05	3.3000000000000003	3.75	3.45	4.2	4.05	3.5999999999999996	3.5999999999999996	3.0	3.0	2.4	1.95	1.6500000000000001	1.35	0.6	0.3
Node 6		0.3	0.75	0.8999999999999999	1.05	1.35	9.15	9.75	10.35	10.65	10.65	11.1	10.35	8.25	7.6499999999999995	7.049999999999999	6.15	4.95	3.9	3.75	7.6499999999999995	8.1	8.85	8.55	8.55	8.55	7.8	7.5	8.7	8.25	7.5	7.35	7.5	7.6499999999999995	6.9	7.35	6.75	5.7	5.25	5.25	5.4	5.7	6.45	6.15	5.8500000000000005	5.55	4.95	4.2	4.5	4.5	4.65	4.65	4.05	3.75	3.15	3.5999999999999996	3.75	3.5999999999999996	3.75	3.9	3.5999999999999996	3.5999999999999996	3.75	4.05	3.5999999999999996	3.0	2.55	2.55	2.25	2.1	1.95	1.5	0.8999999999999999	0.75	0.44999999999999996	0.0
Node 7		0.3	0.6	0.6	0.8999999999999999	3.0	6.0	7.5	7.6499999999999995	8.25	8.25	8.25	7.6499999999999995	6.45	5.7	5.4	4.5	4.65	3.9	6.0	7.35	6.9	7.35	7.95	7.95	8.25	8.1	8.85	8.1	6.6000000000000005	6.15	5.7	5.25	4.8	4.2	3.75	3.3000000000000003	2.85	2.55	2.4	2.55	2.4	2.7	2.7	4.05	4.35	4.95	4.65	4.35	3.75	3.9	3.3000000000000003	3.0	2.85	2.4	1.95	2.25	2.1	1.6500000000000001	1.95	2.25	2.55	2.85	2.85	2.85	2.7	2.7	2.55	2.25	2.25	1.95	1.6500000000000001	1.35	0.8999999999999999	0.44999999999999996	0.15
Node 13		0.3	0.3	0.44999999999999996	0.8999999999999999	1.35	1.6500000000000001	1.95	1.95	2.25	2.4	2.55	2.4	2.25	2.25	2.4	2.1	1.95	2.1	2.1	2.25	1.95	2.4	2.55	2.55	2.55	3.0	2.85	2.85	2.7	2.55	2.85	3.45	3.75	3.15	2.85	3.0	3.0	2.85	2.85	2.7	2.7	2.85	2.25	2.55	2.55	3.15	3.3000000000000003	3.3000000000000003	3.3000000000000003	3.3000000000000003	3.3000000000000003	3.3000000000000003	3.3000000000000003	3.45	3.5999999999999996	3.45	3.15	3.15	3.15	2.7	2.85	2.85	2.85	2.55	2.4	2.1	1.7999999999999998	1.6500000000000001	1.95	1.35	1.05	1.05	0.75	0.15	0.0
Node 18		0.15	0.3	0.8999999999999999	1.05	1.05	6.3	6.45	6.75	6.9	7.199999999999999	7.95	7.049999999999999	6.15	5.55	4.35	3.45	3.3000000000000003	3.3000000000000003	3.3000000000000003	3.75	5.25	6.15	5.55	6.3	5.7	5.25	4.8	4.8	4.5	4.2	4.5	3.45	3.15	3.75	3.3000000000000003	2.85	2.85	3.15	3.3000000000000003	3.3000000000000003	3.75	4.05	3.5999999999999996	3.9	3.9	3.3000000000000003	3.5999999999999996	3.3000000000000003	3.45	3.3000000000000003	3.15	3.15	2.55	2.55	2.7	2.55	2.1	2.25	2.4	2.7	2.85	2.7	2.85	3.0	2.85	2.4	2.25	2.1	2.25	1.95	1.5	1.2	0.75	0.6	0.3
Node 20		0.6	0.75	0.8999999999999999	1.05	1.2	1.7999999999999998	2.1	2.1	2.25	2.7	2.85	2.7	2.4	2.25	2.4	2.4	2.4	2.4	2.4	2.55	2.55	2.25	2.1	2.25	2.4	2.85	2.7	2.4	2.55	2.1	2.1	1.95	1.95	1.7999999999999998	2.1	1.95	1.7999999999999998	1.35	1.35	1.5	1.6500000000000001	1.6500000000000001	1.35	1.5	1.35	1.7999999999999998	1.7999999999999998	1.95	2.4	2.4	2.55	2.85	2.7	2.85	3.15	3.3000000000000003	3.75	3.45	3.75	3.5999999999999996	3.3000000000000003	3.75	3.9	3.75	3.5999999999999996	3.15	2.85	2.55	2.1	1.95	1.35	1.5	1.35	0.8999999999999999	0.3
Node 26		0.75	0.8999999999999999	1.05	1.5	2.55	2.7	3.15	3.3000000000000003	3.5999999999999996	3.9	4.05	3.75	3.3000000000000003	3.5999999999999996	3.3000000000000003	3.0	2.7	2.7	2.4	2.55	2.55	2.4	2.25	2.25	1.95	1.6500000000000001	1.7999999999999998	2.25	2.25	2.55	2.55	3.45	3.5999999999999996	3.5999999999999996	3.9	3.9	4.35	4.35	3.9	3.45	3.45	3.3000000000000003	3.45	2.4	2.25	2.55	2.1	2.4	2.1	2.1	2.55	2.55	2.55	2.25	2.25	2.4	2.4	1.95	2.55	2.55	2.7	2.7	2.25	2.4	2.25	2.25	1.95	1.7999999999999998	1.7999999999999998	1.7999999999999998	1.2	0.8999999999999999	0.75	0.6	0.15
Node 2		0.0	0.44999999999999996	0.6	0.75	1.2	1.35	1.7999999999999998	2.1	2.4	2.55	2.55	2.55	3.0	2.85	2.7	3.3000000000000003	3.3000000000000003	3.45	3.0	3.0	3.3000000000000003	3.5999999999999996	4.05	4.95	4.5	4.8	4.8	4.2	3.9	3.75	4.5	4.5	4.05	4.2	3.9	3.3000000000000003	3.0	2.55	2.85	3.15	2.85	2.7	2.1	2.4	2.55	2.25	2.25	2.4	2.85	3.3000000000000003	3.9	4.2	4.35	4.5	4.5	4.05	4.05	4.35	4.05	4.05	3.5999999999999996	3.0	2.4	1.95	1.6500000000000001	1.35	1.2	1.2	0.8999999999999999	0.6	0.6	0.44999999999999996	0.44999999999999996	0.44999999999999996	0.15
Node 3		0.44999999999999996	0.44999999999999996	0.75	0.8999999999999999	1.05	12.0	12.75	12.9	12.9	13.200000000000001	13.5	12.45	9.75	7.95	6.3	4.8	3.9	2.4	1.95	2.25	2.85	2.85	2.7	2.55	3.45	3.45	3.45	3.5999999999999996	3.9	4.35	4.35	4.05	3.45	3.3000000000000003	3.15	3.0	2.4	2.4	2.55	2.4	2.1	1.5	1.6500000000000001	1.6500000000000001	1.95	1.7999999999999998	2.4	2.7	3.0	3.15	2.7	3.0	3.3000000000000003	3.3000000000000003	3.5999999999999996	3.45	3.15	3.0	2.7	2.4	2.55	2.25	2.4	2.1	1.7999999999999998	1.7999999999999998	1.35	2.25	2.1	2.1	1.6500000000000001	1.35	0.6	0.3	0.15
Node 15		0.3	0.6	0.75	0.8999999999999999	1.2	2.25	2.4	2.55	2.7	2.85	3.0	2.7	2.85	2.85	2.55	2.4	2.55	2.4	2.7	2.85	3.15	3.3000000000000003	3.45	4.05	3.9	3.3000000000000003	3.5999999999999996	3.45	3.3000000000000003	3.5999999999999996	3.5999999999999996	3.45	3.45	3.3000000000000003	3.15	2.85	2.85	3.15	3.15	3.45	3.45	3.15	2.7	3.15	3.0	3.15	3.9	4.05	3.5999999999999996	3.9	3.5999999999999996	3.45	3.45	3.75	3.5999999999999996	3.3000000000000003	3.45	3.15	3.0	2.85	3.15	3.0	3.15	3.15	2.85	2.4	2.25	2.4	2.4	2.25	1.6500000000000001	1.35	1.05	0.44999999999999996	0.0
Node 0		0.3	0.75	0.8999999999999999	1.05	2.1	3.15	3.45	3.5999999999999996	4.05	4.5	4.65	4.95	4.8	4.35	4.2	4.05	3.5999999999999996	3.15	3.15	3.9	3.45	3.75	3.9	3.9	4.2	4.8	5.25	5.1	4.65	4.5	4.2	3.5999999999999996	3.3000000000000003	2.7	2.7	2.55	2.1	1.35	1.05	1.2	1.35	1.2	1.6500000000000001	1.35	1.6500000000000001	1.7999999999999998	1.6500000000000001	1.95	2.1	2.1	2.1	1.95	1.95	1.95	1.7999999999999998	2.1	2.1	2.4	2.25	2.1	2.4	2.4	2.4	2.25	2.1	2.1	1.95	1.6500000000000001	1.35	0.8999999999999999	0.8999999999999999	0.6	0.15	0.0	0.0
Node 24		0.15	0.44999999999999996	0.75	1.2	3.15	11.1	11.4	11.4	11.55	11.55	11.700000000000001	10.95	8.7	7.049999999999999	6.6000000000000005	4.65	3.15	2.25	2.1	2.25	2.4	2.85	4.95	4.65	4.2	4.65	3.9	3.5999999999999996	3.45	3.3000000000000003	3.15	3.15	2.85	2.85	3.45	3.15	3.5999999999999996	3.3000000000000003	3.5999999999999996	3.75	3.9	4.05	4.2	4.2	4.2	3.45	3.15	3.3000000000000003	2.85	2.7	2.55	2.25	2.1	2.1	1.95	2.1	2.1	1.95	1.95	1.95	2.1	2.1	2.1	2.1	1.95	1.5	1.35	1.05	0.8999999999999999	0.8999999999999999	0.6	0.44999999999999996	0.3	0.3	0.15
Node 12		0.0	0.3	0.8999999999999999	1.05	1.5	1.5	1.7999999999999998	2.1	2.1	2.25	2.55	2.55	2.7	2.7	2.1	2.25	2.1	2.25	1.95	1.95	2.4	2.7	2.55	2.55	2.7	2.25	2.25	1.95	1.6500000000000001	1.95	2.7	2.55	2.85	3.0	3.15	3.9	4.05	4.35	4.65	4.5	4.65	4.65	4.05	3.75	3.9	3.9	3.75	3.15	2.7	2.55	2.4	2.7	2.7	2.55	2.7	2.85	2.55	2.4	2.55	2.4	2.55	2.4	2.55	2.4	2.25	1.95	1.6500000000000001	1.95	1.95	1.5	1.2	0.8999999999999999	0.6	0.6	0.15
Node 38		0.3	0.6	0.8999999999999999	0.8999999999999999	1.35	5.4	6.0	6.0	6.3	7.35	7.5	6.6000000000000005	6.0	5.7	5.25	5.1	5.1	4.95	4.65	4.8	4.8	5.25	5.7	5.25	4.65	4.2	4.2	3.9	3.9	4.05	4.5	4.05	5.25	5.55	5.4	5.1	5.4	6.15	6.3	6.45	6.45	5.25	4.5	4.95	5.1	4.8	4.35	4.5	4.35	3.75	3.45	3.3000000000000003	2.85	3.0	2.85	2.7	2.55	2.25	2.25	2.4	2.1	1.7999999999999998	1.5	1.2	1.05	0.75	1.7999999999999998	1.5	1.35	1.2	0.8999999999999999	0.6	0.44999999999999996	0.44999999999999996	0.15
Node 39		0.15	0.6	0.8999999999999999	1.6500000000000001	2.85	5.55	6.3	6.45	6.45	7.199999999999999	7.5	7.35	6.45	5.7	5.25	4.65	4.05	4.05	3.3000000000000003	10.2	10.5	10.65	10.05	9.9	9.15	9.15	8.7	7.6499999999999995	6.6000000000000005	5.8500000000000005	6.0	5.25	4.2	3.75	3.5999999999999996	3.3000000000000003	3.45	3.3000000000000003	3.3000000000000003	3.45	3.3000000000000003	3.15	3.15	3.3000000000000003	3.5999999999999996	3.5999999999999996	3.5999999999999996	3.45	3.45	3.5999999999999996	3.9	3.5999999999999996	3.45	3.45	3.15	3.3000000000000003	2.85	2.85	3.3000000000000003	3.3000000000000003	2.85	2.55	2.25	2.1	2.1	1.7999999999999998	1.95	1.5	1.5	1.5	0.8999999999999999	0.75	0.6	0.15	0.0
Node 19		0.3	0.75	1.2	1.5	1.7999999999999998	4.5	4.8	5.55	5.8500000000000005	6.15	6.6000000000000005	7.049999999999999	6.6000000000000005	6.0	5.7	5.4	5.1	4.8	4.8	4.95	5.55	5.55	5.25	5.1	5.4	5.55	5.7	5.7	5.7	5.25	5.25	4.2	3.5999999999999996	3.5999999999999996	3.45	3.0	2.7	2.1	1.7999999999999998	1.95	1.95	1.95	1.7999999999999998	2.25	2.7	2.55	2.7	3.0	3.15	3.75	3.75	3.5999999999999996	3.75	3.75	3.75	3.3000000000000003	2.7	3.0	2.85	2.55	2.85	2.4	2.25	2.1	1.5	1.5	1.35	1.35	1.35	0.8999999999999999	0.8999999999999999	0.75	0.3	0.15	0.0
Node 28		0.3	0.3	0.6	0.8999999999999999	2.1	9.3	9.45	9.75	10.5	10.8	11.25	10.65	8.55	7.6499999999999995	6.45	5.4	4.05	4.05	4.05	4.5	3.9	3.75	3.15	3.5999999999999996	3.5999999999999996	3.5999999999999996	3.45	3.5999999999999996	3.15	2.7	3.0	3.75	4.2	4.65	5.25	4.65	4.65	4.8	4.8	5.25	5.25	5.55	5.7	5.1	4.95	4.8	4.35	4.35	4.2	4.2	4.65	3.75	3.5999999999999996	3.5999999999999996	3.75	3.75	3.45	3.15	3.15	3.15	3.3000000000000003	3.15	3.0	2.85	2.7	2.4	1.7999999999999998	1.5	1.95	1.7999999999999998	1.35	1.05	0.75	0.3	0.0
Node 30		0.75	0.8999999999999999	1.05	1.6500000000000001	1.95	2.4	2.4	2.55	2.85	3.0	3.3000000000000003	2.85	2.85	3.15	3.3000000000000003	3.0	2.85	2.55	3.0	3.0	2.85	3.0	3.0	3.0	3.0	2.7	2.7	2.85	3.0	3.0	3.0	3.15	3.0	2.7	2.4	2.4	2.4	2.25	2.25	2.1	2.25	2.25	2.1	1.95	2.1	2.1	2.25	2.1	1.95	1.95	1.95	1.7999999999999998	1.35	1.5	1.5	1.6500000000000001	1.7999999999999998	1.7999999999999998	1.95	1.95	2.25	2.4	2.4	2.4	2.4	2.1	1.7999999999999998	1.5	1.2	1.2	0.8999999999999999	0.8999999999999999	0.6	0.3	0.0
Node 35		0.6	0.6	0.75	1.05	2.1	6.15	6.3	6.75	6.75	6.9	7.199999999999999	6.0	5.4	5.1	4.95	3.45	2.4	2.1	2.4	3.0	3.15	3.45	3.45	3.5999999999999996	3.9	4.05	3.9	4.2	4.35	5.25	4.8	4.95	4.95	4.65	4.2	4.2	3.9	3.5999999999999996	3.45	3.0	2.85	3.15	3.45	3.5999999999999996	3.5999999999999996	3.5999999999999996	3.5999999999999996	3.45	3.45	3.0	2.7	2.7	2.55	2.1	2.1	1.95	2.1	1.7999999999999998	1.7999999999999998	1.6500000000000001	1.6500000000000001	1.7999999999999998	1.7999999999999998	1.6500000000000001	1.5	1.35	1.05	0.8999999999999999	0.75	0.75	0.75	0.75	0.44999999999999996	0.3	0.0
Node 5		0.8999999999999999	1.2	1.35	1.95	2.1	2.4	2.55	2.55	2.55	2.85	3.0	3.0	2.55	2.25	2.7	2.25	2.4	2.25	2.85	3.0	3.45	3.15	3.15	3.15	3.3000000000000003	3.5999999999999996	3.45	3.3000000000000003	3.0	2.85	2.25	2.25	1.7999999999999998	2.25	2.25	2.1	1.7999999999999998	2.1	1.6500000000000001	1.7999999999999998	1.95	2.1	2.1	2.25	2.55	2.7	2.85	3.0	3.0	2.7	3.0	3.5999999999999996	3.9	4.05	4.05	3.9	3.5999999999999996	3.45	3.15	2.85	2.7	2.85	2.7	2.1	1.6500000000000001	1.35	1.2	1.05	0.8999999999999999	0.6	0.6	0.6	0.6	0.3	0.15
Node 16		0.3	0.44999999999999996	0.44999999999999996	0.6	0.75	2.4	2.55	2.85	3.0	3.3000000000000003	3.5999999999999996	3.5999999999999996	3.45	3.0	2.85	2.85	2.55	2.1	2.1	4.35	4.65	4.2	3.75	3.5999999999999996	3.45	3.75	3.75	3.45	3.9	4.35	4.2	3.5999999999999996	3.3000000000000003	3.45	3.3000000000000003	3.15	3.5999999999999996	3.3000000000000003	3.3000000000000003	3.0	2.55	2.25	2.4	2.4	2.4	2.4	2.7	3.0	2.85	3.0	2.7	3.15	3.3000000000000003	3.0	2.85	2.85	3.15	3.0	2.85	2.55	2.55	2.4	2.55	2.25	2.1	1.95	1.7999999999999998	1.6500000000000001	1.2	1.05	1.05	0.8999999999999999	0.8999999999999999	0.44999999999999996	0.15
Node 31		0.75	0.8999999999999999	0.8999999999999999	1.05	1.95	2.55	2.7	3.0	3.3000000000000003	3.75	3.75	3.5999999999999996	3.3000000000000003	3.0	3.15	3.0	2.85	2.7	2.85	2.55	2.25	1.95	2.25	2.4	2.7	2.85	2.85	3.15	3.3000000000000003	3.3000000000000003	3.5999999999999996	4.2	4.35	4.5	4.65	4.5	4.35	4.5	4.2	4.2	4.2	4.5	4.5	5.1	5.55	5.55	5.4	5.25	6.0	6.3	6.6000000000000005	6.15	6.0	5.7	5.8500000000000005	5.55	5.55	5.25	4.65	4.35	3.9	3.5999999999999996	3.3000000000000003	3.3000000000000003	2.55	2.25	1.7999999999999998	1.5	1.05	1.2	0.8999999999999999	0.6	0.44999999999999996	0.44999999999999996	0.15
Node 1		0.6	0.8999999999999999	1.05	1.05	1.5	1.6500000000000001	1.6500000000000001	1.6500000000000001	1.7999999999999998	2.1	2.25	2.25	2.55	2.55	2.7	3.0	2.85	3.0	3.45	3.45	3.5999999999999996	3.3000000000000003	3.5999999999999996	3.5999999999999996	3.5999999999999996	3.5999999999999996	3.45	3.5999999999999996	3.5999999999999996	3.9	3.75	4.05	3.9	4.05	3.9	3.5999999999999996	3.15	3.3000000000000003	3.15	2.7	2.7	2.25	2.1	1.95	2.4	2.55	2.7	2.85	3.0	2.7	3.0	3.45	3.75	4.2	4.2	4.2	4.05	4.05	3.75	3.9	3.75	3.75	3.75	3.3000000000000003	2.55	2.1	1.95	1.6500000000000001	1.35	1.05	0.8999999999999999	0.6	0.44999999999999996	0.3	0.0
Node 11		0.75	1.05	1.2	1.2	1.35	1.35	1.5	1.6500000000000001	2.25	2.85	3.45	2.85	3.0	2.85	2.85	3.15	3.15	3.3000000000000003	3.3000000000000003	3.0	2.85	2.55	2.1	2.25	2.4	2.55	2.7	2.85	3.3000000000000003	3.15	3.3000000000000003	3.45	3.5999999999999996	3.45	3.3000000000000003	3.45	3.3000000000000003	3.15	3.45	3.0	2.7	2.85	2.85	2.85	2.7	2.55	2.85	2.7	2.7	2.7	2.4	2.7	2.55	2.55	2.25	2.25	1.95	2.1	1.95	2.1	1.95	2.25	2.1	1.95	1.7999999999999998	1.6500000000000001	1.6500000000000001	1.5	1.5	1.35	1.2	0.8999999999999999	0.75	0.3	0.15
Node 25		0.0	0.3	0.3	0.75	1.05	1.95	1.95	2.1	2.4	2.85	3.15	3.45	3.9	3.9	4.05	3.45	3.45	3.3000000000000003	3.3000000000000003	4.8	4.5	4.2	5.25	5.1	4.95	4.65	4.05	4.05	3.5999999999999996	3.5999999999999996	3.5999999999999996	3.0	2.7	2.85	2.55	2.25	2.1	2.25	2.25	2.4	2.55	2.55	3.15	3.75	4.2	3.75	4.05	4.35	4.5	4.35	4.35	4.35	4.05	4.05	3.5999999999999996	3.3000000000000003	2.85	3.3000000000000003	3.0	3.0	2.85	3.15	3.15	2.85	2.7	2.55	2.4	2.1	1.7999999999999998	1.35	1.05	0.75	0.44999999999999996	0.15	0.0
Node 27		0.44999999999999996	0.75	0.8999999999999999	1.2	1.7999999999999998	2.55	2.55	3.15	3.15	3.15	3.45	3.3000000000000003	3.5999999999999996	3.3000000000000003	3.5999999999999996	3.75	3.5999999999999996	3.15	3.15	2.85	3.15	3.75	3.45	3.3000000000000003	3.0	2.85	2.55	2.4	2.4	2.85	3.3000000000000003	3.45	3.45	3.15	3.75	4.05	4.35	4.35	4.5	4.35	4.35	4.05	4.05	4.05	3.75	3.5999999999999996	2.85	2.85	2.55	2.7	2.4	2.7	2.7	2.55	2.1	2.4	2.85	2.85	3.15	2.85	3.15	3.0	3.0	2.55	2.4	2.4	2.25	1.7999999999999998	1.35	1.2	0.8999999999999999	0.75	0.3	0.15	0.0
Node 4		0.15	0.15	0.75	0.75	0.8999999999999999	3.0	3.0	3.0	3.15	3.3000000000000003	3.75	4.2	3.3000000000000003	3.15	2.55	2.7	2.7	3.0	4.05	13.65	14.399999999999999	17.1	16.5	16.05	14.85	13.950000000000001	13.65	11.55	10.05	9.3	8.1	5.7	4.8	4.65	3.75	3.5999999999999996	3.45	2.85	2.55	2.7	2.55	2.25	2.25	3.15	4.65	4.8	4.65	4.35	4.05	3.9	4.35	4.2	4.8	4.8	4.5	4.2	3.45	3.3000000000000003	3.3000000000000003	3.5999999999999996	4.05	3.75	3.15	2.7	2.1	1.95	1.7999999999999998	1.6500000000000001	1.6500000000000001	1.5	1.05	0.44999999999999996	0.15	0.0	0.0
