Node	Value
13	23
21	89
10	19
18	39
11	4
34	39
3	79
27	23
19	21
40	19
6	73
35	29
9	41
5	45
22	55
15	57
26	34
28	56
29	54
37	26
32	31
17	18
24	42
7	69
4	292
12	27
16	57
38	73
14	28
31	65
23	66
36	75
0	28
2	35
25	39
1	27
39	83
8	50
33	111
20	24
