Node	Value
8	43
39	77
32	33
34	32
3	82
28	52
25	40
2	37
12	48
33	111
17	16
4	310
23	62
13	23
22	59
6	68
5	47
10	19
16	58
14	28
29	53
9	38
15	60
7	69
31	64
40	21
35	22
19	23
18	31
20	24
24	62
0	34
37	26
26	34
27	23
1	27
36	71
11	4
21	84
38	73
