Node	Value
6	68
7	69
28	53
10	17
21	83
1	26
11	4
26	35
17	11
15	60
0	37
4	312
37	24
31	66
19	23
20	25
12	49
29	54
9	40
36	73
8	44
33	112
24	66
35	20
3	80
2	39
23	65
16	56
27	22
40	22
25	40
18	29
14	28
5	48
13	22
22	61
32	31
38	73
39	75
34	32
