NrofLatencyAverage/Contact
32000 230932.0937
64000 215594.8286
10500 246262.1209
42500 222047.0615
74500 224675.8891
21000 233050.7496
53000 220625.4783
85000 231795.6350
31500 231423.0480
63500 215303.9137
10000 249423.3943
42000 222225.8556
74000 224537.0626
20500 233364.9526
52500 220892.5871
84500 231795.6350
31000 231596.3186
63000 215063.9363
9500 251115.3336
41500 222862.1195
73500 223696.8314
20000 233027.4877
52000 221024.1923
84000 231795.6350
30500 231038.7682
62500 215103.9510
9000 251779.1665
41000 222976.1915
73000 223358.6331
19500 234127.5544
51500 221036.6621
83500 231795.6350
30000 231077.8014
62000 215285.0081
8500 250472.1720
40500 222924.2125
72500 223693.8213
19000 234870.0063
51000 221256.6909
83000 231795.6350
29500 230773.6698
61500 215726.9914
8000 251288.9646
40000 222958.9703
72000 223303.3940
18500 235737.5883
50500 220921.5621
82500 231795.6350
29000 231079.5048
61000 215731.9969
7500 247706.1883
39500 223642.7316
71500 222593.8156
18000 236235.7739
50000 220556.2480
82000 231795.6350
28500 231354.4348
60500 215469.6251
7000 249492.6348
39000 222620.5125
71000 221643.3465
17500 236557.7577
49500 220086.9531
81500 231770.1118
28000 231045.9160
60000 215605.8823
6500 250368.5409
38500 223212.1751
70500 221327.9597
17000 235911.8135
49000 219138.0412
81000 231521.6960
27500 231309.2249
59500 216001.9057
6000 252771.8526
38000 223526.4707
70000 220712.5388
16500 236809.7616
48500 218288.4126
80500 231334.5791
27000 231427.6855
59000 216208.2455
5500 256123.5798
37500 223611.5532
69500 219962.4010
16000 235684.7896
48000 217928.1400
80000 230925.8842
26500 230436.2669
58500 216562.9918
5000 257870.2825
37000 224401.7363
69000 219098.7919
15500 236269.2421
47500 218382.0552
79500 230564.8116
26000 230736.2015
58000 217069.2446
4500 259857.2577
36500 225201.7506
68500 218891.7437
15000 237549.6725
47000 218703.9262
79000 230513.1444
25500 230671.7646
57500 217469.4444
4000 255011.7590
36000 225426.0119
68000 218491.4775
14500 238668.5213
46500 218954.3133
78500 230352.7562
25000 229400.9044
57000 217804.4238
3500 239997.8027
35500 225704.7814
67500 218241.3256
14000 239351.6041
46000 219403.5471
78000 230051.6374
24500 230719.0996
56500 218103.3883
3000 223979.7500
35000 226362.6590
67000 217709.6540
13500 236924.3628
45500 220108.1098
77500 229568.6885
24000 230981.5747
56000 218441.4230
2500 184185.9430
34500 227702.3586
66500 217774.3018
13000 238323.8781
45000 220033.9503
77000 228519.9208
23500 232445.0338
55500 219231.4675
2000 91461.7600
34000 228790.2328
66000 217297.8636
12500 238741.8216
44500 220285.4160
76500 226599.1013
23000 232597.4863
55000 219420.9367
1500 72939.6061
33500 229756.8620
65500 216717.7300
12000 238912.2509
44000 220932.5748
76000 226240.2217
22500 232433.4118
54500 219648.5112
1000 67254.0526
33000 230166.5061
65000 216303.2523
11500 241158.3988
43500 221294.0643
75500 225857.6344
22000 232745.9132
54000 219662.2699
500 18074.5000
32500 230787.0479
64500 215946.3345
11000 245019.2079
43000 221765.4885
75000 224823.5650
21500 232795.5812
53500 219977.0337
85500 231795.6350

