78	9722
4	4046
7	14142
9	14660
34	12927
74	10881
31	3991
71	11696
69	8949
59	9097
25	10270
13	15662
11	12776
33	10465
30	8707
53	11578
23	9024
67	4063
39	1844
95	15361
8	3369
38	15657
43	7158
60	7495
88	14403
92	5606
10	8733
19	11609
36	12103
61	6493
2	4515
20	13194
91	11261
18	13187
15	14500
90	15175
6	15101
79	14038
75	12263
85	15471
49	12283
56	15556
77	10822
84	15233
62	13868
93	12445
21	8889
68	8766
80	15724
5	7509
27	9917
29	9330
94	14773
73	14032
96	13579
58	11952
41	12911
64	13027
76	11538
16	14396
35	11271
50	14406
37	12786
46	8477
12	6972
70	15226
72	12113
81	9931
55	2850
14	14360
65	8028
40	2660
28	14409
87	8211
89	1541
48	14545
3	12295
83	11644
42	11113
45	11689
44	9524
57	5518
26	4723
32	12800
17	12619
1	11124
22	10484
82	14030
