NrofLatencyAverage/Contact
8000 21160.9344
16000 20712.1821
2500 10156.0037
10500 19707.0883
18500 25112.9952
5000 21246.6483
13000 20342.2280
7500 21409.5197
15500 20668.6140
2000 10255.0569
10000 20348.1414
18000 24549.5536
4500 19937.9084
12500 19954.2360
7000 21797.4979
15000 20919.1861
1500 10359.2356
9500 20431.5594
17500 24032.1972
4000 12239.8266
12000 18796.4871
6500 22179.0801
14500 20855.9942
1000 10540.4886
9000 20892.6358
17000 23589.7687
3500 9570.7200
11500 19087.6907
6000 22112.7902
14000 20749.0992
500 10792.2849
8500 20870.8857
16500 21567.3413
3000 9950.5366
11000 19335.5968
19000 25714.7213
5500 22183.6576
13500 20652.9746

