25	793
19	890
13	883
32	953
8	758
22	749
11	33
7	996
37	419
34	1586
28	1174
6	1373
23	1871
16	1009
20	1078
35	783
1	933
31	2196
17	950
21	2332
4	1400
15	1236
39	3258
10	360
26	1294
30	63
5	1571
38	1908
14	2170
18	2523
24	1545
33	1253
2	1069
12	1696
3	2246
40	933
9	1076
27	205
0	2301
36	1556
29	1183
