Message stats for scenario ProphetBiasa1
sim_time: 274883.0000
created: 3892
started: 59438
relayed: 55594
aborted: 3844
dropped: 688
removed: 55594
delivered: 2989
delivery_prob: 0.7680
response_prob: 0.0000
overhead_ratio: 17.5995
latency_avg: 29469.4246
latency_med: 25598.0000
hopcount_avg: 11.5587
hopcount_med: 8
buffertime_avg: 2794.0905
buffertime_med: 308.0000
rtt_avg: NaN
rtt_med: NaN
TotalCopy: 52605
