NrofTotalCopy/Contact
8000 17103
16000 40910
2500 1431
10500 22439
18500 51049
5000 8075
13000 28875
7500 15102
15500 38842
2000 1170
10000 21010
18000 49623
4500 6185
12500 26828
7000 14270
15000 37202
1500 1013
9500 19604
17500 47563
4000 3375
12000 24740
6500 12106
14500 35638
1000 866
9000 18820
17000 45713
3500 2189
11500 24030
6000 11023
14000 33727
500 545
8500 18353
16500 42518
3000 1626
11000 22857
19000 52032
5500 9709
13500 30229

