Node	Value
83	26
3	23
77	150
34	168
37	17
12	7
74	46
72	50
62	25
29	13
17	5
15	95
36	40
50	16
57	1
33	11
28	1455
56	502
26	4
70	17
42	220
94	134
11	58
27	12
46	8
63	7
0	1
91	22
96	12
13	38
23	39
55	4
38	222
40	4
64	33
6	66
7	49
95	296
22	17
18	70
69	24
93	21
1	10
10	14
89	4
78	9
88	42
52	6
82	51
59	7
87	9
65	18
71	29
9	45
4	1
31	8
32	22
80	57
14	31
79	42
76	32
61	2
67	4
44	3
81	45
19	26
39	1
20	23
53	64
41	63
16	45
49	74
75	54
73	39
84	44
58	30
43	9
68	19
54	7
90	36
92	4
8	1
45	28
48	13
47	5
60	14
21	20
30	14
35	12
5	15
85	161
25	8
2	3
