83	37
3	34
77	175
37	4
34	229
74	28
62	29
72	62
29	7
15	156
36	29
50	7
57	1
33	5
28	1382
56	652
26	22
70	10
42	233
94	239
11	116
46	14
27	1
91	15
96	36
13	104
23	53
55	2
38	361
40	2
64	21
6	57
7	43
95	451
22	23
18	140
69	30
1	6
93	5
10	4
78	6
88	49
82	57
59	6
65	7
71	27
9	54
4	4
31	1
32	27
80	50
14	38
79	57
76	114
67	2
44	5
81	69
19	15
53	84
20	6
41	91
16	54
49	122
75	56
73	41
84	33
58	51
43	7
68	7
90	21
48	16
45	17
60	9
35	6
21	9
30	10
85	312
5	4
25	9
2	15
