12 0.4860928556285859
77 1.9358172567309715
74 0.6973288106847483
62 0.6686771252915032
29 0.5265528937884234
15 1.1271040915836446
36 0.7550349798600784
33 0.46041975832096205
26 0.6361140555437811
28 10.351939792240882
56 5.955130379478478
70 0.5546109815560754
42 3.3464278142887647
11 1.4032541869832442
0 0.47722069111723403
27 0.4788424846300619
46 0.6931948272206887
66 0.4398028407886291
23 0.9561797752808956
55 0.4982404070383718
38 2.9784184863260634
64 0.8043141827432624
7 0.6473712105151685
95 2.9832202671189414
69 0.7034343862624559
1 0.4710303158787404
10 0.46922832308670703
52 0.49498622005512544
24 0.48078227687089287
71 0.7385838456646135
31 0.4764150943396187
76 1.0195357218571084
67 0.5206593173627357
39 0.5131757472970115
49 1.2029573881704563
73 0.8573139707441152
75 1.188202247191006
84 0.6410218359126548
58 0.8844710621157487
68 0.6113843544625793
54 0.438043247827006
90 0.6229171083315629
92 0.4202141191435211
47 0.46469154123383755
30 0.4685499258002989
35 0.5134301462794172
5 0.5429086283654921
25 0.567924528301889
85 3.1554059783760877
2 0.5474666101335633
83 0.7481132075471627
3 0.7562963748145048
34 3.0769026923892406
37 0.55311638753445
72 1.0434704261182968
17 0.4444244223023147
50 0.5274750900996389
57 0.46057875768496853
94 1.7811426754292867
63 0.47361670553318
91 0.5571867712529214
13 1.1585859656561386
96 0.2937778248886955
40 0.5117341530633862
6 0.8540067839728661
22 0.677718889124441
18 1.5870998516005927
93 0.5072927708289113
89 0.4398240407038399
78 0.4999576001696009
88 0.8391668433326241
59 0.4849480602077578
82 0.7149671401314315
87 0.5199597201611215
65 0.5415518337926649
4 0.5314182743269023
9 0.935838456646179
32 0.6509539961840209
14 0.7320648717405109
80 0.7163981344074628
79 0.7947000211999089
61 0.5057027771888931
44 0.5041021835912672
19 0.5694721221115139
81 1.1548865804536768
20 0.46234895060419345
53 1.02459190163239
41 2.120903116387517
16 0.9656455374178524
43 0.6516111935552277
51 0.4273478906084382
8 0.4433962264150936
86 0.480782276870891
45 0.6094975620097506
48 0.5797116811532778
60 0.4871422514309989
21 0.5339092643629499
