Node	Value
82	129
48	65
35	51
93	127
92	33
58	44
83	97
55	6
79	199
41	64
65	60
84	205
88	192
28	771
44	69
59	28
43	26
0	1
80	420
19	201
69	112
21	64
63	4
53	127
30	83
17	66
76	164
73	157
95	277
5	64
72	167
47	11
34	200
52	6
4	14
26	37
67	19
56	253
61	20
38	374
39	21
54	3
81	195
46	32
22	109
2	32
77	262
8	6
51	1
71	239
45	111
42	153
89	6
20	226
27	55
57	8
62	112
1	53
87	21
96	104
6	288
29	75
36	159
7	180
32	71
12	48
37	60
25	58
18	190
78	94
91	97
16	185
33	82
94	311
23	99
14	159
90	208
31	129
85	322
13	233
50	125
64	175
10	65
60	42
11	136
68	55
70	80
75	110
40	44
15	238
49	287
9	204
74	124
3	89
