Message stats for scenario SimBetReality#SA_0.8
sim_time: 16981816.0000
created: 25299
started: 19636483
relayed: 19610686
aborted: 25797
dropped: 19624347
removed: 0
delivered: 11578
delivery_prob: 0.4576
response_prob: 0.0000
overhead_ratio: 1692.7887
latency_avg: 633630.5439
latency_med: 519286.0000
hopcount_avg: 13.4217
hopcount_med: 9
buffertime_avg: 46731.8051
buffertime_med: 3656.0000
rtt_avg: NaN
rtt_med: NaN
