49 65.88325206699166
46 56.26243375026505
30 48.29824040703825
18 70.50900996395966
48 76.08138647445406
20 72.13239347042624
67 22.91096035615846
70 78.45607377570492
16 79.43924104303603
96 76.56105575577665
73 72.55984736061036
35 53.395018019927946
92 15.533559465762378
31 28.177188891244445
50 73.754186983252
52 2.9702141191435287
36 67.87358490566041
41 64.24733941064265
84 82.11598473606104
89 14.364786940852134
5 43.44242103031585
33 58.5939792240831
15 78.32440110239556
39 13.288424846300417
4 22.843735425058295
58 63.96622853508591
14 80.03682425270297
94 81.36580453678185
91 56.92168751324999
22 58.36207335170655
68 50.72751748993007
76 61.61146915412339
2 23.156158575365833
54 2.6283866864532652
9 77.71850752596995
37 64.02122111511572
65 39.32348950604208
3 62.03606105575554
13 84.96548653805414
95 82.46340894636442
78 54.01907992368005
34 69.30807716769145
69 44.55238499045981
42 59.51545473818063
8 18.989824040703887
44 51.38164087343664
81 57.789781640873315
12 41.63184227263092
32 72.78267966928124
43 33.699851600593675
71 59.07008691965222
82 75.27424210303172
80 85.04810260758968
85 84.35581937672278
10 44.895590417638225
24 2.884820860716559
79 76.47324570701711
66 2.639029043883802
17 73.39431842272623
6 81.43211787152859
88 78.6579817680727
93 75.80239559041749
77 66.15172779308865
63 2.841997032011885
83 60.92278990884
45 61.67269450922181
27 58.9231715073139
62 73.34778460886153
25 53.31006995972025
51 2.564256942972201
1 56.548145007419826
59 50.601568793724965
7 74.44793300826798
40 21.976192495230034
90 81.33775704897221
28 79.8695569217725
75 70.90568157727418
86 2.8848208607165717
11 65.23235107059574
19 61.60843756624953
23 51.12885308458778
57 28.93953784184841
47 2.7885308458766067
0 2.863451346194612
55 20.861331354674785
72 64.24418062327767
74 62.215433538265884
56 84.98297646809428
60 49.479754080983284
61 36.55906296374814
21 44.467818528725836
29 56.79790120839506
38 84.93502225991135
53 66.31594233623076
64 72.12654229383094
26 22.60381598473586
87 41.44729701081184
