Message Drop for scenario SimBetReality#SA_0.8
sim_time: 16981816.0000

82	307279
93	95626
92	13362
58	83917
83	270045
55	27921
79	417596
41	201192
28	1372829
59	35358
43	24910
0	268
80	544310
53	131895
17	179511
76	136693
73	177323
5	153872
72	200768
47	261
34	281555
52	278
67	10256
39	20427
2	7979
77	341847
8	5111
71	220126
89	6509
57	11697
1	33508
6	445447
29	80741
12	61196
37	96915
25	30709
94	395432
31	92579
85	1149805
50	118704
11	276766
68	32286
70	184488
75	379973
40	43191
49	300311
48	277624
35	100761
65	142319
84	324702
88	244929
44	204851
19	267396
69	55541
21	79501
63	266
30	287800
86	270
66	247
95	639952
26	7447
4	17952
56	641652
61	15199
38	562318
54	246
46	89028
81	170039
22	255921
51	240
45	330382
42	263401
20	326665
27	229528
62	132300
87	21105
96	172048
36	253022
7	278928
32	153409
24	270
78	99850
18	345051
91	196005
16	194712
33	139632
23	61235
14	375021
90	466271
13	1055609
64	77988
10	103132
60	46447
15	266388
9	145722
74	320465
3	180788

