Message Drop for scenario SimBetReality#HillClimbing_0.4
sim_time: 16981816.0000

24	270
5	181566
1	29365
47	261
74	223911
23	61910
80	381654
43	38418
46	71524
39	13003
32	106801
3	172186
36	319234
37	92273
6	270821
29	42799
62	192589
79	398407
87	21017
12	34501
49	480270
10	64248
0	268
38	765779
41	191277
69	32928
94	551254
75	396905
48	131757
26	7909
21	79939
56	1047384
85	576592
54	246
19	205591
55	17499
20	255943
90	411774
73	185768
9	162086
8	3810
42	291505
30	191461
14	312158
66	247
93	90753
7	209930
84	395560
16	193082
95	656528
27	151152
61	5064
53	162939
40	4531
50	199955
34	292911
57	6641
83	241275
60	26588
92	17227
35	68303
15	338688
52	278
81	163794
22	406058
2	5697
82	306943
64	76211
13	1064754
89	5414
65	105645
72	193417
33	66167
44	163222
86	270
88	373984
70	165993
63	266
78	87691
17	217443
77	352848
58	81173
91	198890
68	42517
31	73751
45	208709
25	45502
96	118756
28	1489729
59	33096
76	118214
4	14577
18	375779
51	240
67	9093
11	285358
71	215291

