82 75.34933220267123
92 23.393512825948722
93 71.81384354462573
58 62.603095187619196
83 62.06128895484412
55 21.412253550985994
79 77.38825524697907
41 65.0540597837612
28 80.29020563917784
59 51.96400254399006
43 33.83962264150926
0 2.863451346194612
80 86.88882764468957
53 67.99527241891025
17 74.01695993216003
76 61.734534661861446
73 74.03945304218759
5 44.35304218783123
47 2.7885308458766067
72 63.24435022259928
34 70.40794996819984
52 2.9702141191435287
67 26.909115963536085
39 13.544138223446929
2 27.580368878524695
77 68.20197159211354
8 24.356349374602697
71 63.53120627517458
89 14.195251218995134
57 18.9514733941064
1 56.157918168327285
6 81.92925588297653
29 59.24331142675423
12 51.841000635997446
37 67.36156455374163
25 51.905278778885034
94 82.44070383718474
31 27.17292770828918
85 86.22806868772561
50 78.79650201399198
11 66.9431630273477
68 51.613461946152064
70 81.97566249734994
75 72.33171507313969
40 16.249480602077533
49 67.24736061055725
35 58.519906720373285
48 73.7539113843547
65 39.50682637269455
84 83.1901420394316
88 79.03076107695547
44 51.635615857536564
19 62.84810260758957
69 44.17583209667154
21 45.4891668433325
63 2.841997032011885
30 50.401929192283085
86 2.8848208607165717
66 2.639029043883802
95 82.61806232775038
4 25.373436506254006
26 14.329616281534822
56 85.73249947000248
61 30.321517913928684
38 85.57525969896183
54 2.6283866864532652
46 53.997710409158465
81 59.10125079499663
22 58.62192071231701
51 2.564256942972201
45 62.1859232563069
42 59.341170235318685
20 71.58443926224292
27 56.14996820012719
62 74.72213271146923
87 44.10239559041766
96 74.81216875132505
36 71.8398982404068
7 76.28149247402992
32 74.7799660801356
24 2.884820860716559
18 70.69737121051509
78 52.760610557557605
91 59.53835064659738
16 80.15172779308864
33 57.73902904388376
23 51.49370362518553
14 81.13729065083729
90 82.98558405766389
13 85.78376086495685
64 71.80975196099197
10 44.73317786728824
60 52.96828492686009
15 78.6324146703414
9 81.1805172779306
74 62.43226627093478
3 64.95484418062314
