82 75.75615857536593
92 39.54939580241619
93 75.22427390290437
58 65.60493958024192
83 63.536909052363725
55 21.40623277506907
79 77.41960992156038
41 65.58439686241296
28 80.50366758533018
59 54.26527453890196
43 36.168963324146354
0 2.863451346194612
80 86.88039007843989
53 67.54850540597826
17 73.29749841000626
76 63.28134407462368
73 73.98274326902678
5 44.47712529149885
47 2.7885308458766067
72 65.58577485690064
34 70.33025227899083
52 2.9702141191435287
67 24.144265422938098
39 13.534110663557176
2 30.704006783972947
77 67.76383294466808
8 20.031715073139747
71 64.32259910960342
89 14.37964808140753
57 30.30460038159815
1 60.39908840364644
6 82.14488022047941
29 59.2839092643629
12 54.61004875980504
37 68.58600805596772
25 56.88079287682861
94 82.73419546321834
31 28.142760228959045
85 86.19355522577955
50 74.0506677973288
11 67.92755988976053
68 48.030697477210246
70 80.0874284502863
75 72.86993852024598
40 34.34153063387744
49 68.12043671825292
35 59.99389442442226
48 78.22300190799248
65 39.86516853932593
84 82.77008691965214
88 79.71854992580016
44 53.3362518549926
19 63.57742209031132
69 45.592855628577496
21 46.148653805384775
63 2.841997032011885
30 51.036654653381284
86 2.8848208607165717
66 2.639029043883802
95 83.36309094763628
4 25.334343862624568
26 26.041170235318884
56 85.79749841000667
61 43.28638965444168
38 85.60120839516657
54 2.6283866864532652
46 58.183930464277964
81 58.706826372694444
22 53.91573033707853
51 2.564256942972201
45 65.42117871528495
42 59.84793300826764
20 68.12300190799259
27 61.2829552681788
62 73.13574305702767
87 46.71068475726092
96 76.30920076319681
36 70.83625185499251
7 75.27551409794367
32 74.56896332414685
24 2.884820860716559
18 71.55662497349998
78 56.55988976044076
91 60.41320754716984
16 81.21299554801776
33 60.04420182319274
23 51.708077167691215
14 81.35541657833362
90 83.17239771040921
13 86.21910112359582
64 73.69171083315673
10 47.14318422726271
60 50.70582997667973
15 79.37886368454497
9 81.89105363578545
74 62.75401738393035
3 65.48624125503493
