Message stats for scenario SimBetReality#SA_0.3
sim_time: 16981816.0000
created: 25299
started: 19774863
relayed: 19749305
aborted: 25558
dropped: 19762942
removed: 0
delivered: 11614
delivery_prob: 0.4591
response_prob: 0.0000
overhead_ratio: 1699.4740
latency_avg: 639334.1254
latency_med: 521273.0000
hopcount_avg: 13.8500
hopcount_med: 10
buffertime_avg: 45057.4776
buffertime_med: 3571.0000
rtt_avg: NaN
rtt_med: NaN
