Message stats for scenario SimBetReality#SA_0.1
sim_time: 16981816.0000
created: 25299
started: 17089532
relayed: 17063877
aborted: 25655
dropped: 17077862
removed: 0
delivered: 11251
delivery_prob: 0.4447
response_prob: 0.0000
overhead_ratio: 1515.6543
latency_avg: 636105.3085
latency_med: 519257.0000
hopcount_avg: 11.3539
hopcount_med: 8
buffertime_avg: 50843.6960
buffertime_med: 3709.0000
rtt_avg: NaN
rtt_med: NaN
