82 3505
48 1726
35 614
93 1035
92 245
58 737
83 1915
55 72
79 2037
41 818
65 1341
84 3134
88 2853
28 1467
44 1482
59 128
43 225
80 3916
19 3070
69 298
21 644
53 1500
30 1154
17 2014
76 1719
73 2036
95 6473
5 1211
72 2206
34 2325
26 287
4 261
67 142
56 5207
61 274
38 5961
39 301
46 185
81 426
22 2496
2 90
77 4376
8 69
71 2504
45 1226
42 2157
89 173
20 2917
27 799
57 86
62 1601
1 544
87 180
96 526
6 1652
29 876
36 3470
7 840
32 490
12 460
37 700
25 477
78 783
18 2965
91 1833
16 2009
33 889
94 4724
23 767
14 1624
90 3849
31 2387
13 2339
85 1652
50 1808
64 534
10 686
11 2696
60 430
68 404
70 1750
75 4158
40 544
15 3411
49 3613
9 1797
74 1162
3 1352
