A83 0.4939312767583277 
A3 0.5073658148654168 
A77 0.5927842689440537 
A12 0.4926511130896904 
A34 0.5333791035587163 
A37 0.519799148954929 
A74 0.49384462536768564 
A62 0.49456010233525716 
A72 0.5265842422604576 
A29 0.4918223910191795 
A17 0.5806078823294032 
A15 0.5466844539492994 
A50 0.461248528892671 
A36 0.569652219225248 
A57 0.40404379169860083 
A33 0.4717204956277692 
A56 0.5501862612737355 
A28 0.5786631959170958 
A26 0.37781196715794624 
A70 0.5178872838847274 
A42 0.6562955095118468 
A94 0.46919334676866903 
A11 0.5060803684174298 
A46 0.4954835425639088 
A27 0.5361186075159807 
A63 0.2626505556023748 
A0 0.014603672150665954 
A91 0.4831240306885445 
A13 0.5819960977115715 
A96 0.4757518313241996 
A55 0.4488023690174412 
A23 0.5968281572106424 
A38 0.5152981345261112 
A40 0.37932376137293755 
A64 0.513557008288761 
A6 0.5189352539024094 
A95 0.5502846881768767 
A7 0.5521066377557304 
A22 0.5313824821173969 
A18 0.5424213331055913 
A69 0.5257432592841365 
A1 0.41960041536899656 
A93 0.46720496096605885 
A10 0.4682747025678841 
A89 0.453971912452282 
A78 0.47717762701498645 
A88 0.5187443738125547 
A52 0.10762321618659206 
A82 0.5378674573271744 
A59 0.5133649592382552 
A87 0.4640129968868095 
A65 0.47565676355812947 
A71 0.5170421810352356 
A9 0.5779384617837966 
A4 0.5593367418105026 
A31 0.5253102335823074 
A32 0.6071494334612602 
A80 0.5781260956703169 
A14 0.5345977543878204 
A79 0.5305643712822222 
A76 0.5199055122814867 
A61 0.4882947666617256 
A67 0.43962996601827864 
A44 0.4850833001521523 
A19 0.4730008717692545 
A81 0.5318344875846118 
A39 0.546051512018218 
A20 0.4806230958457414 
A53 0.5310159963181501 
A41 0.5334702486302876 
A16 0.5618412816695456 
A49 0.4904989161492542 
A84 0.5390445030383875 
A75 0.6097057139874525 
A73 0.5557747496176347 
A58 0.5428122170826343 
A43 0.6628311618488057 
A68 0.5121900110962827 
A54 0.22622051413970456 
A90 0.4974256641534534 
A92 0.43863924995384324 
A51 0.9129133370420881 
A8 0.5227203866564095 
A86 0.0 
A48 0.4625648294532769 
A45 0.5039819975129745 
A47 0.2155327541996731 
A60 0.5458049948607118 
A30 0.497053455860873 
A21 0.47550660278493606 
A35 0.47345529766041405 
A85 0.5189761211196716 
A5 0.536358504778181 
A25 0.4601611772602307 
A2 0.4610774322277531 
