14	368595
69	41429
3	167301
94	629001
20	307768
10	60261
81	139533
36	267104
22	368144
40	7710
4	15980
44	184866
12	45116
92	11720
45	300611
71	186083
2	6490
70	166293
21	59343
56	1009091
82	295586
6	263070
26	4479
42	275974
49	298200
75	386514
76	99877
9	124965
11	276903
28	798485
5	102972
7	282161
48	107472
15	440977
88	263967
50	168786
59	31551
53	153257
41	160709
80	417868
33	79805
68	21377
17	148484
27	141321
13	924871
72	192282
18	325215
25	17214
31	128252
79	384884
0	29
62	147698
34	426776
16	158692
1	13844
60	35816
8	4665
64	68502
57	5826
23	51172
77	352906
39	16943
46	56575
87	20531
38	1099887
67	7499
43	27647
89	8866
85	686862
30	235044
55	23952
91	177153
65	113654
61	18404
78	85403
93	57621
37	83699
74	238919
29	67693
35	89421
90	384322
83	216127
32	154906
96	102264
84	400385
19	241288
95	1263365
58	68493
73	197212
