12 18.671358914564205
77 68.12026711893125
74 62.88293406826367
62 74.97810048759808
29 55.87697689209246
15 79.69281322874686
36 71.1747933008266
33 59.61878312486738
26 14.128407886368528
28 80.47769768920959
56 85.97364850540637
70 81.19800720797116
42 59.292961628153186
11 67.00279838880643
0 2.863451346194612
27 57.95420818316713
46 58.60286198855202
66 2.639029043883802
23 49.46241255034977
55 19.549650201399427
38 85.69260122959543
64 67.95997456010168
7 74.23574305702788
95 83.41403434386318
69 42.51121475514072
1 37.503264786940775
10 41.404791180834856
52 2.9702141191435287
24 2.884820860716559
71 61.95259698961186
31 24.068072927708283
76 60.25787576849698
67 21.530400678397267
39 12.653953784184662
49 65.74795420818317
73 72.8264786940851
75 72.25342378630513
84 81.49826160695345
58 63.23444986220079
68 50.6359338562645
54 2.6283866864532652
90 81.07017171931341
92 30.112974348102377
47 2.7885308458766067
30 50.00093279626878
35 59.254844180623245
5 43.29147763408937
25 53.310324358702616
85 86.03315666737353
2 17.721411914352565
83 62.15732457070138
3 63.22092431630264
34 70.25246979012094
37 65.0444774220905
72 62.0533601865593
17 64.4712317150731
50 78.26605893576397
57 15.549756200975297
94 83.03885944456263
63 2.841997032011885
91 58.352554589781754
13 85.99983040067848
96 78.40012719949115
40 15.790841636633477
6 80.89520881916445
22 59.2005935976255
18 74.4558405766376
93 74.1766376934492
89 11.341488234047011
78 52.98622005511975
88 77.8014203943182
59 53.687767648929416
82 75.62035191859256
87 41.54208183167259
65 38.192346830612756
4 23.78089887640452
9 78.01924952300197
32 73.61322874708515
14 79.49853720585116
80 84.06128895484461
79 75.01231715073136
61 9.650561797752829
44 51.42692389230437
19 59.68193767224924
81 57.847509009963886
20 74.50290438838246
53 66.92558829764674
41 65.50313758744993
16 79.75410218359148
43 34.21176595293599
51 2.564256942972201
8 15.761352554589715
86 2.8848208607165717
45 59.420394318422716
48 75.37487810048758
60 31.711511553953564
21 45.09082043671817
