Message stats for scenario SimBetReality#HillClimbing_0
sim_time: 16981816.0000
created: 25299
started: 17955362
relayed: 17929582
aborted: 25780
dropped: 17943535
removed: 0
delivered: 11280
delivery_prob: 0.4459
response_prob: 0.0000
overhead_ratio: 1588.5020
latency_avg: 636039.2216
latency_med: 516361.0000
hopcount_avg: 12.4185
hopcount_med: 9
buffertime_avg: 48556.7422
buffertime_med: 3758.0000
rtt_avg: NaN
rtt_med: NaN
