14 1502
69 276
3 1584
94 2484
20 3133
10 831
81 398
36 3234
22 1188
40 136
4 252
44 1589
12 470
92 215
45 1097
71 2411
2 65
70 2022
21 567
56 2564
82 3593
6 3462
26 150
42 2151
75 3599
49 3177
76 1314
9 1432
11 2559
28 7535
5 1074
7 774
48 1302
15 1929
88 2906
50 2076
59 349
53 1783
41 1278
80 3611
33 1000
68 354
17 1991
27 1373
13 1798
72 2140
18 2885
25 384
31 2258
79 1920
62 1114
34 452
16 2217
1 239
60 421
8 64
64 556
57 51
23 780
77 4877
39 379
46 155
87 108
38 2198
67 69
43 257
89 247
85 5696
30 1126
55 135
91 1938
65 1345
61 146
78 802
93 784
37 523
74 1100
29 641
35 496
90 4336
83 2021
32 500
96 467
84 2469
19 2953
95 1815
58 735
73 2193
