Message Drop for scenario SimBetReality#SA_0.1
sim_time: 16981816.0000

77	442868
12	4551
74	299400
62	165263
29	52916
15	443255
36	276370
33	83039
56	1152729
28	1043552
26	2902
70	152279
42	415200
11	234349
46	83485
27	115559
0	268
66	247
23	56372
55	8126
38	703253
64	54637
95	842473
7	213775
69	25600
1	9644
10	56090
52	278
71	158456
24	270
31	34907
76	94897
67	6632
39	3332
49	220279
75	260953
73	161551
84	310946
58	98346
68	55615
54	246
90	270345
92	6714
47	261
35	62687
30	161893
85	680551
5	89247
25	18285
2	3729
83	176054
3	174746
34	349545
37	52681
72	230972
17	64146
50	184808
57	3383
94	497155
63	266
91	142500
96	190765
13	893232
40	3131
6	227608
22	287664
18	515301
93	107933
89	2191
78	72616
88	283420
59	29828
82	322181
87	13826
65	67301
9	107355
4	12717
32	133433
14	228646
80	308909
79	188442
61	1454
44	146496
81	120560
19	171710
20	175935
53	149978
41	149977
16	170505
43	20546
51	240
8	4333
86	270
48	231898
45	157897
60	14150
21	50536

