A49 0.5117046055107533 
A46 0.4918547233008101 
A30 0.47972089224583253 
A10 0.4763423799375484 
A18 0.4914433036152859 
A48 0.5168916319084006 
A79 0.5120956697154373 
A20 0.5058574246647994 
A67 0.4805222943743635 
A70 0.4941857189628089 
A17 0.45438883076372727 
A88 0.5075078542618833 
A6 0.500152458478239 
A93 0.5127179009869143 
A16 0.5119854658741222 
A96 0.5082309364803338 
A77 0.5139613365158573 
A73 0.5178315896742806 
A35 0.4644527561209199 
A63 0.21527942457219384 
A92 0.2525316537481531 
A83 0.4590468484750546 
A31 0.4781388697280314 
A50 0.472606837012162 
A52 0.13272457180950362 
A36 0.49796995005456923 
A84 0.5077666518354153 
A41 0.49941882147985955 
A89 0.5075856507969452 
A45 0.491539399755626 
A27 0.4946074912570186 
A5 0.5104507408152368 
A62 0.5072657158902908 
A25 0.49361428278385533 
A51 0.6638655462184876 
A1 0.46362891424719826 
A59 0.4757608702342683 
A33 0.4907236818738511 
A7 0.5060095693341315 
A15 0.5148761171806859 
A90 0.5013615816795188 
A40 0.38926317307196817 
A28 0.5029114489281244 
A39 0.4504370075800893 
A4 0.3654758218405525 
A75 0.5174324313311462 
A58 0.5248825640865872 
A14 0.5041382895329014 
A94 0.5128436188057922 
A86 0.0 
A91 0.4675695574677748 
A11 0.4736192696615629 
A19 0.500010778090985 
A22 0.45607732555425645 
A76 0.5427965456163032 
A68 0.52585043218243 
A57 0.37366900239109535 
A23 0.5248631783225854 
A2 0.4192764519629382 
A54 0.14081769998087335 
A47 0.15917468504299337 
A9 0.5100788428962454 
A37 0.46612981515413227 
A65 0.4634013958657109 
A0 0.058823529411764705 
A3 0.46414510290170824 
A13 0.5263679358698783 
A95 0.5145892798451172 
A78 0.49207773139077116 
A34 0.5004331055940379 
A69 0.516463045877709 
A42 0.5056065219378438 
A8 0.3788630630649811 
A55 0.49975910042421123 
A81 0.5207816533139606 
A44 0.46084440742597327 
A72 0.49361269337990904 
A12 0.4970415365429556 
A32 0.5133026881912196 
A74 0.5143982392290066 
A43 0.5223610787972292 
A71 0.43358585946182054 
A56 0.5095591729498828 
A61 0.4383879913212044 
A60 0.47830515790923406 
A38 0.5110716601786413 
A21 0.5027071392205877 
A29 0.4916684895197284 
A82 0.5176940400557767 
A53 0.5125896089031006 
A80 0.5266421422167714 
A64 0.509334477286407 
A26 0.40843300068358535 
A87 0.4920279859873977 
A85 0.5240950794161229 
