A11 0.4796823904463625 
A31 0.4801757205824607 
A68 0.5079509368814884 
A84 0.4976311000934064 
A57 0.39306823496171867 
A61 0.3496506587514332 
A59 0.5153331458970639 
A14 0.5219755819533243 
A4 0.41534204655750395 
A73 0.5384062154081302 
A93 0.5212775439804477 
A94 0.5365380845841088 
A92 0.3359444704681617 
A72 0.4764248890188397 
A38 0.5363750572605813 
A74 0.5599045488238518 
A23 0.5623851859456338 
A87 0.4752955086415697 
A63 0.343606348568824 
A75 0.5626511369982652 
A22 0.4915559127494126 
A46 0.5091901008381016 
A17 0.5035842602421946 
A25 0.4522235997702596 
A0 0.10937795246735119 
A3 0.4714613451703919 
A18 0.5098616259628654 
A50 0.46880278716415014 
A48 0.5336309170773942 
A47 0.2304279985312109 
A29 0.5174304092483819 
A15 0.5621427200702749 
A90 0.522342832065278 
A5 0.5021160762206482 
A58 0.5500819542460506 
A51 0.7972548504306666 
A78 0.4774884491737837 
A69 0.5702943448157265 
A70 0.5004034971594334 
A16 0.5667739311743416 
A19 0.4623298130311691 
A91 0.4556557615731404 
A41 0.5078104920862921 
A21 0.4669104850726572 
A55 0.46257645081637366 
A81 0.5464490151645305 
A52 0.1358117848865277 
A35 0.4603676560726202 
A96 0.5473119071358364 
A37 0.48183016241420973 
A1 0.3920941666644851 
A89 0.39556752915737065 
A9 0.5451822520655464 
A80 0.5423411326628211 
A77 0.5625897567180124 
A60 0.5216513235651045 
A76 0.5332975946225532 
A33 0.5189625197652866 
A8 0.3940170468059983 
A85 0.5244669459354283 
A2 0.5044209919883961 
A7 0.5110213173180534 
A36 0.5207809722451154 
A32 0.539809788788875 
A39 0.4796740569680838 
A44 0.46509541540285293 
A10 0.504976897422708 
A83 0.4710825423154707 
A40 0.46427523613754806 
A95 0.5525321617229808 
A34 0.5331190787303216 
A43 0.5914155550872797 
A62 0.5132366465104952 
A6 0.5107532128836211 
A20 0.4873559941152921 
A53 0.527598014988002 
A56 0.5539779180474089 
A79 0.530835155514398 
A27 0.5142517900148905 
A26 0.44542703631398584 
A42 0.5732524794485844 
A82 0.5346684982574587 
A86 0.0 
A64 0.5236570651921878 
A13 0.5624022673642072 
A28 0.5256169253538167 
A67 0.4753229352751598 
A12 0.42722832953732826 
A65 0.44383847333399057 
A49 0.4863701343384857 
A88 0.5124230888145022 
A54 0.1649138377175729 
A71 0.4705525935242056 
A45 0.4860340564625917 
A30 0.4685896804543753 
