Message Drop for scenario SimBetReality#HillClimbing_0
sim_time: 16981816.0000

77	437492
12	771
74	284990
62	154386
29	33084
15	291508
36	247580
33	89634
28	1432437
56	709712
26	5124
70	182772
42	404041
11	278604
27	152615
46	74767
0	268
66	247
23	55751
55	10655
38	759992
64	58651
95	791292
7	140860
69	26928
1	13910
10	68832
52	278
71	239197
24	270
31	41748
76	137640
67	10345
39	13046
49	266452
75	354120
73	197318
84	306139
58	69631
68	56207
54	246
90	219539
92	8444
47	261
35	76600
30	226449
85	697443
5	189880
25	34657
2	4338
83	225143
3	167543
34	300881
37	101157
72	172984
17	196730
50	168875
57	2599
94	645391
63	266
91	168604
13	740405
96	175742
40	1377
6	249967
22	298845
18	326514
93	105300
89	2303
78	96068
88	360828
59	30112
82	408211
87	11618
65	77231
9	144556
4	11419
32	166401
80	512563
14	210231
79	297514
61	1303
44	179478
81	127909
19	190913
20	231692
53	174542
41	164005
16	191616
43	24780
51	240
8	3040
86	270
48	132909
45	204330
60	18410
21	63569

