Message stats for scenario SimBetReality#DF_TTTL1MINGGU_0.3
sim_time: 16981816.0000
created: 25299
started: 56411
relayed: 44816
aborted: 11595
dropped: 64791
removed: 0
delivered: 5324
delivery_prob: 0.2104
response_prob: 0.0000
overhead_ratio: 7.4177
latency_avg: 254385.8274
latency_med: 233569.0000
hopcount_avg: 2.1736
hopcount_med: 2
buffertime_avg: 494486.4809
buffertime_med: 581336.0000
rtt_avg: NaN
rtt_med: NaN
