39 266
25 53
40 49
8 104
13 77
3 182
23 145
4 172
18 142
22 157
26 133
33 106
12 122
28 190
20 51
35 123
0 144
32 111
21 162
38 103
14 120
5 187
24 110
27 39
7 197
15 60
2 87
6 190
16 115
17 35
10 28
29 65
31 183
1 58
19 79
9 125
37 83
36 104
34 106
