2 74
34 149
33 86
37 94
15 128
11 8
29 82
36 135
31 123
0 304
8 135
21 309
39 434
35 101
16 157
27 36
3 211
7 203
9 180
32 200
10 43
18 216
40 147
13 117
5 103
22 183
23 219
28 246
19 90
24 185
12 239
4 153
17 150
6 239
20 75
38 161
25 56
26 252
14 231
1 56
