26	2323
39	2352
10	2005
2	2285
4	2094
15	2201
24	2271
13	2270
3	2064
18	2158
14	1581
21	2366
17	1762
33	2198
36	2390
27	1643
29	2293
31	2267
35	1382
28	2282
1	1695
22	2026
7	2367
34	2208
5	1852
19	2251
20	1617
30	107
37	1280
0	2331
38	2381
9	2318
11	274
23	2436
25	2244
16	2384
40	1244
32	2205
12	1645
6	1721
8	2234
