Node	Value
29	30
20	57
13	25
15	46
32	53
26	50
6	84
9	54
34	75
14	90
35	26
4	167
27	21
3	98
28	80
11	3
33	96
25	31
23	87
22	71
10	17
12	58
39	184
40	31
21	98
0	63
31	105
16	66
1	26
38	77
37	23
5	51
18	103
8	47
7	50
17	42
24	109
36	90
2	51
19	32
