Node	Value
25	55
19	25
13	26
8	51
32	33
22	71
11	5
37	26
7	62
34	60
28	92
6	108
23	64
16	88
20	50
35	25
1	27
31	60
17	32
4	69
21	128
15	108
39	108
10	20
26	65
30	2
5	77
38	79
14	48
18	85
24	76
33	43
2	71
12	75
3	103
40	8
9	64
27	14
0	67
29	31
36	90
