22	2343
12	1556
40	1306
3	2334
0	2619
35	1475
16	2711
1	2060
32	2514
15	2515
23	2710
24	2535
28	2563
6	2066
27	1586
25	2308
29	2520
2	2634
7	2688
13	2462
20	1926
4	2549
39	2633
10	2292
19	2551
34	2468
14	1948
9	2660
8	2533
26	2654
36	2672
17	1983
31	2510
33	2542
21	2703
37	1358
5	2131
18	2382
11	671
38	2625
