Message Drop for scenario SimBetHaggleInfocom_#SA_10M
sim_time: 274883.0000

3	8719
4	14103
18	12129
7	17674
25	5397
8	10192
23	8717
14	3713
12	1456
1	2199
28	7329
34	6031
16	7559
9	6163
17	1550
26	4125
6	15378
33	23264
5	19533
30	76
21	13153
32	4371
0	5726
20	4300
13	3770
24	3589
37	7442
38	9799
22	11163
15	13578
11	147
27	3410
2	11227
19	3541
10	3915
35	8157
29	3277
40	1313
39	4018
36	10558
31	9029

