Node 38		0.3	0.6	0.8999999999999999	0.8999999999999999	2.25	43.35	46.949999999999996	46.949999999999996	47.099999999999994	51.300000000000004	51.449999999999996	45.300000000000004	38.4	31.95	25.95	19.5	13.350000000000001	7.6499999999999995	5.4	5.25	81.6	87.15	80.10000000000001	94.35	89.7	81.45	73.5	83.25	79.80000000000001	90.0	87.6	81.3	74.85000000000001	67.65	60.3	51.9	44.55	38.25	31.2	24.3	17.849999999999998	10.5	4.95	51.15	51.300000000000004	60.0	54.6	49.65	43.5	69.6	72.6	73.95	66.75	60.45	53.1	45.9	39.45	32.550000000000004	25.35	19.35	13.5	7.049999999999999	4.05	1.95	1.6500000000000001	1.35	15.15	16.950000000000003	40.8	35.85	28.799999999999997	25.5	18.0	10.8	2.85
Node 40		0.0	0.0	0.0	0.0	7.8	42.9	49.05	50.1	50.24999999999999	50.24999999999999	50.24999999999999	43.5	36.3	29.549999999999997	23.1	16.2	9.6	3.5999999999999996	1.05	0.15	0.0	0.0	0.0	0.0	0.0	0.0	0.0	0.0	0.0	0.0	0.0	0.0	0.0	0.0	0.0	0.0	0.0	0.0	0.0	0.0	0.0	0.0	0.0	0.0	0.0	0.0	72.3	69.89999999999999	62.55	55.50000000000001	48.449999999999996	41.85	35.099999999999994	29.25	22.8	16.05	10.05	5.1	0.44999999999999996	0.0	0.0	0.0	0.0	0.0	0.0	0.0	0.0	6.9	6.3	5.8500000000000005	4.2	3.3000000000000003	1.95	1.05	0.15
Node 2		0.0	0.44999999999999996	0.6	0.75	1.2	43.35	43.95	44.25	44.55	44.7	44.7	38.4	32.1	25.8	19.950000000000003	14.249999999999998	8.4	9.15	6.9	22.650000000000002	81.0	88.64999999999999	87.9	94.05	89.25	84.45	77.7	75.3	66.9	89.1	86.1	78.60000000000001	70.8	62.849999999999994	55.50000000000001	47.25	40.35	33.300000000000004	26.25	19.2	12.6	5.7	6.9	50.4	49.8	45.300000000000004	59.699999999999996	69.89999999999999	81.0	79.80000000000001	77.85	74.55000000000001	70.19999999999999	64.95	57.599999999999994	50.55	43.8	37.2	29.7	23.25	17.1	9.9	6.15	3.15	1.6500000000000001	1.35	1.2	6.9	41.099999999999994	37.2	32.7	25.05	18.0	11.55	3.0
Node 9		0.75	0.75	1.05	1.05	5.1	43.5	46.35	47.4	47.85	48.15	48.75	42.9	36.449999999999996	30.3	24.0	17.4	11.4	9.15	6.9	64.05	66.0	80.25	86.55000000000001	90.3	89.25	84.75	85.95	81.0	73.8	90.3	87.9	84.89999999999999	77.25	69.3	61.8	53.55	46.050000000000004	38.4	31.2	23.7	17.25	10.65	6.9	51.74999999999999	54.15	61.050000000000004	69.6	66.75	67.65	78.9	76.5	73.95	66.60000000000001	59.85	52.5	45.15	38.25	31.5	24.75	18.75	13.350000000000001	7.049999999999999	4.65	3.3000000000000003	3.15	3.0	2.85	19.950000000000003	39.15	34.65	32.7	25.05	18.3	11.700000000000001	3.0
Node 27		0.44999999999999996	0.75	0.8999999999999999	1.2	1.6500000000000001	42.9	45.9	49.35	49.5	49.65	49.95	43.8	37.2	30.75	24.75	18.9	12.9	6.6000000000000005	3.75	40.8	80.4	87.15	79.5	94.05	90.14999999999999	82.05	86.4	80.25	72.0	89.85	87.75	81.45	73.95	65.85	58.650000000000006	50.7	43.35	36.15	29.25	22.5	15.75	9.15	4.05	3.9	3.5999999999999996	3.45	2.85	2.85	2.55	2.7	2.4	2.7	2.7	2.55	2.1	2.4	2.85	2.85	3.15	2.85	3.15	3.0	3.0	2.55	2.4	2.4	2.25	1.7999999999999998	1.35	1.2	0.8999999999999999	0.75	0.3	0.15	0.0
Node 29		0.75	1.2	1.95	1.95	2.1	43.8	45.9	46.050000000000004	46.5	48.75	49.05	42.75	36.6	30.3	24.6	18.0	12.15	6.6000000000000005	5.4	69.75	78.75	79.05	83.7	90.9	88.35	84.6	86.55000000000001	84.0	76.05	90.0	85.95	80.25	72.45	72.75	64.8	56.55	50.1	43.2	36.449999999999996	29.099999999999998	22.8	15.9	10.8	6.6000000000000005	4.65	4.05	69.3	67.95	60.9	54.300000000000004	47.55	41.4	35.099999999999994	29.549999999999997	23.400000000000002	18.0	12.3	8.1	3.3000000000000003	2.7	2.55	2.55	2.7	2.4	2.25	2.1	1.95	1.2	7.5	6.9	5.1	3.5999999999999996	17.4	11.25	3.0
Node 36		0.44999999999999996	0.44999999999999996	0.8999999999999999	1.05	1.2	41.699999999999996	42.15	48.75	49.2	49.65	51.300000000000004	48.15	41.85	36.0	30.15	23.849999999999998	18.45	13.5	10.2	16.950000000000003	80.25	79.65	82.05	89.25	90.3	82.35	85.5	80.10000000000001	77.55	89.4	87.15	82.19999999999999	74.7	66.60000000000001	60.6	53.1	46.050000000000004	39.6	32.7	26.25	20.1	13.8	8.4	42.449999999999996	61.95	60.0	71.25	70.35	72.6	79.5	76.8	69.6	64.64999999999999	58.5	51.15	44.1	36.9	30.15	23.1	17.549999999999997	11.25	6.6000000000000005	4.8	7.049999999999999	6.15	5.7	8.85	21.45	42.3	38.4	33.900000000000006	26.25	19.2	11.700000000000001	3.0
Node 33		0.75	1.05	1.05	1.05	1.35	39.45	47.85	48.75	49.05	49.05	49.2	42.75	35.85	29.4	23.7	17.4	11.25	5.4	3.0	2.1	7.5	80.85	80.55	94.05	90.9	87.3	89.7	84.75	81.6	91.05	88.94999999999999	84.15	76.64999999999999	68.55	60.75000000000001	52.349999999999994	45.0	37.65	30.0	22.8	16.2	9.75	4.35	2.4	25.650000000000002	52.349999999999994	73.5	78.45	83.55	80.10000000000001	79.2	78.9	72.3	65.10000000000001	57.45	50.1	42.75	36.0	28.499999999999996	22.2	15.15	9.15	4.95	2.55	2.4	2.25	1.95	1.7999999999999998	33.900000000000006	39.45	34.8	27.150000000000002	19.5	11.25	2.85
Node 7		0.3	0.6	0.6	0.8999999999999999	5.25	42.3	47.55	47.699999999999996	48.449999999999996	48.6	48.6	42.15	35.099999999999994	28.95	23.1	16.650000000000002	11.4	5.8500000000000005	3.75	71.25	81.89999999999999	87.45	82.8	95.39999999999999	91.95	85.2	88.94999999999999	83.7	77.4	90.45	88.05	84.89999999999999	77.10000000000001	70.95	63.3	55.2	47.699999999999996	40.2	33.45	26.400000000000002	19.5	12.9	7.199999999999999	52.349999999999994	48.449999999999996	44.4	39.45	34.8	80.25	78.9	78.0	73.8	66.9	60.45	52.949999999999996	45.75	39.0	32.4	25.35	19.05	13.950000000000001	8.25	5.4	3.5999999999999996	3.3000000000000003	3.0	16.2	22.35	39.300000000000004	35.85	28.65	21.75	18.15	11.55	2.7
Node 35		0.6	0.6	0.75	1.05	2.4	43.2	46.35	49.5	49.5	49.65	52.2	46.35	39.45	33.0	27.3	20.7	14.399999999999999	8.55	5.7	67.05	81.0	80.85	79.5	89.4	89.7	85.05	85.8	79.65	79.65	90.0	86.4	78.75	70.8	63.14999999999999	55.50000000000001	47.4	39.900000000000006	33.15	26.1	19.2	12.6	6.6000000000000005	3.45	3.5999999999999996	3.5999999999999996	3.5999999999999996	3.5999999999999996	3.45	3.45	3.0	2.7	2.7	2.55	2.1	2.1	1.95	2.1	1.7999999999999998	1.7999999999999998	1.6500000000000001	1.6500000000000001	1.7999999999999998	1.7999999999999998	1.6500000000000001	1.5	1.35	1.05	0.8999999999999999	0.75	0.75	0.75	0.75	0.44999999999999996	0.3	0.0
Node 30		0.75	0.8999999999999999	1.05	1.6500000000000001	1.95	2.4	2.4	2.55	2.85	3.0	3.3000000000000003	2.85	2.85	3.15	3.3000000000000003	3.0	2.85	2.55	3.0	3.0	2.85	3.0	3.0	3.0	3.0	2.7	2.7	2.85	3.0	3.0	3.0	3.15	3.0	2.7	2.4	2.4	2.4	2.25	2.25	2.1	2.25	2.25	2.1	1.95	2.1	2.1	2.25	2.1	1.95	1.95	1.95	1.7999999999999998	1.35	1.5	1.5	1.6500000000000001	1.7999999999999998	1.7999999999999998	1.95	1.95	2.25	2.4	2.4	2.4	2.4	2.1	1.7999999999999998	1.5	1.2	1.2	0.8999999999999999	0.8999999999999999	0.6	0.3	0.0
Node 32		0.6	0.8999999999999999	0.8999999999999999	1.2	5.8500000000000005	34.050000000000004	41.699999999999996	42.15	42.6	42.9	43.35	38.1	31.35	25.5	19.950000000000003	13.8	8.4	3.75	4.05	22.35	82.05	79.05	80.7	90.75	90.45	84.15	79.2	71.7	63.6	88.8	85.05	77.10000000000001	69.6	62.25000000000001	54.75	47.4	39.75	32.85	26.1	19.5	13.200000000000001	6.45	3.75	22.2	48.449999999999996	43.8	70.5	68.10000000000001	61.8	59.699999999999996	52.949999999999996	66.14999999999999	59.550000000000004	53.1	46.35	39.0	31.95	25.5	18.45	13.65	9.45	5.4	4.8	4.2	3.45	3.15	4.5	6.9	24.45	22.05	18.45	16.35	11.25	7.35	1.95
Node 12		0.0	0.3	0.8999999999999999	1.05	1.5	1.5	1.7999999999999998	2.1	2.1	2.25	2.55	2.55	2.7	2.7	2.1	2.25	2.1	2.25	1.95	53.25	81.15	82.19999999999999	87.3	84.0	75.6	67.80000000000001	59.699999999999996	51.74999999999999	43.65	36.6	30.15	22.650000000000002	16.2	8.85	4.35	3.9	4.05	4.35	4.65	4.5	4.65	4.65	4.05	3.75	3.9	3.9	3.75	3.15	2.7	2.55	2.4	2.7	2.7	2.55	2.7	2.85	2.55	2.4	2.55	2.4	2.55	2.4	2.55	2.4	2.25	1.95	1.6500000000000001	37.95	39.6	36.75	33.0	25.35	19.5	11.700000000000001	3.0
Node 18		0.15	0.3	0.8999999999999999	1.05	1.5	39.6	39.75	40.050000000000004	40.2	40.5	41.25	35.4	29.7	24.0	18.3	12.3	6.6000000000000005	3.3000000000000003	3.3000000000000003	69.89999999999999	82.05	83.39999999999999	88.5	94.8	92.7	87.45	87.0	82.19999999999999	75.3	72.6	65.4	57.3	49.8	42.449999999999996	34.65	27.0	19.950000000000003	14.249999999999998	8.7	5.1	4.2	4.05	3.5999999999999996	19.05	16.8	60.6	55.800000000000004	52.349999999999994	46.050000000000004	41.099999999999994	35.85	30.45	24.75	20.7	16.05	10.5	6.15	2.85	2.7	2.7	2.85	2.7	2.85	3.0	2.85	2.4	3.75	9.0	40.35	36.75	32.7	25.35	17.7	11.55	3.0
Node 25		0.0	0.3	0.3	0.75	1.05	42.9	42.9	43.05	43.35	43.8	44.1	38.4	31.95	25.95	20.7	14.249999999999998	8.1	3.3000000000000003	3.3000000000000003	68.7	81.15	85.95	79.65	90.0	81.75	73.95	66.45	58.650000000000006	76.2	86.55000000000001	86.7	80.85	73.2	65.7	58.35	50.24999999999999	42.6	35.699999999999996	28.499999999999996	21.6	15.15	8.4	3.75	3.75	39.300000000000004	58.95	71.55	69.0	63.449999999999996	78.0	70.5	63.3	56.10000000000001	49.5	42.0	34.65	27.750000000000004	21.3	14.7	10.2	6.3	3.15	3.15	2.85	2.7	2.55	3.9	3.15	2.7	2.25	1.6500000000000001	1.2	19.650000000000002	11.700000000000001	3.0
Node 0		0.3	0.75	0.8999999999999999	1.05	2.55	34.949999999999996	35.25	35.4	37.2	37.65	38.550000000000004	34.050000000000004	29.099999999999998	23.7	18.45	13.65	8.25	6.15	6.0	65.7	81.15	86.25	79.5	93.45	88.64999999999999	84.6	77.7	70.95	72.45	76.35	68.7	80.4	72.6	64.64999999999999	56.85	58.050000000000004	50.849999999999994	43.8	36.3	29.7	23.549999999999997	16.650000000000002	11.1	15.299999999999999	50.55	45.75	40.8	62.4	64.8	76.05	71.55	66.14999999999999	59.4	52.800000000000004	45.45	38.1	31.2	24.6	17.1	12.3	7.95	3.5999999999999996	2.7	2.25	2.1	2.1	1.95	1.6500000000000001	1.35	0.8999999999999999	6.0	4.95	3.0	11.25	2.7
Node 1		0.6	0.8999999999999999	1.05	1.05	1.5	1.6500000000000001	1.6500000000000001	1.6500000000000001	1.7999999999999998	2.1	2.25	2.25	2.55	2.55	2.7	3.0	2.85	3.0	3.45	3.45	6.15	82.65	75.75	91.05	89.55	82.95	75.0	67.2	59.099999999999994	85.35000000000001	86.4	78.75	70.95	62.849999999999994	55.2	47.4	40.35	33.6	26.25	19.2	12.75	6.45	2.1	1.95	2.4	2.55	2.7	69.15	63.9	77.85	71.85000000000001	68.55	61.8	55.50000000000001	48.449999999999996	41.25	34.2	27.450000000000003	20.1	14.7	9.9	5.25	4.35	3.3000000000000003	2.55	2.1	1.95	1.6500000000000001	1.35	1.05	0.8999999999999999	0.6	0.44999999999999996	0.3	0.0
Node 10		0.15	0.3	0.8999999999999999	0.8999999999999999	1.5	43.8	46.5	49.95	50.24999999999999	50.4	50.7	44.1	37.35	30.75	24.45	17.849999999999998	11.700000000000001	5.55	2.7	2.1	1.95	2.25	1.95	81.45	90.60000000000001	82.8	80.85	73.05	72.89999999999999	89.25	85.35000000000001	83.7	76.2	67.95	60.45	52.5	45.0	37.8	30.599999999999998	23.400000000000002	16.8	10.2	4.8	2.25	2.1	2.25	2.25	2.55	79.2	78.3	74.4	69.15	62.1	55.65	48.75	41.699999999999996	34.65	28.499999999999996	21.15	15.9	10.95	5.8500000000000005	4.65	4.35	4.05	3.75	3.15	2.7	2.4	1.5	32.550000000000004	26.1	18.45	10.95	2.7
Node 17		0.8999999999999999	1.2	1.2	1.5	1.6500000000000001	43.5	44.1	44.55	44.55	44.7	45.15	39.0	32.7	26.400000000000002	20.849999999999998	14.399999999999999	8.25	3.15	2.7	2.25	2.55	2.55	2.4	2.25	2.55	2.25	2.1	1.95	2.1	1.7999999999999998	1.95	2.1	1.7999999999999998	1.7999999999999998	2.1	2.1	1.95	1.95	2.1	2.25	2.1	2.1	2.25	31.8	31.8	54.300000000000004	70.65	68.55	61.95	55.2	70.19999999999999	62.7	55.65	49.2	42.0	34.949999999999996	28.349999999999998	21.75	14.85	10.2	6.3	2.55	2.55	2.25	1.95	1.6500000000000001	1.5	6.9	40.35	36.0	32.550000000000004	25.05	18.6	11.4	2.85
Node 31		0.75	0.8999999999999999	0.8999999999999999	1.05	1.95	43.8	46.650000000000006	50.4	50.849999999999994	51.449999999999996	51.74999999999999	45.45	38.550000000000004	31.8	25.95	19.5	13.350000000000001	7.049999999999999	4.35	3.3000000000000003	2.85	53.7	88.05	93.75	90.45	84.0	86.1	78.75	77.85	89.4	86.25	82.8	75.44999999999999	67.65	60.150000000000006	52.65	45.300000000000004	38.550000000000004	31.2	24.3	17.7	11.55	15.0	14.7	13.05	11.25	74.4	77.25	74.1	78.3	77.7	75.3	68.55	62.4	57.45	50.24999999999999	43.65	36.75	29.549999999999997	23.549999999999997	17.549999999999997	10.8	7.199999999999999	4.95	3.75	2.55	17.849999999999998	37.8	40.050000000000004	35.55	32.550000000000004	26.25	18.9	11.85	3.0
Node 14		0.75	1.2	1.35	1.6500000000000001	2.1	2.4	2.7	3.15	3.5999999999999996	3.9	4.05	3.9	3.75	3.5999999999999996	3.45	3.15	3.0	2.85	2.85	68.25	82.19999999999999	82.8	80.25	93.30000000000001	89.4	83.55	85.2	77.4	69.3	62.4	55.35	47.4	40.050000000000004	32.550000000000004	25.2	17.1	10.8	6.3	3.0	3.15	3.0	2.55	2.7	3.15	3.0	54.900000000000006	73.2	69.3	66.9	78.14999999999999	71.25	63.449999999999996	56.39999999999999	50.1	43.05	35.85	29.25	22.8	15.9	11.25	6.75	3.15	3.0	3.0	2.7	2.25	2.1	1.7999999999999998	1.35	1.05	0.8999999999999999	0.75	0.6	0.3	0.0
Node 5		0.8999999999999999	1.2	1.35	1.95	2.1	2.4	2.55	2.55	2.55	2.85	3.0	3.0	2.55	2.25	2.7	2.25	2.4	2.25	2.85	70.05	81.89999999999999	87.75	88.94999999999999	94.5	90.60000000000001	84.89999999999999	86.1	81.3	78.45	90.0	84.6	76.64999999999999	68.85	60.9	53.55	45.300000000000004	37.65	31.05	23.549999999999997	16.5	9.9	3.5999999999999996	2.1	2.25	2.55	2.7	2.85	44.55	79.35	72.89999999999999	76.35	72.6	67.80000000000001	61.8	54.300000000000004	46.800000000000004	40.050000000000004	33.45	26.25	19.8	13.8	7.6499999999999995	4.65	2.4	1.6500000000000001	1.35	15.6	31.2	39.15	35.699999999999996	28.499999999999996	21.6	14.85	9.15	2.55
Node 37		0.75	1.05	1.2	1.35	4.2	43.8	47.699999999999996	47.85	48.0	48.15	52.5	46.650000000000006	39.45	33.15	27.450000000000003	20.849999999999998	14.399999999999999	8.25	5.7	66.9	79.80000000000001	81.45	86.55000000000001	92.4	90.3	84.15	77.4	75.75	67.65	85.65	78.14999999999999	70.65	63.0	55.50000000000001	48.0	40.35	32.85	26.400000000000002	18.9	12.0	6.0	2.4	2.55	2.4	2.25	2.4	2.4	2.25	2.7	2.7	2.85	3.0	3.3000000000000003	3.45	3.3000000000000003	3.15	3.3000000000000003	3.15	3.15	3.0	3.0	2.7	2.4	2.25	1.95	1.6500000000000001	1.6500000000000001	1.6500000000000001	1.35	0.75	0.6	0.44999999999999996	0.0	0.0	0.0
Node 16		0.3	0.44999999999999996	0.44999999999999996	0.6	0.75	42.0	42.15	42.449999999999996	42.6	42.9	43.2	37.5	30.9	24.9	19.2	12.9	6.75	2.1	2.1	66.75	81.3	86.7	79.80000000000001	93.15	86.7	84.6	76.8	79.5	71.55	89.85	87.9	81.6	75.9	67.65	60.150000000000006	51.9	44.55	37.5	30.0	22.95	16.05	9.45	4.2	51.449999999999996	51.15	60.0	69.75	69.3	67.2	77.4	73.2	66.0	59.25	52.65	45.45	38.25	31.65	24.9	17.7	12.15	7.049999999999999	2.7	2.55	2.25	2.1	1.95	15.9	16.2	39.900000000000006	35.4	28.499999999999996	25.05	19.05	11.25	2.85
Node 4		0.15	0.15	0.75	0.75	1.2	43.05	43.05	43.05	43.2	43.35	43.8	37.95	31.35	25.35	19.2	13.200000000000001	7.199999999999999	3.0	7.049999999999999	78.14999999999999	81.15	88.05	88.35	99.6	93.89999999999999	85.8	78.14999999999999	87.45	79.05	88.35	80.55	71.85000000000001	63.6	55.35	47.099999999999994	39.0	31.35	24.3	16.650000000000002	10.35	4.5	2.25	2.25	52.800000000000004	64.8	67.2	66.45	73.8	76.95	84.3	82.8	75.3	68.4	61.199999999999996	53.25	45.300000000000004	37.95	30.9	23.849999999999998	17.7	11.700000000000001	4.65	3.15	2.7	2.1	1.95	1.7999999999999998	1.6500000000000001	1.6500000000000001	1.5	1.05	27.150000000000002	20.1	11.700000000000001	3.0
Node 39		0.15	0.6	0.8999999999999999	1.6500000000000001	2.85	43.05	45.9	46.050000000000004	46.050000000000004	46.800000000000004	47.099999999999994	41.099999999999994	34.65	28.349999999999998	22.5	16.5	10.35	5.25	3.3000000000000003	70.35	81.75	86.55000000000001	79.80000000000001	93.60000000000001	90.14999999999999	85.35000000000001	82.65	76.05	67.95	89.25	83.25	76.35	68.4	60.3	52.65	44.55	37.2	30.3	23.1	16.2	9.75	3.45	3.15	48.9	50.1	60.3	68.4	68.10000000000001	64.8	77.85	71.25	65.4	58.050000000000004	51.449999999999996	44.4	37.05	29.849999999999998	23.25	16.650000000000002	11.700000000000001	7.35	3.15	2.55	2.1	2.1	1.7999999999999998	4.35	4.35	39.0	36.449999999999996	32.7	25.05	18.15	11.4	3.0
Node 8		0.44999999999999996	0.75	1.05	1.05	2.25	36.9	37.5	38.1	38.85	39.15	39.300000000000004	33.45	30.599999999999998	24.9	18.9	13.8	8.25	5.8500000000000005	5.4	70.65	81.6	87.45	88.94999999999999	91.35	90.75	84.75	76.8	69.15	78.3	84.3	87.15	82.19999999999999	75.14999999999999	66.75	58.95	51.0	44.1	37.05	29.4	22.5	15.75	10.05	4.5	2.4	2.1	59.099999999999994	60.45	55.35	63.74999999999999	77.25	70.05	63.9	56.85	50.4	43.2	36.0	29.099999999999998	22.95	22.05	16.8	12.3	8.25	8.25	7.95	7.35	6.45	5.7	4.95	21.6	36.75	32.7	25.2	17.849999999999998	10.8	2.7
Node 26		0.75	0.8999999999999999	1.05	1.5	4.8	43.2	46.050000000000004	46.2	46.5	46.800000000000004	46.949999999999996	40.949999999999996	34.050000000000004	28.050000000000004	22.05	15.75	9.45	4.05	2.4	69.75	67.35	87.0	79.5	92.55	89.25	84.45	85.2	79.95	71.7	85.8	86.7	79.95	72.45	64.2	56.99999999999999	49.35	42.449999999999996	35.55	28.199999999999996	21.0	14.399999999999999	7.8	3.45	34.949999999999996	48.9	51.9	69.6	65.25	58.5	76.64999999999999	72.0	65.4	58.199999999999996	51.6	44.55	37.5	30.3	23.25	16.8	12.0	7.8	3.5999999999999996	2.55	2.4	2.25	2.25	6.9	6.6000000000000005	6.15	5.7	4.2	3.3000000000000003	18.0	11.700000000000001	3.0
Node 21		0.0	0.0	0.6	0.75	2.7	43.2	46.2	49.8	50.55	51.0	51.9	45.9	39.0	32.7	26.700000000000003	20.1	13.8	7.35	7.5	48.15	79.35	87.15	88.94999999999999	94.05	91.35	87.0	88.2	82.8	80.55	84.0	87.15	84.3	78.75	72.15	65.4	60.150000000000006	52.65	45.300000000000004	37.8	30.45	23.7	16.950000000000003	14.7	48.75	50.24999999999999	45.9	70.8	69.75	66.0	77.85	75.75	72.89999999999999	66.0	60.0	53.849999999999994	46.5	39.900000000000006	33.900000000000006	27.0	21.45	19.35	13.5	11.1	9.15	7.95	6.75	5.55	5.7	40.5	37.35	32.7	25.05	17.7	10.65	2.85
Node 22		0.6	0.8999999999999999	0.8999999999999999	1.2	1.35	16.5	16.950000000000003	17.1	17.25	20.1	20.849999999999998	21.0	17.25	16.2	12.9	11.700000000000001	7.049999999999999	6.0	5.4	32.85	81.15	88.35	89.1	91.2	88.8	82.05	88.5	81.75	73.8	90.60000000000001	86.7	82.65	75.14999999999999	69.45	61.95	54.449999999999996	47.099999999999994	40.35	33.15	26.1	19.2	12.75	7.199999999999999	51.9	51.300000000000004	60.45	71.25	75.14999999999999	79.35	78.75	77.85	73.65	68.7	63.9	56.99999999999999	49.95	43.05	36.449999999999996	28.95	22.35	16.650000000000002	12.15	9.15	7.199999999999999	6.15	5.25	4.5	31.95	39.75	34.35	27.450000000000003	21.15	14.399999999999999	8.55	2.25
Node 6		0.3	0.75	0.8999999999999999	1.05	1.95	43.05	43.35	43.95	45.75	45.9	46.5	40.5	33.45	27.3	21.6	15.6	9.6	4.35	12.6	69.6	80.10000000000001	87.15	88.05	93.45	91.05	84.75	85.8	83.7	76.2	68.85	61.8	54.449999999999996	47.099999999999994	39.15	32.25	24.45	17.1	11.55	6.3	5.8500000000000005	6.15	6.75	6.45	6.15	5.8500000000000005	5.25	4.5	4.8	4.5	4.65	4.65	64.64999999999999	57.15	50.1	43.8	36.9	30.15	23.7	17.1	12.0	8.25	4.95	4.8	4.35	3.5999999999999996	7.049999999999999	15.9	30.3	38.7	34.949999999999996	27.900000000000002	21.15	14.7	9.0	2.25
Node 11		0.75	1.05	1.2	1.2	1.35	1.35	1.5	1.6500000000000001	2.25	2.85	3.45	2.85	3.0	2.85	2.85	3.15	3.15	3.3000000000000003	3.3000000000000003	3.0	2.85	2.55	2.1	2.25	2.4	2.55	2.7	2.85	3.3000000000000003	3.15	3.3000000000000003	3.45	3.5999999999999996	3.45	3.3000000000000003	3.45	3.3000000000000003	3.15	3.45	3.0	2.7	2.85	2.85	2.85	2.7	2.55	2.85	2.7	2.7	2.7	2.4	2.7	2.55	2.55	2.25	2.25	1.95	2.1	1.95	2.1	1.95	2.25	2.1	1.95	1.7999999999999998	1.6500000000000001	1.6500000000000001	1.5	7.5	6.9	5.25	4.05	2.55	1.2	0.3
Node 3		0.44999999999999996	0.44999999999999996	0.75	0.8999999999999999	1.05	43.65	46.800000000000004	46.949999999999996	46.949999999999996	47.25	47.55	41.25	34.35	27.900000000000002	21.6	15.0	8.7	3.75	1.95	2.25	2.85	2.85	2.7	94.35	91.2	85.8	86.85000000000001	78.9	70.8	90.60000000000001	88.2	81.89999999999999	74.1	66.0	58.199999999999996	49.95	42.3	35.25	28.349999999999998	21.15	14.399999999999999	7.6499999999999995	2.1	1.6500000000000001	1.95	39.45	70.35	69.89999999999999	78.60000000000001	78.0	75.75	68.7	64.8	58.199999999999996	51.15	43.65	36.449999999999996	29.4	22.2	16.2	11.1	5.4	3.5999999999999996	2.25	1.7999999999999998	1.7999999999999998	1.35	28.199999999999996	39.900000000000006	35.55	28.499999999999996	21.75	14.85	9.15	2.55
Node 28		0.3	0.3	0.6	0.8999999999999999	4.2	33.6	33.75	34.949999999999996	38.25	38.550000000000004	39.6	34.35	29.25	23.7	18.3	13.200000000000001	7.8	5.8500000000000005	5.55	54.449999999999996	81.45	76.35	69.15	93.15	90.14999999999999	84.15	77.4	70.65	72.89999999999999	90.0	87.9	81.75	79.95	73.5	66.14999999999999	58.5	51.300000000000004	43.8	36.3	30.0	23.400000000000002	16.5	10.8	7.5	6.15	55.65	71.55	69.0	61.8	79.35	76.2	68.7	61.35	55.05	48.0	40.8	33.6	29.25	21.9	16.650000000000002	12.15	6.9	5.4	4.8	4.5	7.199999999999999	15.15	31.2	40.050000000000004	35.4	28.199999999999996	21.45	14.85	9.15	2.55
Node 13		0.3	0.3	0.44999999999999996	0.8999999999999999	3.5999999999999996	33.45	33.75	33.75	34.050000000000004	34.2	34.35	29.25	24.6	19.05	13.8	8.7	3.45	2.1	2.1	2.25	54.900000000000006	82.95	88.5	91.35	90.9	84.0	85.95	81.45	77.85	85.65	86.7	81.45	73.65	65.4	57.9	49.8	42.3	35.55	28.199999999999996	21.45	14.85	8.85	3.5999999999999996	15.45	49.35	54.449999999999996	70.95	65.85	58.95	52.800000000000004	46.2	42.449999999999996	36.0	30.75	46.2	39.300000000000004	32.1	25.8	18.75	13.200000000000001	9.15	4.8	4.05	3.3000000000000003	3.0	2.4	1.95	1.6500000000000001	4.95	3.9	3.3000000000000003	3.0	1.5	0.75	0.0
Node 19		0.3	0.75	1.2	1.5	1.7999999999999998	42.0	42.6	43.35	43.65	44.1	44.55	48.6	41.699999999999996	35.55	29.7	23.400000000000002	17.549999999999997	12.15	9.0	29.099999999999998	81.0	76.2	79.5	89.4	89.55	82.19999999999999	78.75	71.1	63.14999999999999	55.65	83.7	75.44999999999999	68.4	60.45	53.25	46.050000000000004	38.7	31.95	25.35	19.05	12.9	6.45	3.75	18.9	31.2	55.2	69.75	67.5	63.3	76.5	69.3	65.10000000000001	58.650000000000006	52.2	45.6	38.7	31.95	25.5	18.45	13.65	9.3	5.25	4.65	4.2	3.45	3.15	2.85	2.55	40.35	36.15	33.0	25.2	17.849999999999998	10.65	2.7
Node 34		0.6	0.6	0.75	1.2	4.5	43.35	46.650000000000006	47.55	48.0	48.3	49.05	43.05	36.0	29.7	23.549999999999997	17.25	11.1	5.8500000000000005	4.35	58.35	76.5	81.3	87.3	90.3	90.14999999999999	84.15	84.89999999999999	79.80000000000001	72.3	88.8	84.89999999999999	76.95	69.15	61.35	53.55	45.6	38.25	31.2	24.3	17.549999999999997	11.4	4.8	2.25	2.25	49.5	55.50000000000001	68.10000000000001	69.0	63.449999999999996	77.4	70.05	65.10000000000001	57.75	51.15	44.4	37.05	30.3	23.549999999999997	16.35	11.4	7.049999999999999	3.0	2.7	2.25	2.25	2.1	1.7999999999999998	1.7999999999999998	1.5	1.35	7.049999999999999	24.75	17.4	11.4	3.0
Node 24		0.15	0.44999999999999996	0.75	1.2	13.200000000000001	43.5	46.35	46.35	46.5	46.5	46.650000000000006	40.5	33.900000000000006	27.150000000000002	21.3	15.15	9.15	3.75	2.1	2.25	2.4	43.5	88.2	89.85	81.3	73.8	65.85	58.5	50.55	43.35	36.75	29.099999999999998	74.85000000000001	71.55	64.64999999999999	56.699999999999996	49.65	42.0	35.099999999999994	28.65	22.05	15.299999999999999	9.75	34.949999999999996	47.55	43.05	38.7	68.7	65.55	69.89999999999999	73.05	66.0	58.650000000000006	52.05	46.949999999999996	40.2	33.0	26.1	19.05	13.5	9.15	4.2	3.45	2.85	2.55	1.95	1.5	1.05	1.95	36.6	32.85	26.400000000000002	18.9	11.85	3.0
Node 20		0.6	0.75	0.8999999999999999	1.05	1.2	43.35	43.95	43.95	45.300000000000004	45.75	45.9	39.6	32.550000000000004	35.85	29.4	23.25	17.25	10.8	6.75	5.8500000000000005	4.95	4.2	3.45	3.15	3.15	3.3000000000000003	2.7	2.4	2.55	2.1	2.1	1.95	1.95	1.7999999999999998	2.1	59.099999999999994	51.9	44.1	36.6	29.099999999999998	22.35	15.45	9.3	6.0	55.65	60.0	71.1	70.5	65.4	80.10000000000001	75.6	75.14999999999999	68.55	61.95	54.75	47.699999999999996	40.8	34.050000000000004	27.450000000000003	21.0	19.5	13.65	11.25	9.3	8.1	6.9	5.7	4.95	42.449999999999996	37.2	33.0	25.35	18.0	11.700000000000001	3.0
Node 23		0.75	0.75	0.75	0.8999999999999999	1.2	33.6	33.75	34.65	34.8	34.8	34.949999999999996	29.849999999999998	29.4	24.15	19.05	14.249999999999998	8.85	7.6499999999999995	7.199999999999999	49.35	81.6	82.8	88.8	93.75	88.64999999999999	80.7	72.45	82.5	79.65	89.25	87.15	84.15	79.35	72.89999999999999	66.0	57.75	50.55	42.9	35.55	28.349999999999998	21.45	14.399999999999999	16.2	49.5	51.9	55.35	71.25	66.14999999999999	59.550000000000004	53.7	78.3	72.15	65.10000000000001	58.5	51.0	43.65	37.5	32.85	25.650000000000002	19.5	13.950000000000001	7.35	4.65	4.65	4.2	4.2	4.05	31.8	40.65	37.35	33.300000000000004	25.5	17.849999999999998	10.95	2.85
Node 15		0.3	0.6	0.75	0.8999999999999999	1.5	41.85	42.0	42.15	42.3	42.449999999999996	42.6	36.449999999999996	30.0	24.9	19.35	12.9	7.049999999999999	2.4	2.7	3.9	82.05	76.95	87.75	91.2	90.9	82.65	85.8	78.0	76.8	89.4	86.85000000000001	80.25	72.89999999999999	64.64999999999999	57.15	49.2	41.85	35.099999999999994	28.050000000000004	21.15	14.7	8.25	2.7	3.15	56.55	58.35	70.5	69.3	65.4	77.85	73.65	66.14999999999999	59.25	53.1	45.6	38.550000000000004	32.1	25.05	18.3	13.200000000000001	8.25	3.45	3.15	3.15	2.85	2.4	2.25	28.349999999999998	40.8	36.0	33.15	25.35	18.0	11.700000000000001	3.0
