Node 22		0.6	0.8999999999999999	0.8999999999999999	1.2	1.35	1.5	2.85	3.0	3.15	5.7	6.45	6.9	6.45	6.15	6.3	6.3	6.15	6.15	5.4	27.450000000000003	75.44999999999999	80.7	83.55	87.0	82.8	76.5	83.39999999999999	76.8	69.45	84.6	80.85	75.9	68.7	61.199999999999996	54.6	49.5	42.75	36.449999999999996	29.849999999999998	23.400000000000002	17.25	11.4	6.9	45.15	42.9	55.50000000000001	57.3	66.9	69.0	68.85	64.2	63.3	56.99999999999999	53.25	47.4	41.099999999999994	34.8	29.549999999999997	23.7	18.9	14.399999999999999	12.3	8.85	7.199999999999999	6.15	5.25	4.5	27.750000000000004	41.4	35.55	28.349999999999998	21.6	14.85	9.15	2.4
Node 4		0.15	0.15	0.75	0.75	2.25	40.8	40.8	40.8	40.949999999999996	41.099999999999994	41.55	36.15	29.849999999999998	24.15	18.15	12.45	6.6000000000000005	3.0	7.049999999999999	77.7	83.1	89.4	89.85	99.75	93.75	85.65	78.0	87.3	78.75	90.0	82.19999999999999	73.5	65.25	56.99999999999999	48.75	40.65	32.85	25.5	18.0	11.25	5.4	2.25	2.25	54.15	62.849999999999994	69.15	67.5	75.3	71.85000000000001	78.9	75.9	69.0	62.7	56.10000000000001	49.05	41.4	34.2	27.900000000000002	21.45	15.9	10.2	4.2	3.15	2.7	2.1	1.95	1.7999999999999998	1.6500000000000001	1.6500000000000001	1.5	1.05	25.95	19.2	11.700000000000001	3.0
Node 28		0.3	0.3	0.6	0.8999999999999999	3.15	35.25	35.4	37.05	48.9	49.2	50.849999999999994	44.25	38.25	31.65	25.5	19.35	13.200000000000001	7.8	5.55	53.400000000000006	75.75	73.05	66.45	88.64999999999999	85.05	79.2	72.45	65.7	73.5	84.0	81.3	75.75	72.6	66.60000000000001	60.150000000000006	52.65	46.050000000000004	39.0	32.1	26.400000000000002	20.549999999999997	14.249999999999998	9.9	7.049999999999999	6.15	38.7	58.050000000000004	68.55	61.5	69.89999999999999	64.8	58.35	51.6	46.2	40.2	33.75	26.85	24.6	18.6	14.7	11.25	7.5	5.4	4.8	4.5	5.7	13.200000000000001	38.85	38.85	33.300000000000004	26.400000000000002	19.950000000000003	13.65	8.25	2.1
Node 40		0.0	0.0	0.0	0.0	8.4	42.75	48.15	49.2	49.35	49.35	49.35	42.449999999999996	35.4	28.65	22.35	15.75	9.15	3.45	1.05	0.15	0.0	0.0	0.0	0.0	0.0	0.0	0.0	0.0	0.0	0.0	0.0	0.0	0.0	0.0	0.0	0.0	0.0	0.0	0.0	0.0	0.0	0.0	0.0	0.0	0.0	0.0	58.8	68.7	61.5	65.55	65.55	64.8	58.650000000000006	52.800000000000004	46.2	41.099999999999994	34.050000000000004	28.349999999999998	22.2	17.25	12.3	7.35	3.5999999999999996	1.5	0.6	0.3	3.9	17.1	15.15	34.050000000000004	27.150000000000002	20.549999999999997	14.249999999999998	8.55	2.1
Node 10		0.15	0.3	0.8999999999999999	0.8999999999999999	1.5	42.15	44.55	48.75	49.35	49.95	50.24999999999999	44.4	37.65	31.35	25.05	18.9	12.75	7.5	4.2	3.3000000000000003	2.85	2.7	79.05	79.35	85.8	78.60000000000001	80.25	76.2	73.05	79.65	79.2	76.8	69.45	61.650000000000006	55.05	47.25	40.35	33.6	27.0	20.4	14.549999999999999	8.55	4.5	2.1	2.1	2.25	2.25	2.55	36.6	73.5	69.3	64.95	58.35	52.65	46.2	39.75	32.7	27.3	20.4	15.6	11.1	6.6000000000000005	4.65	4.35	4.05	3.75	3.15	2.7	2.4	2.55	30.75	25.35	17.849999999999998	11.1	2.7
Node 23		0.75	0.75	0.75	0.8999999999999999	1.2	35.699999999999996	35.85	36.75	36.9	36.9	37.05	31.65	38.25	31.95	26.1	20.25	14.249999999999998	9.6	7.199999999999999	60.3	75.3	78.9	82.35	89.4	84.0	76.5	68.4	78.0	76.5	84.0	81.15	78.14999999999999	73.5	67.5	61.5	53.400000000000006	46.800000000000004	39.6	32.85	26.25	19.950000000000003	13.5	18.9	49.95	50.7	59.699999999999996	61.95	56.99999999999999	51.300000000000004	46.800000000000004	66.75	63.6	57.15	51.449999999999996	44.85	38.1	32.25	28.65	22.8	18.0	13.350000000000001	8.1	4.95	4.95	4.5	4.5	4.2	31.5	38.25	34.2	28.95	21.9	15.15	9.3	2.25
Node 8		0.44999999999999996	0.75	1.05	1.05	2.25	40.65	41.25	41.85	42.6	42.9	43.05	37.05	33.45	27.450000000000003	21.15	15.299999999999999	9.15	5.8500000000000005	5.4	58.199999999999996	78.14999999999999	86.25	85.65	92.55	88.05	82.19999999999999	74.4	66.75	77.10000000000001	82.19999999999999	83.55	77.85	71.1	63.0	55.65	47.699999999999996	41.25	34.5	27.150000000000002	20.549999999999997	13.950000000000001	8.85	4.35	2.4	2.1	58.8	56.10000000000001	51.15	64.5	70.05	63.74999999999999	65.25	58.8	52.800000000000004	46.5	39.900000000000006	33.300000000000004	28.050000000000004	26.55	21.6	16.8	11.85	9.0	7.95	7.35	6.45	5.7	4.95	36.3	35.85	29.25	22.650000000000002	15.75	9.75	2.4
Node 35		0.6	0.6	0.75	1.05	5.25	41.55	43.8	48.15	49.05	49.5	51.449999999999996	45.75	38.85	32.4	26.700000000000003	20.4	14.099999999999998	8.7	5.7	47.099999999999994	75.14999999999999	76.2	80.7	86.25	85.2	81.0	83.25	76.64999999999999	76.05	84.3	80.7	73.5	65.85	58.5	51.74999999999999	43.8	36.9	30.599999999999998	24.15	17.849999999999998	12.0	6.45	3.45	3.5999999999999996	3.5999999999999996	3.5999999999999996	3.5999999999999996	3.45	3.45	3.0	2.7	2.7	2.55	2.1	2.1	1.95	2.1	1.7999999999999998	1.7999999999999998	1.6500000000000001	1.6500000000000001	1.7999999999999998	1.7999999999999998	1.6500000000000001	1.5	1.35	1.05	0.8999999999999999	0.75	0.75	0.75	0.75	0.44999999999999996	0.3	0.0
Node 37		0.75	1.05	1.2	1.35	7.5	42.15	46.5	46.650000000000006	46.800000000000004	46.949999999999996	51.9	46.2	39.0	32.7	27.0	20.7	14.249999999999998	8.55	5.7	46.5	74.25	83.25	78.9	87.6	84.6	80.7	80.10000000000001	72.75	65.10000000000001	80.85	73.65	66.75	59.4	52.349999999999994	45.75	38.25	31.35	25.35	18.45	11.85	6.15	2.4	2.55	2.4	2.25	2.4	2.4	2.25	2.7	2.7	2.85	3.0	3.3000000000000003	3.45	3.3000000000000003	3.15	3.3000000000000003	3.15	3.15	3.0	3.0	2.7	2.4	2.25	1.95	1.6500000000000001	1.6500000000000001	1.6500000000000001	1.35	0.75	0.6	0.44999999999999996	0.0	0.0	0.0
Node 12		0.0	0.3	0.8999999999999999	1.05	1.5	1.5	1.7999999999999998	2.1	2.1	2.25	2.55	2.55	2.7	2.7	2.1	2.25	2.1	2.25	1.95	52.2	76.05	78.9	82.8	80.4	84.89999999999999	77.25	69.15	76.35	68.85	84.15	81.0	73.65	66.45	58.95	52.2	45.15	38.550000000000004	32.4	25.650000000000002	19.2	13.200000000000001	7.5	4.05	14.249999999999998	12.9	11.25	10.05	9.0	7.8	6.75	5.8500000000000005	4.95	4.2	3.3000000000000003	2.7	2.85	2.55	2.4	2.55	2.4	2.55	2.4	2.55	2.4	2.25	1.95	1.6500000000000001	38.7	38.550000000000004	33.900000000000006	28.799999999999997	23.400000000000002	19.2	11.700000000000001	3.0
Node 34		0.6	0.6	0.75	1.2	7.199999999999999	41.85	44.4	45.300000000000004	45.75	46.050000000000004	46.800000000000004	40.8	34.2	28.199999999999996	22.2	16.5	10.35	5.55	4.35	51.300000000000004	74.7	78.75	79.35	86.1	84.6	80.55	81.3	76.95	72.89999999999999	82.95	78.9	71.55	64.05	56.699999999999996	49.8	42.0	35.25	28.65	22.35	16.05	10.65	4.65	2.25	2.25	48.449999999999996	52.349999999999994	57.15	67.80000000000001	64.35	67.95	62.4	63.0	57.15	51.6	45.9	39.300000000000004	32.7	27.150000000000002	21.3	16.650000000000002	12.15	7.6499999999999995	4.65	2.85	2.25	2.1	1.7999999999999998	1.7999999999999998	1.5	1.35	28.95	23.25	16.05	11.55	3.0
Node 14		0.75	1.2	1.35	1.6500000000000001	2.1	2.4	2.7	3.15	3.5999999999999996	3.9	4.05	3.9	3.75	3.5999999999999996	3.45	3.15	3.0	2.85	2.85	48.3	76.05	79.2	83.39999999999999	88.94999999999999	84.45	79.65	82.65	77.25	69.75	63.3	56.55	49.2	41.85	34.35	27.6	19.5	13.05	8.4	3.75	3.15	3.0	2.55	2.7	3.15	3.9	55.65	60.3	68.55	69.6	69.0	63.0	63.14999999999999	56.699999999999996	51.300000000000004	45.300000000000004	38.85	32.4	27.0	21.0	16.35	11.55	7.199999999999999	4.05	3.0	2.7	2.25	2.1	1.7999999999999998	1.35	1.7999999999999998	1.6500000000000001	1.5	1.35	0.3	0.0
Node 36		0.44999999999999996	0.44999999999999996	0.8999999999999999	1.05	1.2	40.35	42.15	47.4	48.15	48.6	50.55	46.949999999999996	40.65	34.949999999999996	29.4	23.400000000000002	18.0	13.5	10.2	16.8	74.4	77.7	79.80000000000001	85.5	84.6	77.25	82.19999999999999	77.4	75.6	83.39999999999999	80.7	75.0	67.2	59.550000000000004	54.449999999999996	47.099999999999994	40.65	34.65	28.349999999999998	22.5	17.1	11.4	7.199999999999999	28.349999999999998	51.74999999999999	56.10000000000001	68.10000000000001	68.4	65.25	70.5	64.5	57.9	56.99999999999999	51.6	45.300000000000004	39.0	32.1	26.55	20.7	16.2	10.8	7.35	4.65	7.199999999999999	6.15	5.7	8.85	28.65	40.8	35.25	30.599999999999998	23.549999999999997	19.05	11.700000000000001	3.0
Node 33		0.75	1.05	1.05	1.05	1.35	41.85	46.949999999999996	47.85	48.15	48.15	48.3	41.699999999999996	34.949999999999996	28.499999999999996	22.95	16.950000000000003	10.8	5.25	3.0	2.1	7.5	79.95	81.75	92.7	91.5	87.45	90.3	85.8	84.0	92.85	89.55	84.3	76.5	68.4	60.6	52.05	44.7	37.35	29.4	22.2	15.45	9.0	3.9	2.4	57.75	62.25000000000001	74.7	77.55	77.25	75.9	74.4	72.89999999999999	68.85	61.650000000000006	54.0	46.5	39.15	32.85	25.8	20.4	14.099999999999998	9.6	5.25	2.85	2.4	2.25	1.95	1.7999999999999998	33.75	38.4	33.45	26.55	18.75	10.8	2.7
Node 0		0.3	0.75	0.8999999999999999	1.05	3.45	35.4	46.35	46.5	48.3	48.75	49.65	43.95	37.95	31.5	25.5	19.650000000000002	13.65	8.1	6.0	58.8	74.7	79.5	79.95	88.8	84.89999999999999	79.95	72.75	77.25	72.89999999999999	75.0	67.65	74.55000000000001	67.05	59.550000000000004	52.65	52.349999999999994	45.75	39.0	32.1	26.1	20.7	14.399999999999999	10.2	43.8	43.5	39.300000000000004	35.099999999999994	56.10000000000001	65.4	69.6	63.449999999999996	59.4	53.25	47.699999999999996	41.4	34.8	28.199999999999996	23.1	16.950000000000003	12.9	9.0	5.25	3.0	2.55	2.4	2.4	2.1	1.7999999999999998	37.65	32.25	28.050000000000004	23.1	19.05	11.25	2.7
Node 17		0.8999999999999999	1.2	1.2	1.5	1.95	41.85	42.449999999999996	42.9	42.9	43.05	43.5	37.5	31.5	25.5	19.950000000000003	13.8	7.8	3.15	2.7	2.25	2.55	2.55	2.4	2.25	2.55	2.25	2.1	1.95	2.1	1.7999999999999998	1.95	2.1	1.7999999999999998	1.7999999999999998	2.1	2.1	1.95	1.95	2.1	2.25	2.1	2.1	2.25	37.65	37.65	55.95	57.599999999999994	69.45	69.75	69.75	63.9	57.45	50.849999999999994	45.45	39.15	32.7	26.25	20.7	14.7	10.5	6.6000000000000005	2.85	2.55	2.25	1.95	1.95	9.75	27.750000000000004	39.0	33.300000000000004	29.099999999999998	23.1	17.849999999999998	11.4	2.85
Node 25		0.0	0.3	0.3	0.75	1.05	41.4	41.4	41.55	41.85	42.3	42.6	37.05	30.9	25.2	19.950000000000003	13.65	7.6499999999999995	3.3000000000000003	3.3000000000000003	56.85	75.0	74.55000000000001	80.55	86.25	78.45	71.1	63.6	55.95	73.5	82.05	80.55	74.85000000000001	67.65	60.6	54.15	46.2	39.15	32.7	26.1	19.8	14.099999999999998	7.95	4.35	3.9	39.300000000000004	56.25	58.35	67.80000000000001	69.75	68.25	61.650000000000006	55.50000000000001	48.9	43.2	36.75	30.15	23.400000000000002	18.15	12.45	8.7	5.25	3.15	3.15	2.85	2.7	2.55	3.9	18.9	16.650000000000002	33.45	26.700000000000003	20.549999999999997	19.5	11.700000000000001	3.0
Node 24		0.15	0.44999999999999996	0.75	1.2	8.4	41.85	43.95	43.95	44.1	44.1	44.25	38.1	31.95	25.650000000000002	19.950000000000003	14.099999999999998	8.25	3.45	2.1	2.25	2.4	60.9	81.3	82.05	73.95	66.9	59.099999999999994	52.05	44.85	38.1	31.65	77.25	71.7	65.55	59.699999999999996	51.74999999999999	45.0	37.8	31.5	25.2	19.35	13.200000000000001	9.0	45.75	42.3	38.4	34.8	68.10000000000001	64.35	69.45	64.2	63.74999999999999	57.45	52.349999999999994	48.449999999999996	42.3	35.4	29.849999999999998	24.15	19.35	15.0	10.05	6.75	5.1	3.9	2.7	3.9	19.650000000000002	37.8	34.2	29.4	23.549999999999997	16.8	11.85	3.0
Node 18		0.15	0.3	0.8999999999999999	1.05	2.1	41.55	41.699999999999996	42.0	42.15	42.449999999999996	43.2	37.2	30.9	25.05	19.2	12.75	6.6000000000000005	3.3000000000000003	3.3000000000000003	59.699999999999996	75.75	79.2	83.1	89.85	87.45	82.95	82.19999999999999	79.35	74.85000000000001	70.19999999999999	63.3	55.65	48.3	41.099999999999994	34.050000000000004	26.400000000000002	19.8	14.7	9.0	5.1	4.2	4.05	3.5999999999999996	43.65	43.65	56.10000000000001	52.65	47.55	65.55	59.699999999999996	53.55	47.25	40.8	35.85	29.549999999999997	23.1	16.650000000000002	12.3	7.049999999999999	3.9	2.85	2.7	2.85	3.0	2.85	2.4	8.4	16.8	39.15	34.5	29.25	23.400000000000002	19.05	11.55	3.0
Node 16		0.3	0.44999999999999996	0.44999999999999996	0.6	0.75	40.5	40.65	40.949999999999996	41.099999999999994	41.4	41.699999999999996	36.15	29.849999999999998	24.15	18.45	12.45	6.45	2.1	2.1	63.14999999999999	74.85000000000001	73.95	67.80000000000001	89.25	85.05	81.15	82.8	77.4	70.05	83.55	81.89999999999999	75.9	69.75	61.95	55.2	47.099999999999994	40.35	33.75	26.85	20.4	14.249999999999998	7.95	3.45	51.15	50.24999999999999	58.95	60.0	70.65	68.10000000000001	75.75	70.35	63.449999999999996	61.95	57.45	50.4	43.5	36.9	30.75	24.0	18.3	13.200000000000001	7.95	4.5	2.4	2.1	1.95	10.8	39.45	38.7	34.2	28.499999999999996	23.1	19.05	11.25	2.85
Node 19		0.3	0.75	1.2	1.5	2.25	40.949999999999996	42.0	42.75	43.05	43.35	43.8	46.800000000000004	39.900000000000006	34.050000000000004	28.499999999999996	22.5	16.650000000000002	11.85	8.7	40.949999999999996	74.7	73.2	80.10000000000001	85.35000000000001	84.0	77.10000000000001	73.95	66.45	59.099999999999994	52.05	77.85	70.19999999999999	63.449999999999996	55.95	49.5	42.449999999999996	35.699999999999996	29.4	23.400000000000002	17.7	12.15	6.3	3.75	20.1	36.75	54.75	56.55	66.14999999999999	64.05	67.80000000000001	62.55	58.5	52.65	47.25	41.699999999999996	40.050000000000004	33.6	28.499999999999996	22.8	18.3	13.8	9.45	6.15	4.35	3.45	3.15	10.2	14.399999999999999	39.15	33.6	28.65	21.75	15.15	9.45	2.4
Node 2		0.0	0.44999999999999996	0.6	0.75	1.2	41.699999999999996	42.3	42.6	42.9	43.05	43.05	36.9	30.9	24.9	19.05	13.65	7.95	9.0	6.9	12.6	74.7	78.3	82.65	89.55	84.3	79.35	72.75	70.65	62.849999999999994	83.7	81.15	74.4	66.9	59.4	52.949999999999996	44.85	38.25	31.5	25.05	18.6	12.75	6.45	13.65	43.95	43.8	39.900000000000006	51.74999999999999	67.05	68.85	71.7	68.10000000000001	67.5	62.25000000000001	57.45	51.0	44.55	37.8	32.25	25.650000000000002	20.4	15.15	9.6	5.55	2.85	1.6500000000000001	1.35	1.2	27.6	39.900000000000006	34.050000000000004	28.799999999999997	21.75	16.5	11.25	3.0
Node 9		0.75	0.75	1.05	1.05	5.7	41.85	44.1	45.15	45.6	45.9	46.5	40.65	34.65	28.799999999999997	22.650000000000002	16.650000000000002	10.8	9.0	6.9	46.949999999999996	61.8	74.4	79.05	86.4	84.15	79.80000000000001	81.6	78.3	71.39999999999999	84.3	81.6	77.85	70.5	63.0	56.39999999999999	48.3	41.4	34.2	27.6	20.7	15.0	9.0	6.45	45.15	54.75	56.10000000000001	57.3	62.55	69.3	68.85	65.4	63.449999999999996	56.699999999999996	51.0	44.7	38.1	31.5	26.1	20.7	16.35	12.0	7.35	4.35	3.3000000000000003	3.15	3.0	2.85	20.4	39.0	33.45	29.099999999999998	23.1	19.2	11.700000000000001	3.0
Node 20		0.6	0.75	0.8999999999999999	1.05	1.2	40.65	43.8	43.8	45.15	45.6	45.75	39.45	32.4	35.4	28.95	23.1	17.1	10.95	6.75	5.8500000000000005	4.95	4.2	3.45	3.15	3.15	3.3000000000000003	2.7	2.4	2.55	2.1	2.1	1.95	1.95	1.7999999999999998	2.1	53.55	47.4	40.5	33.6	26.85	21.15	14.7	9.9	6.9	54.75	55.95	60.6	67.65	62.55	69.89999999999999	65.55	64.2	57.9	52.349999999999994	46.2	39.900000000000006	33.300000000000004	27.900000000000002	22.650000000000002	17.849999999999998	18.3	14.099999999999998	11.4	9.9	8.55	7.049999999999999	5.7	4.95	39.6	34.050000000000004	29.7	23.549999999999997	19.35	11.700000000000001	3.0
Node 6		0.3	0.75	0.8999999999999999	1.05	2.25	42.9	43.2	43.8	45.45	45.6	46.2	40.2	33.15	27.0	21.3	15.299999999999999	9.3	4.35	12.6	69.45	80.55	86.55000000000001	85.65	91.05	88.2	82.19999999999999	84.89999999999999	81.15	74.1	66.9	59.85	52.949999999999996	45.75	37.95	31.8	24.0	16.950000000000003	11.55	6.45	5.8500000000000005	6.15	6.75	6.45	6.15	5.8500000000000005	5.25	4.5	4.8	4.5	4.65	4.65	59.699999999999996	52.65	46.650000000000006	41.25	34.949999999999996	28.349999999999998	22.95	17.25	12.6	8.7	5.25	4.8	4.35	3.5999999999999996	7.049999999999999	20.25	38.1	40.35	34.5	27.450000000000003	20.849999999999998	14.549999999999999	9.0	2.25
Node 1		0.6	0.8999999999999999	1.05	1.05	1.5	1.6500000000000001	1.6500000000000001	1.6500000000000001	1.7999999999999998	2.1	2.25	2.25	2.55	2.55	2.7	3.0	2.85	3.0	3.45	3.45	26.700000000000003	78.60000000000001	80.25	89.1	83.7	77.55	69.75	75.14999999999999	67.80000000000001	83.1	79.95	74.1	66.9	59.25	52.5	44.85	38.4	32.1	25.35	18.9	13.200000000000001	7.35	3.3000000000000003	2.25	2.4	2.55	2.7	67.65	62.55	70.35	65.10000000000001	64.2	58.35	53.7	48.15	41.85	35.25	29.849999999999998	23.849999999999998	19.2	14.399999999999999	9.75	6.6000000000000005	4.65	3.75	3.0	2.25	5.25	38.4	33.0	26.1	19.650000000000002	13.05	7.8	1.7999999999999998
Node 38		0.3	0.6	0.8999999999999999	0.8999999999999999	3.0	41.699999999999996	46.800000000000004	46.949999999999996	47.699999999999996	51.9	52.05	45.45	38.7	32.25	26.400000000000002	20.25	14.099999999999998	8.4	6.15	5.8500000000000005	78.60000000000001	84.3	78.0	90.60000000000001	85.65	77.85	70.05	79.2	75.75	85.65	82.95	77.4	71.25	64.35	57.45	49.2	42.3	36.449999999999996	29.7	23.25	17.4	10.35	5.7	48.449999999999996	50.55	59.099999999999994	54.0	49.05	43.2	69.45	66.45	66.3	59.4	54.0	47.25	40.35	34.2	28.349999999999998	22.5	17.7	12.6	7.6499999999999995	4.2	2.1	1.6500000000000001	1.35	14.399999999999999	34.2	38.7	33.75	26.85	23.849999999999998	16.8	10.05	2.4
Node 39		0.15	0.6	0.8999999999999999	1.6500000000000001	5.4	41.4	43.8	43.95	43.95	44.7	45.0	39.0	33.0	27.0	21.3	15.6	9.6	4.95	3.3000000000000003	66.0	75.75	75.14999999999999	69.45	89.55	84.45	83.25	76.64999999999999	73.65	66.14999999999999	82.8	77.4	71.1	63.449999999999996	55.800000000000004	49.05	41.099999999999994	34.35	27.900000000000002	21.15	14.85	9.15	3.45	3.15	44.85	54.449999999999996	55.35	57.15	67.2	64.5	68.55	64.64999999999999	60.9	54.15	48.6	42.449999999999996	35.85	28.95	23.7	18.3	13.8	9.75	5.4	3.0	2.1	2.1	1.7999999999999998	12.6	30.15	38.550000000000004	34.2	29.25	23.1	19.05	11.4	3.0
Node 15		0.3	0.6	0.75	0.8999999999999999	2.1	40.35	40.5	40.65	40.8	40.949999999999996	41.099999999999994	35.099999999999994	28.95	24.15	18.6	12.45	6.75	2.4	2.7	2.85	75.75	73.65	80.25	87.45	85.2	77.4	81.3	73.65	73.5	83.55	80.4	74.25	67.2	59.4	52.65	44.85	38.1	31.8	25.35	19.05	13.350000000000001	7.5	3.3000000000000003	3.15	50.849999999999994	54.300000000000004	56.55	68.10000000000001	62.7	69.3	63.3	56.85	50.4	45.300000000000004	38.85	32.4	26.25	20.549999999999997	15.0	10.95	6.9	3.3000000000000003	3.15	3.15	2.85	2.4	2.25	35.85	39.6	33.900000000000006	29.7	23.400000000000002	19.5	11.700000000000001	3.0
Node 11		0.75	1.05	1.2	1.2	1.35	1.35	1.5	1.6500000000000001	2.25	3.15	3.75	3.15	3.15	3.0	3.0	3.3000000000000003	3.3000000000000003	3.3000000000000003	3.45	3.15	2.85	2.55	2.1	2.25	2.4	2.55	2.7	2.85	3.3000000000000003	3.15	3.3000000000000003	3.45	3.5999999999999996	19.950000000000003	18.3	26.700000000000003	23.549999999999997	20.25	17.1	13.200000000000001	9.45	6.6000000000000005	4.5	3.9	3.5999999999999996	3.3000000000000003	3.45	3.15	2.7	2.7	2.4	2.7	19.8	19.8	17.7	15.75	12.9	10.2	8.25	4.2	2.85	11.1	7.8	6.75	6.0	5.1	4.35	3.75	11.1	20.7	17.25	21.3	16.05	9.6	2.4
Node 21		0.0	0.0	0.6	0.75	5.1	41.699999999999996	43.95	48.15	48.9	49.35	51.300000000000004	45.45	38.550000000000004	32.25	26.25	19.950000000000003	13.65	7.5	7.5	42.3	74.4	77.55	83.55	88.94999999999999	85.95	82.65	83.25	77.4	75.3	79.2	80.7	77.4	71.7	65.55	59.550000000000004	54.449999999999996	47.55	40.65	33.75	27.0	21.0	14.7	13.8	43.2	43.05	39.300000000000004	56.39999999999999	67.35	64.35	67.80000000000001	61.95	62.55	56.699999999999996	51.74999999999999	47.55	40.949999999999996	34.65	30.0	24.3	20.4	18.0	13.8	11.25	9.75	8.4	6.9	5.55	16.8	38.550000000000004	34.5	29.4	22.35	15.75	9.45	2.25
Node 27		0.44999999999999996	0.75	0.8999999999999999	1.2	3.9	41.25	43.95	48.3	48.75	49.35	49.65	43.8	37.2	31.05	25.05	19.650000000000002	13.65	8.25	4.8	27.450000000000003	75.14999999999999	76.64999999999999	70.05	89.7	85.05	77.4	83.55	78.0	70.35	84.45	81.3	74.55000000000001	67.35	59.699999999999996	53.400000000000006	45.6	38.85	32.1	25.8	19.650000000000002	13.65	7.6499999999999995	4.2	3.9	3.5999999999999996	3.45	2.85	2.85	2.55	2.7	2.4	2.7	2.7	2.55	2.1	2.4	2.85	2.85	3.15	2.85	3.15	3.0	3.0	2.55	2.4	2.4	2.25	4.95	4.95	33.75	29.25	22.35	16.8	11.700000000000001	3.0
Node 29		0.75	1.2	1.95	1.95	2.1	42.3	44.1	44.25	44.7	46.650000000000006	46.949999999999996	40.65	34.949999999999996	28.95	23.400000000000002	17.4	11.700000000000001	6.45	5.4	52.2	74.25	70.05	80.85	89.7	82.65	79.80000000000001	84.6	77.7	70.8	80.7	80.55	75.0	67.5	66.0	58.95	50.849999999999994	45.0	38.550000000000004	32.25	25.5	19.950000000000003	13.65	9.9	6.15	4.65	4.05	56.39999999999999	66.14999999999999	59.550000000000004	53.7	47.25	40.949999999999996	51.15	45.75	39.6	34.2	27.450000000000003	22.95	17.549999999999997	14.249999999999998	10.5	6.9	4.95	4.65	4.35	4.2	3.75	2.85	36.0	30.75	28.050000000000004	21.0	18.6	11.25	3.0
Node 5		0.8999999999999999	1.2	1.35	1.95	2.1	2.4	2.55	2.55	2.55	2.85	3.0	3.0	2.55	2.25	2.7	2.25	2.4	2.25	2.85	52.5	75.9	83.85000000000001	82.05	89.4	86.1	79.35	83.1	79.05	76.05	83.85000000000001	79.35	72.0	64.5	56.99999999999999	50.55	42.449999999999996	35.4	29.25	22.35	15.9	10.05	3.75	2.1	2.25	2.55	2.7	2.85	44.85	69.15	67.2	66.45	63.3	58.8	53.7	47.25	40.5	34.050000000000004	28.799999999999997	22.8	18.0	13.05	8.55	4.95	2.4	1.6500000000000001	1.35	14.099999999999998	36.15	39.0	33.6	26.700000000000003	20.1	13.65	8.25	2.1
Node 30		0.75	0.8999999999999999	1.05	1.6500000000000001	1.95	2.4	2.4	2.55	2.85	3.0	3.3000000000000003	2.85	2.85	3.15	3.3000000000000003	3.0	2.85	2.55	3.0	3.0	2.85	3.0	3.0	3.0	3.0	2.7	2.7	2.85	3.0	3.0	3.0	3.15	3.0	2.7	2.4	2.4	2.4	2.25	2.25	2.1	2.25	2.25	2.1	1.95	2.1	2.1	2.25	2.1	1.95	1.95	1.95	1.7999999999999998	1.35	1.5	1.5	1.6500000000000001	1.7999999999999998	1.7999999999999998	1.95	1.95	2.25	2.4	2.4	2.4	2.4	2.1	1.7999999999999998	1.5	1.2	1.2	0.8999999999999999	0.8999999999999999	0.6	11.700000000000001	3.0
Node 3		0.44999999999999996	0.44999999999999996	0.75	0.8999999999999999	1.05	42.3	45.6	45.75	45.75	46.050000000000004	46.35	40.050000000000004	33.45	27.3	21.0	14.7	8.55	3.75	1.95	2.25	2.85	2.85	2.7	90.0	87.15	83.1	83.39999999999999	75.6	67.95	84.6	81.89999999999999	75.6	68.10000000000001	60.45	53.55	45.45	38.4	31.8	25.5	18.9	12.9	6.75	2.55	1.6500000000000001	1.95	43.5	63.14999999999999	70.35	72.89999999999999	72.15	68.4	62.1	61.35	55.50000000000001	49.35	42.449999999999996	35.25	29.25	22.8	17.549999999999997	12.75	7.6499999999999995	4.35	2.25	1.7999999999999998	1.7999999999999998	1.35	36.3	38.7	33.45	26.700000000000003	20.25	13.65	8.25	2.1
Node 13		0.3	0.3	0.44999999999999996	0.8999999999999999	3.15	35.55	35.85	35.85	36.15	36.3	36.449999999999996	31.05	25.650000000000002	20.1	14.7	9.15	3.45	2.1	2.1	6.9	74.55000000000001	78.75	81.6	87.15	85.65	79.95	83.85000000000001	76.05	75.6	80.85	80.25	74.55000000000001	67.05	59.25	52.65	44.7	37.8	31.5	24.75	18.45	12.6	7.199999999999999	3.0	31.5	43.65	52.5	57.45	56.25	50.24999999999999	45.45	40.2	62.25000000000001	55.65	50.4	48.3	42.0	35.099999999999994	30.15	24.45	19.650000000000002	15.15	10.8	7.35	5.55	4.35	3.15	1.95	17.1	38.25	33.900000000000006	27.0	20.549999999999997	14.099999999999998	8.4	1.95
Node 32		0.6	0.8999999999999999	0.8999999999999999	1.2	6.6000000000000005	35.4	40.35	40.949999999999996	41.4	41.699999999999996	42.15	38.4	31.65	25.95	20.25	14.399999999999999	9.15	5.1	4.95	38.1	75.44999999999999	77.4	79.05	88.5	84.89999999999999	77.4	74.4	67.05	59.550000000000004	82.95	79.05	71.7	64.5	57.599999999999994	51.0	43.65	36.6	30.15	24.0	18.0	12.45	6.3	3.75	22.2	43.35	39.300000000000004	57.15	66.75	69.3	67.5	61.199999999999996	60.150000000000006	54.15	48.75	42.9	41.099999999999994	34.35	29.099999999999998	23.400000000000002	18.75	14.249999999999998	9.75	6.45	4.35	3.45	3.15	12.9	27.900000000000002	39.45	33.75	27.0	20.4	14.099999999999998	8.4	2.1
Node 26		0.75	0.8999999999999999	1.05	1.5	4.95	41.55	43.8	43.95	44.25	46.2	46.35	40.5	34.2	28.799999999999997	23.25	17.7	11.85	6.6000000000000005	5.25	27.3	63.449999999999996	78.45	78.75	88.05	84.75	80.10000000000001	82.95	77.4	69.89999999999999	83.25	80.25	74.55000000000001	67.35	59.550000000000004	53.1	45.6	45.300000000000004	38.7	32.550000000000004	25.95	20.1	13.8	9.75	45.0	51.0	50.1	56.39999999999999	66.45	61.8	67.35	63.14999999999999	58.5	52.349999999999994	47.099999999999994	41.25	34.8	27.900000000000002	23.25	18.15	14.7	10.65	6.75	4.8	4.5	4.2	4.05	8.55	27.3	38.1	32.7	29.25	23.1	19.2	11.700000000000001	3.0
Node 31		0.75	0.8999999999999999	0.8999999999999999	1.05	1.95	42.15	44.55	48.9	49.35	49.95	50.24999999999999	44.4	37.5	31.05	25.2	19.2	13.05	7.6499999999999995	4.35	3.3000000000000003	2.85	81.0	80.4	89.7	85.5	79.5	83.1	76.8	75.6	83.1	80.25	75.44999999999999	67.80000000000001	60.3	53.7	46.35	39.6	33.300000000000004	26.55	20.25	14.399999999999999	8.85	6.15	9.0	9.15	8.7	62.4	68.85	66.14999999999999	68.85	65.4	64.05	57.75	52.65	49.65	43.2	36.9	31.35	25.35	20.849999999999998	15.6	10.65	7.35	5.55	4.05	2.7	15.45	38.4	38.1	33.300000000000004	29.099999999999998	23.25	16.35	11.85	3.0
Node 7		0.3	0.6	0.6	0.8999999999999999	7.049999999999999	40.65	46.650000000000006	46.800000000000004	47.55	47.699999999999996	47.699999999999996	41.099999999999994	34.2	28.050000000000004	22.35	16.2	10.95	5.7	4.05	60.3	75.75	83.85000000000001	79.5	90.3	86.25	79.05	83.85000000000001	78.14999999999999	70.35	84.6	81.75	77.85	70.35	62.55	55.800000000000004	47.85	40.949999999999996	33.900000000000006	27.6	21.15	15.0	9.15	4.8	45.75	42.449999999999996	39.0	34.949999999999996	30.75	69.75	68.85	64.2	60.75000000000001	54.0	48.3	41.85	35.25	28.65	23.400000000000002	17.7	13.200000000000001	9.45	5.55	3.45	2.85	2.7	2.7	15.45	28.65	37.8	33.75	26.85	20.25	15.15	11.55	2.7
