6 209
15 143
24 230
12 132
0 204
29 120
19 112
39 455
20 105
34 182
38 168
28 265
36 211
9 236
10 47
13 159
1 12
8 140
27 59
16 148
37 78
21 379
40 75
7 297
23 210
31 255
18 212
5 292
32 167
22 311
2 104
33 107
11 22
26 205
3 395
17 80
35 204
14 235
4 196
25 74
