Message stats for scenario SimBetHaggleInfocom_#SA_10M
sim_time: 274883.0000
created: 3892
started: 335000
relayed: 330101
aborted: 4899
dropped: 310790
removed: 0
delivered: 3161
delivery_prob: 0.8122
response_prob: 0.0000
overhead_ratio: 103.4293
latency_avg: 28339.1958
latency_med: 24800.0000
hopcount_avg: 3.1923
hopcount_med: 3
buffertime_avg: 16671.3123
buffertime_med: 5244.0000
rtt_avg: NaN
rtt_med: NaN
