36 131
39 306
10 51
34 73
38 264
29 61
31 153
15 160
2 53
1 37
12 99
27 53
23 186
33 107
5 109
8 61
25 40
13 112
37 85
35 78
4 173
3 149
9 122
0 151
19 49
40 103
32 151
17 65
22 162
20 69
21 317
28 154
6 268
24 155
7 106
18 161
16 169
14 192
26 208
