Message Drop for scenario SimBetHaggleInfocom_#SA_0.4
sim_time: 274883.0000

29	2485
20	1966
13	2339
15	2554
32	2514
26	2611
6	2114
9	2705
34	2443
14	1778
35	1536
4	2588
3	2380
27	1550
28	2633
11	274
33	2652
25	2346
23	2749
22	2456
10	2308
12	1632
40	1068
21	2720
39	2688
0	2470
31	2560
16	2699
1	1749
38	2658
37	1474
5	2195
18	2344
8	2515
7	2693
17	2021
30	92
24	2505
36	2709
2	2674
19	2589

