Message stats for scenario SimBetHaggleInfocom_#SA_0.8
sim_time: 274883.0000
created: 3892
started: 100978
relayed: 95848
aborted: 5130
dropped: 97126
removed: 0
delivered: 2612
delivery_prob: 0.6711
response_prob: 0.0000
overhead_ratio: 35.6953
latency_avg: 16465.2155
latency_med: 14502.0000
hopcount_avg: 3.3538
hopcount_med: 3
buffertime_avg: 26693.8702
buffertime_med: 28794.0000
rtt_avg: NaN
rtt_med: NaN
