Message Drop for scenario SimBetHaggleInfocom_#SA_0.2
sim_time: 274883.0000

25	2010
39	2204
40	663
8	2450
13	1728
3	2349
23	2560
4	2559
18	1838
22	2416
26	2043
33	2584
12	1259
20	1907
28	2516
35	1494
11	156
0	1958
30	92
32	1920
21	2736
38	2606
14	1329
5	2118
27	1496
24	2056
7	2648
15	2495
2	2597
6	1967
16	2609
17	1098
10	2109
29	2047
31	2517
1	1488
19	2185
9	2633
37	1423
36	2595
34	2083

