Node 6		0.13333333333333333	0.33333333333333337	0.4	0.46666666666666673	1.1333333333333333	19.0	19.133333333333333	19.400000000000002	20.200000000000003	20.266666666666666	20.533333333333335	20.733333333333334	20.8	21.0	21.133333333333333	21.266666666666666	21.4	21.6	27.53333333333333	54.46666666666666	73.2	80.60000000000001	83.6	86.86666666666667	86.66666666666667	83.66666666666667	84.66666666666667	82.6	79.13333333333334	75.53333333333333	71.93333333333334	68.2	64.8	61.33333333333333	58.199999999999996	54.6	51.0	47.333333333333336	43.666666666666664	40.266666666666666	36.86666666666667	33.733333333333334	30.133333333333333	26.666666666666668	23.266666666666666	19.53333333333333	16.0	12.6	9.266666666666666	7.000000000000001	4.866666666666666	34.93333333333333	31.733333333333334	30.933333333333334	48.93333333333334	45.86666666666667	43.06666666666666	40.33333333333333	37.46666666666666	35.06666666666667	32.2	29.533333333333335	26.8	23.933333333333334	20.866666666666667	29.599999999999998	34.8	47.86666666666667	53.6	50.26666666666667	46.733333333333334	43.13333333333333	40.266666666666666	37.13333333333333	34.66666666666667
Node 15		0.13333333333333333	0.26666666666666666	0.33333333333333337	0.4	0.6666666666666667	18.46666666666667	18.53333333333333	18.6	18.666666666666668	18.73333333333333	18.8	18.8	18.933333333333334	19.2	19.2	19.26666666666667	19.466666666666665	19.53333333333333	19.733333333333334	20.333333333333332	74.13333333333333	77.0	83.66666666666667	86.2	86.66666666666667	83.0	85.06666666666666	81.26666666666667	79.93333333333334	84.86666666666667	83.39999999999999	80.33333333333333	76.8	73.2	69.6	65.93333333333334	62.26666666666667	58.666666666666664	55.06666666666666	51.53333333333333	47.66666666666667	44.13333333333333	40.53333333333333	37.13333333333333	59.0	67.06666666666666	71.53333333333333	70.06666666666666	73.06666666666666	76.26666666666667	73.93333333333332	70.46666666666667	66.86666666666666	63.53333333333333	60.13333333333334	56.86666666666667	53.733333333333334	50.4	47.13333333333333	44.2	40.86666666666667	37.333333333333336	34.266666666666666	30.866666666666664	27.666666666666668	24.73333333333333	21.333333333333336	54.46666666666666	54.666666666666664	51.33333333333333	55.00000000000001	51.4	50.0	50.53333333333333	46.93333333333333
Node 12		0.0	0.13333333333333333	0.4	0.46666666666666673	0.6666666666666667	0.6666666666666667	0.8	0.9333333333333335	0.9333333333333335	1.0	1.1333333333333333	1.1333333333333333	1.2	1.3333333333333335	1.3333333333333335	1.4666666666666666	1.6	1.6666666666666667	1.6666666666666667	24.933333333333334	72.26666666666667	77.8	77.86666666666666	74.13333333333333	70.26666666666667	66.46666666666667	62.73333333333333	59.13333333333334	55.266666666666666	51.733333333333334	48.6	45.266666666666666	42.06666666666667	38.800000000000004	35.733333333333334	32.6	29.26666666666667	26.200000000000003	23.266666666666666	19.866666666666667	16.6	13.600000000000001	10.666666666666668	15.666666666666668	13.133333333333333	11.0	11.0	10.2	8.933333333333334	9.0	9.066666666666666	6.466666666666667	5.333333333333334	5.266666666666667	4.066666666666666	3.0	2.933333333333333	2.8666666666666667	2.8666666666666667	2.533333333333333	2.4	2.2666666666666666	2.2666666666666666	2.3333333333333335	2.2666666666666666	2.0666666666666664	1.9333333333333333	52.06666666666667	53.400000000000006	50.8	52.6	50.93333333333333	53.800000000000004	50.33333333333333	46.6
Node 24		0.06666666666666667	0.2	0.33333333333333337	0.5333333333333333	5.733333333333333	19.2	20.533333333333335	20.533333333333335	20.599999999999998	20.599999999999998	20.666666666666668	20.733333333333334	20.866666666666667	20.866666666666667	21.133333333333333	21.333333333333336	21.333333333333336	21.4	21.46666666666667	21.53333333333333	21.666666666666668	46.53333333333333	83.86666666666667	85.46666666666667	81.6	77.86666666666666	74.0	70.39999999999999	66.73333333333333	63.13333333333333	59.4	82.13333333333334	79.53333333333333	76.53333333333333	73.26666666666667	69.39999999999999	65.73333333333333	62.06666666666667	58.599999999999994	55.2	51.53333333333333	48.06666666666667	44.733333333333334	65.26666666666667	62.0	58.333333333333336	55.00000000000001	67.80000000000001	65.26666666666667	61.6	61.0	57.8	54.13333333333333	50.73333333333333	48.4	45.4	42.733333333333334	39.86666666666667	37.333333333333336	34.86666666666667	31.866666666666667	28.933333333333334	25.933333333333337	23.266666666666666	20.4	17.866666666666667	15.2	12.6	12.6	53.93333333333333	54.800000000000004	53.2	49.93333333333334	50.46666666666667	46.86666666666667
Node 0		0.13333333333333333	0.33333333333333337	0.4	0.46666666666666673	1.6	16.2	16.333333333333332	16.400000000000002	16.6	16.8	16.866666666666667	17.0	17.066666666666666	17.133333333333333	17.133333333333333	17.266666666666666	17.333333333333336	17.4	17.533333333333335	53.333333333333336	73.66666666666667	80.4	81.06666666666666	87.4	86.06666666666666	83.53333333333333	80.33333333333333	81.86666666666666	79.0	77.26666666666667	73.4	69.66666666666667	66.0	62.33333333333333	58.733333333333334	55.13333333333333	51.26666666666667	47.46666666666667	43.86666666666667	40.266666666666666	36.46666666666666	33.0	29.46666666666667	62.06666666666667	61.66666666666667	58.06666666666666	54.46666666666666	62.4	65.53333333333333	63.33333333333333	61.46666666666667	58.4	54.86666666666666	51.2	47.8	44.666666666666664	41.93333333333334	39.266666666666666	36.53333333333333	34.2	31.333333333333336	28.46666666666667	25.466666666666665	22.733333333333334	20.133333333333333	17.733333333333334	15.066666666666666	12.333333333333334	15.533333333333331	13.266666666666666	19.666666666666664	52.33333333333333	49.4	50.4	46.6
Node 29		0.33333333333333337	0.5333333333333333	0.8666666666666666	0.8666666666666666	0.9333333333333335	19.333333333333332	20.333333333333332	20.4	20.599999999999998	21.666666666666668	21.8	21.933333333333334	22.2	22.400000000000002	22.666666666666664	22.8	23.0	23.200000000000003	23.400000000000002	50.2	71.73333333333333	73.26666666666667	81.39999999999999	87.46666666666667	85.66666666666667	83.13333333333334	84.8	81.93333333333334	78.26666666666667	84.46666666666667	82.93333333333334	80.06666666666666	76.33333333333333	73.73333333333333	70.19999999999999	66.46666666666667	63.13333333333333	60.0	56.733333333333334	53.2	49.4	45.86666666666667	42.6	38.93333333333333	35.46666666666667	31.933333333333337	69.6	67.26666666666667	63.6	59.93333333333334	56.46666666666667	53.0	53.400000000000006	49.86666666666667	46.666666666666664	43.86666666666667	41.06666666666667	38.6	36.13333333333333	34.0	31.066666666666663	28.4	25.6	22.933333333333334	20.200000000000003	17.733333333333334	15.066666666666666	12.6	15.933333333333334	13.933333333333334	11.799999999999999	10.666666666666668	26.93333333333333	50.2	46.400000000000006
Node 19		0.13333333333333333	0.33333333333333337	0.5333333333333333	0.6666666666666667	0.8	18.8	19.2	19.53333333333333	19.666666666666664	19.866666666666667	20.066666666666666	24.066666666666666	24.066666666666666	24.46666666666667	24.666666666666668	24.8	25.0	25.333333333333336	25.533333333333335	42.93333333333334	73.53333333333333	74.33333333333333	82.86666666666666	85.06666666666666	85.06666666666666	81.39999999999999	80.60000000000001	77.13333333333333	73.46666666666667	69.8	81.06666666666666	77.33333333333333	74.06666666666666	70.6	67.13333333333334	63.46666666666667	59.73333333333334	56.2	52.93333333333333	49.333333333333336	45.6	42.13333333333333	38.733333333333334	35.86666666666667	37.666666666666664	64.33333333333333	69.46666666666667	67.73333333333333	64.66666666666666	63.66666666666667	60.333333333333336	57.53333333333334	54.13333333333333	50.73333333333333	47.4	44.333333333333336	41.66666666666667	39.0	36.333333333333336	34.06666666666667	31.333333333333336	28.666666666666668	25.733333333333334	22.933333333333334	20.200000000000003	17.733333333333334	17.8	15.266666666666667	36.6	42.333333333333336	53.266666666666666	49.6	46.400000000000006	42.93333333333334	40.0
Node 39		0.06666666666666667	0.26666666666666666	0.4	0.7333333333333333	2.7333333333333334	19.0	20.333333333333332	20.4	20.4	20.733333333333334	20.866666666666667	20.933333333333334	21.066666666666666	21.2	21.266666666666666	21.6	21.6	21.8	21.8	54.53333333333333	74.06666666666666	76.13333333333333	76.4	87.46666666666667	86.2	83.46666666666667	82.13333333333334	78.46666666666667	74.73333333333333	84.66666666666667	81.53333333333333	77.93333333333334	74.26666666666667	70.53333333333333	67.06666666666666	63.33333333333333	59.66666666666667	56.13333333333333	52.46666666666666	48.86666666666667	45.0	41.53333333333333	38.13333333333333	65.2	62.66666666666667	65.33333333333333	69.86666666666666	67.73333333333333	64.93333333333334	63.866666666666674	60.8	57.53333333333334	53.93333333333333	50.53333333333333	47.13333333333333	44.06666666666666	41.199999999999996	38.4	35.93333333333334	33.6	30.599999999999998	27.933333333333334	25.0	22.26666666666667	19.466666666666665	16.933333333333334	16.400000000000002	17.0	54.0	53.6	53.333333333333336	51.26666666666667	54.13333333333333	50.26666666666667	46.6
Node 20		0.26666666666666666	0.33333333333333337	0.4	0.46666666666666673	0.5333333333333333	19.133333333333333	19.400000000000002	19.400000000000002	20.066666666666666	20.266666666666666	20.333333333333332	20.333333333333332	20.4	24.73333333333333	24.866666666666667	25.133333333333336	25.2	25.466666666666665	25.6	25.666666666666664	25.733333333333334	25.8	25.8	22.866666666666667	19.733333333333334	16.8	13.866666666666665	10.866666666666665	8.200000000000001	5.333333333333334	3.6666666666666665	3.266666666666666	2.933333333333333	2.533333333333333	2.466666666666667	56.06666666666666	67.06666666666666	63.6	59.93333333333334	56.333333333333336	52.733333333333334	48.93333333333334	45.33333333333333	41.733333333333334	64.33333333333333	66.0	70.46666666666667	75.13333333333333	72.39999999999999	77.33333333333333	74.93333333333332	74.8	71.53333333333333	68.0	64.66666666666666	61.33333333333333	58.4	55.06666666666666	51.866666666666674	48.86666666666667	47.93333333333333	44.666666666666664	41.8	38.6	35.266666666666666	32.2	28.866666666666667	25.6	57.06666666666666	53.800000000000004	55.13333333333333	51.4	49.93333333333334	50.6	46.800000000000004
Node 34		0.26666666666666666	0.26666666666666666	0.33333333333333337	0.5333333333333333	1.866666666666667	19.133333333333333	20.666666666666668	21.066666666666666	21.266666666666666	21.4	21.73333333333333	21.866666666666667	21.933333333333334	22.0	22.066666666666666	22.26666666666667	22.26666666666667	22.333333333333332	22.6	45.86666666666667	70.46666666666667	77.0	80.80000000000001	85.33333333333334	85.2	82.73333333333333	84.13333333333334	81.53333333333333	78.53333333333333	84.0	81.93333333333334	78.06666666666666	74.46666666666667	71.0	67.46666666666667	63.53333333333333	59.8	56.13333333333333	52.6	49.2	45.53333333333333	42.0	38.6	35.0	55.00000000000001	60.6	69.46666666666667	67.46666666666667	64.53333333333333	63.66666666666667	60.4	57.46666666666667	53.86666666666666	50.26666666666667	47.06666666666667	43.8	41.199999999999996	38.4	35.66666666666667	33.33333333333333	30.4	27.800000000000004	24.866666666666667	22.2	19.400000000000002	16.866666666666667	14.333333333333334	11.666666666666666	8.933333333333334	6.800000000000001	14.2	19.400000000000002	49.06666666666666	50.26666666666667	46.733333333333334
Node 38		0.13333333333333333	0.26666666666666666	0.4	0.4	1.4000000000000001	19.133333333333333	20.933333333333334	20.933333333333334	21.0	22.866666666666667	22.933333333333334	23.133333333333333	23.333333333333332	23.666666666666668	23.799999999999997	24.0	24.2	24.333333333333336	24.46666666666667	24.53333333333333	67.13333333333334	80.53333333333333	80.80000000000001	88.2	85.86666666666667	81.93333333333334	78.33333333333333	82.13333333333334	80.60000000000001	84.86666666666667	83.46666666666667	80.93333333333334	78.06666666666666	74.73333333333333	71.26666666666667	67.4	63.733333333333334	60.4	56.93333333333334	53.400000000000006	49.733333333333334	46.266666666666666	42.8	64.93333333333334	64.13333333333333	65.53333333333333	61.93333333333333	58.13333333333334	54.46666666666666	64.0	66.93333333333334	73.93333333333332	70.46666666666667	66.93333333333334	63.66666666666667	60.4	57.333333333333336	53.93333333333333	50.66666666666667	47.599999999999994	44.13333333333333	40.666666666666664	37.6	34.13333333333333	30.8	27.866666666666667	35.733333333333334	35.8	54.0	50.8	47.333333333333336	50.8	47.733333333333334	44.333333333333336	41.46666666666667
Node 28		0.13333333333333333	0.13333333333333333	0.26666666666666666	0.4	1.4666666666666666	15.666666666666668	15.733333333333333	16.53333333333333	17.8	17.933333333333334	18.4	18.6	19.066666666666666	19.133333333333333	19.2	19.333333333333332	19.53333333333333	19.733333333333334	19.8	44.800000000000004	74.0	74.93333333333332	74.93333333333332	85.86666666666667	85.6	83.0	79.86666666666666	76.33333333333333	78.93333333333334	84.39999999999999	83.39999999999999	80.53333333333333	79.80000000000001	76.86666666666667	73.46666666666667	69.93333333333334	66.2	62.66666666666667	59.0	56.00000000000001	52.26666666666666	48.733333333333334	45.33333333333333	41.93333333333334	38.6	52.26666666666666	70.66666666666667	75.46666666666667	71.86666666666667	77.4	75.46666666666667	72.13333333333334	68.4	64.86666666666666	61.6	58.4	55.13333333333333	52.93333333333333	49.6	46.53333333333333	43.2	39.800000000000004	36.666666666666664	33.266666666666666	29.933333333333334	30.06666666666667	36.199999999999996	51.06666666666667	54.06666666666666	50.866666666666674	47.199999999999996	43.6	40.666666666666664	37.4	35.0
Node 36		0.2	0.2	0.4	0.46666666666666673	0.5333333333333333	18.266666666666666	19.133333333333333	21.46666666666667	21.8	22.0	22.133333333333333	23.200000000000003	23.400000000000002	23.733333333333334	24.6	24.73333333333333	25.133333333333336	25.666666666666664	25.8	30.06666666666667	60.199999999999996	77.60000000000001	81.73333333333333	84.73333333333333	85.2	82.53333333333333	84.2	81.39999999999999	79.60000000000001	84.39999999999999	83.06666666666666	80.66666666666666	77.2	73.66666666666667	70.93333333333334	67.4	63.800000000000004	60.333333333333336	57.06666666666666	53.666666666666664	50.06666666666667	46.733333333333334	43.53333333333333	54.6	66.60000000000001	65.13333333333333	74.0	74.8	72.66666666666667	76.26666666666667	75.13333333333333	71.86666666666667	69.26666666666667	65.86666666666666	62.46666666666667	59.4	56.2	53.06666666666666	49.733333333333334	46.6	43.13333333333333	40.0	36.8	34.8	31.6	28.666666666666668	28.666666666666668	25.333333333333336	49.06666666666666	55.53333333333333	56.666666666666664	53.13333333333333	51.13333333333333	50.6	46.800000000000004
Node 9		0.33333333333333337	0.33333333333333337	0.46666666666666673	0.46666666666666673	2.1333333333333333	19.2	20.533333333333335	21.0	21.2	21.333333333333336	21.6	21.8	22.066666666666666	22.2	22.2	22.26666666666667	22.400000000000002	23.933333333333334	23.933333333333334	52.93333333333333	64.73333333333333	74.86666666666667	81.2	85.73333333333333	82.53333333333333	83.26666666666667	83.73333333333333	82.06666666666666	78.60000000000001	84.6	83.33333333333334	82.06666666666666	78.53333333333333	74.93333333333332	71.39999999999999	67.66666666666666	64.06666666666668	60.53333333333333	56.86666666666667	53.266666666666666	49.8	46.266666666666666	43.666666666666664	65.46666666666667	62.93333333333333	66.0	69.53333333333333	65.93333333333334	72.73333333333333	75.8	75.93333333333334	74.13333333333333	70.46666666666667	66.93333333333334	63.53333333333333	60.199999999999996	57.13333333333333	53.86666666666666	50.8	47.8	44.4	41.13333333333333	38.0	34.66666666666667	31.333333333333336	28.26666666666667	24.933333333333334	21.53333333333333	54.2	50.93333333333333	53.93333333333333	51.26666666666667	54.46666666666666	50.6	46.86666666666667
Node 10		0.06666666666666667	0.13333333333333333	0.4	0.4	0.6666666666666667	19.333333333333332	20.599999999999998	22.066666666666666	22.333333333333332	22.6	22.733333333333334	23.0	23.066666666666666	23.066666666666666	23.133333333333333	23.200000000000003	23.333333333333332	23.400000000000002	23.466666666666665	23.533333333333335	23.599999999999998	23.799999999999997	31.066666666666663	49.0	69.33333333333334	82.93333333333334	84.53333333333333	81.8	79.0	84.53333333333333	82.46666666666667	81.93333333333334	78.26666666666667	74.8	71.39999999999999	67.53333333333333	63.800000000000004	60.06666666666667	56.46666666666667	52.86666666666666	49.06666666666666	45.53333333333333	42.06666666666667	38.4	35.0	31.4	28.066666666666666	24.666666666666668	76.13333333333333	75.33333333333333	72.8	69.66666666666667	66.13333333333333	62.73333333333333	59.66666666666667	56.53333333333334	53.53333333333333	50.866666666666674	47.46666666666667	44.46666666666667	41.06666666666667	37.666666666666664	34.4	31.2	27.933333333333334	24.933333333333334	21.6	18.266666666666666	15.0	11.866666666666667	54.6	52.93333333333333	49.53333333333333	46.93333333333333	43.733333333333334
Node 1		0.26666666666666666	0.4	0.46666666666666673	0.46666666666666673	0.6666666666666667	0.7333333333333333	0.7333333333333333	0.7333333333333333	0.8	0.9333333333333335	1.0	1.1333333333333333	1.4000000000000001	1.5333333333333332	1.6666666666666667	1.7999999999999998	1.9333333333333333	2.0666666666666664	2.2666666666666666	2.2666666666666666	2.4	60.8	61.0	69.13333333333334	85.26666666666667	81.6	77.86666666666666	74.4	70.6	83.0	82.46666666666667	79.66666666666666	76.2	72.53333333333333	69.0	65.2	61.33333333333333	57.93333333333334	54.333333333333336	50.6	46.800000000000004	43.53333333333333	39.93333333333333	36.4	33.06666666666666	29.533333333333335	26.200000000000003	64.26666666666667	64.73333333333333	63.46666666666667	61.06666666666667	58.93333333333334	55.46666666666666	52.26666666666666	49.0	45.86666666666667	43.266666666666666	40.6	38.0	35.6	32.53333333333333	29.733333333333334	26.8	24.0	21.133333333333333	18.6	15.933333333333334	13.266666666666666	10.466666666666667	8.266666666666666	6.066666666666666	4.933333333333334	3.8	2.6	1.9333333333333333
Node 13		0.13333333333333333	0.13333333333333333	0.2	0.4	1.9333333333333333	15.8	15.933333333333334	15.933333333333334	16.066666666666666	16.133333333333333	16.2	16.2	16.333333333333332	16.333333333333332	16.466666666666665	16.53333333333333	16.666666666666664	16.733333333333334	16.866666666666667	24.4	56.00000000000001	78.33333333333333	84.06666666666666	86.33333333333333	86.8	83.66666666666667	85.0	81.33333333333333	80.46666666666667	83.39999999999999	83.13333333333334	80.86666666666666	77.33333333333333	73.6	69.86666666666666	66.33333333333333	62.6	59.0	55.46666666666666	51.733333333333334	47.86666666666667	44.333333333333336	40.86666666666667	51.26666666666667	51.26666666666667	49.53333333333333	68.86666666666666	65.26666666666667	61.66666666666667	58.333333333333336	54.86666666666666	54.2	50.53333333333333	47.333333333333336	48.333333333333336	45.266666666666666	42.46666666666667	39.86666666666667	37.2	34.66666666666667	31.666666666666664	28.999999999999996	26.13333333333333	23.333333333333332	20.533333333333335	18.133333333333333	15.466666666666667	12.733333333333333	17.666666666666668	15.4	13.066666666666665	11.866666666666667	10.6	9.266666666666666	8.466666666666667
Node 8		0.2	0.33333333333333337	0.46666666666666673	0.46666666666666673	0.6666666666666667	17.066666666666666	17.333333333333336	17.599999999999998	17.933333333333334	18.066666666666666	18.133333333333333	18.266666666666666	19.6	19.733333333333334	19.733333333333334	20.0	20.333333333333332	20.466666666666665	20.466666666666665	54.06666666666666	74.13333333333333	81.06666666666666	84.0	87.93333333333334	86.6	83.8	80.13333333333334	76.46666666666667	80.2	82.86666666666666	83.8	81.53333333333333	78.13333333333333	74.4	70.8	67.13333333333334	63.33333333333333	59.66666666666667	56.00000000000001	52.400000000000006	48.53333333333333	45.2	41.66666666666667	38.06666666666666	34.66666666666667	53.333333333333336	61.66666666666667	57.93333333333334	65.2	75.33333333333333	71.86666666666667	69.06666666666666	65.46666666666667	62.133333333333326	58.733333333333334	55.46666666666666	52.46666666666666	49.266666666666666	49.2	46.266666666666666	42.8	39.53333333333333	36.6	33.33333333333333	30.133333333333333	27.266666666666666	23.933333333333334	20.599999999999998	25.666666666666664	53.333333333333336	52.733333333333334	49.06666666666666	45.86666666666667	42.266666666666666	39.33333333333333
Node 27		0.2	0.33333333333333337	0.4	0.5333333333333333	1.6	18.933333333333334	20.333333333333332	21.866666666666667	22.066666666666666	22.333333333333332	22.466666666666665	22.6	22.8	22.933333333333334	23.133333333333333	23.400000000000002	23.466666666666665	23.466666666666665	23.533333333333335	50.0	73.2	77.06666666666668	77.06666666666668	87.33333333333333	85.66666666666667	82.0	84.6	81.8	78.06666666666666	84.73333333333333	83.39999999999999	80.2	76.6	73.13333333333333	69.66666666666667	66.06666666666666	62.46666666666667	58.8	55.266666666666666	51.66666666666667	47.93333333333333	44.6	41.199999999999996	45.06666666666666	41.8	38.06666666666666	34.46666666666667	30.866666666666664	27.333333333333332	24.066666666666666	20.933333333333334	17.866666666666667	14.6	11.4	8.866666666666667	7.000000000000001	6.2	5.266666666666667	4.866666666666666	4.466666666666667	4.133333333333333	3.933333333333333	3.733333333333334	3.3333333333333335	3.0666666666666664	2.7333333333333334	2.2666666666666666	8.333333333333332	5.533333333333333	3.4666666666666663	1.866666666666667	1.6	1.5333333333333332	1.4000000000000001	1.3333333333333335
Node 16		0.13333333333333333	0.2	0.2	0.26666666666666666	0.33333333333333337	18.53333333333333	18.6	18.73333333333333	18.8	18.933333333333334	19.066666666666666	19.133333333333333	19.2	19.26666666666667	19.26666666666667	19.400000000000002	19.400000000000002	19.466666666666665	19.53333333333333	54.2	71.26666666666667	76.0	76.26666666666667	87.33333333333333	85.06666666666666	83.2	84.8	81.73333333333333	78.2	85.0	83.8	81.33333333333333	78.06666666666666	74.4	70.86666666666666	67.13333333333334	63.4	59.73333333333334	56.266666666666666	52.6	48.66666666666667	45.2	41.733333333333334	65.06666666666666	64.60000000000001	65.73333333333333	69.86666666666666	74.86666666666667	73.0	75.46666666666667	73.66666666666667	70.39999999999999	66.66666666666666	63.06666666666667	59.73333333333334	56.53333333333334	53.400000000000006	50.2	46.666666666666664	43.53333333333333	40.2	36.86666666666667	33.6	30.266666666666666	27.200000000000003	24.2	30.599999999999998	53.53333333333333	54.06666666666666	50.93333333333333	53.13333333333333	51.26666666666667	54.266666666666666	50.46666666666667	46.800000000000004
Node 37		0.33333333333333337	0.46666666666666673	0.5333333333333333	0.6	2.533333333333333	19.333333333333332	20.933333333333334	21.4	21.46666666666667	21.53333333333333	23.133333333333333	23.466666666666665	23.466666666666665	23.599999999999998	23.933333333333334	24.0	24.0	24.2	24.46666666666667	54.266666666666666	72.86666666666667	79.93333333333334	80.53333333333333	86.66666666666667	85.46666666666667	82.73333333333333	79.60000000000001	78.33333333333333	74.46666666666667	82.66666666666667	78.93333333333334	75.4	71.86666666666667	68.53333333333333	65.0	61.33333333333333	57.666666666666664	54.06666666666666	50.46666666666667	46.86666666666667	43.0	39.53333333333333	36.0	32.53333333333333	29.06666666666667	25.8	22.466666666666665	19.0	15.866666666666667	13.0	9.8	6.800000000000001	4.266666666666667	2.6	2.6	2.466666666666667	2.466666666666667	2.533333333333333	2.466666666666667	2.3333333333333335	2.533333333333333	2.4	2.3333333333333335	2.3333333333333335	2.3333333333333335	2.2666666666666666	2.1999999999999997	2.1333333333333333	2.0666666666666664	1.7333333333333332	1.6666666666666667	1.5333333333333332	1.3333333333333335	1.2	1.0666666666666667
Node 30		0.33333333333333337	0.4	0.46666666666666673	0.7333333333333333	0.8666666666666666	1.0666666666666667	1.0666666666666667	1.1333333333333333	1.2666666666666666	1.3333333333333335	1.4666666666666666	1.5333333333333332	1.6	1.7999999999999998	2.0	2.0666666666666664	2.1333333333333333	2.1999999999999997	2.4	2.466666666666667	2.533333333333333	2.666666666666667	2.8000000000000003	2.6	2.6	2.6	2.666666666666667	2.6	2.6	2.466666666666667	2.666666666666667	2.7333333333333334	2.6	2.533333333333333	2.4	2.4	2.4	2.2666666666666666	2.1999999999999997	2.1999999999999997	2.3333333333333335	2.3333333333333335	2.2666666666666666	2.2666666666666666	2.2666666666666666	2.1333333333333333	2.0666666666666664	2.0	1.9333333333333333	1.866666666666667	1.866666666666667	1.7333333333333332	1.6	1.6666666666666667	1.6	1.6	1.7333333333333332	1.7333333333333332	1.866666666666667	1.7999999999999998	1.866666666666667	1.9333333333333333	1.9333333333333333	1.866666666666667	1.6666666666666667	1.6	1.4666666666666666	1.4000000000000001	1.3333333333333335	1.3333333333333335	1.2666666666666666	1.2666666666666666	1.2666666666666666	1.2	1.0666666666666667
Node 21		0.0	0.0	0.26666666666666666	0.33333333333333337	1.7333333333333332	19.066666666666666	20.466666666666665	21.73333333333333	22.066666666666666	22.26666666666667	22.400000000000002	22.6	22.666666666666664	22.8	23.0	23.0	23.0	23.0	24.8	47.333333333333336	71.33333333333334	80.66666666666666	84.13333333333334	87.93333333333334	86.66666666666667	84.8	85.13333333333334	82.39999999999999	81.46666666666667	82.86666666666666	83.86666666666667	82.46666666666667	79.86666666666666	76.86666666666667	73.46666666666667	70.06666666666666	68.06666666666666	64.46666666666667	60.8	57.13333333333333	53.333333333333336	49.53333333333333	47.66666666666667	63.4	62.46666666666667	58.733333333333334	69.86666666666666	69.0	66.8	76.4	75.06666666666668	73.73333333333333	70.46666666666667	67.26666666666667	64.8	61.6	58.46666666666667	55.46666666666666	52.13333333333333	49.06666666666666	47.0	43.86666666666667	40.93333333333333	37.8	34.66666666666667	31.666666666666664	28.26666666666667	30.866666666666664	53.6	54.800000000000004	54.46666666666666	51.06666666666667	47.93333333333333	44.333333333333336	41.46666666666667
Node 7		0.13333333333333333	0.26666666666666666	0.26666666666666666	0.4	2.2666666666666666	18.666666666666668	21.066666666666666	21.133333333333333	21.46666666666667	21.53333333333333	21.53333333333333	21.666666666666668	21.666666666666668	21.73333333333333	21.933333333333334	22.133333333333333	22.6	22.6	22.733333333333334	52.33333333333333	74.06666666666666	81.26666666666667	82.33333333333334	88.86666666666667	86.53333333333333	83.8	85.33333333333334	82.26666666666667	79.4	85.39999999999999	84.13333333333334	82.8	79.0	76.2	72.73333333333333	69.0	65.2	61.53333333333333	58.266666666666666	54.6	50.66666666666667	47.199999999999996	43.733333333333334	65.60000000000001	62.46666666666667	58.93333333333334	55.266666666666666	51.4	77.46666666666667	76.46666666666667	76.0	74.2	70.73333333333333	67.4	64.0	60.8	57.733333333333334	54.46666666666666	51.13333333333333	48.0	44.6	41.333333333333336	38.13333333333333	34.733333333333334	31.466666666666665	28.46666666666667	34.266666666666666	39.06666666666666	52.666666666666664	50.93333333333333	47.333333333333336	43.666666666666664	40.86666666666667	50.4	46.800000000000004
Node 40		0.0	0.0	0.0	0.0	2.3333333333333335	18.866666666666667	21.73333333333333	22.2	22.26666666666667	22.26666666666667	22.26666666666667	22.26666666666667	22.26666666666667	22.26666666666667	22.26666666666667	22.26666666666667	22.26666666666667	22.26666666666667	22.26666666666667	22.26666666666667	22.26666666666667	22.26666666666667	22.26666666666667	19.2	16.0	13.0	10.133333333333333	7.066666666666667	4.133333333333333	1.6	0.46666666666666673	0.06666666666666667	0.0	0.0	0.0	0.0	0.0	0.0	0.0	0.0	0.0	0.0	0.0	0.0	0.0	0.0	69.0	69.26666666666667	65.46666666666667	61.8	58.199999999999996	54.6	50.8	47.13333333333333	43.666666666666664	40.400000000000006	37.53333333333334	34.66666666666667	31.866666666666667	29.333333333333332	26.200000000000003	23.266666666666666	20.200000000000003	17.4	14.533333333333335	12.0	9.266666666666666	17.4	14.6	12.4	10.2	9.266666666666666	8.066666666666666	7.000000000000001	6.333333333333334
Node 23		0.33333333333333337	0.33333333333333337	0.33333333333333337	0.4	0.5333333333333333	15.866666666666667	15.933333333333334	16.400000000000002	16.466666666666665	16.466666666666665	16.53333333333333	16.666666666666664	19.0	19.2	19.333333333333332	19.466666666666665	19.6	19.933333333333334	20.0	49.333333333333336	70.73333333333333	78.06666666666666	83.8	86.06666666666666	85.46666666666667	81.66666666666667	77.8	81.73333333333333	80.80000000000001	84.8	83.39999999999999	82.19999999999999	79.73333333333333	76.8	73.66666666666667	69.86666666666666	66.13333333333333	62.46666666666667	58.86666666666667	55.13333333333333	51.2	47.599999999999994	46.46666666666667	63.733333333333334	64.46666666666667	61.66666666666667	70.39999999999999	67.06666666666666	63.6	60.266666666666666	76.4	73.86666666666667	70.26666666666667	66.66666666666666	63.2	59.86666666666667	56.86666666666667	54.46666666666666	51.13333333333333	48.0	44.666666666666664	41.13333333333333	37.8	34.733333333333334	31.466666666666665	28.53333333333333	25.2	48.4	54.6	54.06666666666666	53.666666666666664	50.0	46.800000000000004	43.266666666666666	40.400000000000006
Node 31		0.33333333333333337	0.4	0.4	0.46666666666666673	0.8666666666666666	19.333333333333332	20.599999999999998	22.133333333333333	22.333333333333332	22.6	22.733333333333334	23.0	23.066666666666666	23.133333333333333	23.266666666666666	23.333333333333332	23.400000000000002	23.466666666666665	23.599999999999998	23.599999999999998	23.599999999999998	33.2	81.86666666666666	87.86666666666667	86.6	83.46666666666667	85.13333333333334	82.13333333333334	80.80000000000001	85.06666666666666	82.93333333333334	81.46666666666667	78.13333333333333	74.6	71.13333333333334	67.4	63.66666666666667	60.06666666666667	56.46666666666667	52.93333333333333	49.2	45.733333333333334	46.86666666666667	45.2	41.733333333333334	38.266666666666666	59.4	74.93333333333332	73.13333333333333	75.6	75.6	74.33333333333333	70.86666666666666	67.46666666666667	65.4	62.46666666666667	59.46666666666667	56.13333333333333	52.800000000000004	49.93333333333334	46.33333333333333	42.8	39.6	36.13333333333333	32.800000000000004	29.933333333333334	36.46666666666666	53.400000000000006	54.266666666666666	51.06666666666667	55.00000000000001	53.400000000000006	49.93333333333334	47.4	44.06666666666666
Node 5		0.4	0.5333333333333333	0.6	0.8666666666666666	0.9333333333333335	1.0666666666666667	1.1333333333333333	1.1333333333333333	1.1333333333333333	1.2666666666666666	1.3333333333333335	1.4666666666666666	1.5333333333333332	1.5333333333333332	1.7999999999999998	1.866666666666667	2.0	2.0666666666666664	2.4	57.199999999999996	74.26666666666667	81.26666666666667	84.0	88.0	86.46666666666667	83.8	84.86666666666667	82.19999999999999	80.53333333333333	84.8	81.86666666666666	78.2	74.46666666666667	71.06666666666666	67.46666666666667	63.66666666666667	59.8	56.266666666666666	52.666666666666664	49.2	45.266666666666666	41.66666666666667	38.2	34.66666666666667	31.4	27.866666666666667	24.666666666666668	39.93333333333333	76.93333333333334	74.0	75.46666666666667	73.73333333333333	71.0	67.66666666666666	64.2	60.86666666666667	57.599999999999994	54.46666666666666	51.0	47.86666666666667	44.4	41.06666666666667	37.733333333333334	34.333333333333336	31.2	28.4	34.733333333333334	48.199999999999996	53.2	49.93333333333334	46.400000000000006	42.8	39.733333333333334	36.46666666666666	34.06666666666667
Node 18		0.06666666666666667	0.13333333333333333	0.4	0.46666666666666673	1.0	18.333333333333332	18.4	18.53333333333333	18.6	18.73333333333333	19.066666666666666	19.066666666666666	19.333333333333332	19.53333333333333	19.53333333333333	19.53333333333333	19.666666666666664	19.8	19.866666666666667	51.866666666666674	74.66666666666667	78.60000000000001	82.73333333333333	88.2	87.06666666666666	84.6	85.26666666666667	82.8	80.13333333333334	77.2	73.53333333333333	69.73333333333333	66.2	63.0	59.46666666666667	55.733333333333334	52.06666666666667	48.4	44.800000000000004	41.06666666666667	37.46666666666666	34.06666666666667	30.466666666666665	64.0	63.06666666666667	65.86666666666666	63.53333333333333	60.66666666666667	56.99999999999999	53.400000000000006	49.93333333333334	46.46666666666667	42.93333333333334	39.46666666666667	36.06666666666667	32.86666666666667	30.2	27.800000000000004	25.733333333333334	23.799999999999997	21.333333333333336	19.26666666666667	16.8	14.6	12.2	10.266666666666667	20.866666666666667	18.866666666666667	55.733333333333334	53.86666666666666	54.93333333333334	51.26666666666667	48.4	46.400000000000006	43.2
Node 22		0.26666666666666666	0.4	0.4	0.5333333333333333	0.6	0.6666666666666667	1.1333333333333333	1.2	1.2666666666666666	2.533333333333333	2.8666666666666667	3.266666666666666	3.4666666666666663	3.5999999999999996	3.733333333333334	3.8666666666666667	4.133333333333333	4.2	4.2	14.000000000000002	73.2	81.2	84.13333333333334	86.06666666666666	85.53333333333333	82.53333333333333	85.06666666666666	81.66666666666667	78.06666666666666	85.13333333333334	83.53333333333333	81.6	78.06666666666666	75.53333333333333	71.93333333333334	68.46666666666667	64.8	61.266666666666666	57.93333333333334	54.6	50.866666666666674	47.4	43.93333333333334	65.46666666666667	64.53333333333333	65.60000000000001	70.06666666666666	74.53333333333333	76.66666666666667	76.6	75.73333333333333	74.0	70.33333333333334	67.73333333333333	64.60000000000001	61.6	58.599999999999994	55.333333333333336	51.93333333333333	48.733333333333334	45.33333333333333	41.93333333333334	39.0	35.66666666666667	32.53333333333333	29.46666666666667	26.066666666666666	47.8	53.800000000000004	50.66666666666667	47.06666666666667	43.4	40.46666666666667	37.266666666666666	34.8
Node 32		0.26666666666666666	0.4	0.4	0.5333333333333333	3.0666666666666664	15.933333333333334	18.666666666666668	18.866666666666667	19.066666666666666	19.2	19.400000000000002	19.666666666666664	19.666666666666664	19.866666666666667	19.866666666666667	20.066666666666666	20.200000000000003	20.333333333333332	20.466666666666665	33.733333333333334	73.8	77.2	81.46666666666667	85.26666666666667	85.46666666666667	83.26666666666667	81.2	77.60000000000001	74.26666666666667	84.39999999999999	82.6	78.73333333333333	75.2	71.86666666666667	68.33333333333333	64.60000000000001	60.73333333333333	57.199999999999996	53.666666666666664	50.13333333333333	46.33333333333333	42.8	39.33333333333333	38.6	51.0	47.53333333333333	69.53333333333333	67.80000000000001	64.60000000000001	62.0	58.666666666666664	57.733333333333334	54.53333333333333	51.0	47.66666666666667	44.6	41.93333333333334	39.4	36.86666666666667	34.46666666666667	31.733333333333334	29.06666666666667	26.200000000000003	23.466666666666665	20.599999999999998	18.133333333333333	16.666666666666664	17.333333333333336	16.53333333333333	14.333333333333334	12.2	11.066666666666666	9.8	8.533333333333333	7.8
Node 2		0.0	0.2	0.26666666666666666	0.33333333333333337	0.5333333333333333	19.133333333333333	19.400000000000002	19.53333333333333	19.666666666666664	19.733333333333334	19.733333333333334	19.733333333333334	19.933333333333334	20.066666666666666	20.066666666666666	20.4	20.599999999999998	23.799999999999997	23.799999999999997	28.133333333333333	58.86666666666667	77.2	83.2	87.66666666666667	85.26666666666667	82.73333333333333	79.46666666666667	78.33333333333333	74.6	84.2	82.73333333333333	79.13333333333334	75.53333333333333	72.13333333333334	68.53333333333333	64.8	61.0	57.4	54.06666666666666	50.46666666666667	46.46666666666667	43.0	47.53333333333333	64.60000000000001	62.6	58.8	61.33333333333333	74.4	77.13333333333333	76.53333333333333	76.13333333333333	74.33333333333333	72.06666666666666	69.13333333333334	65.8	62.4	59.333333333333336	56.266666666666666	52.733333333333334	49.53333333333333	46.13333333333333	42.53333333333333	39.266666666666666	36.06666666666667	32.800000000000004	29.799999999999997	26.466666666666665	42.66666666666667	49.4	55.333333333333336	53.13333333333333	49.53333333333333	47.86666666666667	47.13333333333333	46.33333333333333
Node 11		0.33333333333333337	0.46666666666666673	0.5333333333333333	0.5333333333333333	0.6	0.6	0.6666666666666667	0.7333333333333333	1.0	1.2666666666666666	1.5333333333333332	1.5333333333333332	1.6666666666666667	1.7333333333333332	1.7999999999999998	1.9333333333333333	2.0	2.0666666666666664	2.1333333333333333	2.1333333333333333	2.2666666666666666	2.4	2.466666666666667	2.2666666666666666	2.4	2.4	2.466666666666667	2.666666666666667	2.8666666666666667	2.8666666666666667	2.933333333333333	2.8666666666666667	2.8666666666666667	2.666666666666667	2.4	2.533333333333333	2.533333333333333	2.533333333333333	2.7333333333333334	2.6	2.666666666666667	2.666666666666667	2.7333333333333334	2.8000000000000003	2.8000000000000003	2.666666666666667	2.7333333333333334	2.7333333333333334	2.666666666666667	2.6	2.6	2.533333333333333	9.933333333333334	10.0	8.333333333333332	5.666666666666666	5.466666666666667	5.466666666666667	5.533333333333333	5.533333333333333	5.466666666666667	22.2	21.066666666666666	25.933333333333337	30.599999999999998	27.53333333333333	24.266666666666666	21.0	17.8	14.866666666666667	11.866666666666667	9.0	6.800000000000001	5.800000000000001	4.2
Node 33		0.33333333333333337	0.46666666666666673	0.46666666666666673	0.46666666666666673	0.6	18.266666666666666	21.2	21.6	21.73333333333333	21.73333333333333	21.8	21.866666666666667	21.933333333333334	22.0	22.2	22.26666666666667	22.400000000000002	22.466666666666665	22.53333333333333	22.53333333333333	25.0	78.60000000000001	82.06666666666666	87.26666666666667	87.13333333333333	85.06666666666666	85.86666666666667	84.0	82.26666666666667	86.66666666666667	85.39999999999999	83.0	79.4	75.8	72.0	68.06666666666666	64.53333333333333	61.0	57.4	53.666666666666664	49.733333333333334	46.400000000000006	42.93333333333334	39.2	60.266666666666666	65.86666666666666	74.8	78.0	79.13333333333334	79.06666666666666	77.86666666666666	77.73333333333333	74.26666666666667	70.66666666666667	67.26666666666667	63.866666666666674	60.46666666666667	57.199999999999996	53.86666666666666	50.6	47.13333333333333	43.8	40.53333333333333	36.93333333333334	33.6	30.333333333333336	26.73333333333333	23.200000000000003	34.93333333333333	57.599999999999994	56.53333333333334	56.06666666666666	52.46666666666666	48.8	45.33333333333333
Node 26		0.33333333333333337	0.4	0.46666666666666673	0.6666666666666667	2.7333333333333334	18.666666666666668	20.4	20.466666666666665	20.599999999999998	20.733333333333334	20.8	20.8	20.933333333333334	21.133333333333333	21.266666666666666	21.333333333333336	21.4	21.46666666666667	21.46666666666667	54.333333333333336	64.8	77.73333333333333	77.73333333333333	87.46666666666667	85.6	83.39999999999999	84.33333333333334	81.93333333333334	78.13333333333333	83.2	83.06666666666666	79.80000000000001	76.33333333333333	72.66666666666667	69.19999999999999	65.26666666666667	62.8	59.333333333333336	56.06666666666666	52.400000000000006	48.6	45.266666666666666	41.86666666666667	40.6	62.133333333333326	59.4	57.4	64.86666666666666	61.33333333333333	63.66666666666667	60.53333333333333	57.333333333333336	53.93333333333333	50.4	47.199999999999996	44.0	41.266666666666666	38.93333333333333	36.4	34.4	31.533333333333335	28.666666666666668	25.8	23.266666666666666	20.466666666666665	18.0	18.933333333333334	16.866666666666667	14.066666666666666	11.866666666666667	9.733333333333333	8.799999999999999	27.800000000000004	50.53333333333333	46.733333333333334
Node 3		0.2	0.2	0.33333333333333337	0.4	0.46666666666666673	19.333333333333332	20.8	20.866666666666667	20.866666666666667	21.0	21.133333333333333	21.2	21.2	21.333333333333336	21.4	21.4	21.4	21.53333333333333	21.666666666666668	21.866666666666667	22.133333333333333	22.26666666666667	22.333333333333332	87.26666666666667	86.73333333333333	83.86666666666667	84.8	81.2	77.46666666666667	85.13333333333334	83.8	80.73333333333333	77.0	73.6	69.93333333333334	66.06666666666666	62.33333333333333	58.8	55.333333333333336	51.6	47.66666666666667	44.2	40.666666666666664	37.0	33.666666666666664	46.2	70.06666666666666	74.8	76.53333333333333	75.66666666666667	74.86666666666667	71.46666666666667	69.26666666666667	65.66666666666666	62.4	59.13333333333334	55.800000000000004	52.400000000000006	49.06666666666666	46.06666666666667	42.733333333333334	39.33333333333333	36.199999999999996	32.93333333333333	29.733333333333334	26.8	23.466666666666665	53.0	54.266666666666666	50.93333333333333	47.333333333333336	43.666666666666664	40.6	37.333333333333336	35.0
Node 17		0.4	0.5333333333333333	0.5333333333333333	0.6666666666666667	0.6666666666666667	19.2	19.466666666666665	19.666666666666664	19.666666666666664	19.733333333333334	19.933333333333334	20.066666666666666	20.133333333333333	20.266666666666666	20.333333333333332	20.4	20.533333333333335	20.666666666666668	20.666666666666668	20.666666666666668	20.8	20.866666666666667	21.0	18.2	15.533333333333331	12.6	10.066666666666666	7.133333333333333	4.466666666666667	2.1999999999999997	2.0666666666666664	1.9333333333333333	1.9333333333333333	1.9333333333333333	2.0	1.9333333333333333	2.0	1.866666666666667	1.866666666666667	1.866666666666667	1.866666666666667	1.7999999999999998	1.866666666666667	29.46666666666667	37.46666666666666	49.666666666666664	68.13333333333334	68.0	64.93333333333334	62.133333333333326	60.86666666666667	57.46666666666667	54.0	50.46666666666667	47.13333333333333	44.0	41.266666666666666	38.4	35.66666666666667	33.266666666666666	30.4	27.46666666666667	24.6	21.8	19.0	16.53333333333333	18.666666666666668	16.8	42.199999999999996	42.53333333333333	46.6	50.93333333333333	49.53333333333333	47.199999999999996	44.0
Node 35		0.26666666666666666	0.26666666666666666	0.33333333333333337	0.46666666666666673	1.0666666666666667	19.066666666666666	20.533333333333335	21.73333333333333	22.2	22.400000000000002	22.53333333333333	22.666666666666664	22.733333333333334	22.8	23.066666666666666	23.066666666666666	23.066666666666666	23.200000000000003	23.400000000000002	52.53333333333333	73.46666666666667	77.33333333333333	81.13333333333334	85.26666666666667	85.73333333333333	83.66666666666667	84.66666666666667	81.8	80.73333333333333	84.93333333333334	83.06666666666666	79.2	75.46666666666667	72.0	68.46666666666667	64.73333333333333	61.133333333333326	57.599999999999994	54.2	50.6	46.86666666666667	43.46666666666666	39.93333333333333	36.53333333333333	33.0	29.599999999999998	26.200000000000003	22.53333333333333	19.2	16.0	12.733333333333333	9.666666666666666	6.666666666666667	3.8	2.466666666666667	2.466666666666667	2.533333333333333	2.4	2.4	2.2666666666666666	2.2666666666666666	2.1333333333333333	2.0	1.9333333333333333	1.7999999999999998	1.5333333333333332	1.4000000000000001	1.2666666666666666	1.2666666666666666	1.1333333333333333	1.1333333333333333	1.0666666666666667	0.9333333333333335	0.9333333333333335	0.8
Node 14		0.33333333333333337	0.5333333333333333	0.6	0.7333333333333333	0.9333333333333335	1.0666666666666667	1.2	1.4000000000000001	1.6	1.7333333333333332	1.7999999999999998	1.866666666666667	2.0	2.1333333333333333	2.1333333333333333	2.1333333333333333	2.2666666666666666	2.3333333333333335	2.466666666666667	53.2	73.93333333333332	78.06666666666666	83.53333333333333	85.39999999999999	85.66666666666667	82.73333333333333	84.46666666666667	81.39999999999999	77.66666666666666	74.2	70.39999999999999	66.66666666666666	63.2	59.599999999999994	56.13333333333333	52.26666666666666	48.6	44.93333333333333	41.46666666666667	37.86666666666667	34.0	30.533333333333335	27.200000000000003	23.799999999999997	20.333333333333332	30.666666666666664	54.0	66.86666666666666	65.4	63.733333333333334	60.53333333333333	56.93333333333334	53.400000000000006	49.93333333333334	46.800000000000004	43.666666666666664	41.13333333333333	38.53333333333334	35.86666666666667	33.6	30.599999999999998	27.933333333333334	25.066666666666666	22.26666666666667	19.466666666666665	17.066666666666666	14.333333333333334	11.600000000000001	8.799999999999999	6.666666666666667	4.533333333333333	3.6666666666666665	2.6	1.6	1.3333333333333335
Node 4		0.06666666666666667	0.06666666666666667	0.33333333333333337	0.33333333333333337	0.4	18.0	18.0	18.0	18.066666666666666	18.133333333333333	18.333333333333332	18.6	18.666666666666668	18.73333333333333	18.73333333333333	18.933333333333334	19.133333333333333	19.333333333333332	24.4	66.53333333333333	71.6	79.06666666666666	85.0	89.60000000000001	87.06666666666666	83.39999999999999	79.73333333333333	83.66666666666667	79.93333333333334	84.53333333333333	80.86666666666666	77.2	73.6	70.0	66.33333333333333	62.6	58.733333333333334	55.06666666666666	51.53333333333333	48.0	44.13333333333333	40.53333333333333	37.06666666666666	67.93333333333334	71.06666666666666	71.6	71.8	78.13333333333333	76.66666666666667	80.4	79.46666666666667	76.06666666666668	72.53333333333333	68.86666666666666	65.46666666666667	62.133333333333326	58.599999999999994	55.13333333333333	51.800000000000004	48.66666666666667	45.2	41.66666666666667	38.2	34.66666666666667	31.333333333333336	28.066666666666666	24.46666666666667	20.866666666666667	17.599999999999998	14.399999999999999	11.066666666666666	56.599999999999994	54.333333333333336	50.46666666666667	46.666666666666664
Node 25		0.0	0.13333333333333333	0.13333333333333333	0.33333333333333337	0.46666666666666673	18.933333333333334	18.933333333333334	19.0	19.133333333333333	19.333333333333332	19.466666666666665	19.6	19.8	20.0	20.200000000000003	20.200000000000003	20.333333333333332	20.4	20.4	54.46666666666666	71.46666666666667	75.4	82.66666666666667	85.13333333333334	81.39999999999999	77.60000000000001	73.86666666666667	70.26666666666667	79.0	82.93333333333334	83.06666666666666	80.53333333333333	77.0	73.6	70.06666666666666	66.46666666666667	62.66666666666667	59.06666666666667	55.666666666666664	52.06666666666667	48.333333333333336	44.86666666666667	41.6	38.2	51.866666666666674	66.13333333333333	70.73333333333333	68.60000000000001	65.8	63.800000000000004	60.4	56.99999999999999	53.333333333333336	49.733333333333334	46.53333333333333	43.46666666666666	40.733333333333334	38.13333333333333	35.53333333333333	33.13333333333333	30.266666666666666	27.53333333333333	24.53333333333333	21.8	19.0	16.466666666666665	16.933333333333334	14.2	11.4	9.2	7.000000000000001	5.866666666666666	35.733333333333334	50.46666666666667	46.733333333333334
