38 39.66513157894737
40 12.667105263157893
2 39.5703947368421
9 41.18486842105264
27 26.392105263157898
29 33.93750000000001
36 41.459210526315786
33 39.252631578947366
7 41.15328947368422
35 26.3625
30 2.1750000000000007
32 35.48881578947367
12 15.088815789473681
18 29.891447368421034
25 35.15921052631579
0 35.29736842105262
1 26.307236842105265
10 31.563157894736833
17 18.801315789473684
31 39.242763157894764
14 25.717105263157894
5 31.957894736842103
37 25.087500000000016
16 38.958552631578954
4 37.93026315789473
39 38.10986842105264
8 36.9157894736842
26 36.8467105263158
21 42.67302631578947
22 38.77105263157895
6 29.871710526315795
11 2.6269736842105256
3 34.60855263157895
28 38.47697368421054
13 32.289473684210535
19 36.93749999999999
34 36.298026315789485
24 33.36315789473683
20 25.653947368421058
23 39.90394736842106
15 37.4921052631579
