26 198
37 90
12 156
20 71
1 68
10 42
28 243
16 141
19 56
2 86
21 254
38 229
14 229
33 151
17 143
40 68
9 212
36 141
35 152
8 164
0 220
39 404
7 167
15 78
4 218
32 175
23 190
13 129
24 167
31 196
27 47
22 201
18 219
29 92
3 268
5 176
34 112
6 287
25 48
