2 40.815789473684205
33 40.314473684210526
34 38.70000000000001
37 25.0796052631579
11 4.784210526315788
15 37.772368421052626
29 38.79078947368421
36 42.639473684210515
31 40.075657894736835
0 41.757236842105264
8 39.051315789473676
21 43.559210526315795
39 40.34013157894737
16 41.09999999999999
35 26.64473684210526
30 2.374342105263158
27 29.27368421052632
3 35.53223684210528
7 41.6782894736842
9 41.74736842105265
10 33.47960526315788
32 40.32236842105264
18 35.08223684210526
13 38.05460526315788
40 19.88684210526316
5 32.62302631578946
22 39.996710526315795
23 41.970394736842096
28 41.3546052631579
19 39.536842105263155
24 37.84144736842105
12 26.542105263157893
4 38.715789473684225
17 28.30855263157895
6 30.99473684210526
20 25.993421052631582
25 38.0921052631579
38 41.078289473684215
1 30.550657894736833
14 31.04999999999999
26 42.31578947368421
