Message stats for scenario SimBetHaggleInfocom_#SA_20M
sim_time: 274883.0000
created: 3892
started: 125504
relayed: 120341
aborted: 5163
dropped: 101243
removed: 0
delivered: 3370
delivery_prob: 0.8659
response_prob: 0.0000
overhead_ratio: 34.7095
latency_avg: 26899.6576
latency_med: 23028.0000
hopcount_avg: 3.0332
hopcount_med: 3
buffertime_avg: 59380.8146
buffertime_med: 65502.0000
rtt_avg: NaN
rtt_med: NaN
