29	2537
2	2667
19	2590
15	2548
20	1908
39	2658
31	2586
10	2327
38	2647
32	2580
6	2122
40	1361
0	2603
23	2698
11	340
21	2706
16	2745
35	1502
27	1790
1	1826
26	2674
28	2643
18	2568
36	2705
3	2365
37	1442
7	2826
5	2154
14	1996
22	2402
30	126
4	2547
12	1905
17	2083
13	2537
34	2512
8	2543
9	2692
25	2556
33	2617
24	2602
