25	11511
19	6654
13	8005
32	8699
8	14133
22	13117
11	413
37	6230
7	16896
34	10163
28	11751
6	11203
23	15590
16	18637
20	9300
35	11511
1	1379
31	13987
21	21477
4	25070
17	1885
15	18412
39	9069
10	9204
26	6968
5	15790
38	15635
14	5319
18	17788
24	9825
33	27421
2	15785
12	4843
3	20817
40	945
9	13843
27	3087
0	7418
29	3604
36	15173
