Message Drop for scenario SimBetHaggleInfocom_#SA_15M
sim_time: 274883.0000

6	2607
15	2815
12	1752
24	2692
29	2564
0	2657
19	2670
39	2705
20	2458
34	2628
38	2790
28	2790
36	2803
10	2766
9	2820
13	2505
1	2416
27	1995
8	2792
16	2814
37	1672
30	76
21	2806
40	1525
7	2816
23	2810
31	2813
18	2639
5	2779
32	2487
22	2792
2	2794
33	2867
11	646
26	2576
3	2774
17	1811
35	1734
14	2462
4	2881
25	2584

