25 61.61842105263158
19 65.84736842105262
13 57.0921052631579
8 67.03421052631577
32 60.28947368421051
22 65.46578947368423
11 12.84736842105263
7 70.58421052631579
37 38.097368421052636
34 62.60526315789471
28 69.67631578947369
6 57.876315789473686
23 70.02105263157898
16 68.47368421052632
20 61.96052631578946
1 36.09473684210526
35 42.72631578947369
31 71.17894736842103
4 63.48421052631581
17 43.460526315789465
21 75.17894736842106
15 65.70263157894736
10 59.83157894736842
39 66.32368421052634
26 64.16578947368419
30 5.536842105263159
5 54.3421052631579
38 71.32105263157897
14 42.557894736842094
18 63.97894736842104
24 67.53947368421055
2 70.22368421052634
12 31.747368421052634
33 67.67631578947366
3 65.76842105263158
40 31.70000000000002
9 70.36315789473686
27 40.765789473684194
0 60.949999999999974
29 61.99473684210528
36 72.47631578947369
