Node	Value
83	84
3	63
77	176
34	153
37	44
12	33
74	106
72	81
62	104
29	30
17	38
15	188
36	102
50	101
57	11
33	62
28	1002
56	439
26	29
70	68
42	130
94	312
11	130
27	26
46	31
63	6
0	1
91	84
96	53
13	134
23	97
55	10
38	391
40	5
64	98
6	216
7	155
95	322
22	73
18	161
69	38
1	35
93	104
10	34
89	11
78	42
88	161
52	6
82	123
59	32
87	12
65	66
71	129
9	156
4	5
31	75
32	51
80	293
14	118
79	150
76	122
61	11
67	10
44	73
81	111
19	168
39	4
20	218
53	92
41	85
49	260
16	103
84	257
75	79
73	95
58	47
43	19
68	32
54	6
90	149
92	21
8	2
48	44
45	109
47	3
60	50
21	66
30	81
35	57
85	172
5	65
25	29
2	16
