NrofTotalCopy/Contact
32000 266621
64000 523431
10500 61705
42500 356276
74500 630720
21000 163777
53000 440226
85000 709361
31500 259107
63500 521441
10000 59734
42000 352886
74000 621404
20500 159767
52500 437597
84500 709361
31000 249383
63000 517772
9500 54629
41500 350313
73500 613619
20000 155279
52000 435254
84000 709361
30500 241350
62500 514160
9000 47639
41000 347109
73000 607674
19500 152816
51500 430093
83500 709361
30000 232698
62000 512116
8500 44129
40500 339436
72500 600508
19000 145277
51000 426088
83000 709361
29500 229631
61500 507891
8000 41736
40000 335862
72000 591865
18500 141356
50500 420894
82500 709361
29000 224003
61000 505515
7500 36349
39500 330154
71500 582934
18000 138567
50000 415327
82000 709357
28500 222134
60500 499931
7000 32673
39000 324065
71000 576171
17500 133950
49500 406586
81500 709094
28000 219349
60000 494616
6500 29463
38500 320726
70500 569378
17000 129202
49000 399605
81000 706846
27500 213165
59500 489664
6000 24981
38000 317463
70000 564736
16500 122706
48500 394691
80500 703861
27000 210843
59000 487206
5500 21139
37500 313402
69500 561556
16000 117862
48000 391138
80000 698159
26500 206496
58500 483219
5000 18835
37000 309105
69000 557922
15500 114096
47500 388381
79500 693458
26000 203458
58000 476811
4500 17205
36500 302524
68500 553438
15000 110423
47000 387018
79000 690233
25500 198953
57500 474713
4000 13709
36000 299694
68000 550853
14500 106658
46500 382113
78500 684435
25000 194716
57000 472043
3500 9881
35500 294345
67500 546566
14000 100559
46000 379752
78000 677730
24500 191343
56500 467456
3000 3909
35000 289275
67000 542847
13500 91899
45500 376705
77500 672320
24000 186883
56000 463384
2500 1217
34500 283730
66500 539090
13000 87662
45000 370056
77000 665736
23500 181463
55500 459575
2000 410
34000 279858
66000 536342
12500 82604
44500 367711
76500 657514
23000 177886
55000 454930
1500 213
33500 274498
65500 531613
12000 78875
44000 364797
76000 653294
22500 173662
54500 450559
1000 108
33000 271195
65000 529087
11500 73700
43500 362958
75500 646125
22000 168204
54000 446724
500 14
32500 268515
64500 525268
11000 65669
43000 358620
75000 637570
21500 164158
53500 443464
85500 709361

