83	390
3	256
34	887
77	975
37	116
12	81
74	203
62	399
72	383
29	86
17	277
15	1077
50	420
36	508
57	19
33	138
28	954
56	557
26	75
70	254
42	1344
94	729
11	735
27	123
46	137
91	350
13	1367
96	277
23	447
55	43
38	932
40	17
64	129
6	949
7	560
95	1782
22	471
18	878
69	157
93	269
1	102
10	109
89	23
78	155
88	395
59	70
82	803
87	17
65	269
71	408
9	374
4	34
31	229
32	447
80	1206
14	393
79	369
76	607
61	71
67	32
44	252
19	585
81	198
39	28
53	377
20	932
41	291
49	831
16	537
84	718
75	574
73	502
58	325
43	93
68	116
90	606
92	56
8	19
48	218
45	351
60	199
21	172
35	169
30	322
85	1511
5	333
25	69
2	48
