A83	0.4337535286629103 
A3	0.39536100524786255 
A77	0.5336914789827834 
A12	0.36723145986025346 
A34	0.525709160338823 
A37	0.44311815134151583 
A74	0.44977942087359646 
A62	0.45681869504889766 
A72	0.4414106284453499 
A29	0.43745236923475794 
A17	0.4217146686427342 
A15	0.4428182073120801 
A50	0.4403069866811594 
A36	0.4355428038895467 
A57	0.2137059701842736 
A33	0.4133306290185489 
A28	0.5849814239921334 
A56	0.6042879211902787 
A26	0.3039373934277068 
A70	0.44016680190863444 
A42	0.5675409899053518 
A94	0.4905097713950587 
A11	0.4438517009179863 
A46	0.497598975080708 
A27	0.46676351969528507 
A63	0.14314296407514254 
A0	0.012004568227404505 
A91	0.4211735052715451 
A13	0.4804788218379731 
A96	0.47845095723343384 
A55	0.4620325653708076 
A23	0.49730076822727926 
A38	0.5147962566547308 
A40	0.33158381140952436 
A64	0.4672019120004003 
A6	0.4523927956348068 
A95	0.5414990300321318 
A7	0.4323580300199632 
A22	0.4539163908084976 
A18	0.4619074980400253 
A69	0.4366857144225152 
A1	0.3570132070037154 
A93	0.4298654343915315 
A10	0.407823760352917 
A89	0.3542767208957142 
A78	0.44758032050095886 
A88	0.46257090572759024 
A52	0.014109143278363488 
A82	0.45227634196075917 
A59	0.44270618348251844 
A87	0.40792447892804296 
A65	0.4066915590595794 
A71	0.42334535216051816 
A4	0.38178817578455715 
A9	0.46384011986769946 
A31	0.35921442215860283 
A32	0.4224176707437189 
A80	0.4407636550345959 
A14	0.4372773604029279 
A79	0.4588098531770697 
A76	0.46897150984088226 
A61	0.32552913315666804 
A67	0.38904159926991416 
A44	0.42865292101878755 
A19	0.41786105181380845 
A81	0.5619732006692472 
A39	0.2584796420018603 
A53	0.46959232866193773 
A20	0.4325587971446958 
A41	0.5532101697063441 
A16	0.5368959014182586 
A49	0.4796984657764287 
A84	0.4337699784383462 
A75	0.5105616768919715 
A73	0.4887407424468725 
A58	0.4928535458774524 
A43	0.5387536387270189 
A68	0.5039034598319966 
A54	0.117326819617709 
A90	0.44063639321182635 
A92	0.34806219683320094 
A51	0.8291755928615034 
A8	0.2983669762394551 
A86	0.0 
A48	0.449570714268754 
A45	0.437604920948249 
A47	0.15832665531294884 
A60	0.34332933698724466 
A30	0.4070706501204445 
A21	0.4190108414181805 
A35	0.397383410335978 
A85	0.5379212027262579 
A5	0.4465190350494004 
A25	0.42586663157891574 
A2	0.3725753110752602 
