Message stats for scenario SimBetReality#HillClimbing_singleCopy_0.3
sim_time: 16981816.0000
created: 25299
started: 60244
relayed: 49691
aborted: 10553
dropped: 20899
removed: 49691
delivered: 4400
delivery_prob: 0.1739
response_prob: 0.0000
overhead_ratio: 10.2934
latency_avg: 257118.2720
latency_med: 239255.0000
hopcount_avg: 3.3011
hopcount_med: 3
buffertime_avg: 195076.0338
buffertime_med: 78565.0000
rtt_avg: NaN
rtt_med: NaN
