83	291
3	460
77	1516
37	77
34	1835
74	321
62	176
72	511
29	51
17	6
15	777
50	85
36	430
57	30
33	37
28	9398
56	4005
26	75
70	127
42	1589
94	1366
11	925
46	226
27	58
91	57
96	250
13	769
23	513
55	17
38	2209
40	14
64	364
6	608
7	234
95	2135
22	220
18	728
69	239
1	30
93	58
10	45
78	96
88	415
82	324
59	49
87	3
65	50
71	361
9	639
4	44
31	8
32	204
80	262
14	340
79	319
76	387
61	1
67	37
44	34
81	565
19	121
39	29
53	690
20	20
41	1137
49	531
16	737
84	238
73	465
75	798
58	180
43	280
68	101
90	108
92	5
8	14
48	119
45	180
60	50
35	17
21	49
30	48
85	2236
5	35
25	47
2	56
