Node	Value
78	22
4	4
7	51
9	37
34	38
74	69
31	29
71	36
69	20
59	8
25	12
13	109
11	61
47	16
33	23
30	45
54	15
53	28
23	42
67	3
39	2
95	239
8	3
38	171
43	7
60	21
88	71
10	30
92	4
63	24
19	62
52	17
36	62
61	4
2	4
20	118
91	44
18	71
15	142
90	78
6	107
79	52
75	77
85	117
49	85
56	146
77	84
84	86
93	31
62	23
21	16
68	4
80	173
5	70
27	31
29	13
94	163
73	54
96	24
58	24
41	25
64	30
76	39
16	43
35	13
50	43
37	13
12	25
46	7
70	22
72	45
81	42
55	4
14	50
65	31
40	12
28	269
87	10
89	7
48	32
3	33
83	38
42	93
45	49
44	17
57	6
26	7
17	56
32	42
82	117
1	18
22	47
