NrofTotalCopy/Contact
32000 16742
64000 31767
10500 5154
42500 21688
74500 41194
21000 10853
53000 26313
85000 46390
31500 16379
63500 31404
10000 5048
42000 21538
74000 40857
20500 10682
52500 26178
84500 46390
31000 15993
63000 31016
9500 4760
41500 21336
73500 40283
20000 10422
52000 26072
84000 46390
30500 15724
62500 30756
9000 4282
41000 21185
73000 39901
19500 10230
51500 25939
83500 46390
30000 15387
62000 30338
8500 4055
40500 20883
72500 39461
19000 10007
51000 25818
83000 46390
29500 15037
61500 30088
8000 3801
40000 20607
72000 38923
18500 9775
50500 25490
82500 46390
29000 14583
61000 29984
7500 3462
39500 20409
71500 38448
18000 9691
50000 25251
82000 46390
28500 14486
60500 29592
7000 3210
39000 19971
71000 37904
17500 9422
49500 25024
81500 46382
28000 14345
60000 29388
6500 3028
38500 19672
70500 37463
17000 9200
49000 24717
81000 46210
27500 13878
59500 29111
6000 2642
38000 19477
70000 37019
16500 8874
48500 24295
80500 46140
27000 13749
59000 28912
5500 2419
37500 18841
69500 36580
16000 8319
48000 23789
80000 45993
26500 13340
58500 28690
5000 2146
37000 18703
69000 36237
15500 7911
47500 23662
79500 45720
26000 13155
58000 28532
4500 2020
36500 18531
68500 35976
15000 7736
47000 23593
79000 45452
25500 12869
57500 28411
4000 1784
36000 18342
68000 35605
14500 7640
46500 23456
78500 44992
25000 12568
57000 28213
3500 1240
35500 18105
67500 35256
14000 7420
46000 23179
78000 44761
24500 12408
56500 28023
3000 1099
35000 17649
67000 34678
13500 7010
45500 22923
77500 44429
24000 12235
56000 27872
2500 699
34500 17421
66500 34300
13000 6641
45000 22513
77000 43884
23500 11967
55500 27392
2000 131
34000 17275
66000 33942
12500 6434
44500 22375
76500 43022
23000 11851
55000 27185
1500 68
33500 17126
65500 33418
12000 6049
44000 22026
76000 42687
22500 11678
54500 26861
1000 48
33000 16931
65000 33064
11500 5831
43500 21992
75500 42178
22000 11467
54000 26671
500 4
32500 16873
64500 32559
11000 5475
43000 21880
75000 41406
21500 10948
53500 26525
85500 46390

