Node	Value
78	5
7	15
9	24
34	213
74	11
31	1
71	13
69	7
59	5
25	4
13	19
11	40
47	1
30	1
53	51
23	23
67	3
39	1
95	81
8	1
38	66
43	20
60	3
88	16
10	4
92	1
19	3
36	10
61	2
2	4
20	3
91	6
18	47
15	16
90	2
6	17
75	42
79	12
85	88
49	32
56	466
77	112
84	7
62	6
93	3
21	5
68	7
80	15
5	2
27	7
29	1
94	33
73	21
96	7
58	11
41	69
64	16
16	17
76	19
35	3
50	3
37	2
46	7
12	1
70	4
72	31
81	43
55	2
14	13
65	3
40	1
28	2213
87	5
48	4
3	20
83	14
42	253
45	9
44	1
57	1
32	9
26	1
22	9
82	13
1	3
