28	3324
22	3240
16	3470
35	1663
11	1704
25	3457
14	2697
40	2357
0	3470
10	3424
37	1576
31	3443
9	3456
26	3460
19	3354
23	3430
4	3433
38	3360
34	3429
24	3469
7	3458
20	2656
18	3426
13	3372
29	3399
33	3413
8	3393
17	2695
21	3392
27	2594
36	3442
15	3464
5	3272
1	3063
6	2524
2	3407
12	2790
30	798
3	3327
32	3289
39	3447
