7 0.89090523637906
9 0.9462052151791418
74 1.0924634301462888
71 1.053243587025646
59 1.1725885096459707
25 1.0774856900572374
11 0.9210091159635401
33 1.1335594657621322
30 0.9146173415306385
23 1.5834428662285345
53 0.8746025015899986
67 1.0853614585541573
39 1.4528089887640598
8 1.0558193767224857
95 0.8953572185711195
24 1.4424104303582794
38 0.9389018443926157
43 0.9879054483782037
63 0.9136951452194108
19 1.3746661013356072
52 0.8324146703413221
61 1.1132817468730045
20 1.1404812380750402
91 0.9461310154759467
66 1.2918804324782587
6 0.9370362518549978
49 1.0461098155607433
93 0.7427602289590891
21 1.424666101335607
68 1.0588509645961248
27 1.1264044943820304
73 1.4487280050879932
96 0.5763514945940319
64 0.8999788000847904
35 0.814935340258634
46 0.8319270722917216
70 0.8207971168115319
72 1.0090205639177454
81 0.9365592537630004
55 1.3260864956540082
14 1.0128471486114017
65 1.002427390290438
51 1.1821284714861047
87 0.9916366334534646
89 1.4484524061903854
44 0.8958872164511472
26 1.2305490778036785
32 1.5401420394318412
1 0.5411596353614523
22 1.1555331778672853
82 1.8345028619885393
78 0.8800190799236667
4 1.2020775916896365
0 1.1256942972228081
31 1.2498728005088038
34 0.7778036887852394
69 0.9479648081407721
13 1.1176383294466907
47 1.28579605681577
54 0.9437142251430934
60 0.7178291286834952
88 0.7883294466822165
10 1.0205003179987315
92 1.1274962900148326
36 1.1910430358278665
2 0.8525121899512392
18 0.8784290862836509
15 1.4535721857112613
90 0.9858808564765595
86 1.4215921136315517
75 1.196194615221559
79 1.2725355098579636
85 1.2768390926436193
56 1.0139389442442337
77 0.9289166843332707
84 0.7921772312910731
62 0.8132711469154137
5 1.5073987704049199
80 0.9208501165995422
29 1.1060737757049066
94 1.52377570489719
58 2.2357006571973703
41 0.860038159847371
16 0.8198007207971111
76 1.3641615433538195
50 0.936580453678178
37 1.1976044095823628
12 1.0886686453254253
40 1.33508585965658
28 1.3036675853296624
48 1.0026605893576312
3 1.2071019715921132
83 0.9846300614797574
42 1.0998622005512029
45 0.8657091371634543
57 1.0173309306762743
17 1.2598897604409478
