78	884
4	101
0	5
7	2418
9	1626
74	2618
34	2398
31	1451
71	2234
69	510
59	539
25	839
13	4959
11	1976
33	2245
47	534
54	663
30	1843
53	1387
23	1301
67	136
39	201
95	5965
8	352
38	5779
43	578
60	603
88	2297
92	544
10	943
63	939
52	386
19	2442
36	2462
61	326
2	122
20	2986
91	2025
18	2198
15	5012
90	3302
6	2810
79	2715
75	2392
85	5773
49	2634
56	5416
77	2944
84	3216
62	1471
93	1759
21	1231
68	483
80	4756
5	2273
27	991
29	1164
94	5546
73	2016
96	1368
58	2153
41	1691
64	1445
76	2146
16	2159
35	935
50	1967
37	899
46	829
12	969
70	1599
81	1642
72	1870
55	226
14	2336
65	1367
40	442
51	2
28	6089
87	484
89	560
48	1865
3	1588
83	1660
42	2578
45	1901
44	1181
57	318
17	2381
26	368
32	1924
82	4679
1	882
22	2012
