78	2757
4	102
0	13
7	9511
9	6568
34	13287
74	29033
31	7280
71	12683
69	973
59	703
25	420
13	46311
11	19651
33	16577
47	2065
30	14766
54	6832
53	10023
23	2001
67	112
39	2015
95	99225
8	382
38	94404
43	669
60	1109
88	16639
92	202
10	4012
63	4588
52	1142
19	21516
36	12494
61	8
2	311
20	24124
91	17509
18	32592
15	53430
90	11712
6	20250
79	9571
75	10392
85	100574
49	22437
56	104416
77	17158
84	20916
93	6676
62	15373
21	3004
68	1026
80	50716
5	26798
27	15138
29	4691
94	123543
73	8024
58	6043
96	21303
41	9247
64	1590
76	11324
16	9232
35	3632
50	12175
37	3283
46	9534
12	2183
70	6250
81	4240
72	15072
55	959
14	7798
65	7847
40	4795
51	30
28	212352
87	1763
89	1671
48	9053
3	9415
83	19424
42	13963
45	19342
44	11565
57	460
17	18835
26	1575
32	9286
82	68607
1	11271
22	19403
