NrofDelivered/Contact
32000 1892
64000 3593
10500 420
42500 2429
74500 4449
21000 1050
53000 2971
85000 4942
31500 1831
63500 3566
10000 405
42000 2409
74000 4426
20500 1027
52500 2951
84500 4935
31000 1794
63000 3535
9500 385
41500 2390
73500 4397
20000 1008
52000 2933
84000 4929
30500 1726
62500 3515
9000 358
41000 2373
73000 4357
19500 987
51500 2914
83500 4926
30000 1646
62000 3490
8500 334
40500 2348
72500 4322
19000 955
51000 2886
83000 4922
29500 1607
61500 3427
8000 303
40000 2315
72000 4278
18500 921
50500 2858
82500 4911
29000 1566
61000 3402
7500 277
39500 2296
71500 4240
18000 905
50000 2833
82000 4903
28500 1553
60500 3356
7000 258
39000 2262
71000 4186
17500 860
49500 2800
81500 4897
28000 1546
60000 3328
6500 237
38500 2239
70500 4131
17000 830
49000 2771
81000 4871
27500 1516
59500 3309
6000 211
38000 2217
70000 4094
16500 799
48500 2724
80500 4848
27000 1500
59000 3295
5500 170
37500 2185
69500 4060
16000 751
48000 2681
80000 4801
26500 1480
58500 3271
5000 155
37000 2169
69000 4021
15500 716
47500 2664
79500 4770
26000 1441
58000 3240
4500 144
36500 2131
68500 3987
15000 701
47000 2653
79000 4748
25500 1402
57500 3222
4000 123
36000 2116
68000 3945
14500 674
46500 2629
78500 4720
25000 1363
57000 3193
3500 116
35500 2094
67500 3895
14000 626
46000 2614
78000 4685
24500 1320
56500 3157
3000 60
35000 2053
67000 3848
13500 583
45500 2599
77500 4654
24000 1246
56000 3145
2500 47
34500 2024
66500 3805
13000 557
45000 2545
77000 4613
23500 1221
55500 3108
2000 23
34000 1991
66000 3769
12500 529
44500 2528
76500 4584
23000 1192
55000 3071
1500 13
33500 1970
65500 3712
12000 498
44000 2492
76000 4556
22500 1143
54500 3032
1000 8
33000 1933
65000 3670
11500 465
43500 2468
75500 4523
22000 1116
54000 3009
500 0
32500 1903
64500 3625
11000 440
43000 2444
75000 4478
21500 1066
53500 2993
85500 4949

