NrofLatencyAverage/Contact
32000 590234.3053
64000 587596.1971
10500 405521.6684
42500 590319.6793
74500 612907.7640
21000 540001.3742
53000 595430.1235
85000 630662.2203
31500 584567.6564
63500 588228.5603
10000 398789.6311
42000 591263.3083
74000 611653.3668
20500 540977.4538
52500 592531.5448
84500 630335.3780
31000 582332.6623
63000 589370.4522
9500 393923.2659
41500 591867.7292
73500 612032.0828
20000 536324.3164
52000 592702.9723
84000 629380.0043
30500 575533.7323
62500 590339.0148
9000 381125.4575
41000 591862.4824
73000 612165.8509
19500 535156.7880
51500 590756.2678
83500 628005.0865
30000 568863.0947
62000 590808.4965
8500 366380.1566
40500 593020.4066
72500 611768.3270
19000 535024.9533
51000 591694.1131
83000 626945.5690
29500 568050.3673
61500 591708.7049
8000 358883.8538
40000 593290.7446
72000 610293.6401
18500 527673.6782
50500 591657.6995
82500 626302.9630
29000 567653.8207
61000 592125.9944
7500 341990.6100
39500 595038.1962
71500 609627.6576
18000 526066.4968
50000 591220.8459
82000 625062.5126
28500 566102.3661
60500 592082.3975
7000 335926.3701
39000 595801.3829
71000 607662.2823
17500 521311.6064
49500 588676.8901
81500 622771.6372
28000 565834.4707
60000 592737.8652
6500 334566.9644
38500 593268.9595
70500 605107.2090
17000 509773.3489
49000 589503.2262
81000 621054.7637
27500 564541.3110
59500 593145.0728
6000 327606.8654
38000 591730.8964
70000 605261.7900
16500 507416.1144
48500 590015.8419
80500 620311.2797
27000 565906.0795
59000 593737.5937
5500 301552.1536
37500 590560.0081
69500 603060.9623
16000 506810.5366
48000 590983.0713
80000 618627.7017
26500 569781.4345
58500 593306.3544
5000 302648.7781
37000 590928.5420
69000 601997.6689
15500 499010.9416
47500 590603.4508
79500 617557.0465
26000 568415.8722
58000 592499.9270
4500 290787.4091
36500 591492.5127
68500 602510.1183
15000 481823.7592
47000 591367.3593
79000 617231.5899
25500 567159.4240
57500 592149.2852
4000 267789.0000
36000 592866.6384
68000 601292.4063
14500 472635.7713
46500 591544.3158
78500 616948.5204
25000 565797.3641
57000 592342.9904
3500 252751.6167
35500 591577.2412
67500 599533.0470
14000 456364.9430
46000 591684.5658
78000 615996.0501
24500 564339.1431
56500 594268.8632
3000 229186.5220
35000 593107.5557
67000 598769.0906
13500 451696.1008
45500 593332.4237
77500 615191.5021
24000 561708.7500
56000 594968.3074
2500 183085.7677
34500 593226.2894
66500 597525.7336
13000 448482.9523
45000 593431.9702
77000 614560.7864
23500 554036.2181
55500 596330.7206
2000 81992.4118
34000 590922.5518
66000 595116.6702
12500 445951.8208
44500 593507.2789
76500 614018.2898
23000 553501.1114
55000 595988.2907
1500 76088.5833
33500 592199.9332
65500 592121.8070
12000 441122.2709
44000 593556.2894
76000 613248.1845
22500 545392.5728
54500 594383.9027
1000 61057.5385
33000 591389.5513
65000 591284.7775
11500 429033.7136
43500 592924.4072
75500 613049.9865
22000 541483.1057
54000 595121.3442
500 18127.5000
32500 591018.6099
64500 588193.2557
11000 408857.6923
43000 591030.0626
75000 612597.6881
21500 541734.7927
53500 594901.9425
85500 630909.9294

