Message Drop for scenario SimBetReality#HillClimbing_0.8
sim_time: 16981816.0000

94	244153
61	568
23	27991
4	947
55	1315
18	13661
67	855
12	384
90	20300
40	343
43	16349
5	2472
36	11821
64	5059
21	2904
15	123742
32	62156
93	3158
2	579
78	2775
82	61861
56	932202
62	9388
41	36964
29	2856
63	266
60	902
10	3833
75	111736
79	31176
0	268
88	76561
89	342
38	559567
30	1878
47	261
87	1356
48	28286
71	3706
19	4029
70	21981
86	270
45	4221
54	246
11	8071
85	689441
7	78811
6	70263
73	78860
80	22242
83	4896
53	68768
35	1774
17	1727
27	14044
91	2783
42	314494
76	18126
39	487
13	187843
96	18614
25	1690
8	312
92	317
26	452
33	3591
52	278
51	240
46	5811
14	31923
34	64034
37	2755
31	435
84	30919
95	699165
58	50497
20	7677
69	2394
49	12946
9	33651
1	749
50	4911
66	247
68	3625
72	8955
22	4568
24	270
65	1805
81	12692
59	2995
77	102703
57	397
74	79431
16	83515
28	940424
44	1645
3	3382

