41 199
53 268
32 209
29 98
84 886
36 349
58 181
79 515
44 94
33 222
80 1436
81 350
2 29
57 8
48 305
26 45
72 347
56 554
78 103
91 200
42 294
14 376
50 213
4 62
38 917
23 305
31 43
5 94
11 631
37 84
30 124
69 173
95 920
28 1049
16 499
46 92
92 7
35 39
17 71
6 1085
43 46
75 322
77 701
55 12
60 121
3 166
13 860
27 99
19 430
89 8
15 786
73 389
83 246
34 539
67 39
59 45
49 859
9 504
74 396
45 274
7 524
93 234
18 890
39 7
90 350
61 17
8 1
22 655
20 776
82 1006
25 49
85 506
62 372
70 362
21 63
1 44
71 282
10 86
88 684
87 18
64 229
96 234
76 480
12 3
65 83
94 1042
68 184
40 10
