49	28014
46	16167
30	951
10	3878
48	30417
18	40515
79	24600
67	597
20	2954
70	10696
17	1373
88	48183
6	38964
93	1623
16	94502
96	20192
77	96203
73	57233
35	1253
92	54
83	8100
31	154
50	6466
36	21338
84	17600
41	70594
89	75
45	4360
27	28296
62	10364
5	1678
25	1376
1	319
59	3226
33	3853
7	53749
15	132511
90	14206
40	107
28	1107200
39	316
4	715
75	96710
58	57382
14	45033
94	205609
91	2271
11	40756
19	2498
22	5641
76	24010
68	7358
57	153
23	25947
2	407
9	30340
37	2722
65	1223
3	6070
95	572521
13	116790
78	1731
34	94702
69	2220
42	307234
8	36
55	712
44	1420
81	16602
72	12555
32	54978
12	5
74	63621
43	14513
71	4343
56	830939
61	134
60	543
38	480779
21	1931
29	1770
53	66383
82	42429
80	10676
64	4428
26	156
87	518
85	656016
