A91 0.5300340438991915 
A76 0.48953306561476145 
A87 0.5198292769184167 
A13 0.5187964493692298 
A4 0.5215706603008778 
A53 0.5127487342402585 
A78 0.4709415003256381 
A95 0.5095616419480004 
A57 0.432860801945345 
A96 0.49698274800353087 
A50 0.5188918549484165 
A35 0.5227033035670317 
A21 0.49734266365417273 
A1 0.5246626800062102 
A36 0.5076097429012326 
A12 0.4245129269420263 
A18 0.49391937155593163 
A64 0.5218665426336128 
A71 0.5334859826135865 
A40 0.41668510228287897 
A3 0.505487160162869 
A34 0.46758874406222006 
A6 0.5065207527290612 
A26 0.42759381408354236 
A22 0.46603236324942987 
A44 0.5168177525939387 
A82 0.5146518128713493 
A43 0.5252681087048177 
A56 0.49672349650880526 
A45 0.5026233022812763 
A27 0.4923429593448124 
A59 0.5300667177572338 
A54 0.13855765653089816 
A32 0.526122730145098 
A61 0.45056108673251366 
A48 0.5043273041046816 
A52 0.16214478514714598 
A60 0.5467114212904778 
A81 0.4912467978306467 
A85 0.5077542198577718 
A86 0.0 
A38 0.5044068777246611 
A7 0.503810926636364 
A49 0.4939895568896407 
A51 0.21576180314917515 
A62 0.4988655400285392 
A37 0.5035838013164942 
A70 0.4905766121094688 
A30 0.493586472319868 
A94 0.5146049616090768 
A9 0.4992222827333182 
A90 0.5064890316670281 
A46 0.5023126308783233 
A47 0.17793604674949426 
A75 0.5178765497515887 
A55 0.4489638945845381 
A92 0.3345299794719104 
A20 0.49847317445301326 
A63 0.13070513057981814 
A41 0.4450352372078445 
A42 0.5221976259381975 
A69 0.505917851180231 
A72 0.4986416248773228 
A28 0.49922842764080555 
A80 0.5165680331956726 
A74 0.5233890988055468 
A31 0.5840525384054612 
A67 0.5008971202963125 
A16 0.5103916615032607 
A25 0.47463879351549465 
A17 0.5009907848188979 
A15 0.503351117667264 
A5 0.5346601723254486 
A11 0.5007472541541946 
A83 0.4903092265156097 
A93 0.5252071481541385 
A29 0.5114007544170163 
A73 0.5197337117469318 
A14 0.49647850079238864 
A23 0.5135750545535949 
A19 0.48469886300160775 
A89 0.708352045963634 
A68 0.501458355241663 
A0 0.038376623376623356 
A58 0.5153683269569692 
A33 0.5164000872002368 
A39 0.5899428361637803 
A79 0.5129230270553523 
A2 0.502670222955035 
A10 0.5154308098609849 
A77 0.4985864281404092 
A84 0.5068485339430364 
A8 0.5501583782246663 
A88 0.5083313472418737 
A65 0.5466092684078765 
