93 157
7 538
5 78
1 45
74 442
84 654
23 265
16 495
80 898
43 37
46 67
39 8
95 1220
32 153
27 72
61 12
53 313
40 30
50 152
34 552
57 6
3 137
36 465
37 131
83 282
6 1057
60 109
29 81
92 2
62 318
35 46
15 812
79 564
87 25
81 292
22 541
49 537
2 9
10 85
82 857
64 249
13 882
89 3
38 1061
41 177
65 71
72 478
44 171
33 122
69 126
94 1050
48 294
75 403
26 49
88 630
21 62
70 352
56 532
78 67
17 81
85 623
77 704
58 186
91 212
68 232
31 40
45 320
19 257
55 18
20 304
25 60
96 247
90 341
73 372
28 945
76 434
9 459
59 47
8 2
42 283
4 77
30 121
14 291
18 586
67 42
11 426
71 350
