14 291
69 137
3 170
94 1094
20 318
10 80
81 333
36 466
22 781
40 31
4 70
44 147
92 1
45 322
71 342
2 16
70 342
21 58
56 534
82 842
6 1054
26 46
42 296
75 353
49 662
76 403
9 437
11 475
28 938
5 79
7 577
48 300
15 764
88 633
50 142
59 51
53 270
41 169
80 1244
33 168
68 251
17 64
27 70
13 892
72 386
18 600
25 46
31 43
79 564
62 326
34 577
16 512
1 49
60 121
8 2
64 236
57 4
23 236
77 697
39 22
87 17
46 66
38 1004
67 40
43 40
89 3
85 579
30 100
55 17
91 177
65 66
78 86
61 14
93 177
37 116
74 417
29 80
35 46
90 311
83 290
32 192
96 238
84 711
19 285
95 1041
58 192
73 382
