Node	Value
54	1
14	76
69	63
3	84
20	48
94	524
81	195
10	23
36	195
22	117
40	9
4	6
44	16
12	8
92	6
45	65
71	163
2	5
70	74
21	27
56	412
82	157
6	355
26	3
42	281
75	181
49	273
76	177
9	210
11	244
28	946
5	19
7	162
48	49
15	381
88	196
50	38
51	1
59	19
41	123
53	131
80	209
33	29
68	62
17	6
27	19
13	224
72	199
18	281
25	7
31	9
79	143
0	1
62	71
52	2
34	480
16	239
63	1
47	10
1	15
60	20
8	5
64	72
57	1
23	166
77	483
39	5
87	12
46	30
38	618
43	41
67	8
89	3
85	357
30	11
55	8
91	46
65	21
78	27
61	7
93	26
37	24
74	120
29	7
35	14
90	64
83	98
32	78
96	66
84	161
19	72
95	591
58	65
73	139
