A83 0.45720002713297175 
A3 0.4952391313527002 
A77 0.5740421009307412 
A12 0.17000087918630352 
A34 0.5101457601700894 
A37 0.5760220726053392 
A74 0.6029734203845066 
A62 0.5308514634747991 
A72 0.5070718519152259 
A29 0.6091957953260142 
A17 0.6515822692548731 
A15 0.5878223977002749 
A50 0.5578913899907357 
A36 0.5745517211297548 
A57 0.4245232331282149 
A33 0.6501079130488505 
A56 0.5333352199593362 
A28 0.5440414146759425 
A26 0.5033628228324937 
A70 0.5543846465738624 
A42 0.6008838276585043 
A94 0.5604516280021982 
A11 0.4759299586876649 
A46 0.49912376764594035 
A27 0.5622714717878503 
A63 0.14700751076703125 
A0 9.752622827279176E-4 
A91 0.5346795060155839 
A13 0.5765584997787039 
A96 0.5294867298387702 
A55 0.5590225919555986 
A23 0.5355328311682411 
A38 0.5618534819970917 
A40 0.43103512972373054 
A64 0.5734931773030667 
A6 0.5410039309452003 
A95 0.5747801500417334 
A7 0.5707159996187192 
A22 0.5417683059442787 
A18 0.512122902848164 
A69 0.6221737853528346 
A1 0.5491220798370522 
A93 0.6604124077448599 
A10 0.6032036640312385 
A89 0.7295463581752408 
A78 0.5732281921789794 
A88 0.5430542958002222 
A52 0.07852314227887926 
A82 0.5732010372100276 
A59 0.5542924773108769 
A87 0.5922923650858454 
A65 0.6443944717582274 
A71 0.5286542517583683 
A9 0.5402094252228604 
A4 0.614604032432156 
A31 0.6050885153491886 
A32 0.5805415823784682 
A80 0.5852102051608757 
A14 0.5456025130812715 
A79 0.553748944359609 
A76 0.5032223553625956 
A61 0.5334878927775327 
A67 0.6185043965753316 
A44 0.5239131465837641 
A19 0.5609407210302662 
A81 0.49621752189471774 
A39 0.431803335114362 
A20 0.5714898028206118 
A53 0.5488835211567364 
A41 0.4655461829387341 
A16 0.5855928754956372 
A49 0.4553233689855758 
A84 0.5377655503532169 
A75 0.5899753022390345 
A73 0.5940097731725166 
A58 0.5774660087355258 
A43 0.6404346342423376 
A68 0.5489185656113268 
A54 0.15278555771322047 
A90 0.5743926854947846 
A92 0.3462563677854787 
A51 0.38041364502091 
A8 0.48338427335204415 
A86 0.0 
A48 0.6073893508706598 
A45 0.5062168361433094 
A47 0.2954915635603394 
A60 0.5931875164016231 
A30 0.5684345455398677 
A21 0.5976749207859476 
A35 0.6240056762226373 
A85 0.5253920397620978 
A5 0.6569529966762673 
A25 0.5347491783056579 
A2 0.5667191053447425 
