Message Drop for scenario SimBetReality#HillClimbing_0
sim_time: 16981816.0000

77	85617
12	273
74	47271
62	8782
29	1835
15	115740
36	29007
33	4373
28	1079742
56	690016
26	471
70	10269
42	249333
11	81571
27	24051
46	17555
0	268
66	247
23	22740
55	836
38	384390
64	4684
95	466115
7	40320
69	2620
1	570
10	3699
52	278
71	18255
24	270
31	418
76	20977
67	804
39	609
49	36345
75	61744
73	46318
84	11497
58	44689
68	14966
54	246
90	14891
92	281
47	261
35	1584
30	1015
85	571949
5	2500
25	2547
2	718
83	34282
3	52687
34	91817
37	3788
72	26351
17	4602
50	9977
57	422
94	197045
63	266
91	4228
13	70197
96	11313
40	443
6	25337
22	10895
18	60310
93	1825
89	304
78	1664
88	24648
82	25009
59	5182
87	625
65	1619
9	20048
4	1543
32	34127
80	8131
14	27194
79	17761
61	355
44	2338
81	19658
19	2192
20	2938
53	48340
41	79502
16	87880
43	11901
51	240
8	285
86	270
48	27417
45	8518
60	781
21	1891

