Message stats for scenario SimBetReality#HillClimbing_0.2
sim_time: 16981816.0000
created: 25299
started: 5630940
relayed: 5605389
aborted: 25551
dropped: 5619318
removed: 0
delivered: 11328
delivery_prob: 0.4478
response_prob: 0.0000
overhead_ratio: 493.8260
latency_avg: 622407.8078
latency_med: 494688.0000
hopcount_avg: 3.4173
hopcount_med: 3
buffertime_avg: 94577.9691
buffertime_med: 3629.0000
rtt_avg: NaN
rtt_med: NaN
