91 193
76 550
87 25
13 912
53 374
4 44
78 137
95 905
57 14
96 293
50 198
35 48
21 74
1 52
36 355
18 1008
71 261
64 253
12 13
40 9
3 160
34 651
6 1124
26 40
22 520
44 84
82 930
43 52
56 540
45 316
27 89
59 48
32 222
61 44
48 312
60 109
81 331
85 585
7 536
38 928
49 975
62 354
37 59
70 326
30 166
94 1103
9 512
90 436
46 74
75 356
55 16
92 5
20 981
41 236
42 361
69 172
72 333
28 1184
80 1544
74 390
31 46
67 32
16 554
25 56
17 101
15 813
5 113
11 627
83 208
93 273
29 119
73 456
14 414
23 316
19 528
89 6
68 151
58 242
39 6
33 214
79 531
2 23
10 104
77 774
84 1028
8 6
88 589
65 93
