37 19.94797540809833
40 3.4008267966928263
51 2.564256942972201
20 23.640385838456872
96 31.654738181047158
5 12.216663133347488
19 20.43811744753022
22 32.522111511554016
75 66.99586601653581
59 18.170638117447634
70 43.29722281110884
34 63.27759168963315
76 49.954080983676135
57 3.7051303794784123
81 46.89368242527021
91 17.61562433750273
52 2.9702141191435287
25 9.693746025015848
3 31.12751748992993
54 2.6283866864532652
4 7.360377358490538
73 49.684630061479616
2 5.318995124019447
69 15.018041127835613
29 12.118295526817908
79 54.82406190375245
77 61.146173415306336
38 84.47986008055996
47 2.7885308458766067
74 54.0116599533603
24 2.884820860716559
86 2.8848208607165717
67 6.543035827856736
6 67.74869620521503
68 30.260801356794502
31 3.590523637905452
56 85.58651685393293
12 3.303264786940846
14 40.179372482510075
95 82.1287682849271
61 3.962518549925779
21 16.692792028832
33 22.29910960356155
78 15.226372694509216
0 2.863451346194612
82 64.34812380750506
84 52.72270510917936
13 77.30790756836971
48 58.78761924952288
41 56.05709137163483
83 37.090099639601306
63 2.841997032011885
46 28.239177443290124
49 46.5443502225991
50 25.607419970320077
92 2.8299978800084644
27 23.13042187831263
30 9.107716769132862
89 3.085668857324574
71 28.237142251431187
43 35.18728005087963
88 66.87118931524269
94 80.77547169811315
23 39.01738393046406
87 5.8242951028195495
7 57.62616069535688
44 11.693364426542294
55 6.918422726309044
26 4.5536357854568825
62 36.58270086919635
80 50.80612677549277
32 58.64301462794137
36 56.535149459401936
17 10.145813016747955
90 32.209900360398464
39 4.688721645113488
53 43.8375238499045
8 2.856328174687301
1 5.03705745177018
10 19.25567097731621
28 81.21168115327588
18 58.799003603985504
85 85.21568793724853
9 65.77362730549085
42 59.7608013567943
15 77.29561161755359
16 73.08797964808149
58 58.439092643629536
66 2.639029043883802
60 6.341594233623079
11 47.35969896120423
72 45.922408310366656
93 12.907356370574483
64 26.413313546745783
65 10.772694509221887
45 28.23909264362946
35 10.350625397498437
