49	21596
50	4715
92	54
27	28521
37	2688
30	1106
40	75
20	3846
89	85
96	22108
71	3904
5	1665
43	14781
94	209021
88	51561
19	2871
23	25746
22	5299
75	103143
87	584
70	12815
59	3026
34	86019
76	22875
57	151
81	16749
91	2313
7	59896
55	770
44	1400
26	157
25	1312
62	10906
80	12719
3	4204
32	61419
36	18480
90	15716
17	1279
4	740
73	63107
2	380
39	270
69	2149
79	25918
29	1836
53	75972
77	100480
38	506851
74	69237
8	38
1	329
67	607
10	4069
6	51959
28	998412
18	27400
68	5297
85	671369
42	316638
9	31041
31	156
56	849252
15	133034
95	609066
14	42576
12	80
61	144
16	87886
58	51789
21	2147
60	535
93	1866
72	11204
11	26163
33	3653
78	1957
64	4264
65	1253
82	46156
45	3960
84	19771
13	133964
48	30170
41	66818
83	5734
35	1269
46	12385
