Message stats for scenario SimBetReality#HillClimbing_0.7
sim_time: 16981816.0000
created: 25299
started: 6073076
relayed: 6046136
aborted: 26940
dropped: 6059519
removed: 0
delivered: 11890
delivery_prob: 0.4700
response_prob: 0.0000
overhead_ratio: 507.5060
latency_avg: 602256.4177
latency_med: 462905.0000
hopcount_avg: 3.4818
hopcount_med: 3
buffertime_avg: 88460.3592
buffertime_med: 3539.0000
rtt_avg: NaN
rtt_med: NaN
