70 321
45 298
11 650
85 519
7 564
6 1123
94 1019
80 1495
73 383
61 19
23 303
53 317
4 50
83 206
55 13
35 38
17 89
27 112
91 222
42 286
18 1027
76 521
39 7
13 908
96 266
67 40
25 58
8 2
12 4
92 7
90 361
26 43
40 9
43 50
5 106
36 361
64 250
33 199
21 68
15 747
32 226
2 31
93 258
46 105
78 124
82 983
14 398
34 550
37 73
31 43
56 554
84 913
95 982
62 337
41 210
58 201
29 105
60 133
20 951
69 180
49 940
10 89
75 333
79 517
9 528
1 47
50 220
68 164
72 345
22 572
65 80
81 305
59 36
88 660
89 9
38 907
77 739
30 136
57 10
87 24
74 377
16 538
28 1182
48 285
44 94
71 296
3 164
19 482
