Message stats for scenario SimBetReality#HillClimbing_0.4
sim_time: 16981816.0000
created: 25299
started: 5778839
relayed: 5752954
aborted: 25885
dropped: 5766680
removed: 0
delivered: 11536
delivery_prob: 0.4560
response_prob: 0.0000
overhead_ratio: 497.6957
latency_avg: 619410.7458
latency_med: 488689.0000
hopcount_avg: 3.4117
hopcount_med: 3
buffertime_avg: 92071.3173
buffertime_med: 3579.0000
rtt_avg: NaN
rtt_med: NaN
