A50 0.5445731513514479 
A49 0.46849134734440123 
A92 0.31656740928264304 
A27 0.5531668773476467 
A37 0.5107719926523522 
A30 0.5526891930635318 
A40 0.3960388920302204 
A51 0.49824818701254603 
A20 0.5410923267233374 
A89 0.7642428101358886 
A96 0.5173160335727294 
A71 0.5445334086192057 
A5 0.5929772819308187 
A43 0.5635411701053538 
A94 0.5419782770577042 
A88 0.525808530573447 
A19 0.5039146618916619 
A23 0.5296180486501183 
A22 0.49673512265427056 
A75 0.5399544673343689 
A87 0.6028073957858067 
A70 0.5199562734029269 
A59 0.5399120663345052 
A34 0.47589289863188877 
A76 0.5135743211378917 
A57 0.4435015374537994 
A81 0.5254218932625161 
A91 0.5578672146678221 
A52 0.12555743914343556 
A7 0.5350673785470201 
A55 0.49157420191400836 
A44 0.5239079887630655 
A26 0.46338197296257533 
A25 0.5044588529615399 
A62 0.5034867723616241 
A80 0.5277259626544284 
A3 0.5088395076907404 
A36 0.5310774352203419 
A54 0.12671861801048356 
A32 0.5584227757988312 
A90 0.5372460647446159 
A17 0.5078043478700669 
A4 0.5712107625605966 
A73 0.5517109239310777 
A2 0.526243493182835 
A39 0.6160774889622482 
A69 0.5237362212519873 
A79 0.5163484148487151 
A29 0.5433163888601961 
A53 0.535036611836115 
A77 0.5199376060503961 
A38 0.5246404926412463 
A74 0.5470665932660493 
A47 0.2544155741988103 
A86 0.0 
A8 0.5486814182051908 
A1 0.5837127004333666 
A67 0.5480443055688686 
A10 0.538238593572303 
A6 0.5147918774553331 
A28 0.5128236473048988 
A18 0.4980649944347652 
A68 0.522746381640994 
A85 0.5157342294909211 
A42 0.5622876746382592 
A9 0.5135547160242936 
A31 0.6088886200132232 
A56 0.5108730333448366 
A15 0.5419053259714802 
A95 0.5366028110700799 
A14 0.5205420555151843 
A12 0.36361675682614236 
A61 0.5510281883474535 
A16 0.545689886356243 
A58 0.5546396933382268 
A21 0.5129182992545261 
A60 0.5857822064654757 
A93 0.5665117244000211 
A11 0.4872145257117789 
A72 0.5154046047613955 
A33 0.55524582070725 
A78 0.4956607299983984 
A64 0.5358939013134236 
A65 0.5859793898661327 
A0 0.03930869130869131 
A82 0.5307045346705518 
A45 0.5251398068707355 
A84 0.5218091110511711 
A13 0.5467115647906181 
A48 0.527184173406877 
A41 0.47190277885136606 
A83 0.5110620585262998 
A35 0.6077135443298548 
A63 0.1264475762846033 
A46 0.504510241244624 
