A49 0.4606075191289261 
A46 0.4949354007748103 
A30 0.5404714292107929 
A10 0.5405771260371357 
A18 0.5069894706039357 
A48 0.5475822815965851 
A79 0.5333170339628314 
A20 0.5601897660503349 
A67 0.5626032373363965 
A70 0.5332242538113137 
A17 0.530752164136712 
A88 0.5259729577529177 
A6 0.5182428668064267 
A93 0.6142241811543415 
A16 0.5514364312435628 
A96 0.5238180742318396 
A77 0.5292131186876828 
A73 0.5499871538132303 
A35 0.6232021831472644 
A63 0.13171924600348042 
A92 0.3403922318864593 
A83 0.49251255038992414 
A31 0.6040918458508904 
A50 0.5606902783906564 
A52 0.09039873902107089 
A36 0.5347075331385943 
A84 0.5218879659288693 
A41 0.458384274997699 
A89 0.7568088125241647 
A45 0.5287546862039697 
A27 0.5589246880393767 
A5 0.5980395895620871 
A62 0.5140384688867208 
A25 0.511719659038845 
A51 0.5103102337656826 
A1 0.5679055788634483 
A59 0.5508713998326965 
A33 0.5681419403177964 
A7 0.536582229444467 
A15 0.5530807640258096 
A90 0.5378454916214265 
A40 0.4106887758309017 
A28 0.5141998790755148 
A39 0.5954237343494936 
A4 0.5820138452135818 
A75 0.5487648579286644 
A58 0.5455955458193771 
A14 0.5297642440162308 
A94 0.546176791974455 
A86 0.0 
A91 0.5573932290677693 
A11 0.47621016444231196 
A19 0.5186870446552985 
A22 0.4956960479423716 
A76 0.5106963917832019 
A68 0.5039567841366157 
A57 0.4335153102478322 
A23 0.532545977508087 
A2 0.5122982888917622 
A54 0.1459847835010518 
A47 0.1971466130002864 
A9 0.5144552548120919 
A37 0.5266262062439391 
A65 0.6111864904457879 
A0 0.026019644221324897 
A3 0.5048233323750045 
A95 0.5400486532677758 
A13 0.5545690415061622 
A78 0.504282578300294 
A34 0.47942873063828656 
A69 0.5326209544341917 
A42 0.5659531880068894 
A8 0.5511845836643472 
A55 0.5224102996847917 
A81 0.5214936309503535 
A44 0.5285509695780447 
A72 0.5122622447298615 
A12 0.25380102410699157 
A32 0.5549515797239546 
A74 0.5579181313528764 
A43 0.5695255082072249 
A71 0.5498031333976089 
A56 0.5145605128700831 
A61 0.5335890612775106 
A60 0.5961585930118782 
A38 0.5297050800084901 
A21 0.5374236577485045 
A29 0.5460423154432278 
A82 0.5378704607360385 
A53 0.5424941039230746 
A80 0.5265299275833625 
A64 0.540056974230431 
A26 0.462856723295962 
A87 0.6328660251375382 
A85 0.5201658506822067 
