Message stats for scenario SimBetReality#SA_0.5
sim_time: 16981816.0000
created: 25299
started: 17873670
relayed: 17847651
aborted: 26019
dropped: 17861446
removed: 0
delivered: 11441
delivery_prob: 0.4522
response_prob: 0.0000
overhead_ratio: 1558.9730
latency_avg: 633235.8857
latency_med: 519336.0000
hopcount_avg: 11.3000
hopcount_med: 8
buffertime_avg: 49543.8012
buffertime_med: 3541.0000
rtt_avg: NaN
rtt_med: NaN
