A4 0.49683146262999284 
A11 0.4899978644001224 
A51 0.7982195676053775 
A42 0.5807628491885195 
A65 0.4629926261532184 
A40 0.37381065471063024 
A44 0.47038852926145464 
A56 0.5389929407526206 
A74 0.5428132324719305 
A73 0.5453173679530671 
A55 0.5219144800092524 
A14 0.5103603613254838 
A57 0.33131715286436003 
A2 0.4531859135321863 
A46 0.519235885666133 
A92 0.39882469577935303 
A68 0.5254291198063936 
A58 0.5592257254059525 
A1 0.3962264586396165 
A84 0.49522581558208856 
A77 0.5546137217851259 
A49 0.4923556392599628 
A85 0.5286321660958847 
A27 0.5205055792512142 
A38 0.5480552916595827 
A5 0.5618626970026818 
A94 0.556360571842421 
A88 0.5082812688800387 
A32 0.5394871165107941 
A30 0.48034674400067345 
A29 0.4380196386887672 
A9 0.5092870736674279 
A71 0.48489427172011884 
A7 0.5073469695281709 
A41 0.5030201420851521 
A33 0.497495347100611 
A61 0.4140914121112273 
A87 0.47549838192747346 
A52 0.07844966226582008 
A53 0.5250088464686958 
A3 0.46498518945407186 
A72 0.4914466407462199 
A22 0.4840248149424172 
A37 0.49675205161946273 
A0 0.01829767802737674 
A90 0.4761077771370189 
A62 0.5034416230204591 
A16 0.5675198201159076 
A34 0.5283720322404788 
A76 0.5290956610793286 
A18 0.504494339327042 
A20 0.47428941064438834 
A70 0.4995330510939068 
A43 0.581550256541685 
A60 0.4577700924820658 
A80 0.5563406474326472 
A13 0.5778994084398353 
A59 0.5205259951917981 
A91 0.45572538962270887 
A89 0.3293001124033333 
A95 0.5619742548418726 
A17 0.5025976550987081 
A12 0.3817681747497372 
A19 0.45847962070380566 
A25 0.4633430567961134 
A64 0.5133551578231054 
A21 0.47733037698561454 
A75 0.5390460569697139 
A15 0.5627564124803994 
A79 0.5205166862768301 
A82 0.5326669890760389 
A45 0.49234766401964447 
A81 0.5465756690678415 
A78 0.47710372296937476 
A35 0.45024497426656496 
A39 0.4851580499567658 
A8 0.3927870222303101 
A96 0.5266374417295515 
A6 0.5116058350907793 
A23 0.5321277091984776 
A63 0.15231164591222085 
A93 0.5113112287590307 
A67 0.4887625146717735 
A47 0.2463747971503518 
A83 0.4729301415021833 
A86 0.0 
A50 0.454156217141331 
A28 0.5303948105196408 
A48 0.47708526802549034 
A31 0.43018917681780755 
A69 0.5575395550800911 
A36 0.500071598580814 
A54 0.12445640536893443 
A26 0.4306632118474342 
A10 0.5339532003064972 
