64	55576
94	554694
28	1445269
15	403928
18	340904
60	41310
57	4347
55	15675
45	187202
96	173789
9	117944
38	941912
32	110996
17	180864
13	630197
40	3011
87	12675
6	240031
39	11810
53	166946
23	58309
4	13494
78	91323
46	85557
27	170845
8	4049
72	176926
90	253419
76	97309
49	267081
2	6547
37	104920
79	216371
21	64469
75	392211
1	8646
20	233876
74	219427
70	211829
61	1046
69	21295
34	285183
42	402892
68	57782
77	440032
48	138574
88	288631
3	179964
91	171195
92	6225
11	253763
12	2219
93	102698
59	30500
44	174065
81	118354
50	170677
25	36340
62	203465
19	217660
35	77973
95	873661
82	377166
22	265146
31	63480
56	769948
58	75145
65	108168
85	713907
41	179449
83	368457
36	317970
14	231624
71	207008
73	204425
33	86877
80	666706
84	338129
67	8263
26	6361
30	229535
29	59691
89	417
43	23763
16	149141
10	46169
7	150881
5	156442
