9 3.8526315789473684
3 7.257236842105263
30 2.1750000000000007
16 4.724999999999999
6 6.3197368421052635
37 3.0690789473684212
21 7.154605263157895
18 3.3118421052631586
35 3.0078947368421054
38 7.158552631578945
34 2.755263157894737
12 3.1875000000000013
28 4.940131578947367
7 7.784210526315792
0 4.876973684210526
29 3.4796052631578953
4 22.312500000000007
36 7.257236842105261
19 5.613157894736842
32 4.790131578947367
15 3.976973684210526
26 2.4217105263157905
1 2.6013157894736847
5 3.657236842105263
23 5.21842105263158
27 2.994078947368421
10 2.3664473684210527
14 2.5065789473684212
40 2.358552631578948
22 4.89078947368421
2 3.3434210526315784
31 5.1138157894736835
8 4.6381578947368425
17 2.1138157894736835
33 15.59013157894737
25 2.591447368421053
24 4.499999999999997
11 2.3427631578947357
39 3.856578947368422
13 2.557894736842106
20 3.951315789473683
