9	2869
3	4236
16	2852
6	2297
37	1483
21	3146
18	3559
35	1537
38	2871
34	2691
12	2085
28	2831
7	4409
0	2892
29	2915
4	4015
36	2880
32	2861
19	2863
15	2708
26	2958
5	2373
1	2310
27	1980
23	3067
10	2453
14	2153
40	1483
22	2889
2	2845
31	2754
8	3023
17	2272
33	2707
25	2709
24	2815
39	2857
11	1077
13	2873
20	2083
