Message stats for scenario SimBetHaggleInfocom_#SA1
sim_time: 274883.0000
created: 3892
started: 115161
relayed: 110381
aborted: 4780
dropped: 111567
removed: 0
delivered: 2700
delivery_prob: 0.6937
response_prob: 0.0000
overhead_ratio: 39.8819
latency_avg: 16378.7063
latency_med: 14269.0000
hopcount_avg: 3.7578
hopcount_med: 4
buffertime_avg: 25638.7485
buffertime_med: 27402.0000
rtt_avg: NaN
rtt_med: NaN
