Node	Value
9	42
3	83
16	56
6	67
37	27
21	79
18	29
35	20
38	72
34	34
12	49
28	54
7	67
29	55
0	40
4	318
36	71
32	32
19	26
15	59
26	35
5	48
1	26
27	21
23	65
10	18
14	28
40	18
22	63
2	39
31	65
8	43
17	9
33	112
25	39
24	63
39	68
11	3
13	23
20	25
