Node 9		0.75	0.75	1.05	1.05	7.35	43.5	46.5	47.55	48.0	48.3	48.9	42.9	36.449999999999996	30.3	24.0	17.4	11.4	9.15	6.9	78.45	76.95	88.64999999999999	92.10000000000001	98.85000000000001	94.19999999999999	93.0	94.5	89.7	82.05	95.1	93.30000000000001	89.25	81.3	73.2	65.25	56.699999999999996	48.9	40.65	32.7	24.9	18.3	11.4	7.5	62.1	64.64999999999999	73.2	78.60000000000001	81.75	90.3	90.14999999999999	90.75	85.65	77.55	69.45	61.5	53.55	46.35	39.15	31.8	25.5	18.75	11.25	5.1	3.3000000000000003	3.15	3.0	2.85	20.549999999999997	45.6	38.85	35.25	27.450000000000003	20.25	11.700000000000001	3.0
Node 3		0.44999999999999996	0.44999999999999996	0.75	0.8999999999999999	1.05	43.65	46.949999999999996	47.099999999999994	47.099999999999994	47.4	47.699999999999996	41.25	34.35	27.900000000000002	21.6	15.0	8.7	3.75	1.95	2.25	2.85	2.85	2.7	99.6	98.25	94.05	95.1	86.4	77.85	96.0	93.15	85.95	77.85	69.6	61.35	52.800000000000004	44.85	37.2	29.549999999999997	22.05	15.15	8.1	2.4	1.6500000000000001	1.95	39.6	84.45	83.1	89.1	88.64999999999999	86.1	78.0	79.80000000000001	71.85000000000001	64.2	56.10000000000001	48.75	41.25	33.45	26.55	19.650000000000002	12.15	6.15	2.25	1.7999999999999998	1.7999999999999998	1.35	48.6	45.45	38.85	31.35	24.3	17.1	10.35	2.85
Node 30		0.75	0.8999999999999999	1.05	1.6500000000000001	1.95	2.4	2.4	2.55	2.85	3.0	3.3000000000000003	2.85	2.85	3.15	3.3000000000000003	3.0	2.85	2.55	3.0	3.0	2.85	3.0	3.0	3.0	3.0	2.7	2.7	2.85	3.0	3.0	3.0	3.15	3.0	2.7	2.4	2.4	2.4	2.25	2.25	2.1	2.25	2.25	2.1	1.95	2.1	2.1	2.25	2.1	1.95	1.95	1.95	1.7999999999999998	1.35	1.5	1.5	1.6500000000000001	1.7999999999999998	1.7999999999999998	1.95	1.95	2.25	2.4	2.4	2.4	2.4	2.1	1.7999999999999998	1.5	1.2	1.2	0.8999999999999999	0.8999999999999999	0.6	0.3	0.0
Node 16		0.3	0.44999999999999996	0.44999999999999996	0.6	0.75	42.0	42.15	42.449999999999996	42.6	42.9	43.2	37.5	30.9	24.9	19.2	12.9	6.75	2.1	2.1	79.5	90.0	92.55	85.35000000000001	99.0	95.85000000000001	92.4	94.35	88.05	79.65	95.25	92.10000000000001	86.55000000000001	79.95	71.55	63.6	55.05	47.4	39.75	31.65	24.3	17.25	10.35	4.8	63.6	62.55	72.6	84.15	82.8	88.2	88.05	84.6	76.35	68.85	60.9	53.1	45.300000000000004	38.4	31.2	23.400000000000002	17.25	10.5	3.9	2.55	2.25	2.1	1.95	25.35	48.6	43.95	40.2	35.25	27.450000000000003	19.950000000000003	11.25	2.85
Node 6		0.3	0.75	0.8999999999999999	1.05	9.0	43.05	43.65	44.25	46.050000000000004	46.2	46.800000000000004	40.8	33.75	27.6	21.9	15.9	9.9	4.65	14.7	78.60000000000001	87.9	92.55	93.15	98.7	96.75	91.05	94.35	90.9	82.95	74.55000000000001	66.9	58.95	51.300000000000004	43.2	35.699999999999996	27.450000000000003	19.650000000000002	12.75	6.75	5.8500000000000005	6.15	6.75	6.45	6.15	5.8500000000000005	5.25	4.5	4.8	4.5	4.65	4.65	71.25	63.6	55.95	55.95	48.449999999999996	41.25	34.050000000000004	26.400000000000002	19.950000000000003	14.099999999999998	7.95	4.8	4.35	3.5999999999999996	8.55	24.45	47.85	45.0	39.6	31.8	24.45	17.7	10.2	2.55
Node 37		0.75	1.05	1.2	1.35	9.0	43.8	47.85	48.0	48.15	48.3	52.65	46.650000000000006	39.45	33.15	27.450000000000003	20.849999999999998	14.399999999999999	8.25	5.7	77.85	89.1	92.55	91.95	98.25	96.15	91.8	93.15	85.35000000000001	76.8	93.0	84.89999999999999	76.95	69.0	61.35	53.400000000000006	45.45	37.5	30.15	21.9	14.399999999999999	7.6499999999999995	2.4	2.55	2.4	2.25	2.4	2.4	2.25	2.7	2.7	2.85	3.0	3.3000000000000003	3.45	3.3000000000000003	3.15	3.3000000000000003	3.15	3.15	3.0	3.0	2.7	2.4	2.25	1.95	1.6500000000000001	1.6500000000000001	1.6500000000000001	1.35	0.75	0.6	0.44999999999999996	0.0	0.0	0.0
Node 21		0.0	0.0	0.6	0.75	6.6000000000000005	43.2	46.2	49.95	50.7	51.15	52.05	45.9	39.0	35.85	29.7	23.549999999999997	17.25	10.2	8.85	56.99999999999999	85.5	93.15	94.5	99.75	97.35000000000001	94.65	94.8	89.55	89.4	91.64999999999999	92.4	88.5	82.65	75.9	68.7	63.14999999999999	55.35	47.4	39.15	31.5	24.6	17.549999999999997	15.15	58.95	62.849999999999994	57.45	81.75	82.95	87.75	88.2	86.4	85.5	78.0	70.65	65.10000000000001	57.15	50.24999999999999	43.8	36.3	30.3	27.150000000000002	20.1	14.7	10.95	8.55	6.9	5.55	38.7	45.9	40.5	35.099999999999994	27.0	19.650000000000002	11.25	3.0
Node 18		0.15	0.3	0.8999999999999999	1.05	1.95	42.0	42.15	42.449999999999996	42.6	42.9	43.65	37.65	31.35	25.5	19.650000000000002	13.200000000000001	7.049999999999999	3.3000000000000003	3.3000000000000003	82.19999999999999	90.75	93.30000000000001	93.75	99.75	98.4	93.89999999999999	95.25	90.45	89.55	90.14999999999999	82.5	73.8	65.85	58.050000000000004	49.65	41.699999999999996	33.75	26.1	18.15	10.8	6.15	4.05	3.5999999999999996	59.4	69.0	73.5	77.25	83.39999999999999	88.94999999999999	84.89999999999999	77.55	69.0	61.050000000000004	53.55	45.6	37.5	29.849999999999998	22.95	15.299999999999999	9.9	3.9	2.7	2.85	3.0	2.85	2.4	20.4	46.2	45.75	40.2	34.949999999999996	27.6	20.1	11.55	3.0
Node 35		0.6	0.6	0.75	1.05	7.6499999999999995	43.2	46.5	50.24999999999999	51.0	51.449999999999996	52.349999999999994	46.35	39.45	33.0	27.3	20.7	14.399999999999999	8.55	5.7	78.60000000000001	90.14999999999999	89.55	91.35	95.25	95.25	93.45	94.65	88.8	86.85000000000001	94.65	91.05	82.8	74.55000000000001	66.75	58.650000000000006	50.24999999999999	42.6	35.25	27.450000000000003	20.25	13.5	7.199999999999999	3.45	3.5999999999999996	3.5999999999999996	3.5999999999999996	3.5999999999999996	3.45	3.45	3.0	2.7	2.7	2.55	2.1	2.1	1.95	2.1	1.7999999999999998	1.7999999999999998	1.6500000000000001	1.6500000000000001	1.7999999999999998	1.7999999999999998	1.6500000000000001	1.5	1.35	1.05	0.8999999999999999	0.75	0.75	0.75	0.75	0.44999999999999996	0.3	0.0
Node 38		0.3	0.6	0.8999999999999999	0.8999999999999999	4.35	43.35	47.85	48.0	48.75	52.949999999999996	53.1	46.5	39.6	33.15	27.150000000000002	20.7	14.549999999999999	8.55	6.15	5.8500000000000005	90.60000000000001	93.45	86.4	99.3	95.39999999999999	87.0	78.75	90.14999999999999	88.35	94.65	92.55	86.4	79.65	72.3	64.5	55.800000000000004	48.15	41.25	33.6	26.400000000000002	19.8	12.15	6.3	61.35	62.4	72.15	68.4	62.55	55.65	79.95	84.6	85.05	77.4	69.89999999999999	62.1	54.300000000000004	47.55	40.2	32.4	25.95	18.75	11.55	5.4	1.95	1.6500000000000001	1.35	20.7	46.650000000000006	44.4	40.5	32.85	27.750000000000004	20.1	11.55	3.0
Node 34		0.6	0.6	0.75	1.2	8.55	43.35	46.800000000000004	47.699999999999996	48.15	48.449999999999996	49.2	43.05	36.0	29.7	23.549999999999997	17.25	11.1	5.8500000000000005	4.35	75.0	89.4	89.85	92.55	98.4	95.7	91.5	93.30000000000001	88.5	87.75	93.45	90.14999999999999	81.6	73.5	65.55	57.3	49.05	41.4	33.75	26.1	19.05	12.75	5.8500000000000005	2.25	2.25	73.65	71.7	84.15	83.1	87.9	88.94999999999999	89.25	85.5	79.35	71.39999999999999	64.05	56.10000000000001	49.05	41.85	34.050000000000004	27.3	20.549999999999997	13.200000000000001	7.6499999999999995	3.3000000000000003	2.25	2.1	1.7999999999999998	1.7999999999999998	1.5	1.35	35.25	27.6	20.1	11.55	3.0
Node 12		0.0	0.3	0.8999999999999999	1.05	1.5	1.5	1.7999999999999998	2.1	2.1	2.25	2.55	2.55	2.7	2.7	2.1	2.25	2.1	2.25	1.95	75.9	90.0	92.7	93.15	91.2	95.39999999999999	87.15	80.10000000000001	87.9	80.25	94.05	92.10000000000001	83.85000000000001	76.2	68.10000000000001	60.0	52.5	45.15	37.95	29.849999999999998	22.650000000000002	15.75	9.15	4.05	33.45	30.599999999999998	28.199999999999996	25.2	23.1	21.15	18.3	15.9	12.75	9.6	6.45	3.5999999999999996	2.85	2.55	2.4	29.849999999999998	29.099999999999998	22.05	14.7	8.85	6.45	5.8500000000000005	4.95	4.2	49.2	44.55	41.4	35.25	27.6	20.25	11.700000000000001	3.0
Node 28		0.3	0.3	0.6	0.8999999999999999	3.5999999999999996	36.75	36.9	37.35	51.6	51.9	52.949999999999996	46.5	40.2	33.900000000000006	27.6	21.6	15.6	9.9	14.249999999999998	78.9	90.60000000000001	85.05	77.25	99.3	96.0	92.4	85.2	77.7	88.5	94.65	92.55	86.85000000000001	83.7	77.10000000000001	69.3	61.35	53.849999999999994	45.75	37.5	31.05	24.3	17.1	11.25	7.5	6.15	54.6	82.35	82.95	74.7	89.7	87.45	78.9	70.8	63.3	55.65	48.0	40.5	43.35	35.4	28.799999999999997	22.95	15.6	9.45	7.199999999999999	6.15	8.85	20.7	48.3	45.45	39.900000000000006	31.95	24.6	17.7	10.35	2.7
Node 7		0.3	0.6	0.6	0.8999999999999999	6.75	42.3	47.699999999999996	47.85	48.6	48.75	48.75	42.15	35.099999999999994	28.95	23.1	16.650000000000002	11.4	5.8500000000000005	7.199999999999999	79.95	91.05	93.89999999999999	87.75	99.75	97.2	90.9	95.55	90.3	84.3	95.1	92.7	88.94999999999999	80.85	74.55000000000001	66.45	58.050000000000004	50.24999999999999	42.15	34.65	27.3	20.25	13.5	7.6499999999999995	65.55	60.75000000000001	55.95	49.65	44.1	90.14999999999999	89.1	89.55	85.05	78.0	70.19999999999999	62.1	54.300000000000004	47.25	40.2	32.550000000000004	25.8	19.35	12.45	6.75	3.5999999999999996	3.3000000000000003	3.0	24.9	43.2	46.050000000000004	41.4	33.45	25.8	20.25	11.55	2.7
Node 0		0.3	0.75	0.8999999999999999	1.05	4.5	41.699999999999996	47.55	48.6	50.4	50.849999999999994	51.74999999999999	46.050000000000004	40.2	34.050000000000004	27.900000000000002	22.2	16.35	10.95	8.4	78.45	90.0	92.7	91.2	99.3	96.15	91.5	87.9	88.64999999999999	87.75	87.75	79.5	85.65	77.55	69.45	61.199999999999996	61.050000000000004	53.55	45.9	37.65	30.75	24.45	17.25	19.2	58.95	62.849999999999994	57.3	51.15	71.39999999999999	89.25	90.0	84.75	84.75	78.14999999999999	70.19999999999999	62.25000000000001	54.300000000000004	47.099999999999994	43.65	35.699999999999996	29.4	23.400000000000002	16.05	9.75	7.5	6.45	6.3	5.55	4.95	43.95	37.05	34.949999999999996	27.3	20.1	11.25	2.7
Node 29		0.75	1.2	1.95	1.95	2.1	43.8	45.9	46.050000000000004	46.5	51.449999999999996	51.74999999999999	45.0	38.85	32.4	26.700000000000003	20.1	14.249999999999998	8.25	5.7	79.5	87.6	88.35	91.64999999999999	99.6	94.35	91.64999999999999	96.15	91.64999999999999	84.89999999999999	95.39999999999999	91.8	86.25	78.14999999999999	76.5	68.10000000000001	59.550000000000004	52.800000000000004	45.300000000000004	37.8	30.15	23.7	16.5	11.25	6.6000000000000005	4.65	4.05	84.0	81.3	73.35000000000001	66.14999999999999	58.650000000000006	50.849999999999994	78.0	70.19999999999999	62.4	55.65	48.3	44.7	37.35	31.35	24.6	17.549999999999997	11.4	7.5	5.8500000000000005	4.5	3.75	2.85	43.65	36.75	29.25	22.05	19.650000000000002	11.25	3.0
Node 4		0.15	0.15	0.75	0.75	7.049999999999999	43.05	43.05	43.05	43.2	43.35	43.8	37.95	31.35	25.35	19.2	13.200000000000001	7.199999999999999	3.0	7.049999999999999	78.45	84.6	90.14999999999999	92.55	99.75	94.95	86.85000000000001	78.9	89.85	81.3	91.8	84.0	75.3	67.05	58.8	50.55	42.449999999999996	34.65	27.0	19.2	12.3	5.8500000000000005	2.25	2.25	65.10000000000001	70.8	75.14999999999999	78.75	83.39999999999999	83.39999999999999	88.8	87.15	79.2	71.85000000000001	64.05	56.10000000000001	48.15	40.8	33.6	26.25	19.950000000000003	13.200000000000001	5.4	3.15	2.7	2.1	1.95	1.7999999999999998	1.6500000000000001	1.6500000000000001	1.5	1.05	27.150000000000002	20.1	11.700000000000001	3.0
Node 36		0.44999999999999996	0.44999999999999996	0.8999999999999999	1.05	1.2	41.699999999999996	43.35	49.35	50.1	50.55	51.449999999999996	48.15	41.85	36.0	30.15	23.849999999999998	18.45	13.5	10.2	24.75	89.25	88.64999999999999	90.14999999999999	94.95	95.55	89.1	93.89999999999999	88.64999999999999	86.1	94.19999999999999	92.55	86.55000000000001	78.60000000000001	70.35	63.9	56.10000000000001	48.75	41.699999999999996	34.050000000000004	27.3	21.0	14.399999999999999	8.7	33.300000000000004	64.5	72.3	85.65	83.55	86.4	88.94999999999999	84.89999999999999	76.64999999999999	77.85	70.5	62.55	54.900000000000006	47.4	40.2	32.550000000000004	25.95	18.75	12.3	6.15	7.049999999999999	6.15	5.7	8.85	48.9	44.4	40.5	35.099999999999994	27.450000000000003	20.1	11.700000000000001	3.0
Node 19		0.3	0.75	1.2	1.5	1.7999999999999998	42.3	44.25	45.0	45.300000000000004	45.75	46.2	48.9	42.15	36.0	30.15	23.849999999999998	18.45	13.5	10.35	53.55	90.14999999999999	85.5	92.55	97.8	95.1	87.6	89.55	81.15	86.1	77.55	89.7	80.85	73.5	65.4	60.75000000000001	55.50000000000001	48.15	40.949999999999996	33.6	26.85	20.849999999999998	14.399999999999999	8.7	19.5	52.05	72.75	84.45	82.8	88.35	89.1	83.7	83.39999999999999	77.10000000000001	69.45	62.25000000000001	54.75	47.699999999999996	40.8	33.15	26.55	19.650000000000002	12.6	6.6000000000000005	7.35	6.45	5.8500000000000005	24.75	48.75	45.75	39.900000000000006	35.4	27.150000000000002	19.8	11.25	2.85
Node 32		0.6	0.8999999999999999	0.8999999999999999	1.2	8.7	35.85	43.5	44.25	44.7	45.0	45.45	48.6	42.0	35.85	30.0	23.549999999999997	18.75	13.8	10.8	70.95	90.9	93.0	91.05	98.7	95.7	91.05	89.85	81.6	85.95	93.45	90.14999999999999	81.6	73.95	66.45	63.14999999999999	55.65	48.0	40.949999999999996	33.900000000000006	27.150000000000002	21.0	14.249999999999998	8.55	31.8	62.849999999999994	57.75	85.35000000000001	83.39999999999999	90.45	88.8	85.5	84.89999999999999	78.45	70.8	63.3	55.35	48.0	40.949999999999996	33.300000000000004	26.55	19.8	12.6	6.6000000000000005	7.199999999999999	6.3	5.7	25.05	49.05	44.4	37.35	29.849999999999998	22.8	16.05	9.45	2.4
Node 15		0.3	0.6	0.75	0.8999999999999999	2.25	41.85	42.0	42.15	42.3	42.449999999999996	42.6	36.449999999999996	30.0	24.9	19.35	12.9	7.049999999999999	2.4	2.7	3.9	91.05	85.5	93.30000000000001	99.3	96.45	88.05	94.35	85.8	88.35	94.05	91.95	84.45	76.8	68.4	60.6	52.349999999999994	44.7	37.35	29.549999999999997	22.35	15.75	9.0	3.3000000000000003	3.15	59.4	75.3	81.75	83.7	87.6	89.25	83.7	75.14999999999999	67.5	60.0	51.9	44.25	37.5	30.0	22.5	16.5	10.05	3.45	3.15	3.15	2.85	2.4	2.25	49.5	46.2	40.65	35.4	27.750000000000004	20.549999999999997	11.700000000000001	3.0
Node 26		0.75	0.8999999999999999	1.05	1.5	8.25	43.2	46.35	49.8	50.1	51.300000000000004	51.449999999999996	45.300000000000004	38.550000000000004	32.550000000000004	26.85	20.7	14.7	8.55	5.55	78.9	77.10000000000001	92.7	87.0	98.4	96.15	91.95	94.19999999999999	88.64999999999999	80.10000000000001	93.75	91.35	84.75	76.95	68.55	60.9	52.949999999999996	53.1	45.45	37.95	30.599999999999998	23.849999999999998	16.650000000000002	11.1	60.75000000000001	63.74999999999999	68.25	81.0	82.8	82.35	88.8	89.85	84.75	79.35	71.7	66.9	59.25	51.74999999999999	45.300000000000004	38.25	32.1	25.05	17.549999999999997	11.4	7.5	5.7	4.35	20.7	48.75	43.95	36.9	29.4	22.5	20.25	11.700000000000001	3.0
Node 1		0.6	0.8999999999999999	1.05	1.05	1.5	1.6500000000000001	1.6500000000000001	1.6500000000000001	1.7999999999999998	2.1	2.25	2.25	2.55	2.55	2.7	3.0	2.85	3.0	3.45	3.45	76.5	93.60000000000001	91.64999999999999	99.0	95.1	91.5	83.25	85.65	77.25	93.75	91.05	84.3	76.5	68.25	60.150000000000006	52.05	44.7	37.35	29.25	21.9	15.299999999999999	8.7	3.3000000000000003	2.25	2.4	2.55	13.05	83.1	78.60000000000001	90.45	90.14999999999999	86.7	80.7	74.55000000000001	67.5	59.85	52.65	45.6	37.65	30.9	23.849999999999998	16.35	10.5	6.0	3.9	3.0	2.25	5.25	43.8	36.9	29.549999999999997	22.5	15.6	9.3	2.4
Node 5		0.8999999999999999	1.2	1.35	1.95	2.1	2.4	2.55	2.55	2.55	2.85	3.0	3.0	2.55	2.25	2.7	2.25	2.4	2.25	2.85	79.65	90.9	94.05	94.05	99.6	96.6	91.35	94.65	89.85	89.7	95.1	89.55	81.0	72.89999999999999	64.8	56.99999999999999	48.449999999999996	40.5	33.300000000000004	25.05	17.7	10.95	4.2	2.1	2.25	2.55	2.7	2.85	42.0	89.55	87.3	90.0	85.05	80.10000000000001	72.89999999999999	64.95	56.85	49.8	42.75	34.949999999999996	28.050000000000004	20.7	13.350000000000001	7.199999999999999	2.85	1.6500000000000001	1.35	24.3	48.0	44.1	40.35	32.4	25.05	18.0	10.5	2.85
Node 23		0.75	0.75	0.75	0.8999999999999999	1.2	36.0	36.15	37.05	37.2	37.2	37.35	31.95	40.050000000000004	33.75	27.750000000000004	21.6	15.45	10.5	7.8	79.05	90.75	93.0	94.19999999999999	99.75	93.45	85.35000000000001	76.8	89.85	90.3	94.35	91.95	88.35	83.25	76.64999999999999	69.3	60.75000000000001	53.25	45.0	36.9	29.4	22.35	15.0	19.5	59.550000000000004	63.0	72.15	82.19999999999999	76.05	69.0	63.14999999999999	90.3	84.15	76.5	68.55	60.45	52.5	46.050000000000004	43.2	35.4	28.95	22.650000000000002	15.0	8.85	7.6499999999999995	6.6000000000000005	6.45	5.7	48.6	46.2	40.8	35.699999999999996	27.450000000000003	19.8	11.55	3.0
Node 27		0.44999999999999996	0.75	0.8999999999999999	1.2	7.35	42.9	46.050000000000004	50.24999999999999	50.7	51.300000000000004	51.6	45.300000000000004	38.7	32.25	26.25	20.4	14.399999999999999	8.1	4.8	77.85	89.25	92.7	84.75	99.3	95.7	87.45	94.5	88.05	79.65	95.1	92.85	85.8	78.0	69.75	62.1	53.849999999999994	46.2	38.4	30.75	23.7	16.8	10.05	4.8	15.15	13.8	12.45	10.2	9.15	8.4	7.95	7.35	6.45	5.55	4.2	3.3000000000000003	3.15	3.15	2.85	3.15	2.85	3.15	3.0	3.0	2.55	2.4	2.4	2.25	47.4	43.65	37.35	29.549999999999997	22.650000000000002	16.2	9.6	2.55
Node 10		0.15	0.3	0.8999999999999999	0.8999999999999999	2.25	43.8	46.650000000000006	50.7	51.300000000000004	51.9	52.2	45.9	39.15	32.550000000000004	26.25	19.650000000000002	13.5	7.35	4.2	3.3000000000000003	2.85	2.7	91.2	89.7	97.5	90.60000000000001	94.05	89.55	88.2	94.65	90.60000000000001	87.9	80.10000000000001	71.7	63.74999999999999	55.50000000000001	47.699999999999996	39.900000000000006	31.95	24.45	17.7	10.8	5.25	2.25	2.1	2.25	2.25	2.55	89.4	88.64999999999999	84.3	84.45	78.0	70.19999999999999	62.7	55.05	47.699999999999996	41.099999999999994	33.45	26.85	19.950000000000003	12.75	6.9	4.35	4.05	3.75	3.15	2.7	2.4	1.5	34.949999999999996	27.3	19.35	11.1	2.7
Node 14		0.75	1.2	1.35	1.6500000000000001	2.1	2.4	2.7	3.15	3.5999999999999996	3.9	4.05	3.9	3.75	3.5999999999999996	3.45	3.15	3.0	2.85	2.85	79.05	90.9	92.55	93.60000000000001	98.7	94.8	90.9	93.89999999999999	89.4	80.85	72.89999999999999	65.25	56.699999999999996	78.60000000000001	70.8	63.3	54.75	47.099999999999994	40.5	33.0	25.8	19.5	12.0	6.75	5.4	6.15	72.6	87.6	85.95	90.3	89.85	89.1	85.2	77.4	69.75	62.1	54.300000000000004	47.25	40.2	34.35	29.7	22.650000000000002	15.6	10.2	7.95	7.35	6.45	5.7	4.95	4.05	3.15	2.55	2.25	1.7999999999999998	1.35	0.44999999999999996
Node 40		0.0	0.0	0.0	0.0	7.95	42.9	49.2	50.24999999999999	50.4	50.4	50.4	43.5	36.3	29.549999999999997	23.1	16.2	9.6	3.5999999999999996	1.05	0.15	0.0	0.0	0.0	0.0	0.0	0.0	0.0	0.0	0.0	0.0	0.0	0.0	0.0	0.0	0.0	0.0	0.0	0.0	0.0	0.0	0.0	0.0	0.0	0.0	0.0	0.0	87.3	85.5	77.10000000000001	84.15	76.2	67.35	59.099999999999994	51.0	42.75	34.5	26.85	19.35	11.25	5.55	0.15	0.0	0.0	0.0	0.0	0.0	0.0	48.3	41.55	41.099999999999994	33.0	25.650000000000002	18.6	10.8	2.85
Node 22		0.6	0.8999999999999999	0.8999999999999999	1.2	1.35	42.449999999999996	44.4	44.55	44.7	47.55	48.3	42.449999999999996	35.4	29.4	23.849999999999998	17.549999999999997	11.85	7.35	5.4	66.0	89.7	93.89999999999999	94.5	99.15	93.60000000000001	87.0	95.1	87.45	79.05	95.39999999999999	92.25	87.0	79.2	71.1	63.14999999999999	57.3	49.95	42.6	34.65	27.3	20.25	13.5	7.6499999999999995	62.25000000000001	63.0	72.75	84.6	81.6	89.85	88.8	89.4	84.75	77.10000000000001	74.1	66.60000000000001	58.95	52.05	45.0	37.2	30.3	23.549999999999997	18.9	12.75	8.55	6.3	5.25	4.5	42.6	46.050000000000004	39.0	31.65	24.45	17.25	10.5	2.85
Node 2		0.0	0.44999999999999996	0.6	0.75	1.2	43.35	43.95	44.55	44.85	45.0	45.0	38.7	32.4	26.1	20.25	14.549999999999999	8.7	9.15	6.9	38.4	89.7	92.55	93.60000000000001	98.7	94.5	91.5	84.89999999999999	81.89999999999999	73.05	93.75	91.2	83.55	75.44999999999999	67.35	59.699999999999996	51.15	43.95	36.449999999999996	28.65	21.3	14.549999999999999	7.35	15.15	58.8	63.6	63.14999999999999	76.64999999999999	83.1	89.1	89.1	88.5	83.55	79.5	72.45	64.5	56.85	49.8	42.75	34.8	28.050000000000004	20.849999999999998	13.200000000000001	7.199999999999999	2.85	1.6500000000000001	1.35	1.2	38.550000000000004	45.300000000000004	40.2	35.099999999999994	27.0	20.4	11.700000000000001	3.0
Node 31		0.75	0.8999999999999999	0.8999999999999999	1.05	1.95	43.8	46.650000000000006	50.849999999999994	51.300000000000004	51.9	52.2	45.9	39.0	32.25	26.400000000000002	19.950000000000003	13.8	7.5	4.35	3.3000000000000003	2.85	91.05	93.45	99.15	96.15	90.75	94.19999999999999	87.3	89.25	94.8	91.2	86.7	78.9	70.95	63.0	55.35	47.699999999999996	40.35	32.25	25.05	18.3	11.85	16.2	15.6	14.099999999999998	12.75	51.74999999999999	84.3	89.1	88.94999999999999	90.9	86.55000000000001	79.05	71.55	67.95	60.150000000000006	53.25	45.9	38.1	31.65	24.0	16.2	10.05	6.0	4.05	2.7	24.9	48.9	44.1	40.35	34.949999999999996	27.450000000000003	20.4	11.85	3.0
Node 8		0.44999999999999996	0.75	1.05	1.05	5.55	42.3	42.9	43.5	44.25	44.55	44.7	38.550000000000004	34.65	28.349999999999998	22.05	15.9	9.6	5.8500000000000005	5.4	79.65	90.60000000000001	93.75	94.19999999999999	99.6	96.15	90.14999999999999	81.89999999999999	73.5	88.35	90.9	91.8	86.1	78.9	70.35	62.1	53.849999999999994	46.800000000000004	39.15	31.05	23.849999999999998	16.950000000000003	10.95	5.1	2.4	2.1	75.9	76.95	70.65	88.94999999999999	87.75	80.25	83.85000000000001	76.05	68.4	60.6	52.800000000000004	45.6	39.15	36.75	29.849999999999998	22.95	15.6	10.2	7.95	7.35	6.45	5.7	4.95	45.45	40.2	34.949999999999996	27.0	19.650000000000002	11.4	2.85
Node 17		0.8999999999999999	1.2	1.2	1.5	3.5999999999999996	43.5	44.1	44.55	46.650000000000006	46.800000000000004	47.4	41.099999999999994	34.65	28.349999999999998	22.650000000000002	16.2	9.9	4.5	3.5999999999999996	3.15	3.45	3.45	3.15	2.85	3.15	2.55	2.4	30.75	80.85	72.6	64.95	57.3	49.65	41.85	34.65	26.55	19.05	12.6	6.75	5.8500000000000005	6.15	6.75	19.650000000000002	55.05	53.1	76.35	85.35000000000001	85.05	90.60000000000001	89.85	87.0	80.55	72.75	64.95	57.75	49.95	42.6	35.4	27.450000000000003	20.849999999999998	14.549999999999999	7.95	4.65	4.2	3.5999999999999996	8.85	20.549999999999997	48.75	45.75	40.2	34.949999999999996	27.450000000000003	19.5	11.4	2.85
Node 33		0.75	1.05	1.05	1.05	1.35	42.15	48.0	48.9	49.2	49.2	49.35	42.75	35.85	29.4	23.7	17.4	11.25	5.4	3.0	2.1	7.5	89.85	91.64999999999999	98.4	95.25	91.8	94.35	89.55	88.05	93.89999999999999	91.8	85.8	78.0	69.89999999999999	62.1	53.55	46.050000000000004	38.550000000000004	30.3	22.95	16.2	9.75	4.35	2.4	68.7	63.74999999999999	85.5	83.85000000000001	88.94999999999999	86.55000000000001	85.8	85.35000000000001	79.95	71.85000000000001	64.05	56.25	48.75	41.699999999999996	33.900000000000006	27.6	20.4	13.5	7.5	3.15	2.4	2.25	1.95	1.7999999999999998	32.25	40.050000000000004	34.8	27.6	19.5	11.25	2.85
Node 25		0.0	0.3	0.3	0.75	1.05	42.9	42.9	43.05	43.35	43.8	44.1	38.4	31.95	25.95	20.7	14.249999999999998	8.1	3.3000000000000003	3.3000000000000003	78.45	90.0	91.95	92.7	96.3	87.75	79.80000000000001	71.85000000000001	63.3	88.35	94.5	92.10000000000001	85.95	78.14999999999999	70.5	62.7	54.300000000000004	46.35	38.85	30.9	23.7	17.1	10.05	5.1	3.9	39.45	73.8	86.1	84.45	90.75	89.7	84.75	76.5	68.55	60.6	52.5	44.55	37.2	30.15	22.650000000000002	16.650000000000002	10.5	3.9	3.15	2.85	2.7	2.55	9.0	49.05	41.85	35.25	28.050000000000004	21.75	20.549999999999997	11.700000000000001	3.0
Node 24		0.15	0.44999999999999996	0.75	1.2	12.15	43.5	46.35	46.35	46.5	46.5	46.650000000000006	40.35	33.75	27.0	21.15	15.0	9.0	3.75	2.1	2.25	2.4	74.85000000000001	93.45	94.95	86.1	78.45	70.19999999999999	62.1	53.7	45.6	38.4	88.64999999999999	82.95	76.2	69.15	60.75000000000001	53.1	44.85	37.2	30.0	23.25	16.2	10.5	61.5	61.35	55.800000000000004	49.95	83.7	89.85	90.0	90.75	86.7	78.75	71.25	66.0	58.8	51.300000000000004	43.95	36.3	29.4	22.650000000000002	14.85	8.7	5.25	3.9	2.7	9.0	49.35	44.25	40.5	35.25	27.6	19.8	11.85	3.0
Node 11		0.75	1.05	1.2	1.2	1.35	1.35	1.5	1.6500000000000001	2.25	2.85	3.45	2.85	3.0	2.85	2.85	3.15	3.15	3.3000000000000003	5.8500000000000005	5.55	4.35	3.9	3.15	3.3000000000000003	3.3000000000000003	17.4	10.65	9.3	9.75	9.45	9.6	9.75	8.7	25.35	22.35	52.05	48.6	41.25	33.75	26.400000000000002	19.8	13.200000000000001	7.5	12.15	10.95	9.9	9.45	8.4	7.5	6.75	5.55	4.8	21.0	20.4	19.2	16.05	14.85	10.5	9.45	3.45	3.0	18.45	12.3	8.55	6.3	5.25	4.5	22.35	44.4	37.35	29.849999999999998	22.8	15.9	9.6	2.55
Node 39		0.15	0.6	0.8999999999999999	1.6500000000000001	8.7	43.05	46.050000000000004	46.2	46.2	46.949999999999996	47.25	41.099999999999994	34.65	28.349999999999998	22.5	16.5	10.35	5.25	6.9	79.35	90.60000000000001	92.55	85.5	98.85000000000001	95.25	94.8	89.55	85.35000000000001	76.8	94.35	87.15	79.65	71.55	63.3	55.35	46.949999999999996	39.300000000000004	31.8	24.0	16.8	10.2	3.5999999999999996	3.15	65.55	73.65	72.6	84.75	83.25	88.5	90.0	89.85	83.55	75.44999999999999	67.65	60.0	52.2	44.7	37.65	30.45	23.7	16.950000000000003	9.45	3.9	2.1	2.1	1.7999999999999998	24.6	48.6	45.45	40.050000000000004	35.099999999999994	27.450000000000003	20.1	11.4	3.0
Node 13		0.3	0.3	0.44999999999999996	0.8999999999999999	5.7	35.85	36.15	36.15	36.449999999999996	36.6	36.75	31.35	25.95	20.25	14.85	9.3	3.5999999999999996	2.1	2.1	8.1	88.8	93.0	93.89999999999999	99.6	97.05	91.95	95.39999999999999	88.2	90.0	93.89999999999999	91.35	85.8	77.7	69.3	61.35	52.949999999999996	45.15	37.8	29.7	22.650000000000002	15.9	9.6	4.05	38.1	63.3	72.15	82.5	76.2	69.0	63.14999999999999	56.25	84.15	76.5	68.85	65.55	57.9	50.4	43.65	36.0	29.25	22.5	15.45	9.15	5.7	4.35	3.15	1.95	16.05	44.55	37.5	29.849999999999998	22.8	16.05	9.6	2.4
Node 20		0.6	0.75	0.8999999999999999	1.05	1.2	43.35	43.95	43.95	45.300000000000004	45.75	45.9	39.6	32.550000000000004	35.85	29.4	23.25	17.25	10.8	6.75	5.8500000000000005	4.95	4.2	3.45	3.15	3.15	3.3000000000000003	2.7	2.4	2.55	2.1	2.1	1.95	1.95	1.7999999999999998	2.1	62.1	55.05	47.25	39.0	31.35	24.75	17.549999999999997	11.25	7.5	74.55000000000001	72.89999999999999	85.05	83.39999999999999	77.10000000000001	89.85	85.95	86.85000000000001	80.55	73.05	65.4	57.75	50.7	43.5	36.3	29.4	27.750000000000004	20.7	15.15	11.25	8.7	7.049999999999999	5.7	4.95	46.2	40.65	35.25	27.6	20.4	11.700000000000001	3.0
