9 79
3 157
16 142
6 123
37 27
21 160
18 97
35 50
38 117
34 46
12 104
28 87
7 76
0 81
29 15
4 196
36 90
32 41
19 23
15 56
26 40
5 115
1 9
23 79
27 16
10 13
14 46
40 42
22 131
2 55
31 97
8 51
33 123
17 2
25 10
24 82
39 156
11 1
20 50
13 45
