Message stats for scenario SimBetReality#DF1
sim_time: 16981816.0000
created: 25299
started: 91968
relayed: 78989
aborted: 12979
dropped: 95408
removed: 0
delivered: 8880
delivery_prob: 0.3510
response_prob: 0.0000
overhead_ratio: 7.8952
latency_avg: 618842.0161
latency_med: 481671.0000
hopcount_avg: 2.2458
hopcount_med: 2
buffertime_avg: 1194655.3210
buffertime_med: 1572864.0000
rtt_avg: NaN
rtt_med: NaN
