A9 0.5039389531569577 
A3 0.5190349550557048 
A30 0.0 
A16 0.568009066494164 
A6 0.7332650703514297 
A37 0.5672511874942315 
A21 0.5824822480325464 
A18 0.49354920221788123 
A35 0.45477386459302616 
A38 0.6691210377662122 
A34 0.510966828463666 
A12 0.360945131941474 
A28 0.641597074600695 
A7 0.6323592844368894 
A0 0.4139489715254188 
A29 0.47771999895635275 
A4 0.6091275428108265 
A36 0.5557746455378768 
A32 0.3749389397043534 
A19 0.47285426710923 
A15 0.5195289550270479 
A26 0.3992419426394637 
A5 0.607307103352336 
A1 0.386417447443156 
A23 0.5175860870927514 
A27 0.36458447913647307 
A10 0.380696261291523 
A14 0.3520741632675509 
A40 0.4492161164970776 
A22 0.5397652203119058 
A2 0.49068300621064687 
A31 0.5359379807658735 
A8 0.4877825994768638 
A17 0.2868723907931166 
A33 0.6237243111927231 
A25 0.5301608835584525 
A24 0.435036791255046 
A39 0.48404143992858867 
A11 0.21689007233278054 
A13 0.4262428942481406 
A20 0.5326804547964732 
