A9 0.46454315470229207 
A3 0.46692805238457397 
A30 0.0 
A16 0.5370740481696152 
A6 0.7380632812441903 
A37 0.464335616767823 
A21 0.5729157323646206 
A18 0.33772966567560025 
A35 0.5591694999684373 
A38 0.5462736491483542 
A34 0.41997092905251643 
A12 0.5161933300765528 
A28 0.6372519868398102 
A7 0.5699486892770471 
A0 0.38498697708719914 
A29 0.48795877288567235 
A4 0.7211496830909727 
A36 0.6757808160513455 
A32 0.4973487335877469 
A19 0.5427886999825021 
A15 0.5935022556862334 
A26 0.31423870705662654 
A5 0.6075607025301302 
A1 0.1407122695372309 
A23 0.48682826614120017 
A27 0.37425501201141537 
A10 0.3833217511881244 
A14 0.24696940042508247 
A40 0.47076840947134824 
A22 0.6257407109508152 
A2 0.49357256131174854 
A31 0.545281366215302 
A8 0.6614219546206334 
A17 0.21502340690002378 
A33 0.7924024795350244 
A25 0.3948131673905955 
A24 0.3184116959467394 
A39 0.39370292543108837 
A11 0.18300148205557376 
A13 0.33651714791915904 
A20 0.7951939643372417 
