Node 9		0.75	0.75	1.05	1.05	4.5	40.050000000000004	40.8	41.25	42.75	42.9	43.35	37.8	31.8	26.400000000000002	20.549999999999997	14.549999999999999	8.7	7.95	6.6000000000000005	22.8	22.95	42.15	41.55	55.800000000000004	50.4	61.95	56.25	50.55	43.95	41.4	43.65	46.5	42.9	36.75	32.4	27.0	22.95	19.05	15.45	11.85	9.3	6.0	5.4	30.9	33.900000000000006	41.4	42.6	39.15	39.900000000000006	41.85	37.65	34.2	29.4	25.8	21.75	17.849999999999998	13.8	10.8	8.4	6.9	5.4	3.9	3.5999999999999996	3.3000000000000003	3.15	3.0	2.85	2.55	26.1	21.9	17.7	20.25	15.6	11.1	2.85
Node 3		0.44999999999999996	0.44999999999999996	0.75	0.8999999999999999	1.05	41.85	45.300000000000004	45.45	45.45	45.75	46.050000000000004	39.900000000000006	33.300000000000004	27.150000000000002	20.849999999999998	14.549999999999999	8.4	3.75	1.95	2.25	2.85	2.85	2.7	65.7	70.05	69.3	65.25	58.199999999999996	50.849999999999994	57.3	77.7	72.15	64.95	57.45	50.7	42.75	35.85	29.4	23.7	17.25	11.55	6.15	2.4	1.6500000000000001	1.95	20.25	60.6	60.3	60.75000000000001	56.55	52.800000000000004	47.099999999999994	41.85	36.449999999999996	30.75	25.8	19.950000000000003	15.9	11.700000000000001	8.7	5.25	3.15	2.85	2.25	1.7999999999999998	1.7999999999999998	1.35	8.7	34.35	30.0	23.549999999999997	18.3	12.15	6.9	1.95
Node 30		0.75	0.8999999999999999	1.05	1.6500000000000001	1.95	2.4	2.4	2.55	2.85	3.0	3.3000000000000003	2.85	2.85	3.15	3.3000000000000003	3.0	2.85	2.55	3.0	3.0	2.85	3.0	3.0	3.0	3.0	2.7	2.7	2.85	3.0	3.0	3.0	3.15	3.0	2.7	2.4	2.4	2.4	2.25	2.25	2.1	2.25	2.25	2.1	1.95	2.1	2.1	2.25	2.1	1.95	1.95	1.95	1.7999999999999998	1.35	1.5	1.5	1.6500000000000001	1.7999999999999998	1.7999999999999998	1.95	1.95	2.25	2.4	2.4	2.4	2.4	2.1	1.7999999999999998	1.5	1.2	1.2	0.8999999999999999	0.8999999999999999	0.6	0.3	0.0
Node 16		0.3	0.44999999999999996	0.44999999999999996	0.6	0.75	39.75	39.900000000000006	40.2	40.35	40.65	40.949999999999996	35.4	29.099999999999998	23.400000000000002	17.7	11.700000000000001	5.7	2.1	2.1	56.85	57.599999999999994	52.5	46.35	66.60000000000001	59.4	53.25	46.2	39.75	32.550000000000004	35.4	59.25	54.15	48.75	42.449999999999996	37.65	30.9	26.25	21.0	16.35	12.0	8.7	5.1	2.7	45.75	45.45	52.05	51.15	50.55	47.099999999999994	65.10000000000001	57.75	51.449999999999996	45.300000000000004	39.45	32.550000000000004	27.150000000000002	21.45	16.950000000000003	11.85	7.6499999999999995	3.75	2.4	2.55	2.25	2.1	1.95	4.95	10.8	36.9	32.25	25.8	21.15	16.8	10.8	2.7
Node 6		0.3	0.75	0.8999999999999999	1.05	1.6500000000000001	42.15	42.449999999999996	43.05	43.35	43.5	44.1	38.4	31.35	25.5	19.950000000000003	13.950000000000001	7.95	4.35	12.6	60.9	71.85000000000001	77.25	77.4	88.2	88.35	82.05	81.89999999999999	78.14999999999999	70.65	63.449999999999996	56.39999999999999	49.5	42.6	35.099999999999994	28.65	21.0	15.0	10.2	6.3	5.8500000000000005	6.15	6.75	6.45	6.15	5.8500000000000005	5.25	4.5	4.8	4.5	4.65	4.65	7.049999999999999	6.6000000000000005	5.8500000000000005	6.3	5.8500000000000005	5.1	4.8	4.8	4.35	4.65	4.65	4.8	4.35	3.5999999999999996	3.0	5.4	6.75	29.25	24.3	20.1	15.15	10.65	5.8500000000000005	1.6500000000000001
Node 37		0.75	1.05	1.2	1.35	1.95	40.5	43.8	44.4	44.55	44.7	49.8	44.4	37.35	31.2	25.95	19.650000000000002	13.200000000000001	7.8	5.55	29.7	49.95	64.35	57.9	72.45	67.05	65.7	58.650000000000006	53.55	46.2	42.3	36.0	30.15	25.35	19.950000000000003	16.2	11.85	8.25	6.0	4.65	3.45	2.85	2.4	2.55	2.4	2.25	2.4	2.4	2.25	2.7	2.7	2.85	3.0	3.3000000000000003	3.45	3.3000000000000003	3.15	3.3000000000000003	3.15	3.15	3.0	3.0	2.7	2.4	2.25	1.95	1.6500000000000001	1.6500000000000001	1.6500000000000001	1.35	0.75	0.6	0.44999999999999996	0.0	0.0	0.0
Node 21		0.0	0.0	0.6	0.75	1.7999999999999998	39.6	40.35	45.0	45.75	46.2	46.5	41.099999999999994	34.65	28.799999999999997	23.25	17.25	11.1	5.7	6.75	24.9	40.8	77.4	72.89999999999999	85.05	83.55	79.80000000000001	79.2	73.5	69.0	72.89999999999999	73.65	70.19999999999999	66.45	60.75000000000001	54.300000000000004	49.35	43.5	36.75	30.75	24.15	18.75	13.05	11.25	27.3	32.25	28.499999999999996	33.15	29.549999999999997	27.3	45.9	41.099999999999994	40.35	35.4	32.1	29.099999999999998	24.9	21.15	19.05	15.0	12.45	12.45	10.2	9.45	8.7	7.95	6.75	5.55	5.7	37.2	33.15	27.450000000000003	20.7	14.399999999999999	8.4	2.25
Node 18		0.15	0.3	0.8999999999999999	1.05	1.5	39.0	39.15	39.45	39.6	39.900000000000006	40.65	34.8	29.099999999999998	23.400000000000002	17.7	11.700000000000001	6.0	3.3000000000000003	3.3000000000000003	46.800000000000004	68.7	67.95	61.8	67.35	70.65	67.2	59.550000000000004	55.2	48.75	42.3	36.3	29.849999999999998	25.05	19.5	15.299999999999999	10.8	7.049999999999999	5.7	4.2	3.45	3.75	4.05	3.5999999999999996	3.9	3.9	10.8	12.3	11.4	10.95	10.2	9.15	8.25	6.9	6.0	4.95	3.9	2.4	2.1	2.4	2.7	2.85	2.7	2.85	3.0	2.85	2.4	2.25	3.75	6.3	11.4	12.6	10.35	12.9	7.95	1.95
Node 35		0.6	0.6	0.75	1.05	2.1	40.65	41.4	41.699999999999996	41.699999999999996	41.85	42.0	36.0	29.549999999999997	23.7	18.45	12.3	6.15	2.4	2.25	22.35	70.19999999999999	69.89999999999999	64.8	66.14999999999999	59.550000000000004	60.3	53.400000000000006	47.25	40.050000000000004	66.9	67.65	61.050000000000004	54.15	47.699999999999996	42.0	34.8	29.4	23.7	18.45	13.200000000000001	8.85	4.65	3.45	3.5999999999999996	3.5999999999999996	3.5999999999999996	3.5999999999999996	3.45	3.45	3.0	2.7	2.7	2.55	2.1	2.1	1.95	2.1	1.7999999999999998	1.7999999999999998	1.6500000000000001	1.6500000000000001	1.7999999999999998	1.7999999999999998	1.6500000000000001	1.5	1.35	1.05	0.8999999999999999	0.75	0.75	0.75	0.75	0.44999999999999996	0.3	0.0
Node 38		0.3	0.6	0.8999999999999999	0.8999999999999999	1.35	40.5	41.85	41.85	42.0	46.2	46.35	40.65	34.2	28.199999999999996	22.650000000000002	16.8	10.8	6.45	5.4	5.25	52.5	77.4	70.65	82.35	77.55	70.65	62.849999999999994	58.5	58.050000000000004	64.05	72.3	67.5	61.8	55.35	49.2	41.55	35.699999999999996	30.45	24.9	19.5	14.7	8.55	4.95	43.65	46.949999999999996	53.400000000000006	48.3	43.5	38.4	41.4	40.65	43.05	37.35	33.15	28.050000000000004	24.0	19.950000000000003	16.8	13.65	10.8	7.199999999999999	3.9	2.25	1.2	1.05	0.75	6.45	10.2	20.549999999999997	18.15	14.249999999999998	21.75	15.0	8.7	2.25
Node 34		0.6	0.6	0.75	1.2	2.85	40.2	41.099999999999994	41.55	42.0	42.15	42.449999999999996	36.9	30.3	24.75	19.05	13.350000000000001	7.199999999999999	3.45	3.3000000000000003	23.1	40.050000000000004	51.9	58.650000000000006	64.05	67.65	63.74999999999999	56.99999999999999	52.2	46.050000000000004	42.449999999999996	39.0	32.85	27.750000000000004	22.05	18.0	13.5	10.05	8.7	6.45	4.65	3.9	2.85	2.25	2.25	11.25	11.25	18.0	19.5	18.0	19.35	17.1	15.45	13.65	11.85	10.5	9.0	7.199999999999999	6.0	4.35	3.45	2.4	1.95	2.25	2.25	2.25	2.1	1.7999999999999998	1.7999999999999998	1.5	1.35	2.7	4.05	2.55	1.7999999999999998	0.3
Node 12		0.0	0.3	0.8999999999999999	1.05	1.5	1.5	1.7999999999999998	2.1	2.1	2.25	2.55	2.55	2.7	2.7	2.1	2.25	2.1	2.25	1.95	12.0	40.8	38.1	32.25	29.4	24.0	21.9	18.3	15.299999999999999	10.5	7.6499999999999995	5.1	3.0	2.85	3.0	3.15	3.9	4.05	4.35	4.65	4.5	4.65	4.65	4.05	3.75	3.9	3.9	3.75	3.15	2.7	2.55	2.4	2.7	2.7	2.55	2.7	2.85	2.55	2.4	2.55	2.4	2.55	2.4	2.55	2.4	2.25	1.95	1.6500000000000001	30.75	36.75	31.95	25.95	19.5	13.8	10.2	2.55
Node 28		0.3	0.3	0.6	0.8999999999999999	2.7	29.4	29.549999999999997	30.0	37.95	38.25	39.300000000000004	34.2	29.099999999999998	23.549999999999997	18.15	13.05	7.6499999999999995	5.8500000000000005	5.55	28.349999999999998	60.3	55.05	48.449999999999996	55.95	49.05	53.849999999999994	47.699999999999996	42.15	35.4	28.799999999999997	63.9	59.25	55.50000000000001	51.74999999999999	47.25	41.4	36.6	30.15	24.6	19.8	15.299999999999999	10.35	8.1	6.6000000000000005	6.15	16.5	25.05	30.15	27.3	42.449999999999996	39.6	35.699999999999996	31.35	28.199999999999996	24.45	20.549999999999997	16.05	14.85	10.95	8.85	6.75	5.4	5.1	4.8	4.5	5.7	9.0	13.5	25.650000000000002	21.45	17.25	12.6	8.4	4.2	1.35
Node 7		0.3	0.6	0.6	0.8999999999999999	4.05	39.900000000000006	44.4	44.55	45.300000000000004	45.45	45.45	39.300000000000004	32.4	26.400000000000002	20.849999999999998	14.7	9.45	4.8	3.75	53.849999999999994	69.75	73.5	74.25	79.95	78.75	72.3	79.80000000000001	73.35000000000001	65.7	76.64999999999999	74.7	70.05	62.849999999999994	55.35	48.9	41.55	34.8	27.900000000000002	22.05	15.9	10.8	6.15	3.3000000000000003	32.85	31.05	28.199999999999996	25.35	22.35	38.550000000000004	37.8	34.5	31.5	27.6	24.3	20.25	17.1	12.75	10.35	8.25	6.75	4.65	3.75	2.85	2.85	2.7	2.7	5.4	9.0	12.3	10.95	8.55	6.6000000000000005	4.5	11.1	2.7
Node 0		0.3	0.75	0.8999999999999999	1.05	4.65	34.65	34.949999999999996	35.099999999999994	35.55	36.0	36.15	31.35	25.650000000000002	20.25	14.85	10.05	4.65	2.7	2.7	29.549999999999997	66.75	61.650000000000006	58.5	65.10000000000001	58.650000000000006	52.65	45.6	39.45	32.1	26.1	19.8	14.399999999999999	10.65	5.7	3.9	3.0	2.25	1.6500000000000001	1.05	1.2	1.35	1.2	1.5	4.8	15.45	13.8	12.15	14.249999999999998	12.75	13.5	11.700000000000001	9.9	8.7	7.049999999999999	5.25	4.35	3.45	3.15	2.85	2.4	2.55	2.4	2.4	2.25	2.1	2.1	1.95	1.6500000000000001	1.35	0.8999999999999999	3.9	3.15	1.7999999999999998	9.6	2.1
Node 29		0.75	1.2	1.95	1.95	2.1	40.65	42.15	42.3	42.75	43.95	44.25	38.4	32.7	27.150000000000002	21.9	15.9	10.2	5.7	5.4	23.1	40.949999999999996	40.5	60.150000000000006	60.150000000000006	59.85	60.45	53.400000000000006	48.3	41.25	39.0	36.3	30.45	25.95	20.1	16.650000000000002	12.45	12.9	12.3	10.95	9.0	8.1	6.3	5.8500000000000005	4.5	4.2	4.05	13.200000000000001	15.299999999999999	14.249999999999998	12.9	11.25	10.2	9.0	8.1	6.75	6.15	4.35	3.45	2.4	2.7	2.55	2.55	2.7	2.4	2.25	2.1	1.95	1.2	1.05	0.75	0.75	0.3	12.75	9.6	2.4
Node 4		0.15	0.15	0.75	0.75	0.8999999999999999	40.050000000000004	40.050000000000004	40.050000000000004	40.2	40.35	40.8	35.4	29.099999999999998	23.400000000000002	17.4	11.700000000000001	5.8500000000000005	3.0	7.049999999999999	75.9	78.14999999999999	80.7	84.89999999999999	99.0	93.15	85.05	77.4	86.85000000000001	78.45	88.64999999999999	80.85	72.15	63.9	55.65	47.4	39.300000000000004	31.5	24.15	16.5	9.9	4.65	2.25	2.25	36.449999999999996	54.75	61.8	60.9	67.2	72.0	73.95	70.65	63.9	57.599999999999994	50.7	43.35	35.85	29.25	23.849999999999998	18.0	13.200000000000001	8.25	4.05	3.15	2.7	2.1	1.95	1.7999999999999998	1.6500000000000001	1.6500000000000001	1.5	1.05	24.3	18.3	11.1	2.85
Node 36		0.44999999999999996	0.44999999999999996	0.8999999999999999	1.05	1.2	39.75	40.65	41.55	42.0	42.3	42.3	38.7	32.7	27.6	23.549999999999997	17.849999999999998	12.6	9.15	8.25	8.25	29.25	48.449999999999996	62.4	56.25	59.25	53.1	49.05	42.75	39.300000000000004	36.15	33.0	34.5	29.7	23.849999999999998	22.35	18.6	16.650000000000002	14.85	12.45	10.35	9.15	7.199999999999999	6.3	19.950000000000003	38.25	37.05	44.25	44.85	53.7	51.300000000000004	46.949999999999996	42.0	37.5	34.949999999999996	29.549999999999997	24.75	19.35	15.6	11.85	8.7	5.8500000000000005	5.25	4.5	7.049999999999999	6.15	5.7	8.7	7.5	18.75	15.75	13.65	11.4	16.2	9.6	2.4
Node 19		0.3	0.75	1.2	1.5	1.7999999999999998	40.65	41.25	42.0	42.3	42.75	43.2	40.35	33.75	28.349999999999998	23.1	17.4	11.700000000000001	7.8	7.049999999999999	18.45	43.5	50.55	56.39999999999999	51.300000000000004	44.85	39.75	43.5	37.65	30.599999999999998	24.75	19.5	13.950000000000001	11.55	8.4	6.45	4.8	3.9	3.3000000000000003	2.25	2.1	1.95	1.95	1.7999999999999998	4.35	5.1	7.5	9.45	17.849999999999998	16.35	16.950000000000003	15.75	14.549999999999999	13.8	12.15	10.5	8.85	6.3	5.55	4.2	3.3000000000000003	3.15	2.4	2.25	2.1	1.5	1.5	1.35	1.35	7.35	6.45	7.199999999999999	5.7	3.45	2.4	0.6
Node 32		0.6	0.8999999999999999	0.8999999999999999	1.2	5.1	31.05	40.35	40.8	41.25	41.55	42.0	36.9	30.3	24.75	19.2	13.350000000000001	8.1	3.75	4.05	6.45	26.400000000000002	50.55	46.650000000000006	60.75000000000001	54.0	48.0	42.6	36.75	29.4	25.05	23.7	18.3	16.2	13.05	11.25	9.9	8.7	7.8	6.6000000000000005	6.0	5.55	4.35	3.75	6.15	5.8500000000000005	5.4	9.75	21.6	19.950000000000003	18.15	16.5	15.0	12.9	11.1	9.15	7.199999999999999	4.35	3.45	2.7	2.55	2.1	2.4	2.4	2.1	1.95	1.6500000000000001	1.5	1.2	0.8999999999999999	0.8999999999999999	0.6	0.44999999999999996	0.44999999999999996	0.15	0.0
Node 15		0.3	0.6	0.75	0.8999999999999999	1.5	39.15	39.300000000000004	39.45	39.6	39.75	39.900000000000006	33.900000000000006	27.750000000000004	22.95	17.4	11.25	5.55	2.4	2.7	2.85	71.7	67.35	66.3	88.94999999999999	81.45	73.2	70.8	64.2	60.150000000000006	70.05	65.10000000000001	58.650000000000006	52.05	44.7	38.550000000000004	31.8	27.0	22.8	17.549999999999997	12.9	8.7	4.65	2.7	3.15	25.05	25.05	26.55	45.15	41.25	46.800000000000004	42.3	37.2	32.4	28.95	24.6	20.549999999999997	16.8	13.950000000000001	10.2	7.5	5.1	3.0	3.15	3.15	2.85	2.4	2.25	10.65	25.35	21.0	19.650000000000002	14.249999999999998	9.45	11.1	2.85
Node 26		0.75	0.8999999999999999	1.05	1.5	3.5999999999999996	32.85	33.15	33.300000000000004	33.6	33.900000000000006	34.050000000000004	28.95	23.549999999999997	18.9	14.249999999999998	9.15	3.75	2.7	2.4	21.6	44.1	63.0	56.25	65.25	58.8	53.849999999999994	47.25	41.699999999999996	34.35	32.1	26.700000000000003	21.75	18.45	13.200000000000001	11.85	10.5	9.75	8.85	7.199999999999999	6.0	5.7	4.05	3.45	9.6	9.0	8.1	7.049999999999999	6.3	5.25	5.8500000000000005	5.25	5.25	4.5	3.5999999999999996	2.7	2.25	2.1	1.7999999999999998	2.4	2.4	2.55	2.55	2.25	2.4	2.25	2.25	1.95	1.7999999999999998	1.6500000000000001	1.6500000000000001	1.05	0.75	1.95	11.1	2.85
Node 1		0.6	0.8999999999999999	1.05	1.05	1.5	1.6500000000000001	1.6500000000000001	1.6500000000000001	1.7999999999999998	2.1	2.25	2.25	2.55	2.55	2.7	3.0	2.85	3.0	3.45	3.45	3.5999999999999996	5.55	5.55	4.8	27.3	25.2	21.45	18.15	13.350000000000001	10.8	8.25	6.15	5.55	5.25	4.95	4.65	4.05	4.2	4.05	3.5999999999999996	3.5999999999999996	2.7	2.1	1.95	2.4	2.55	2.7	7.8	7.35	6.75	6.6000000000000005	6.3	6.3	6.45	5.8500000000000005	5.25	4.5	4.05	3.5999999999999996	3.75	3.5999999999999996	3.5999999999999996	3.5999999999999996	3.3000000000000003	2.55	2.1	1.95	1.6500000000000001	1.35	1.05	0.8999999999999999	0.6	0.44999999999999996	0.3	0.0
Node 5		0.8999999999999999	1.2	1.35	1.95	2.1	2.4	2.55	2.55	2.55	2.85	3.0	3.0	2.55	2.25	2.7	2.25	2.4	2.25	2.85	38.7	69.3	70.35	72.15	75.14999999999999	72.3	66.75	69.0	64.5	61.5	63.3	59.25	53.1	47.55	41.55	36.9	30.75	25.35	20.549999999999997	15.0	9.6	6.45	3.0	2.1	2.25	2.55	2.7	2.85	14.549999999999999	27.450000000000003	26.25	29.099999999999998	28.799999999999997	32.550000000000004	29.7	26.25	23.1	19.05	16.650000000000002	13.200000000000001	10.65	7.049999999999999	5.25	3.75	2.4	1.6500000000000001	1.35	4.2	6.45	10.35	9.15	7.199999999999999	5.7	3.9	1.95	0.6
Node 23		0.75	0.75	0.75	0.8999999999999999	1.2	27.0	27.0	27.3	27.450000000000003	27.450000000000003	27.6	23.7	26.55	21.3	16.2	11.25	6.0	4.8	4.65	36.3	48.0	63.3	57.3	66.60000000000001	59.550000000000004	53.7	46.35	40.949999999999996	50.7	67.65	68.25	67.35	63.0	58.050000000000004	52.949999999999996	45.75	39.45	32.4	26.400000000000002	20.25	15.15	9.9	15.299999999999999	31.8	32.4	30.75	38.1	34.5	30.45	27.450000000000003	25.8	22.05	18.75	15.45	12.0	9.3	7.5	8.4	7.199999999999999	5.8500000000000005	5.7	4.65	4.2	4.65	4.2	4.2	4.05	5.7	10.95	8.55	7.95	5.7	3.3000000000000003	1.95	0.44999999999999996
Node 27		0.44999999999999996	0.75	0.8999999999999999	1.2	1.6500000000000001	40.65	42.9	45.6	45.75	45.9	46.2	40.5	34.35	28.199999999999996	22.35	17.1	11.25	5.8500000000000005	3.75	4.2	63.449999999999996	66.14999999999999	58.95	74.25	68.25	61.650000000000006	54.75	51.0	43.5	44.85	40.949999999999996	34.949999999999996	30.15	24.15	21.15	16.8	15.0	13.200000000000001	11.1	8.7	7.049999999999999	4.65	4.05	3.9	3.5999999999999996	3.45	2.85	2.85	2.55	2.7	2.4	2.7	2.7	2.55	2.1	2.4	2.85	2.85	3.15	2.85	3.15	3.0	3.0	2.55	2.4	2.4	2.25	1.7999999999999998	1.35	1.2	0.8999999999999999	0.75	0.3	0.15	0.0
Node 10		0.15	0.3	0.8999999999999999	0.8999999999999999	1.5	40.5	41.099999999999994	41.25	41.55	41.699999999999996	42.0	36.15	29.849999999999998	24.0	18.0	12.0	6.0	2.4	2.1	2.1	1.95	2.25	1.95	1.95	1.7999999999999998	1.95	36.0	30.15	23.400000000000002	19.950000000000003	39.6	38.25	34.5	28.349999999999998	24.6	19.8	16.05	13.65	10.8	8.1	6.3	3.75	2.55	2.1	2.1	2.25	2.25	2.55	2.55	58.199999999999996	53.400000000000006	48.0	42.0	36.9	31.05	26.55	21.0	17.549999999999997	12.75	9.45	6.3	4.95	4.5	4.35	4.05	3.75	3.15	2.7	2.4	2.1	28.499999999999996	21.6	14.7	9.15	2.25
Node 14		0.75	1.2	1.35	1.6500000000000001	2.1	2.4	2.7	3.15	3.5999999999999996	3.9	4.05	3.9	3.75	3.5999999999999996	3.45	3.15	3.0	2.85	2.85	15.75	50.1	63.14999999999999	56.699999999999996	50.55	46.2	41.85	36.15	30.15	23.25	18.3	13.200000000000001	7.8	6.15	3.9	3.15	2.7	2.7	3.0	3.0	3.15	3.0	2.55	2.7	3.15	3.0	2.85	11.85	11.85	14.549999999999999	13.65	12.45	11.4	10.35	9.15	8.1	6.9	5.4	4.5	3.75	3.15	2.85	2.85	3.0	3.0	2.7	2.25	2.1	1.7999999999999998	1.35	1.05	0.8999999999999999	0.75	0.6	0.3	0.0
Node 40		0.0	0.0	0.0	0.0	3.3000000000000003	41.55	45.45	46.5	46.650000000000006	46.650000000000006	46.650000000000006	40.2	33.15	26.55	20.549999999999997	13.950000000000001	7.35	2.4	1.05	0.15	0.0	0.0	0.0	0.0	0.0	0.0	0.0	0.0	0.0	0.0	0.0	0.0	0.0	0.0	0.0	0.0	0.0	0.0	0.0	0.0	0.0	0.0	0.0	0.0	0.0	0.0	2.7	2.7	2.4	2.1	1.7999999999999998	1.5	1.35	1.2	0.75	0.3	0.15	0.0	0.0	0.0	0.0	0.0	0.0	0.0	0.0	0.0	0.0	0.0	0.0	0.0	0.0	0.0	0.0	0.0	0.0
Node 22		0.6	0.8999999999999999	0.8999999999999999	1.2	1.35	1.5	1.95	2.1	2.25	5.1	5.8500000000000005	6.0	5.8500000000000005	5.55	5.7	5.7	6.0	6.0	5.4	12.3	69.45	69.45	67.5	72.15	69.75	64.8	69.6	63.449999999999996	56.10000000000001	63.449999999999996	60.75000000000001	59.4	53.55	49.2	44.1	38.1	32.7	27.450000000000003	22.2	16.950000000000003	12.6	8.7	6.6000000000000005	20.1	26.400000000000002	52.349999999999994	69.45	64.95	63.14999999999999	58.5	53.25	48.3	44.25	40.050000000000004	33.900000000000006	28.799999999999997	22.8	18.75	13.350000000000001	10.8	8.4	8.85	7.8	7.199999999999999	6.15	5.25	4.5	10.8	23.849999999999998	19.2	16.8	11.85	8.4	4.95	1.7999999999999998
Node 2		0.0	0.44999999999999996	0.6	0.75	1.2	39.300000000000004	39.75	40.050000000000004	40.35	40.5	40.5	34.65	28.65	22.95	17.25	11.85	6.15	3.45	3.0	37.8	68.7	68.4	62.25000000000001	77.55	72.45	66.9	62.25000000000001	55.50000000000001	47.85	60.9	58.8	52.800000000000004	46.650000000000006	40.65	36.0	29.099999999999998	24.3	18.9	14.7	10.5	7.5	4.2	2.1	28.199999999999996	31.2	27.450000000000003	26.700000000000003	40.949999999999996	61.650000000000006	61.5	55.2	50.1	48.6	43.95	37.65	32.1	26.25	21.75	16.650000000000002	12.9	9.0	6.15	4.05	2.7	1.6500000000000001	1.35	1.2	1.2	23.25	20.1	17.7	13.5	9.75	9.6	2.4
Node 31		0.75	0.8999999999999999	0.8999999999999999	1.05	1.95	41.699999999999996	43.95	46.800000000000004	47.4	48.0	48.3	42.449999999999996	35.85	29.4	23.7	17.849999999999998	11.85	6.45	4.35	3.3000000000000003	2.85	2.85	2.85	71.7	66.3	60.3	63.449999999999996	57.75	51.300000000000004	53.400000000000006	77.7	71.55	71.1	63.3	55.800000000000004	48.3	41.25	34.8	28.050000000000004	21.6	15.299999999999999	9.6	6.3	8.85	9.0	8.55	53.55	51.449999999999996	48.9	45.300000000000004	43.95	40.949999999999996	36.6	32.85	29.25	25.35	21.15	18.0	14.549999999999999	12.0	8.1	5.55	4.2	3.9	3.0	2.4	6.3	12.45	37.35	32.4	25.5	19.5	13.950000000000001	8.25	2.1
Node 8		0.44999999999999996	0.75	1.05	1.05	2.25	5.1	5.7	6.3	7.049999999999999	7.35	7.5	7.049999999999999	8.85	7.95	6.3	6.3	5.8500000000000005	5.8500000000000005	5.4	58.5	70.8	73.05	75.44999999999999	78.14999999999999	81.15	75.75	67.95	60.75000000000001	67.65	72.6	75.75	69.15	62.55	54.75	47.699999999999996	40.35	34.2	27.6	21.0	14.85	9.45	5.55	3.0	2.4	2.1	4.95	31.5	28.050000000000004	30.45	39.45	35.4	33.0	29.099999999999998	25.35	21.6	18.45	14.399999999999999	12.0	14.249999999999998	11.55	9.15	8.1	8.25	7.95	7.35	6.45	5.7	4.95	5.4	16.8	13.65	10.65	6.45	4.35	1.2
Node 17		0.8999999999999999	1.2	1.2	1.5	1.5	24.3	24.75	25.2	25.2	25.35	25.8	21.9	18.45	14.85	10.8	7.6499999999999995	3.3000000000000003	3.15	2.7	2.25	2.55	2.55	2.4	2.25	2.55	2.25	2.1	1.95	2.1	1.7999999999999998	1.95	2.1	1.7999999999999998	1.7999999999999998	2.1	2.1	1.95	1.95	2.1	2.25	2.1	2.1	2.25	2.25	2.7	2.7	5.1	5.1	4.5	4.5	4.2	3.9	3.9	3.9	3.45	3.0	2.55	2.1	2.1	2.1	2.55	2.25	2.55	2.25	1.95	1.6500000000000001	1.5	3.0	11.1	10.2	8.1	6.75	14.099999999999998	8.55	2.1
Node 33		0.75	1.05	1.05	1.05	1.35	37.8	44.25	45.15	45.45	45.45	45.6	39.45	32.7	26.400000000000002	21.15	15.15	9.0	4.2	3.0	2.1	5.55	52.65	69.15	91.05	89.85	85.35000000000001	88.05	83.1	81.15	88.35	88.2	83.55	76.05	67.95	60.150000000000006	51.74999999999999	44.4	37.05	29.4	22.35	15.75	9.3	3.9	2.4	15.9	49.95	66.75	70.05	75.75	69.89999999999999	67.65	63.14999999999999	61.050000000000004	53.849999999999994	46.2	39.0	31.95	26.1	19.5	14.85	9.45	6.45	3.75	2.55	2.4	2.25	1.95	1.7999999999999998	13.65	31.95	30.3	24.45	17.4	9.75	2.4
Node 25		0.0	0.3	0.3	0.75	1.05	39.6	39.6	39.75	40.050000000000004	40.5	40.8	35.55	29.4	24.0	18.9	12.6	6.6000000000000005	3.3000000000000003	3.3000000000000003	20.4	37.8	34.949999999999996	56.699999999999996	56.39999999999999	49.5	43.65	37.8	31.8	40.8	39.0	36.0	29.849999999999998	25.5	20.1	17.1	12.6	10.2	9.15	7.35	5.25	4.35	3.0	3.15	3.75	13.200000000000001	13.200000000000001	17.7	16.35	14.85	16.5	15.15	14.099999999999998	12.6	11.1	9.3	7.5	5.1	4.5	3.45	3.45	3.0	3.15	3.15	2.85	2.7	2.55	2.4	2.1	1.7999999999999998	1.35	1.05	0.75	15.75	11.1	2.85
Node 24		0.15	0.44999999999999996	0.75	1.2	10.95	40.65	43.05	43.05	43.2	43.2	43.35	37.35	30.9	24.45	19.05	12.9	6.9	2.7	2.1	2.25	2.4	43.05	66.75	63.449999999999996	55.800000000000004	49.95	42.75	36.6	29.549999999999997	23.400000000000002	18.15	12.75	9.75	6.3	4.65	3.0	3.45	3.15	3.45	3.5999999999999996	3.75	3.9	4.05	6.0	13.350000000000001	11.700000000000001	10.35	12.15	10.2	9.3	7.8	6.75	5.7	4.65	3.45	3.0	2.4	1.7999999999999998	1.6500000000000001	1.6500000000000001	1.7999999999999998	1.7999999999999998	1.95	1.95	1.7999999999999998	1.5	1.35	1.05	0.8999999999999999	1.5	10.35	13.65	9.0	10.05	2.4
Node 11		0.75	1.05	1.2	1.2	1.35	1.35	1.5	1.6500000000000001	2.25	2.85	3.45	2.85	3.0	2.85	2.85	3.15	3.15	3.3000000000000003	3.3000000000000003	3.0	2.85	2.55	2.1	2.25	2.4	2.55	2.7	2.85	3.3000000000000003	3.15	3.3000000000000003	3.45	3.5999999999999996	3.45	3.3000000000000003	3.45	3.3000000000000003	3.15	3.45	3.0	2.7	2.85	2.85	2.85	2.7	2.55	2.85	2.7	2.7	2.7	2.4	2.7	2.55	2.55	2.25	2.25	1.95	2.1	1.95	2.1	1.95	2.25	2.1	1.95	1.7999999999999998	1.6500000000000001	1.6500000000000001	1.5	4.2	4.05	3.15	2.4	1.5	0.8999999999999999	0.3
Node 39		0.15	0.6	0.8999999999999999	1.6500000000000001	2.85	39.45	40.65	40.8	40.8	41.55	41.85	36.3	30.3	24.75	19.35	13.65	7.6499999999999995	4.35	3.3000000000000003	63.14999999999999	67.80000000000001	67.05	61.050000000000004	71.25	64.5	65.4	58.8	51.9	44.55	52.65	46.800000000000004	41.699999999999996	36.6	30.599999999999998	26.55	21.75	17.4	13.950000000000001	10.2	6.75	4.5	3.15	3.15	8.25	11.25	13.200000000000001	22.8	21.0	19.2	22.05	20.549999999999997	18.9	16.5	14.549999999999999	12.6	10.35	6.9	5.8500000000000005	4.95	4.35	3.15	2.55	2.25	2.1	2.1	1.7999999999999998	1.6500000000000001	1.35	25.2	22.5	19.5	13.950000000000001	14.7	10.8	2.85
Node 13		0.3	0.3	0.44999999999999996	0.8999999999999999	2.85	26.700000000000003	27.0	27.0	27.3	27.450000000000003	27.6	23.549999999999997	19.35	14.7	10.2	6.45	2.1	2.1	2.1	2.25	22.650000000000002	50.4	56.85	54.6	63.449999999999996	63.9	62.1	55.05	48.6	49.35	45.0	39.45	34.5	28.349999999999998	24.45	19.5	15.45	12.45	9.3	6.75	5.55	3.75	2.4	12.45	15.75	15.9	19.5	17.849999999999998	15.9	14.85	13.200000000000001	11.55	10.05	8.7	7.049999999999999	5.7	4.2	3.5999999999999996	3.15	2.7	2.85	2.85	2.85	2.55	2.4	2.1	1.7999999999999998	1.6500000000000001	3.0	1.95	1.7999999999999998	1.5	0.75	0.15	0.0
Node 20		0.6	0.75	0.8999999999999999	1.05	1.2	39.300000000000004	42.9	42.9	43.5	43.95	44.1	37.8	30.75	31.8	25.8	19.950000000000003	14.099999999999998	8.7	5.8500000000000005	5.4	4.65	3.9	3.45	3.15	3.15	3.3000000000000003	2.7	2.4	2.55	2.1	2.1	1.95	1.95	1.7999999999999998	2.1	48.6	42.75	35.55	29.549999999999997	22.8	17.4	11.55	7.6499999999999995	5.4	21.6	26.85	30.3	31.5	30.3	35.55	34.2	31.65	28.499999999999996	25.5	22.35	19.950000000000003	16.35	14.249999999999998	11.85	9.75	6.9	5.4	4.2	3.75	3.45	3.15	2.85	2.55	34.2	30.75	25.95	20.549999999999997	14.099999999999998	9.15	2.25
