NrofTotalCopy/Contact
64000 1523
42500 1331
21000 1255
85000 1597
63500 1521
42000 1331
106000 1890
20500 1006
84500 1595
63000 1521
41500 1331
105500 1885
20000 814
84000 1595
62500 1521
41000 1331
105000 1885
19500 694
83500 1595
62000 1492
40500 1331
104500 1885
19000 694
83000 1595
61500 1476
40000 1331
104000 1885
18500 694
82500 1595
61000 1476
39500 1331
103500 1885
18000 694
82000 1595
60500 1465
39000 1331
103000 1885
17500 694
81500 1595
60000 1465
38500 1331
102500 1885
17000 642
81000 1595
59500 1465
38000 1331
102000 1853
16500 600
80500 1595
59000 1460
37500 1331
101500 1844
16000 600
80000 1584
58500 1418
37000 1331
101000 1818
15500 600
79500 1584
58000 1392
36500 1331
100500 1765
15000 600
79000 1584
57500 1392
36000 1331
100000 1765
14500 565
78500 1584
57000 1392
35500 1327
99500 1765
14000 565
78000 1584
56500 1392
35000 1327
99000 1765
13500 565
77500 1584
56000 1392
34500 1327
98500 1742
13000 565
77000 1584
55500 1392
34000 1327
98000 1742
12500 545
76500 1584
55000 1392
33500 1327
97500 1742
12000 544
76000 1581
54500 1387
33000 1321
97000 1730
11500 544
75500 1570
54000 1387
32500 1312
96500 1729
11000 544
75000 1570
53500 1386
32000 1311
96000 1729
10500 515
74500 1570
53000 1382
31500 1311
95500 1729
10000 310
74000 1568
52500 1376
31000 1311
95000 1710
9500 256
73500 1568
52000 1376
30500 1311
94500 1709
9000 249
73000 1568
51500 1374
30000 1311
94000 1709
8500 209
72500 1555
51000 1374
29500 1297
93500 1644
8000 151
72000 1548
50500 1374
29000 1279
93000 1621
7500 135
71500 1548
50000 1374
28500 1278
92500 1621
7000 64
71000 1548
49500 1374
28000 1278
92000 1621
6500 31
70500 1548
49000 1374
27500 1278
91500 1621
6000 10
70000 1548
48500 1374
27000 1277
91000 1614
5500 6
69500 1548
48000 1374
26500 1255
90500 1614
5000 4
69000 1547
47500 1374
26000 1255
90000 1614
4500 4
68500 1547
47000 1374
25500 1255
89500 1614
4000 4
68000 1547
46500 1374
25000 1255
89000 1614
3500 4
67500 1547
46000 1374
24500 1255
88500 1614
3000 0
67000 1529
45500 1367
24000 1255
88000 1614
2500 0
66500 1529
45000 1367
23500 1255
87500 1614
2000 0
66000 1529
44500 1367
23000 1255
87000 1598
1500 0
65500 1529
44000 1367
22500 1255
86500 1597
1000 0
65000 1529
43500 1358
22000 1255
86000 1597
500 0
64500 1523
43000 1342
21500 1255
85500 1597

