Message stats for scenario DfSassy_1
sim_time: 6826000.0000
created: 10377
started: 51992
relayed: 2949
aborted: 49043
dropped: 12267
removed: 0
delivered: 1059
delivery_prob: 0.1021
response_prob: 0.0000
overhead_ratio: 1.7847
latency_avg: 219666.9462
latency_med: 182048.0000
hopcount_avg: 1.3409
hopcount_med: 1
buffertime_avg: 579820.3946
buffertime_med: 604765.0000
rtt_avg: NaN
rtt_med: NaN
TotalCopy: 1890
