NrofDelivered/Contact
64000 793
42500 581
21000 478
85000 816
63500 793
42000 578
106000 1059
20500 419
84500 812
63000 793
41500 574
105500 1048
20000 349
84000 812
62500 789
41000 569
105000 1047
19500 324
83500 812
62000 781
40500 569
104500 1040
19000 323
83000 812
61500 775
40000 569
104000 1040
18500 321
82500 812
61000 767
39500 569
103500 1040
18000 319
82000 812
60500 758
39000 569
103000 1031
17500 307
81500 810
60000 752
38500 569
102500 1030
17000 277
81000 809
59500 745
38000 569
102000 996
16500 258
80500 809
59000 731
37500 569
101500 984
16000 257
80000 809
58500 703
37000 564
101000 966
15500 257
79500 809
58000 693
36500 562
100500 952
15000 257
79000 809
57500 685
36000 552
100000 952
14500 247
78500 809
57000 684
35500 536
99500 952
14000 247
78000 809
56500 682
35000 535
99000 952
13500 247
77500 809
56000 679
34500 535
98500 947
13000 247
77000 809
55500 679
34000 535
98000 947
12500 224
76500 809
55000 678
33500 529
97500 947
12000 214
76000 807
54500 674
33000 526
97000 936
11500 214
75500 806
54000 674
32500 520
96500 936
11000 214
75000 806
53500 673
32000 520
96000 936
10500 194
74500 806
53000 663
31500 514
95500 936
10000 132
74000 803
52500 654
31000 514
95000 926
9500 111
73500 803
52000 651
30500 514
94500 918
9000 100
73000 803
51500 651
30000 514
94000 918
8500 83
72500 801
51000 651
29500 508
93500 894
8000 70
72000 801
50500 650
29000 497
93000 884
7500 59
71500 801
50000 644
28500 496
92500 878
7000 29
71000 801
49500 643
28000 496
92000 867
6500 9
70500 801
49000 639
27500 489
91500 867
6000 3
70000 801
48500 639
27000 487
91000 862
5500 1
69500 801
48000 639
26500 482
90500 858
5000 1
69000 800
47500 632
26000 479
90000 858
4500 1
68500 800
47000 632
25500 478
89500 854
4000 1
68000 800
46500 632
25000 478
89000 854
3500 1
67500 800
46000 626
24500 478
88500 848
3000 1
67000 797
45500 621
24000 478
88000 848
2500 1
66500 797
45000 596
23500 478
87500 845
2000 1
66000 797
44500 596
23000 478
87000 828
1500 1
65500 797
44000 596
22500 478
86500 822
1000 1
65000 797
43500 590
22000 478
86000 822
500 1
64500 794
43000 584
21500 478
85500 816

