NrofDelivered/Time = 
639000 130
2719800 795
4800600 966
3924000 958
6004800 1047
1843200 583
3522600 902
5603400 999
1441800 435
1040400 204
3121200 829
5202000 974
237600 29
1278000 419
4399200 965
5439600 995
1679400 508
5841000 1019
5038200 969
876600 162
3686400 932
3285000 843
2883600 807
2482200 780
6643800 1059
2080800 626
6242400 1059
3596400 918
5128200 974
6168600 1059
475200 74
1515600 461
2556000 784
2154600 673
3195000 831
73800 9
1114200 226
5529600 996
1917000 588
3997800 958
6807600 1059
4726800 966
6406200 1059
4325400 965
2318400 737
3358800 848
712800 145
1753200 524
311400 43
1351800 429
3760200 952
6570000 1059
2957400 809
5767200 1017
5365800 985
4964400 969
4563000 966
4161600 962
549000 95
1589400 496
2629800 788
3670200 932
6152400 1059
950400 182
1990800 592
3031200 816
4071600 958
5112000 969
4710600 966
5751000 1016
6791400 1059
4309200 965
6390000 1059
147600 26
2228400 703
1827000 574
4948200 969
5988600 1047
786600 158
2793600 803
3834000 955
2392200 762
3432600 899
6553800 1059
5349600 974
1188000 263
385200 51
4546800 966
4636800 966
5677200 1006
6717600 1059
1024200 204
2064600 596
3105000 828
4145400 962
4235400 965
5275800 974
6316200 1059
6078600 1056
1425600 430
3506400 899
622800 128
2703600 794
221400 29
2302200 735
6480000 1059
2867400 807
3907800 958
4874400 966
5914800 1040
4473000 965
5513400 996
3268800 843
2466000 779
1663200 508
1261800 417
860400 159
459000 70
57600 8
1098000 224
2138400 664
3178800 829
4219200 965
5259600 974
6300000 1059
696600 137
2777400 801
4858200 966
3981600 958
6062400 1053
1900800 587
1499400 455
3580200 917
5661000 999
5497200 996
295200 41
1335600 427
4456800 965
1737000 520
5898600 1040
5095800 969
934200 164
3744000 952
3342600 848
2941200 809
2539800 783
6701400 1059
2613600 788
3654000 932
5185800 974
6226200 1059
532800 82
1573200 496
1171800 261
2212200 702
3252600 837
131400 23
4055400 958
5587200 999
1974600 590
4784400 966
4383000 965
6463800 1059
2376000 762
3416400 898
770400 151
1810800 569
369000 48
1409400 430
3817800 955
6627600 1059
3015000 811
5824800 1019
5423400 995
5022000 969
4620600 966
3727800 952
4768200 966
5808600 1019
606600 102
1647000 508
2687400 793
5169600 974
6210000 1059
1008000 202
2048400 596
3088800 828
4129200 962
2286000 728
4366800 965
6447600 1059
205200 29
844200 159
1884600 584
5005800 969
6046200 1053
2851200 806
3891600 957
6611400 1059
2449800 779
3490200 899
5407200 993
1245600 408
442800 70
4604400 966
41400 7
4203000 965
4694400 966
5734800 1016
6775200 1059
4293000 965
5333400 974
6373800 1059
6136200 1059
1483200 451
3564000 917
1081800 224
3162600 829
680400 134
2761200 797
279000 32
2359800 758
6537600 1059
2925000 808
3965400 958
4932000 969
5972400 1040
4530600 966
5571000 999
3326400 845
2523600 783
2122200 661
1720800 514
1319400 425
918000 163
516600 82
115200 13
1155600 252
2196000 693
3236400 837
4276800 965
5317200 974
6357600 1059
754200 148
2835000 805
4915800 969
1958400 590
4039200 958
6120000 1059
1557000 478
3637800 926
5718600 1016
4514400 966
5554800 996
352800 48
1393200 430
5956200 1040
1794600 528
5153400 974
991800 197
3801600 954
3400200 893
2998800 811
2597400 787
6759000 1059
6283800 1059
1630800 507
2671200 793
3711600 936
590400 100
189000 29
1229400 408
2269800 714
3310200 845
4113000 962
5644800 999
2032200 596
5243400 974
4842000 966
4440600 965
6521400 1059
2433600 776
3474000 899
828000 159
1868400 584
426600 70
1467000 443
25200 3
3875400 957
3072600 827
6685200 1059
5882400 1025
5481000 996
5079600 969
4678200 966
2745000 795
3785400 954
4825800 966
5866200 1019
664200 134
1704600 511
4186800 964
5227200 974
6267600 1059
1065600 210
3146400 829
2343600 752
4424400 965
6505200 1059
262800 32
901800 163
1942200 590
5063400 969
6103800 1057
2908800 807
3949200 958
6669000 1059
2507400 782
3547800 904
2106000 659
1303200 425
5464800 996
500400 74
4662000 966
99000 13
4260600 965
4752000 966
5792400 1019
4350600 965
5391000 991
6431400 1059
6193800 1059
1540800 461
3621600 926
1139400 247
3220200 837
738000 145
2818800 803
2417400 764
336600 48
6595200 1059
2982600 810
4023000 958
4989600 969
6030000 1047
5628600 999
4588200 966
574200 100
3384000 867
2581200 787
2179800 693
1778400 528
1377000 429
975600 197
6415200 1059
172800 29
1213200 324
2253600 710
3294000 845
4334400 965
5374800 989
1614600 497
3695400 936
5776200 1017
4973400 969
811800 158
2892600 807
2016000 593
4096800 962
6177600 1059
4572000 966
5612400 999
410400 57
1450800 442
9000 1
1049400 206
2655000 789
6816600 1059
6013800 1047
1852200 584
5211000 974
3859200 957
3457800 899
3056400 826
648000 132
1688400 510
2728800 795
3769200 954
246600 32
1287000 423
2327400 738
3367800 848
2089800 651
4170600 962
5702400 1010
5301000 974
4899600 966
4498200 966
6579000 1059
3531600 902
2491200 781
885600 162
1926000 589
484200 74
1524600 461
4735800 966
82800 9
3933000 958
6742800 1059
3130200 829
6341400 1059
5940000 1040
5538600 996
5137200 974
2802600 803
1762200 526
3843000 956
4883400 966
5923800 1040
721800 145
3204000 831
5284800 974
1123200 243
320400 45
2401200 763
4482000 965
6562800 1059
959400 189
1999800 592
5121000 974
6161400 1059
2966400 810
4006800 958
6726600 1059
2565000 785
3605400 918
6325200 1059
2163600 674
1360800 429
5522400 996
558000 95
4719600 966
4318200 965
156600 26
4809600 966
5850000 1019
4408200 965
5448600 996
6489000 1059
6251400 1059
1598400 496
3679200 932
1197000 264
3277800 843
2876400 807
795600 158
2475000 780
394200 54
6652800 1059
3040200 822
4080600 958
6087600 1056
5047200 969
4645800 966
5686200 1006
4244400 965
631800 129
3441600 899
2638800 789
2237400 706
1836000 582
1434600 435
1033200 204
5432400 995
6472800 1059
230400 29
1270800 419
2311200 737
3351600 848
4392000 965
1672200 508
3753000 952
5833800 1019
5031000 969
869400 159
2950200 809
2073600 596
4154400 962
6235200 1059
4629600 966
5670000 999
468000 72
1508400 461
1107000 226
4228200 965
5268600 974
66600 8
2712600 795
6071400 1053
1909800 588
3916800 958
3515400 899
3114000 828
705600 142
1746000 524
2786400 803
3826800 955
304200 41
1344600 429
2385000 762
3425400 899
5760000 1016
5358600 974
4957200 969
4555800 966
6636600 1059
541800 94
1582200 496
2548800 784
3589200 918
2147400 673
3187800 831
943200 174
1983600 592
4793400 966
140400 26
3990600 958
6800400 1059
6399000 1059
5997600 1047
5596200 999
5194800 974
1819800 569
779400 152
2860200 806
3900600 957
4941000 969
5981400 1040
3261600 839
5342400 974
1180800 263
378000 51
2458800 779
4539600 966
6620400 1059
2622600 788
6219000 1059
1017000 204
2057400 596
5178600 974
3024000 812
4064400 958
3663000 932
6784200 1059
2221200 703
6382800 1059
1418400 430
5580000 999
4777200 966
615600 128
4375800 965
214200 29
4867200 966
5907600 1040
6546600 1059
4465800 965
5506200 996
1656000 508
3736800 952
3335400 848
1254600 409
2934000 809
853200 159
451800 70
2532600 783
50400 8
1090800 224
6710400 1059
3097800 828
4138200 962
6309000 1059
5104800 969
6145200 1059
4703400 966
5743800 1016
4302000 965
689400 134
3499200 899
2696400 794
2295000 731
1893600 587
1492200 454
4449600 965
5490000 996
6530400 1059
288000 32
1328400 427
2368800 759
3409200 894
5891400 1040
1729800 514
3810600 954
3007800 811
5088600 969
927000 163
2131200 663
3171600 829
6292800 1059
1566000 489
4687200 966
5727600 1016
525600 82
124200 18
1164600 258
4285800 965
5326200 974
2770200 801
6129000 1059
1967400 590
3974400 958
3573000 917
763200 151
1803600 552
2844000 806
3884400 957
361800 48
1402200 430
2442600 779
3483000 899
5817600 1019
5416200 995
5014800 969
4613400 966
6694200 1059
4212000 965
5252400 974
599400 100
1639800 508
2606400 788
3646800 932
2205000 694
3245400 837
1000800 197
2041200 596
4851000 966
198000 29
4048200 958
6456600 1059
6055200 1053
5653800 999
1877400 584
837000 159
2917800 807
3958200 958
4998600 969
6039000 1047
1238400 408
3319200 845
5400000 991
6678000 1059
435600 70
2516400 783
4597200 966
34200 3
2115000 660
4195800 964
2680200 793
3720600 947
5236200 974
6276600 1059
4122000 962
3081600 828
2278800 727
6440400 1059
1476000 449
5637600 999
1074600 222
4834800 966
673200 134
4433400 965
271800 32
4924800 969
5965200 1040
5563800 996
6604200 1059
4523400 966
3794400 954
1713600 512
3393000 892
1312200 425
910800 163
2991600 810
509400 78
2590200 787
4761000 966
5801400 1019
108000 13
1148400 250
6768000 1059
6366600 1059
5162400 974
6202800 1059
4359600 965
747000 145
3556800 917
3155400 829
2754000 797
2352600 755
1951200 590
1549800 461
3466800 899
4507200 966
5547600 996
6588000 1059
345600 48
1386000 430
2426400 764
5949000 1040
1787400 528
3868200 957
3065400 826
5146200 974
984600 197
6350400 1059
2188800 693
3229200 837
583200 100
1623600 506
4744800 966
5785200 1017
181800 29
1222200 408
4343400 965
5383800 991
2827800 803
2025000 593
6186600 1059
4032000 958
3630600 926
820800 158
1861200 584
2901600 807
3942000 958
419400 62
1459800 442
2500200 781
3540600 904
18000 2
2098800 651
5875200 1019
5473800 996
5072400 969
4671000 966
6751800 1059
1697400 511
4269600 965
5310000 974
657000 134
2664000 789
3704400 936
2262600 713
3303000 845
1058400 210
4908600 969
255600 32
4105800 962
6514200 1059
6112800 1058
5711400 1016
1935000 590
894600 162
2975400 810
4015800 958
5056200 969
6096600 1057
1296000 423
3376800 863
5457600 996
6735600 1059
493200 74
2574000 786
4654800 966
4253400 965
6334200 1059
91800 13
2172600 678
2737800 795
3778200 954
3139200 829
4179600 964
2336400 743
6498000 1059
5695200 1010
1533600 461
5293800 974
1132200 247
4892400 966
730800 145
4491000 966
329400 46
6022800 1047
4982400 969
4581000 966
5621400 999
6661800 1059
567000 95
2647800 789
3852000 956
1771200 528
1369800 429
3450600 899
968400 197
3049200 825
4818600 966
5859000 1019
165600 26
1206000 284
6825600 1059
6424200 1059
5220000 974
6260400 1059
1607400 497
4417200 965
804600 158
3614400 918
3213000 837
2811600 803
2410200 763
2008800 593
2484000 780
3524400 902
4564800 966
5605200 999
6645600 1059
403200 55
1443600 435
1800 1
3925800 958
6006600 1047
1845000 584
1042200 204
3123000 829
5203800 974
6408000 1059
2246400 707
3286800 843
640800 130
1681200 508
4802400 966
5842800 1019
239400 29
1279800 419
4401000 965
5441400 996
3688200 932
2885400 807
2082600 626
6244200 1059
4089600 958
878400 162
1918800 588
2959200 809
3999600 958
3598200 918
477000 74
1517400 461
2557800 784
2156400 674
4728600 966
75600 9
5932800 1040
5531400 996
5130000 974
6809400 1059
5367600 985
714600 145
1755000 524
4327200 965
2721600 795
3762000 952
2320200 737
3360600 848
5769000 1017
1116000 228
4966200 969
313200 45
4163400 962
6571800 1059
6170400 1059
6154200 1059
1992600 592
952200 182
3033000 816
4073400 958
5113800 969
1353600 429
3434400 899
5515200 996
4712400 966
6793200 1059
550800 95
2631600 788
4311000 965
6391800 1059
149400 26
2230200 703
2795400 803
3835800 955
3196800 831
2394000 762
6555600 1059
5752800 1016
1591200 496
5351400 974
1189800 263
4950000 969
788400 158
387000 51
4548600 966
5040000 969
6080400 1056
4638600 966
5679000 1006
6719400 1059
4237200 965
6318000 1059
624600 128
2705400 794
1828800 576
3909600 958
1427400 430
3508200 899
1026000 204
3106800 828
4876200 966
5916600 1040
223200 29
1263600 417
6481800 1059
5277600 974
1665000 508
4474800 965
862200 159
3672000 932
3270600 843
2869200 807
2467800 779
2066400 596
2541600 783
1501200 455
3582000 917
4622400 966
5662800 999
6703200 1059
460800 70
59400 8
1099800 224
2140200 664
3180600 829
4221000 965
5261400 974
6301800 1059
3983400 958
6064200 1053
1902600 588
6465600 1059
2304000 735
3344400 848
698400 142
1738800 520
4860000 966
5900400 1040
5499000 996
297000 41
1337400 427
4458600 965
3745800 952
2943000 809
4147200 962
534600 82
1575000 496
4057200 958
936000 174
1976400 590
3016800 811
2615400 788
3655800 932
2214000 703
4786200 966
133200 24
5990400 1047
5589000 999
5187600 974
4384800 965
5425200 995
772200 151
1812600 569
2779200 801
3819600 955
2377800 762
3418200 898
5826600 1019
1173600 261
5023800 969
370800 48
6629400 1059
6228000 1059
5171400 974
6211800 1059
1009800 202
2050200 596
3090600 828
4131000 962
1411200 430
3492000 899
5572800 999
4770000 966
608400 111
2689200 793
2287800 731
4368600 965
6449400 1059
207000 29
2853000 806
3893400 957
3254400 837
6613200 1059
2451600 779
5810400 1019
1648800 508
5409000 993
1247400 409
846000 159
5007600 969
444600 70
4606200 966
43200 7
1083600 224
2124000 662
3164400 829
5097600 969
6138000 1059
4696200 966
5736600 1016
6777000 1059
4294800 965
6375600 1059
682200 134
2763000 797
1886400 585
3967200 958
1485000 451
3565800 917
4933800 969
5974200 1040
280800 32
1321200 425
6539400 1059
5335200 974
1722600 514
4532400 966
919800 163
3729600 952
3328200 845
2926800 808
2525400 783
518400 82
1558800 478
2599200 787
3639600 926
4680000 966
5720400 1016
6760800 1059
117000 13
1157400 257
2197800 693
3238200 837
4278600 965
5319000 974
6359400 1059
1960200 590
4041000 958
6121800 1059
3402000 893
6523200 1059
2361600 758
5958000 1040
756000 148
1796400 528
4917600 969
4516200 966
5556600 996
354600 48
1395000 430
3803400 954
3000600 811
2673000 793
1632600 507
3713400 936
4204800 965
5245200 974
592200 100
3074400 827
4114800 962
993600 197
2034000 596
4843800 966
190800 29
2271600 724
6048000 1053
5646600 999
4442400 965
5482800 996
829800 159
1870200 584
2836800 805
3877200 957
2435400 778
3475800 899
5884200 1025
1231200 408
5081400 969
428400 70
27000 3
6687000 1059
6285600 1059
4188600 964
5229000 974
6269400 1059
5630400 999
1468800 443
3549600 907
1067400 214
3148200 829
2746800 795
4827600 966
666000 134
2345400 753
4426200 965
6507000 1059
264600 32
2910600 807
3951000 958
3312000 845
6670800 1059
2509200 782
2107800 659
5868000 1019
1706400 511
1305000 425
5466600 996
903600 163
5065200 969
502200 78
4663800 966
4753800 966
5794200 1019
100800 13
1141200 247
2181600 693
3222000 837
5155200 974
6195600 1059
4352400 965
6433200 1059
739800 145
2820600 803
1944000 590
4024800 958
1542600 461
3623400 926
4991400 969
6031800 1047
338400 48
1378800 429
6597000 1059
5392800 991
1780200 528
977400 197
4590000 966
3787200 954
3385800 883
2984400 810
2583000 787
576000 100
1616400 497
2656800 789
3697200 936
4737600 966
5778000 1017
6818400 1059
6417000 1059
174600 29
1215000 361
2255400 711
3295800 845
4336200 965
5376600 991
2017800 593
4098600 962
6179400 1059
2419200 764
3459600 899
6580800 1059
4975200 969
6015600 1047
813600 158
1854000 584
4573800 966
5614200 999
412200 57
1452600 442
10800 1
3861000 957
3058200 826
5302800 974
6343200 1059
1690200 510
649800 132
2730600 795
3771000 954
4262400 965
2091600 651
3132000 829
4172400 962
1051200 206
4901400 966
248400 32
2329200 738
6105600 1057
5704200 1010
4500000 966
5540400 996
887400 162
1927800 589
2894400 807
3934800 958
3533400 902
2493000 781
5941800 1040
1288800 423
5139000 974
486000 74
84600 9
6744600 1059
5688000 1006
1526400 461
3607200 918
3205800 831
5286600 974
1125000 245
2804400 803
4885200 966
723600 145
322200 45
2403000 763
4483800 965
6564600 1059
2968200 810
4008600 958
559800 95
4721400 966
3369600 848
6728400 1059
2566800 785
6327000 1059
2165400 674
1764000 526
5925600 1040
1362600 429
5524200 996
961200 194
5122800 974
4811400 966
5851800 1019
158400 26
1198800 265
2239200 707
3279600 843
5212800 974
6253200 1059
1600200 496
3681000 932
2878200 807
4410000 965
6490800 1059
797400 158
2001600 592
4082400 958
6089400 1056
1436400 435
5049000 969
396000 54
6654600 1059
2640600 789
5450400 996
1837800 582
4647600 966
1035000 204
4246200 965
3844800 956
3443400 899
3042000 822
633600 129
1674000 508
2714400 795
3754800 952
4795200 966
5835600 1019
5434200 995
6474600 1059
232200 29
1272600 419
2313000 737
3353400 848
4393800 965
2075400 596
4156200 962
6237000 1059
2476800 780
3517200 899
6638400 1059
5032800 969
6073200 1053
871200 161
1911600 588
4631400 966
5671800 999
469800 72
1510200 461
4230000 965
68400 8
3918600 958
3115800 828
4320000 965
5360400 974
6400800 1059
707400 142
1747800 524
2788200 803
3828600 955
1108800 226
3189600 831
4959000 969
306000 41
2386800 762
6163200 1059
5761800 1016
4557600 966
5598000 999
945000 174
1985400 592
3992400 958
2952000 809
2550600 784
3591000 918
2149200 673
5999400 1047
1346400 429
5196600 974
543600 94
142200 26
6802200 1059
3664800 932
5745600 1016
1584000 496
3263400 843
5344200 974
1182600 263
781200 152
2862000 806
4942800 969
379800 51
2460600 779
4541400 966
6622200 1059
3025800 816
4066200 958
4779000 966
617400 128
3427200 899
6786000 1059
2624400 788
2223000 703
6384600 1059
1821600 569
5983200 1040
1420200 430
5581800 999
1018800 204
5180400 974
3337200 848
4869000 966
5909400 1040
216000 29
1256400 409
2296800 732
5270400 974
1657800 508
3738600 952
6548400 1059
2935800 809
4467600 965
855000 159
2059200 596
4140000 962
5106600 969
6147000 1059
453600 70
1494000 454
52200 8
1092600 224
6712200 1059
6310800 1059
2698200 794
1895400 587
5508000 996
4705200 966
4303800 965
3902400 957
3501000 899
3099600 828
5893200 1040
691200 134
1731600 514
2772000 801
3812400 955
4852800 966
4451400 965
5491800 996
6532200 1059
289800 32
1330200 427
2370600 762
3411000 895
527400 82
2534400 783
3574800 917
6696000 1059
2133000 663
3173400 829
6294600 1059
5090400 969
6130800 1059
928800 163
1969200 590
1567800 496
4689000 966
5729400 1016
126000 18
4287600 965
3976200 958
4377600 965
5418000 995
6458400 1059
765000 151
1805400 564
2845800 806
3886200 957
5819400 1019
1166400 260
3247200 837
5016600 969
363600 48
2444400 779
6220800 1059
4615200 966
5655600 999
1002600 202
2043000 596
4213800 965
5254200 974
3009600 811
4050000 958
2608200 788
3648600 932
2206800 694
6057000 1053
1404000 430
601200 100
199800 29
3722400 952
5803200 1019
1641600 508
1240200 408
3321000 845
5401800 991
838800 159
2919600 807
5000400 969
6679800 1059
437400 70
2518200 783
4599000 966
36000 5
1076400 224
4197600 964
4123800 962
3083400 828
4836600 966
675000 134
3484800 899
2682000 793
2280600 727
6442200 1059
1879200 584
6040800 1047
1477800 451
5639400 999
5238000 974
2354400 755
3394800 892
4926600 969
5967000 1040
273600 32
1314000 425
3796200 954
5328000 974
1715400 513
6606000 1059
912600 163
2993400 810
4525200 966
2116800 660
3157200 829
5164200 974
6204600 1059
511200 82
1551600 461
109800 13
1150200 250
6769800 1059
6368400 1059
2755800 797
5565600 996
1953000 590
4762800 966
4361400 965
3960000 958
3558600 917
4910400 969
5950800 1040
748800 145
1789200 528
2829600 805
3870000 957
3468600 899
4509000 966
5549400 996
6589800 1059
347400 48
1387800 430
2428200 764
585000 100
1625400 506
4746600 966
5787000 1017
2592000 787
3632400 926
6753600 1059
6352200 1059
2190600 693
3231000 837
2026800 594
5148000 974
6188400 1059
986400 197
183600 29
4345200 965
4033800 958
4435200 965
5475600 996
6516000 1059
822600 159
1863000 584
2903400 807
3943800 958
5877000 1019
1224000 408
3304800 845
5074200 969
421200 62
2502000 781
19800 2
2100600 654
6278400 1059
2665800 789
3706200 936
4672800 966
5713200 1016
4271400 965
5311800 974
3067200 827
4107600 962
2264400 713
6114600 1058
1461600 442
1060200 210
658800 134
257400 32
1699200 511
3780000 954
5860800 1019
1297800 425
3378600 863
5459400 996
896400 162
2977200 810
5058000 969
6737400 1059
495000 74
2575800 787
4656600 966
4255200 965
5295600 974
93600 13
1134000 247
3141000 829
4181400 964
4894200 966
732600 145
3542400 904
2739600 795
2338200 743
6499800 1059
1936800 590
6098400 1057
5697000 1010
1535400 461
6024600 1047
2412000 764
1371600 429
3452400 899
4984200 969
331200 48
3853800 957
5385600 991
1773000 528
4582800 966
6663600 1059
970200 197
3051000 825
2174400 678
3214800 837
5221800 974
6262200 1059
568800 95
1609200 497
167400 28
1207800 284
2813400 803
6426000 1059
5623200 999
2010600 593
4820400 966
4419000 965
4017600 958
3616200 918
3927600 958
4968000 969
6008400 1047
806400 158
1846800 584
2887200 807
2485800 780
3526200 902
4566600 966
5607000 999
6647400 1059
405000 55
1445400 435
3600 1
642600 132
1683000 508
4804200 966
5844600 1019
6811200 1059
2649600 789
3690000 932
6409800 1059
2248200 707
3288600 845
1044000 206
2084400 632
5205600 974
6246000 1059
241200 30
4402800 965
4091400 958
4492800 966
5533200 996
6573600 1059
880200 162
1920600 588
2961000 810
4001400 958
5934600 1040
1281600 419
3362400 848
5131800 974
478800 74
2559600 784
2158200 674
77400 9
6336000 1059
2723400 795
3763800 954
4730400 966
5770800 1017
5369400 988
4329000 965
3124800 829
4165200 962
2322000 737
6172200 1059
1519200 461
1117800 228
716400 145
315000 45
552600 95
2633400 789
1756800 524
3837600 955
5918400 1040
1355400 429
3436200 899
5517000 996
954000 182
3034800 816
5115600 969
4714200 966
6795000 1059
4312800 965
5353200 974
151200 26
1191600 263
1593000 496
4951800 969
790200 158
3600000 918
3198600 831
2797200 803
2395800 762
6557400 1059
6156000 1059
1994400 592
5754600 1016
5041800 969
6082200 1056
388800 52
1429200 430
2469600 779
3510000 899
1830600 578
3911400 958
5443200 996
4640400 966
6721200 1059
1027800 204
3108600 828
4239000 965
6319800 1059
3272400 843
2232000 703
626400 128
1666800 508
225000 29
1265400 417
3673800 932
6483600 1059
2871000 807
5680800 1006
2068200 596
5279400 974
4878000 966
4476600 965
4075200 958
2944800 809
3985200 958
5025600 969
6066000 1053
864000 159
1904400 588
1503000 455
2543400 783
3583800 917
4624200 966
5664600 999
6705000 1059
462600 70
61200 8
2142000 664
4222800 965
6303600 1059
700200 142
1740600 520
4861800 966
5902200 1040
2707200 794
3747600 952
6467400 1059
2305800 736
3346200 848
1101600 224
5263200 974
298800 41
4460400 965
4149000 962
4059000 958
4550400 966
5590800 999
6631200 1059
937800 174
1978200 592
3018600 812
5992200 1047
1339200 427
3420000 898
2617200 788
5189400 974
536400 94
2215800 703
135000 24
6393600 1059
2781000 802
3821400 955
5828400 1019
4788000 966
4386600 965
5427000 995
3182400 829
2379600 762
6229800 1059
1576800 496
1175400 261
774000 152
372600 48
4771800 966
610200 116
2691000 793
1814400 569
3895200 957
5976000 1040
1413000 430
3493800 899
5574600 999
5173200 974
1011600 202
3092400 828
4370400 965
5410800 995
208800 29
1249200 409
5812200 1019
1650600 508
847800 159
5009400 969
3657600 932
3256200 837
2854800 806
6615000 1059
2453400 779
6213600 1059
2052000 596
5099400 969
6139800 1059
446400 70
1486800 451
2527200 783
3567600 917
45000 7
1085400 224
2125800 663
3166200 829
5500800 996
1888200 586
3969000 958
4698000 966
6778800 1059
4296600 965
6377400 1059
2289600 731
3330000 845
684000 134
1724400 514
282600 32
1323000 427
3731400 952
6541200 1059
2928600 808
5738400 1016
5337000 974
4935600 969
4534200 966
4132800 962
1962000 590
3002400 811
4042800 958
5083200 969
6123600 1059
921600 163
520200 82
1560600 487
2601000 788
3641400 926
4681800 966
5722200 1016
6762600 1059
118800 17
2199600 694
4280400 965
6361200 1059
5959800 1040
757800 148
1798200 528
4919400 969
2764800 797
3805200 954
3403800 893
6525000 1059
2363400 759
1159200 257
5320800 974
4518000 966
356400 48
3076200 828
4116600 962
4608000 966
5648400 999
6688800 1059
995400 197
2035800 596
4206600 965
5247000 974
6049800 1053
1396800 430
3477600 899
2674800 793
594000 100
192600 29
2273400 724
6451200 1059
2838600 806
3879000 957
4845600 966
5886000 1025
4444200 965
5484600 996
3240000 837
2437200 778
6287400 1059
1634400 508
1233000 408
831600 159
430200 70
28800 3
1069200 214
2109600 659
3150000 829
2748600 797
4829400 966
667800 134
1872000 584
3952800 958
6033600 1047
5632200 999
1470600 443
3551400 911
5230800 974
1306800 425
4428000 965
5468400 996
266400 32
5869800 1019
1708200 511
905400 163
5067000 969
3715200 936
3313800 845
2912400 807
6672600 1059
2511000 782
6271200 1059
5157000 974
6197400 1059
504000 78
1544400 461
2584800 787
3625200 926
102600 13
1143000 247
2183400 693
3223800 837
5558400 996
1945800 590
4026600 958
4755600 966
4354200 965
6435000 1059
2347200 755
3387600 886
741600 145
1782000 528
340200 48
1380600 430
3789000 954
6598800 1059
2986200 810
5796000 1019
5394600 991
4993200 969
4591800 966
4190400 964
1618200 497
577800 100
2658600 789
3699000 936
4739400 966
5779800 1017
6820200 1059
979200 197
2019600 593
3060000 826
4100400 962
5140800 974
6181200 1059
6418800 1059
176400 29
2257200 711
4338000 965
4977000 969
6017400 1047
815400 158
1855800 584
3862800 957
2822400 803
2421000 764
3461400 899
6582600 1059
1216800 362
5378400 991
4575600 966
414000 59
12600 1
6746400 1059
2093400 651
3133800 829
4174200 962
4665600 966
5706000 1010
5304600 974
6345000 1059
4264200 965
3535200 902
6107400 1057
1454400 442
1053000 206
651600 132
2732400 795
250200 32
2331000 738
6508800 1059
2896200 807
3936600 958
4903200 969
5943600 1040
4501800 966
5542200 996
3297600 845
2494800 781
1692000 510
1290600 423
889200 162
487800 74
3207600 837
4248000 965
5288400 974
6328800 1059
86400 9
1126800 245
2167200 675
2806200 803
4887000 966
725400 145
6091200 1056
1929600 589
4010400 958
5689800 1010
1528200 461
3609000 918
324000 46
1364400 429
4485600 965
5526000 996
1765800 528
5927400 1040
963000 194
5124600 974
3772800 954
3371400 848
2970000 810
6730200 1059
2568600 785
5214600 974
6255000 1059
561600 95
1602000 496
2642400 789
3682800 932
160200 26
1200600 265
2241000 707
3281400 843
5616000 999
2003400 592
4084200 958
4813200 966
4411800 965
6492600 1059
2404800 763
3445200 899
799200 158
1839600 582
1438200 435
397800 55
3846600 956
6656400 1059
3043800 822
5853600 1019
5452200 996
5050800 969
4649400 966
1675800 508
635400 129
2716200 795
3756600 952
4797000 966
5837400 1019
1036800 204
2077200 596
3117600 828
4158000 962
5198400 974
6238800 1059
6476400 1059
234000 29
2314800 737
4395600 965
5034600 969
6075000 1053
873000 162
1913400 588
2880000 807
3920400 958
2478600 780
3519000 899
6640200 1059
5436000 995
1274400 419
4633200 966
471600 73
4231800 965
70200 8
5763600 1016
6804000 1059
4723200 966
4321800 965
5362200 978
6402600 1059
3592800 918
6165000 1059
1512000 461
1110600 226
3191400 831
709200 142
2790000 803
307800 43
2388600 762
3994200 958
6566400 1059
2953800 809
4960800 969
6001200 1047
4559400 966
5599800 999
545400 94
3355200 848
2552400 784
2151000 673
1749600 524
1348200 429
946800 174
2224800 703
3265200 843
4305600 965
5346000 974
6386400 1059
144000 26
1184400 263
1585800 496
783000 152
2863800 807
4944600 969
6148800 1059
1987200 592
4068000 958
3666600 932
5747400 1016
381600 51
1422000 430
4543200 966
5583600 999
2626200 788
1823400 569
5985000 1047
1020600 204
5182200 974
3830400 955
3429000 899
3027600 816
6787800 1059
619200 128
1659600 508
2700000 794
3740400 952
3339000 848
217800 29
1258200 417
2298600 732
5673600 1006
2061000 596
4141800 962
5272200 974
4870800 966
6550200 1059
4469400 965
2462400 779
3502800 899
1897200 587
856800 159
455400 70
1495800 455
54000 8
3904200 957
6714000 1059
3101400 828
6312600 1059
5911200 1040
5509800 996
5108400 969
4707000 966
5895000 1040
1733400 514
693000 135
2773800 801
3814200 955
4854600 966
1094400 224
3175200 829
5256000 974
4453200 965
6534000 1059
291600 41
2372400 762
5092200 969
6132600 1059
930600 164
1971000 590
2937600 809
3978000 958
2536200 783
3576600 917
6697800 1059
2134800 664
6296400 1059
5493600 996
1332000 427
4690800 966
529200 82
127800 23
4289400 965
4780800 966
5821200 1019
4379400 965
5419800 995
6460200 1059
6222600 1059
1569600 496
3650400 932
1168200 261
3249000 837
766800 151
2847600 806
365400 48
2446200 779
3011400 811
4051800 958
6624000 1059
5018400 969
6058800 1053
4617000 966
5657400 999
4215600 965
603000 101
3412800 895
2610000 788
2208600 697
1807200 569
1405800 430
1004400 202
1242000 408
2282400 728
3322800 845
4363200 965
5403600 991
6444000 1059
201600 29
3724200 952
5805000 1019
1643400 508
840600 159
2921400 808
5002200 969
4125600 962
6206400 1059
2044800 596
439200 70
1479600 451
4600800 966
5641200 999
37800 6
1078200 224
4199400 965
2683800 793
1881000 584
6042600 1053
5239800 974
3888000 957
3486600 899
3085200 828
3798000 954
676800 134
1717200 513
2757600 797
2356200 757
3396600 892
275400 32
1315800 425
5731200 1016
5329800 974
4928400 969
6607800 1059
4527000 966
2520000 783
3560400 917
2118600 661
3159000 829
914400 163
1954800 590
513000 82
1553400 461
4764600 966
111600 13
3961800 958
6771600 1059
6370200 1059
5968800 1040
5567400 999
5166000 974
4912200 969
5952600 1040
1791000 528
750600 145
2831400 805
3871800 957
1152000 250
3232800 837
5313600 974
4510800 966
6591600 1059
349200 48
2430000 764
2028600 594
5149800 974
6190200 1059
988200 197
2995200 810
4035600 958
2593800 787
3634200 926
6755400 1059
6354000 1059
2192400 693
5551200 996
1389600 430
586800 100
4748400 966
185400 29
4347000 965
4838400 966
5878800 1025
4437000 965
5477400 996
6517800 1059
6280200 1059
1627200 506
3708000 936
1225800 408
3306600 845
824400 159
2905200 807
423000 62
2503800 782
21600 3
1062000 210
6681600 1059
3069000 827
4109400 962
5076000 969
6116400 1058
4674600 966
5715000 1016
4273200 965
660600 134
3470400 899
2667600 793
2266200 714
1864800 584
1463400 442
259200 32
1299600 425
2340000 744
3380400 867
4420800 965
5461200 996
6501600 1059
1701000 511
3781800 954
5862600 1019
898200 163
2979000 810
5059800 969
4183200 964
6264000 1059
2102400 654
5698800 1010
496800 74
1537200 461
4658400 966
4257000 965
5297400 974
95400 13
1135800 247
2741400 795
1938600 590
6100200 1057
3945600 958
3544200 904
3142800 829
2815200 803
3855600 957
734400 145
1774800 528
1373400 429
2413800 764
3454200 899
333000 48
5788800 1017
5387400 991
4986000 969
4584600 966
6665400 1059
570600 96
1611000 497
2577600 787
3618000 918
2176200 678
3216600 837
972000 197
2012400 593
4822200 966
169200 28
4019400 958
6427800 1059
6026400 1047
5625000 999
5223600 974
3929400 958
4969800 969
6010200 1047
808200 158
1848600 584
2889000 807
5371200 988
1209600 285
3290400 845
2487600 780
4568400 966
6649200 1059
406800 55
5400 1
2651400 789
3691800 933
1045800 206
2086200 639
5207400 974
6247800 1059
3052800 826
4093200 958
6813000 1059
6411600 1059
2250000 707
5608800 999
1447200 440
644400 132
4806000 966
243000 32
4404600 965
4896000 966
5936400 1040
4494600 966
5535000 996
6575400 1059
1684800 510
3765600 954
1283400 419
3364200 848
882000 162
2962800 810
480600 74
2561400 785
4732200 966
5772600 1017
79200 9
1119600 243
6739200 1059
3126600 829
4167000 962
6337800 1059
5133600 974
6174000 1059
718200 145
4330800 965
3528000 902
2725200 795
2323800 738
1922400 589
1521000 461
316800 45
1357200 429
2397600 762
3438000 899
4478400 965
5518800 996
6559200 1059
1758600 524
3839400 955
5920200 1040
955800 183
3036600 822
5117400 969
2160000 674
3200400 831
6321600 1059
4716000 966
5756400 1016
554400 95
1594800 496
4314600 965
5355000 974
153000 26
1193400 264
2799000 803
6157800 1059
1996200 592
4003200 958
3601800 918
1832400 581
2872800 807
3913200 958
792000 158
390600 52
1431000 430
2471400 780
3511800 899
5846400 1019
5445000 996
5043600 969
4642200 966
6723000 1059
4240800 965
5281200 974
628200 128
1668600 508
2635200 789
3675600 932
3274200 843
2233800 703
1029600 204
2070000 596
4879800 966
226800 29
4077000 958
6485400 1059
6084000 1056
5682600 1006
2946600 809
3987000 958
5027400 969
6067800 1053
865800 159
1906200 588
5428800 995
1267200 417
3348000 848
2545200 784
4626000 966
6706800 1059
464400 70
63000 8
2143800 664
4224600 965
6305400 1059
2709000 794
3749400 952
3110400 828
4150800 962
6469200 1059
2307600 736
1504800 455
5666400 999
1103400 226
5265000 974
702000 142
4863600 966
300600 41
4462200 965
4953600 969
5994000 1047
4552200 966
5592600 999
6633000 1059
538200 94
1742400 524
3823200 955
1341000 427
3421800 899
939600 174
3020400 812
2619000 788
5830200 1019
1177200 261
4789800 966
136800 26
6796800 1059
6395400 1059
5191200 974
6231600 1059
1578600 496
4388400 965
775800 152
3585600 917
3184200 829
2782800 803
2381400 762
1980000 592
6616800 1059
374400 51
1414800 430
2455200 779
3495600 899
4536000 966
5576400 999
1816200 569
3897000 957
5977800 1040
5175000 974
1013400 202
3094200 828
2217600 703
3258000 837
6379200 1059
4773600 966
5814000 1019
612000 121
1652400 508
4372200 965
5412600 995
210600 29
1251000 409
2856600 806
6215400 1059
2053800 596
4060800 958
3659400 932
849600 159
1890000 586
2930400 808
3970800 958
448200 70
1488600 454
2529000 783
3569400 917
46800 7
2127600 663
5904000 1040
5502600 996
5101200 969
4699800 966
6780600 1059
4298400 965
5338800 974
685800 134
1726200 514
3733200 952
2692800 794
2291400 731
3331800 848
1087200 224
4937400 969
284400 32
4134600 962
6543000 1059
6141600 1059
5740200 1016
1963800 590
3004200 811
4044600 958
5085000 969
6125400 1059
923400 163
3405600 893
5486400 996
1324800 427
522000 82
2602800 788
4683600 966
6764400 1059
120600 17
2201400 694
4282200 965
6363000 1059
2766600 800
3807000 954
3168000 829
6526800 1059
2365200 759
1562400 489
5724000 1016
1161000 258
5322600 974
759600 148
4921200 969
4519800 966
358200 48
5011200 969
6051600 1053
4609800 966
5650200 999
6690600 1059
2676600 793
4208400 965
595800 100
1800000 529
3880800 957
1398600 430
3479400 899
3078000 828
997200 197
4847400 966
5887800 1040
194400 29
1234800 408
6453000 1059
6289200 1059
1636200 508
5248800 974
4446000 965
833400 159
3643200 932
3241800 837
2840400 806
2439000 778
2037600 596
5634000 999
6674400 1059
432000 70
1472400 446
2512800 783
3553200 911
4593600 966
30600 3
1071000 222
2111400 659
3151800 829
1873800 584
3954600 958
6035400 1047
5232600 974
2275200 726
3315600 845
6436800 1059
4831200 966
5871600 1019
669600 134
1710000 511
1308600 425
4429800 965
5470200 996
268200 32
3717000 936
2914200 807
6273000 1059
4118400 962
907200 163
1947600 590
2988000 810
4028400 958
505800 78
1546200 461
2586600 787
3627000 926
4757400 966
104400 13
2185200 693
5961600 1040
5560200 996
5158800 974
4356000 965
5396400 991
743400 145
1783800 528
2750400 797
3790800 954
2349000 755
3389400 892
5797800 1019
1144800 250
4995000 969
342000 48
4192200 964
6600600 1059
6199200 1059
981000 197
2021400 593
3061800 826
4102200 962
5142600 974
6183000 1059
3463200 899
5544000 996
1382400 430
579600 100
2660400 789
4741200 966
6822000 1059
6420600 1059
178200 29
2259000 713
4339800 965
3864600 957
2824200 803
3225600 837
2422800 764
6584400 1059
1620000 499
5781600 1017
1218600 374
5380200 991
4978800 969
817200 158
4577400 966
415800 59
14400 1
1054800 206
5068800 969
6109200 1057
6748200 1059
4667400 966
5707800 1010
6346800 1059
653400 134
2734200 795
4266000 965
1857600 584
3938400 958
3537000 902
1456200 442
3135600 829
4905000 969
5945400 1040
252000 32
1292400 423
6510600 1059
5306400 974
1693800 510
4503600 966
891000 162
3700800 936
3299400 845
2898000 807
2496600 781
2095200 651
4651200 966
5691600 1010
6732000 1059
489600 74
1530000 461
2570400 785
3610800 918
3209400 837
4249800 965
5290200 974
6330600 1059
88200 9
1128600 247
2169000 677
6093000 1056
1931400 589
4012200 958
2332800 743
3373200 848
6494400 1059
1767600 528
4888800 966
5929200 1040
727200 145
325800 46
1366200 429
4487400 965
5527800 996
3774600 954
2971800 810
4176000 964
563400 95
1603800 496
2644200 789
3684600 932
964800 197
2005200 593
3045600 822
4086000 958
4815000 966
162000 26
2242800 707
6019200 1047
5617800 999
5216400 974
4413600 965
5454000 996
801000 158
1841400 583
2808000 803
3848400 956
2406600 763
3447000 899
5855400 1019
1202400 265
5052600 969
399600 55
6658200 1059
6256800 1059
2079000 625
1038600 204
3119400 829
4159800 962
5200200 974
6240600 1059
1440000 435
3520800 902
5601600 999
637200 129
2718000 795
4798800 966
6478200 1059
235800 29
2316600 737
4397400 965
2881800 807
3922200 958
3283200 843
2480400 780
6642000 1059
1677600 508
5839200 1019
5437800 995
1276200 419
5036400 969
874800 162
4635000 966
473400 73
1112400 226
2152800 673
3193200 831
4725000 966
72000 9
5126400 974
6166800 1059
5765400 1016
6805800 1059
4323600 965
6404400 1059
711000 142
2791800 803
3996000 958
1915200 588
3594600 918
1513800 461
4962600 969
6003000 1047
309600 43
1350000 429
6568200 1059
5364000 984
1751400 524
4561200 966
948600 182
3758400 952
3357000 848
2955600 809
2554200 784
3668400 932
4708800 966
5749200 1016
6789600 1059
547200 94
1587600 496
2628000 788
2226600 703
3267000 843
4307400 965
5347800 974
6388200 1059
145800 26
1186200 263
6150600 1059
1989000 592
4069800 958
6552000 1059
2390400 762
3430800 899
784800 158
1825200 569
4946400 969
5986800 1047
383400 51
1423800 430
4545000 966
5585400 999
3832200 955
3029400 816
4233600 965
5274000 974
6314400 1059
621000 128
1661400 508
2701800 794
3742200 952
1022400 204
2062800 596
3103200 828
4143600 962
4872600 966
219600 29
2300400 735
6076800 1056
5675400 1006
1899000 587
4471200 965
5511600 996
858600 159
2865600 807
3906000 958
2464200 779
3504600 899
5913000 1040
1260000 417
5110200 969
457200 70
55800 8
6715800 1059
1497600 455
3578400 917
5659200 999
1096200 224
3177000 829
5257800 974
694800 135
2775600 801
4856400 966
4455000 965
6535800 1059
293400 41
2374200 762
2939400 809
3979800 958
531000 82
3340800 848
2538000 783
6699600 1059
2136600 664
6298200 1059
5896800 1040
1735200 520
5495400 996
1333800 427
5094000 969
932400 164
4692600 966
4782600 966
5823000 1019
129600 23
1170000 261
2210400 702
3250800 837
6224400 1059
5184000 974
4381200 965
6462000 1059
768600 151
2849400 806
4053600 958
1972800 590
1571400 496
3652200 932
5020200 969
6060600 1053
367200 48
1407600 430
6625800 1059
5421600 995
1809000 569
4618800 966
1006200 202
4217400 965
3816000 955
3414600 895
3013200 811
2611800 788
2685600 793
3726000 952
4766400 966
5806800 1019
604800 102
1645200 508
1243800 408
2284200 728
3324600 845
4365000 965
5405400 993
6445800 1059
203400 29
4127400 962
6208200 1059
2046600 596
6609600 1059
2448000 779
3488400 899
842400 159
1882800 584
5004000 969
6044400 1053
441000 70
1481400 451
4602600 966
5643000 999
39600 7
4201200 965
3889800 957
3087000 828
3799800 954
4291200 965
5331600 974
6372000 1059
678600 134
1719000 514
2759400 797
1080000 224
3160800 829
2358000 757
4930200 969
277200 32
6134400 1059
5733000 1016
5569200 999
916200 163
1956600 590
4528800 966
2923200 808
3963600 958
2521800 783
3562200 917
2120400 661
5970600 1040
1317600 425
5167800 974
514800 82
113400 13
6773400 1059
1555200 478
3636000 926
5716800 1016
1153800 252
3234600 837
5315400 974
4914000 969
752400 145
2833200 805
4512600 966
6593400 1059
351000 48
2431800 775
2997000 810
4037400 958
588600 100
4750200 966
3398400 892
2595600 787
6757200 1059
6355800 1059
2194200 693
5954400 1040
1792800 528
5553000 996
1391400 430
5151600 974
990000 197
4840200 966
5880600 1025
187200 29
1227600 408
2268000 714
3308400 845
5241600 974
6282000 1059
1629000 507
3709800 936
4438800 965
6519600 1059
826200 159
2907000 807
2030400 594
4111200 962
5077800 969
6118200 1058
424800 62
1465200 443
23400 3
1063800 210
6683400 1059
2669400 793
5479200 996
1866600 584
4676400 966
4275000 965
3873600 957
3472200 899
3070800 827
1702800 511
2743200 795
3783600 954
4824000 966
5864400 1019
662400 134
261000 32
1301400 425
2341800 747
3382200 867
4422600 965
5463000 996
6503400 1059
4185000 964
6265800 1059
6667200 1059
2505600 782
3546000 904
2104200 655
900000 163
1940400 590
5061600 969
6102000 1057
5700600 1010
498600 74
1539000 461
4660200 966
4258800 965
97200 13
3947400 958
3144600 829
2817000 803
3857400 957
4348800 965
5389200 991
6429600 1059
736200 145
1776600 528
5790600 1019
1137600 247
3218400 837
2415600 764
4987800 969
334800 48
6192000 1059
4586400 966
5626800 999
973800 197
2014200 593
2980800 810
4021200 958
2579400 787
3619800 920
2178000 685
6028200 1047
1375200 429
5225400 974
572400 96
171000 28
1612800 497
3693600 936
5774400 1017
5373000 989
1211400 307
3292200 845
4971600 969
810000 158
2890800 807
2489400 781
4570200 966
6651000 1059
408600 55
7200 1
3054600 826
4095000 962
646200 132
4807800 966
3456000 899
6814800 1059
2653200 789
6413400 1059
2251800 707
6012000 1047
1850400 584
5610600 999
1449000 442
1047600 206
5209200 974
4897800 966
5938200 1040
244800 32
1285200 419
2325600 738
3366000 848
5299200 974
1686600 510
3767400 954
4496400 966
6577200 1059
883800 162
2964600 810
2088000 650
4168800 962
5135400 974
6175800 1059
482400 74
1522800 461
81000 9
1121400 243
6741000 1059
6339600 1059
2727000 795
5536800 996
1924200 589
4734000 966
4332600 965
3931200 958
3529800 902
3128400 829
720000 145
1760400 524
2800800 803
3841200 955
4881600 966
5922000 1040
318600 45
1359000 429
2399400 762
3439800 899
4480200 965
5520600 996
6561000 1059
556200 95
1596600 496
3603600 918
6724800 1059
2563200 785
2161800 674
3202200 831
6323400 1059
6159600 1059
957600 183
1998000 592
5119200 969
4717800 966
5758200 1016
4316400 965
154800 26
4005000 958
6487200 1059
1834200 582
2874600 807
3915000 958
4406400 965
5446800 996
793800 158
3276000 843
5848200 1019
1195200 264
5045400 969
392400 52
2473200 780
6249600 1059
2637000 789
3677400 932
4644000 966
5684400 1006
1031400 204
2071800 596
4242600 965
5283000 974
3038400 822
4078800 958
2235600 706
6085800 1056
1432800 430
630000 129
228600 29
5832000 1019
1670400 508
3751200 952
5430600 995
1269000 417
3349800 848
2948400 809
5029200 969
867600 159
2547000 784
4627800 966
6708600 1059
466200 70
64800 8
1105200 226
4226400 965
5266800 974
3112200 828
4152600 962
703800 142
4865400 966
3513600 899
2710800 794
6471000 1059
2309400 736
6069600 1053
1908000 588
1506600 455
5668200 999
4955400 969
5995800 1047
302400 41
1342800 427
2383200 762
3423600 899
5356800 974
1744200 524
3825000 955
4554000 966
6634800 1059
941400 174
3022200 812
2145600 668
3186000 831
5193000 974
6233400 1059
540000 94
1580400 496
1179000 261
138600 26
6798600 1059
6397200 1059
2784600 803
5594400 999
1981800 592
4791600 966
4390200 965
3988800 958
3587400 918
777600 152
1818000 569
2858400 806
3898800 957
4939200 969
5979600 1040
6618600 1059
376200 51
1416600 430
2457000 779
3497400 899
4537800 966
5578200 999
4775400 966
5815800 1019
613800 121
1654200 508
2620800 788
3661200 932
6782400 1059
2219400 703
3259800 839
6381000 1059
5176800 974
6217200 1059
1015200 204
2055600 596
4374000 965
212400 29
4062600 958
5504400 996
6544800 1059
851400 159
1891800 586
2932200 809
3972600 958
4464000 965
3333600 848
5905800 1040
1252800 409
5103000 969
450000 70
2530800 783
48600 8
2129400 663
3735000 952
6307200 1059
2694600 794
4701600 966
5742000 1016
4300200 965
5340600 974
3096000 828
4136400 962
2293200 731
6143400 1059
1490400 454
1089000 224
687600 134
286200 32
5889600 1040
1728000 514
3808800 954
3407400 894
5488200 996
1326600 427
3006000 811
5086800 969
925200 163
523800 82
2604600 788
4685400 966
6766200 1059
122400 17
1162800 258
4284000 965
5324400 974
761400 148
4923000 969
3571200 917
3169800 829
2768400 800
6528600 1059
2367000 759
1965600 590
6127200 1059
1564200 489
5725800 1016
5013000 969
6053400 1053
360000 48
1400400 430
2440800 779
3481200 899
5414400 995
1801800 529
3882600 957
3079800 828
4611600 966
6692400 1059
999000 197
4210200 965
2203200 694
3243600 837
6291000 1059
1638000 508
597600 100
196200 29
1236600 408
6454800 1059
2842200 806
5652000 999
2039400 596
5250600 974
4849200 966
4447800 965
4046400 958
3645000 932
835200 159
1875600 584
2916000 807
3956400 958
4996800 969
6037200 1047
5635800 999
6676200 1059
433800 70
1474200 449
2514600 783
3555000 911
4595400 966
32400 3
2113200 660
4833000 966
5873400 1019
671400 134
1711800 512
2678400 793
3718800 936
2277000 727
3317400 845
6438600 1059
5234400 974
6274800 1059
1072800 222
4431600 965
270000 32
4120200 962
4521600 966
5562000 996
6602400 1059
909000 163
1949400 590
2989800 810
4030200 958
5963400 1040
1310400 425
3391200 892
5160600 974
507600 78
2588400 787
106200 13
2187000 693
2752200 797
3792600 954
6364800 1059
4759200 966
5799600 1019
4357800 965
5398200 991
4194000 964
3153600 829
2350800 755
6201000 1059
1548000 461
1146600 250
745200 145
343800 48
581400 100
2662200 789
4743000 966
6823800 1059
3866400 957
5947200 1040
1785600 528
3465000 899
5545800 996
1384200 430
982800 197
3063600 826
5144400 974
180000 29
1220400 389
4341600 965
5382000 991
1621800 499
5783400 1017
4980600 969
819000 158
3628800 926
3227400 837
2826000 803
2424600 764
6586200 1059
2023200 593
6184800 1059
3538800 902
5070600 969
6111000 1058
417600 62
1458000 442
2498400 781
16200 2
1056600 210
5472000 996
1859400 584
3940200 958
6750000 1059
3137400 829
4669200 966
6348600 1059
4267800 965
2260800 713
3301200 845
655200 134
1695600 510
253800 32
1294200 423
3702600 936
6512400 1059
2899800 807
2097000 651
5709600 1010
5308200 974
4906800 969
4505400 966
4104000 962
6094800 1056
892800 162
1933200 589
2973600 810
4014000 958
5054400 969
4653000 966
5693400 1010
6733800 1059
491400 74
1531800 461
2572200 785
3612600 918
4251600 965
6332400 1059
90000 9
2170800 678
1769400 528
4890600 966
5931000 1040
729000 145
2736000 795
3776400 954
2334600 743
3375000 854
6496200 1059
5292000 974
1130400 247
327600 46
4489200 965
4177800 964
4579200 966
5619600 999
6660000 1059
966600 197
2007000 593
3047400 825
4087800 958
6021000 1047
1368000 429
3448800 899
5218200 974
565200 95
2646000 789
163800 26
2244600 707
6422400 1059
2809800 803
3850200 956
4816800 966
5857200 1019
4415400 965
5455800 996
3211200 837
2408400 763
6258600 1059
1605600 497
1204200 277
802800 158
401400 55

