Node	Value
25	39
19	26
13	23
8	43
32	32
22	63
11	3
37	27
7	67
34	34
28	54
6	67
23	66
16	57
20	25
35	20
1	26
31	64
17	9
4	317
21	80
15	59
39	69
10	18
26	35
5	48
38	71
14	28
18	29
24	63
33	113
2	39
12	49
3	77
40	18
9	42
27	22
0	40
29	55
36	73
