Message Drop for scenario SimBetHaggleInfocom_#DF_DONETTL1HARI
sim_time: 274883.0000

25	119
19	261
13	94
32	230
8	190
22	175
11	86
7	444
37	114
34	104
28	218
6	423
23	275
16	286
20	257
35	124
1	86
31	208
4	1984
17	72
21	304
15	165
39	245
10	70
26	92
30	76
5	135
38	378
14	86
18	129
24	218
33	1287
2	125
12	136
3	338
40	128
9	190
27	109
0	261
36	373
29	165

