Node 25		0.0	0.1	0.1	0.25	0.35000000000000003	0.35000000000000003	0.35000000000000003	0.4	0.5	0.65	0.75	0.8500000000000001	1.0	1.05	1.2	1.05	1.05	1.0999999999999999	1.0999999999999999	1.2	1.15	1.05	1.05	1.0999999999999999	1.05	0.95	0.8500000000000001	0.8999999999999999	0.8500000000000001	0.8500000000000001	0.8500000000000001	0.7000000000000001	0.75	0.8500000000000001	0.8	0.75	0.7000000000000001	0.75	0.75	0.8	0.8500000000000001	0.8500000000000001	1.05	1.25	1.4000000000000001	1.25	1.3	1.3	1.35	1.3	1.3	1.3	1.25	1.25	1.0999999999999999	1.0	0.8500000000000001	1.0	0.95	1.0	0.95	1.05	1.05	0.95	0.8999999999999999	0.8500000000000001	0.8	0.7000000000000001	0.6	0.44999999999999996	0.35000000000000003	0.25	0.15	2.25	0.5499999999999999
Node 19		0.1	0.25	0.4	0.5	0.6	7.6499999999999995	7.95	8.200000000000001	8.3	8.450000000000001	8.6	7.95	6.65	5.65	4.55	3.3000000000000003	2.1	1.6	1.55	1.55	1.7000000000000002	1.7999999999999998	1.7000000000000002	1.6	1.7000000000000002	1.7500000000000002	1.7999999999999998	1.95	2.0500000000000003	1.9	1.9	1.6	1.4000000000000001	1.3	1.25	1.15	1.05	0.8500000000000001	0.75	0.7000000000000001	0.65	0.65	0.6	0.75	0.8999999999999999	0.8500000000000001	0.8999999999999999	1.0	1.05	1.25	1.25	1.2	1.3	1.3	1.3	1.15	0.95	1.0	0.95	0.8500000000000001	0.95	0.8	0.75	0.7000000000000001	0.5	0.5	0.44999999999999996	0.44999999999999996	0.44999999999999996	0.3	0.3	0.25	0.1	0.05	0.0
Node 13		0.1	0.1	0.15	0.3	0.6	0.6	0.7000000000000001	0.7000000000000001	0.8	0.8500000000000001	0.8999999999999999	0.8500000000000001	0.8	0.8	0.8	0.7000000000000001	0.65	0.7000000000000001	0.7000000000000001	0.75	0.65	0.8	0.8500000000000001	0.8500000000000001	0.8	0.95	0.8999999999999999	0.8999999999999999	0.8500000000000001	0.8	0.8999999999999999	1.05	1.15	0.95	0.8500000000000001	0.8999999999999999	0.95	0.8999999999999999	0.8999999999999999	0.8999999999999999	0.8999999999999999	0.95	0.75	1.4000000000000001	1.4000000000000001	1.6	1.6500000000000001	1.6500000000000001	1.55	1.55	1.4500000000000002	1.35	1.25	1.25	1.2	1.15	1.05	1.05	1.05	0.8999999999999999	0.95	0.95	0.95	0.8500000000000001	0.8	0.7000000000000001	0.6	0.5499999999999999	0.5499999999999999	0.35000000000000003	0.3	0.3	0.2	0.05	0.0
Node 8		0.15	0.25	0.35000000000000003	0.35000000000000003	0.4	0.44999999999999996	0.65	0.8500000000000001	1.0999999999999999	1.2	1.25	1.25	1.3	1.3	1.2	1.4000000000000001	1.6	1.6500000000000001	1.55	1.6	1.6	1.8499999999999999	2.25	3.6999999999999997	3.6999999999999997	3.85	3.9	3.75	3.65	3.5000000000000004	3.5999999999999996	3.65	3.45	2.7	2.0500000000000003	1.5	1.35	1.3	1.2	1.2	1.0	1.2	0.95	0.8	0.7000000000000001	0.8	0.8500000000000001	0.8	0.8	0.8500000000000001	0.95	0.8999999999999999	0.95	0.8	0.8500000000000001	0.8999999999999999	1.0	1.0	1.7000000000000002	2.45	2.5	2.5	2.65	2.65	2.45	2.15	1.9	1.6500000000000001	1.35	1.05	0.8500000000000001	0.75	0.6	0.44999999999999996	0.15
Node 32		0.2	0.3	0.3	0.4	1.3	1.55	7.1499999999999995	7.3	7.449999999999999	7.55	7.7	6.800000000000001	5.7	4.9	3.85	2.8000000000000003	1.7500000000000002	1.25	1.35	1.25	1.3	1.35	1.25	1.25	1.5	1.35	1.6	1.6	1.6	1.5	1.5	1.4500000000000002	1.4500000000000002	1.4000000000000001	1.4000000000000001	1.3	1.15	1.2	1.05	0.95	0.8999999999999999	0.95	0.95	1.0	0.8999999999999999	0.8500000000000001	0.8500000000000001	0.75	0.8500000000000001	0.8	0.75	0.8	0.8	0.8	0.8	0.8500000000000001	0.8500000000000001	0.8	0.8	0.8500000000000001	0.7000000000000001	0.8	0.8	0.7000000000000001	0.65	0.5499999999999999	0.5	0.4	0.3	0.3	0.2	0.15	0.15	0.05	0.0
Node 22		0.2	0.3	0.3	0.4	0.44999999999999996	0.5	0.65	0.7000000000000001	0.75	0.8	0.95	1.2	1.2	1.2	1.3	1.25	1.3	1.3	1.15	1.2	1.25	1.4000000000000001	1.5	1.5	1.4000000000000001	1.6500000000000001	1.6500000000000001	1.8499999999999999	1.9	1.95	2.0	2.0500000000000003	2.0	2.0	1.7999999999999998	1.6	1.55	1.55	1.4500000000000002	1.4000000000000001	1.4000000000000001	1.35	1.4000000000000001	1.4000000000000001	1.7000000000000002	1.6	2.1999999999999997	2.25	3.4000000000000004	3.25	3.15	3.15	3.05	3.2	3.15	3.0	2.85	2.65	2.0500000000000003	1.6500000000000001	1.55	1.6	1.7500000000000002	1.6500000000000001	1.55	1.3	1.05	2.1	1.7000000000000002	1.35	1.2	0.95	0.75	0.5	0.15
Node 11		0.25	0.35000000000000003	0.4	0.4	0.44999999999999996	0.44999999999999996	0.5	0.5499999999999999	0.75	0.95	1.15	0.95	1.0	0.95	0.95	1.05	1.05	1.0999999999999999	1.0999999999999999	1.0	0.95	0.8500000000000001	0.7000000000000001	0.75	0.8	0.8500000000000001	0.8999999999999999	0.95	1.0999999999999999	1.05	1.0999999999999999	1.15	1.2	1.15	1.0999999999999999	1.15	1.0999999999999999	1.05	1.15	1.0	0.8999999999999999	0.95	0.95	0.95	0.8999999999999999	0.8500000000000001	0.95	0.8999999999999999	0.8999999999999999	0.8999999999999999	0.8	0.8999999999999999	0.8500000000000001	0.8500000000000001	0.75	0.75	0.65	0.7000000000000001	0.65	0.7000000000000001	0.65	0.75	0.7000000000000001	0.65	0.6	0.5499999999999999	0.5499999999999999	0.5	0.5	0.44999999999999996	0.4	0.3	0.25	0.1	0.05
Node 7		0.1	0.2	0.2	0.3	1.0999999999999999	1.35	8.649999999999999	8.7	8.95	9.0	9.0	7.9	6.8500000000000005	5.65	4.65	3.45	2.65	1.5	1.25	2.65	2.45	4.05	4.5	5.35	5.45	5.25	5.45	5.25	4.8	4.8	4.7	4.5	3.85	2.5	2.15	1.7000000000000002	1.4000000000000001	1.3	1.05	1.0999999999999999	1.0	0.95	0.8999999999999999	2.75	2.7	2.6	2.1999999999999997	2.1	1.9	2.0	1.7500000000000002	1.55	1.4000000000000001	1.0999999999999999	0.8500000000000001	0.95	0.8999999999999999	0.75	0.8500000000000001	0.95	0.8999999999999999	0.95	0.95	0.95	0.8999999999999999	0.8999999999999999	0.8500000000000001	0.75	1.0	0.95	0.8	0.6	0.44999999999999996	0.25	0.05
Node 37		0.25	0.35000000000000003	0.4	0.44999999999999996	0.65	0.8	0.8999999999999999	1.05	1.0999999999999999	1.15	1.9	2.0500000000000003	1.8499999999999999	1.7999999999999998	1.9	1.8499999999999999	1.7999999999999998	1.7500000000000002	1.7999999999999998	1.6500000000000001	1.35	1.25	1.3	1.15	1.3	1.55	1.35	1.35	1.3	1.3	1.0999999999999999	1.15	1.25	1.25	1.25	1.3	1.0999999999999999	0.8999999999999999	0.8999999999999999	0.8500000000000001	0.8500000000000001	0.8	0.8500000000000001	0.8	0.75	0.8	0.8	0.75	0.8999999999999999	0.8999999999999999	0.95	1.0	1.0999999999999999	1.15	1.0999999999999999	1.05	1.0999999999999999	1.05	1.05	1.0	1.0	0.8999999999999999	0.8	0.75	0.65	0.5499999999999999	0.5499999999999999	0.5499999999999999	0.44999999999999996	0.25	0.2	0.15	0.0	0.0	0.0
Node 34		0.2	0.2	0.25	0.4	0.5499999999999999	1.0999999999999999	1.2	1.35	1.5	1.55	1.6500000000000001	1.55	1.4000000000000001	1.4000000000000001	1.35	1.3	1.0999999999999999	1.0	1.0999999999999999	1.25	1.35	1.4500000000000002	1.55	1.6	1.7500000000000002	1.7999999999999998	1.95	1.7999999999999998	1.7999999999999998	1.7999999999999998	1.6	1.3	1.05	0.95	0.8500000000000001	0.7000000000000001	0.6	0.5499999999999999	0.44999999999999996	0.6	0.7000000000000001	0.75	0.75	0.75	0.75	0.65	0.8500000000000001	0.8999999999999999	0.8999999999999999	1.0	0.8999999999999999	0.75	0.65	0.6	0.7000000000000001	0.7000000000000001	0.8	0.8500000000000001	0.65	0.7000000000000001	0.65	0.65	0.75	0.75	0.75	0.7000000000000001	0.6	0.6	0.5	0.44999999999999996	0.4	0.3	0.25	0.1	0.0
Node 28		0.1	0.1	0.2	0.3	0.7000000000000001	3.95	4.0	4.1000000000000005	4.35	4.45	4.6	4.3	3.5000000000000004	3.1	2.45	2.0	1.4000000000000001	1.4000000000000001	1.4000000000000001	2.45	2.1	2.0	1.7000000000000002	1.7999999999999998	1.7000000000000002	1.6500000000000001	1.55	1.5	1.4000000000000001	1.15	0.8999999999999999	1.15	1.3	1.4500000000000002	1.6500000000000001	1.6	1.6500000000000001	1.7000000000000002	1.7500000000000002	1.9	1.95	2.0	2.1	1.8499999999999999	1.7999999999999998	1.7500000000000002	1.6	1.7500000000000002	1.7000000000000002	1.6500000000000001	1.8499999999999999	1.6	1.5	1.5	1.55	1.55	1.4500000000000002	1.4000000000000001	1.25	1.15	1.25	1.2	1.0999999999999999	1.05	1.0	0.8999999999999999	0.7000000000000001	1.0	0.95	0.8500000000000001	0.7000000000000001	0.5499999999999999	0.25	0.2	0.0
Node 6		0.1	0.25	0.3	0.35000000000000003	0.44999999999999996	0.8500000000000001	0.95	1.15	1.3	1.35	1.55	1.6500000000000001	1.6	1.6	1.6500000000000001	1.6	1.6500000000000001	1.4500000000000002	2.7	5.7	6.7	6.550000000000001	6.1	6.0	5.7	5.5	5.2	5.25	4.8	4.2	4.0	4.0	3.9	3.3000000000000003	3.35	3.05	2.1999999999999997	2.0500000000000003	1.8499999999999999	1.9	2.0	2.1999999999999997	2.1	2.0	1.9	1.7000000000000002	1.4500000000000002	1.55	1.5	1.55	1.55	1.35	1.25	1.05	1.35	1.4000000000000001	1.35	1.4000000000000001	1.4500000000000002	1.35	1.4500000000000002	1.5	1.6	1.4500000000000002	1.2	1.0	0.95	0.8500000000000001	0.75	0.7000000000000001	0.5499999999999999	0.4	0.25	0.15	0.0
Node 23		0.25	0.25	0.25	0.3	0.4	2.0	2.0	2.1	2.15	2.15	2.1999999999999997	2.1	1.55	1.4000000000000001	1.25	1.0	0.7000000000000001	0.8	0.8500000000000001	2.9499999999999997	2.7	2.9000000000000004	2.75	2.65	2.55	2.4	2.1999999999999997	2.15	2.1	2.4	2.4	2.35	2.55	2.4	2.45	2.3	2.25	2.1999999999999997	2.1999999999999997	1.9	1.7500000000000002	1.4500000000000002	3.25	4.2	4.0	3.8	3.4000000000000004	3.2	2.9499999999999997	2.85	2.7	2.25	2.0500000000000003	1.7999999999999998	1.4500000000000002	1.35	1.4000000000000001	1.25	1.2	1.05	1.0	0.75	0.75	0.8500000000000001	0.75	0.75	0.75	0.8	1.0	0.7000000000000001	0.6	0.44999999999999996	0.25	0.2	0.05
Node 16		0.1	0.15	0.15	0.2	0.25	0.44999999999999996	0.5	0.6	0.65	0.75	0.8500000000000001	0.8999999999999999	0.8500000000000001	0.8500000000000001	0.8500000000000001	0.8999999999999999	0.8500000000000001	0.7000000000000001	0.7000000000000001	1.4500000000000002	1.4500000000000002	1.3	1.2	1.2	1.0999999999999999	1.2	1.15	1.05	1.2	1.3	1.3	1.05	1.0	1.05	1.05	1.0	1.15	1.05	1.05	1.0	0.8500000000000001	0.75	0.8	5.45	5.800000000000001	5.45	5.65	5.45	4.9	5.6000000000000005	4.8500000000000005	4.25	3.8	3.1	2.4	2.15	2.15	1.9	1.3	1.0	1.0	0.8	0.8500000000000001	0.75	0.7000000000000001	0.65	0.6	1.3	2.3	2.0	1.6500000000000001	1.6500000000000001	1.3	0.75	0.25
Node 20		0.2	0.25	0.3	0.35000000000000003	0.4	0.65	1.0	1.0	2.9000000000000004	3.05	3.1	2.9000000000000004	2.25	2.0500000000000003	1.8499999999999999	1.6	1.35	1.0999999999999999	1.0	0.95	0.95	0.8500000000000001	0.8	0.8500000000000001	0.8999999999999999	0.95	0.8999999999999999	0.8	0.8500000000000001	0.7000000000000001	0.7000000000000001	0.65	0.65	0.6	0.7000000000000001	4.3	4.1000000000000005	3.4000000000000004	3.15	2.9000000000000004	2.65	2.1999999999999997	1.7999999999999998	1.5	1.15	1.0	0.95	0.8	0.95	1.05	1.0999999999999999	1.15	1.15	1.2	1.3	1.35	1.5	1.4000000000000001	1.4000000000000001	1.35	1.15	1.25	1.25	1.25	1.15	1.05	0.95	0.8500000000000001	1.4000000000000001	1.3	1.0999999999999999	0.95	0.75	0.44999999999999996	0.15
Node 1		0.2	0.3	0.35000000000000003	0.35000000000000003	0.5	0.5499999999999999	0.5499999999999999	0.5499999999999999	0.6	0.7000000000000001	0.75	0.75	0.8500000000000001	0.8500000000000001	0.8999999999999999	1.0	0.95	1.0	1.15	1.15	1.2	1.0999999999999999	1.2	1.15	1.0999999999999999	1.0999999999999999	1.05	1.05	1.05	1.15	1.0999999999999999	1.2	1.15	1.2	1.15	1.0999999999999999	1.0	1.05	1.0	0.8999999999999999	0.8999999999999999	0.75	0.7000000000000001	0.65	0.8	0.8500000000000001	0.8999999999999999	0.95	1.0	0.8999999999999999	1.0	1.0999999999999999	1.2	1.35	1.35	1.35	1.3	1.3	1.2	1.25	1.2	1.2	1.2	1.0999999999999999	0.8500000000000001	0.7000000000000001	0.65	0.5499999999999999	0.44999999999999996	0.35000000000000003	0.3	0.2	0.15	0.1	0.0
Node 35		0.2	0.2	0.25	0.35000000000000003	0.7000000000000001	1.4500000000000002	1.5	1.6	1.6	1.6500000000000001	1.7000000000000002	1.35	1.25	1.2	1.3	1.05	0.8500000000000001	0.65	0.75	0.65	0.65	0.75	0.8	0.8999999999999999	1.0	1.2	1.15	1.3	1.4000000000000001	2.35	2.3	2.35	2.35	2.3	2.1999999999999997	2.1999999999999997	2.0500000000000003	1.7500000000000002	1.6	1.35	1.15	1.15	1.15	1.2	1.2	1.2	1.2	1.15	1.15	1.0	0.8999999999999999	0.8999999999999999	0.8500000000000001	0.7000000000000001	0.7000000000000001	0.65	0.7000000000000001	0.6	0.6	0.5499999999999999	0.5499999999999999	0.6	0.6	0.5499999999999999	0.5	0.44999999999999996	0.35000000000000003	0.3	0.25	0.25	0.25	0.25	0.15	0.1	0.0
Node 31		0.25	0.3	0.3	0.35000000000000003	0.65	1.6	2.0	2.3	2.5	2.7	2.8000000000000003	2.8000000000000003	2.7	2.45	2.5	2.35	2.25	1.7000000000000002	1.4000000000000001	1.0999999999999999	0.95	0.8	0.8	0.75	0.75	0.8500000000000001	0.8	0.8999999999999999	0.95	0.95	1.0999999999999999	1.4000000000000001	1.4500000000000002	1.5	1.55	1.55	1.6	1.6	1.55	1.55	1.55	1.6500000000000001	1.4500000000000002	2.6	2.65	2.55	3.2	3.45	3.35	3.15	3.2	3.05	3.0	2.85	2.8000000000000003	2.65	2.55	2.35	1.7999999999999998	1.6	1.4500000000000002	1.3	1.2	1.15	0.8999999999999999	0.8	0.6	1.0	2.25	1.7999999999999998	1.35	1.15	0.95	0.65	0.15
Node 4		0.05	0.05	0.25	0.25	0.3	1.95	1.95	1.95	2.0	2.0500000000000003	2.1999999999999997	2.1999999999999997	2.0500000000000003	1.9	1.4000000000000001	1.3	0.95	1.0	2.35	14.35	18.2	18.55	18.7	24.65	23.599999999999998	21.7	20.1	19.25	17.150000000000002	22.85	21.3	19.15	16.75	14.299999999999999	11.700000000000001	9.15	7.55	5.800000000000001	3.95	2.45	1.15	0.75	0.75	8.35	13.5	14.05	15.35	15.75	14.549999999999999	15.4	15.55	13.850000000000001	12.35	10.65	8.95	7.199999999999999	5.75	4.5	3.5000000000000004	2.75	2.1	1.35	1.05	0.8999999999999999	0.7000000000000001	0.65	0.6	0.5499999999999999	0.5499999999999999	0.5	0.35000000000000003	4.7	3.8	2.25	0.5499999999999999
Node 17		0.3	0.4	0.4	0.5	0.5	0.6	0.75	0.8999999999999999	0.8999999999999999	0.95	1.0999999999999999	1.0	0.95	0.95	1.0	0.95	1.05	1.05	0.8999999999999999	0.75	0.8500000000000001	0.8500000000000001	0.8	0.75	0.8500000000000001	0.75	0.7000000000000001	0.65	0.7000000000000001	0.6	0.65	0.7000000000000001	0.6	0.6	0.7000000000000001	0.7000000000000001	0.65	0.65	0.7000000000000001	0.75	0.7000000000000001	0.7000000000000001	0.75	0.75	0.8999999999999999	0.8999999999999999	0.8	0.8	0.7000000000000001	0.8	0.8	0.8	0.8500000000000001	0.8999999999999999	0.8999999999999999	0.8999999999999999	0.8	0.7000000000000001	0.7000000000000001	0.7000000000000001	0.8500000000000001	0.75	0.8500000000000001	0.75	0.65	0.5499999999999999	0.5	0.44999999999999996	0.5	0.44999999999999996	0.4	0.35000000000000003	0.2	0.15	0.0
Node 21		0.0	0.0	0.2	0.25	0.44999999999999996	1.05	1.25	1.8499999999999999	2.0500000000000003	2.1	2.1999999999999997	2.3	2.1999999999999997	2.1	2.0	1.8499999999999999	1.6500000000000001	1.35	1.0	0.8999999999999999	0.8500000000000001	1.6500000000000001	2.0	3.2	3.15	3.55	3.65	3.75	4.15	4.5	4.5	5.1499999999999995	5.3	4.65	3.95	4.35	4.25	3.6999999999999997	3.5000000000000004	3.3000000000000003	3.05	2.65	2.35	4.8500000000000005	4.3	3.85	3.5000000000000004	2.9499999999999997	2.6	2.55	2.3	2.0	1.6	1.6	1.7000000000000002	1.4500000000000002	1.6	1.7999999999999998	1.7999999999999998	1.9	2.4	2.4	2.7	2.75	2.6	2.1999999999999997	1.7999999999999998	1.55	2.1	2.5	2.4	1.95	1.6500000000000001	1.0	0.25
Node 15		0.1	0.2	0.25	0.3	0.4	0.6	0.65	0.7000000000000001	0.75	0.8	0.8500000000000001	0.8	0.8500000000000001	0.95	0.8999999999999999	0.8999999999999999	0.95	0.8	0.8999999999999999	0.95	1.3	1.6	2.25	3.25	3.3000000000000003	3.1	3.2	3.15	3.1	3.15	3.2	3.1	2.6	2.0	1.55	1.05	1.05	1.15	1.15	1.25	1.25	1.0999999999999999	0.8999999999999999	1.05	0.95	1.0	1.15	1.3	1.2	1.6	1.55	1.5	1.5	1.6	1.6500000000000001	1.55	1.6	1.5	1.4500000000000002	1.3	1.35	1.0	1.05	1.05	0.95	0.8	0.75	1.2	2.0	1.7000000000000002	1.25	0.95	0.5499999999999999	0.3	0.0
Node 10		0.05	0.1	0.3	0.3	0.4	0.5	0.5499999999999999	0.6	0.7000000000000001	0.75	0.8500000000000001	0.8500000000000001	0.8999999999999999	0.8500000000000001	0.7000000000000001	0.75	0.75	0.7000000000000001	0.7000000000000001	0.7000000000000001	0.65	0.75	0.65	0.65	0.6	0.65	0.7000000000000001	0.75	0.7000000000000001	0.8	0.8500000000000001	0.8500000000000001	0.8	0.7000000000000001	0.8	0.8	0.8	0.8	0.75	0.8	0.8	0.7000000000000001	0.75	0.7000000000000001	0.7000000000000001	0.75	0.75	0.8500000000000001	0.8500000000000001	0.8999999999999999	0.8999999999999999	0.8500000000000001	0.8999999999999999	0.95	1.0	1.15	1.25	1.4500000000000002	1.3	1.35	1.4500000000000002	1.4500000000000002	1.5	1.4500000000000002	1.35	1.25	1.05	0.8999999999999999	0.8	0.8	0.8500000000000001	0.7000000000000001	0.4	0.2	0.05
Node 39		0.05	0.2	0.3	0.5499999999999999	0.8999999999999999	1.05	1.3	1.35	1.35	1.6	1.7000000000000002	1.7000000000000002	1.7999999999999998	1.7000000000000002	1.6	1.5	1.3	1.35	1.0999999999999999	4.45	4.1000000000000005	3.75	3.3000000000000003	3.25	2.8000000000000003	2.45	2.25	1.9	1.8499999999999999	1.6500000000000001	1.55	1.5	1.4000000000000001	1.2	1.15	1.0999999999999999	1.15	1.0999999999999999	1.0999999999999999	1.15	1.0999999999999999	1.05	1.05	0.8500000000000001	0.95	0.95	0.8999999999999999	0.8999999999999999	0.95	1.05	1.15	1.0999999999999999	1.05	1.0999999999999999	1.0	1.05	0.8999999999999999	0.8999999999999999	1.0999999999999999	1.0999999999999999	0.95	0.8500000000000001	0.75	0.7000000000000001	0.7000000000000001	0.6	0.5499999999999999	0.44999999999999996	0.5	0.5	0.7000000000000001	0.5	0.4	2.1999999999999997	0.5499999999999999
Node 26		0.25	0.3	0.35000000000000003	0.5	0.8500000000000001	1.0	1.0999999999999999	1.15	1.25	1.35	1.4000000000000001	1.25	1.0999999999999999	1.2	1.15	1.05	0.8999999999999999	0.8999999999999999	0.8	0.8500000000000001	0.8500000000000001	0.8	0.75	0.75	0.65	0.5499999999999999	0.6	0.75	0.75	0.8500000000000001	0.8999999999999999	1.15	1.2	1.2	1.3	1.3	1.4500000000000002	1.4500000000000002	1.3	1.15	1.15	1.0999999999999999	1.15	0.75	0.7000000000000001	0.7000000000000001	0.6	0.7000000000000001	0.6	0.6	0.7000000000000001	0.7000000000000001	0.7000000000000001	0.6	0.6	0.65	0.65	0.6	0.8	0.8	0.8500000000000001	0.8500000000000001	0.75	0.8	0.75	0.75	0.65	0.6	0.5499999999999999	0.5499999999999999	0.35000000000000003	0.25	0.15	0.15	0.05
Node 30		0.25	0.3	0.35000000000000003	0.5499999999999999	0.65	0.8	0.8	0.8500000000000001	0.95	1.0	1.0999999999999999	0.95	0.95	1.05	1.0999999999999999	1.0	0.95	0.8500000000000001	1.0	1.0	0.95	1.0	1.0	1.0	1.0	0.8999999999999999	0.8999999999999999	0.95	1.0	1.0	1.0	1.05	1.0	0.8999999999999999	0.8	0.8	0.8	0.75	0.75	0.7000000000000001	0.75	0.75	0.7000000000000001	0.65	0.7000000000000001	0.7000000000000001	0.75	0.7000000000000001	0.65	0.65	0.65	0.6	0.44999999999999996	0.5	0.5	0.5499999999999999	0.6	0.6	0.65	0.65	0.75	0.8	0.8	0.8	0.8	0.7000000000000001	0.6	0.5	0.4	0.4	0.3	0.3	0.2	0.1	0.0
Node 5		0.3	0.4	0.44999999999999996	0.65	0.7000000000000001	0.8	0.8500000000000001	0.8500000000000001	0.8500000000000001	0.95	1.0	1.0	0.8500000000000001	0.75	0.8999999999999999	0.75	0.8	0.75	0.95	1.0	1.4000000000000001	1.6500000000000001	1.6500000000000001	1.7000000000000002	1.9	2.0	2.15	2.5	2.8000000000000003	3.0	2.85	2.85	2.4	2.25	2.25	2.15	1.9	2.0	1.5	1.0999999999999999	0.8500000000000001	0.75	0.7000000000000001	0.75	0.8500000000000001	0.8999999999999999	0.95	1.15	1.25	1.3	1.4500000000000002	1.6500000000000001	1.7500000000000002	1.7999999999999998	1.7999999999999998	1.7500000000000002	1.6500000000000001	1.6	1.5	1.2	1.05	1.0	0.8999999999999999	0.7000000000000001	0.5499999999999999	0.44999999999999996	0.4	0.35000000000000003	0.95	0.8	0.75	0.65	0.5	0.25	0.1
Node 38		0.1	0.2	0.3	0.3	0.3	6.5	6.7	6.7	6.75	7.1	7.1499999999999995	6.4	5.7	4.7	3.6999999999999997	2.7	1.8499999999999999	1.6	1.5	1.55	1.6	2.8000000000000003	2.85	3.1	3.0	2.8000000000000003	2.7	2.55	2.45	2.55	2.55	2.5	2.6	2.1999999999999997	2.1	1.7000000000000002	1.7500000000000002	2.0	2.0500000000000003	2.1	2.1	1.7500000000000002	1.5	4.8500000000000005	5.0	4.6	3.95	3.9	3.55	3.2	2.7	2.35	1.95	1.7500000000000002	1.35	1.2	1.05	0.8500000000000001	0.8500000000000001	0.8999999999999999	0.8	0.65	0.5499999999999999	0.4	0.35000000000000003	0.25	1.0	0.8999999999999999	0.8500000000000001	0.75	0.6	0.44999999999999996	0.3	0.3	0.1
Node 14		0.25	0.4	0.44999999999999996	0.5499999999999999	0.7000000000000001	0.8	0.8999999999999999	1.05	1.2	1.3	1.35	1.3	1.25	1.2	1.15	1.05	1.0	0.95	0.95	0.8999999999999999	0.8999999999999999	0.8	0.8500000000000001	0.8	0.7000000000000001	0.6	0.7000000000000001	0.75	0.75	0.8500000000000001	0.8999999999999999	0.8	0.75	0.8500000000000001	0.8	0.8	0.8999999999999999	1.0	1.0	1.05	1.0	0.8500000000000001	0.8999999999999999	1.05	1.0	0.95	0.95	1.0999999999999999	1.0999999999999999	1.05	1.0	0.8999999999999999	0.95	1.0	0.95	0.8999999999999999	1.0	1.05	1.05	0.95	0.8999999999999999	0.95	1.0	1.0	0.8999999999999999	0.75	0.7000000000000001	0.6	0.44999999999999996	0.35000000000000003	0.3	0.25	0.2	0.1	0.0
Node 18		0.05	0.1	0.3	0.35000000000000003	0.35000000000000003	2.15	2.1999999999999997	2.3	2.35	2.45	2.7	2.45	2.4	2.3	2.0	1.7000000000000002	1.55	1.0999999999999999	1.0999999999999999	1.4500000000000002	1.35	1.3	1.0999999999999999	1.25	1.05	0.8999999999999999	0.95	1.0	1.0	0.8999999999999999	1.0	0.8999999999999999	0.8999999999999999	1.0999999999999999	1.05	1.0	1.0	1.05	1.0999999999999999	1.0999999999999999	1.25	1.35	1.2	1.3	1.3	1.15	1.2	1.0999999999999999	1.15	1.0999999999999999	1.05	1.05	0.8500000000000001	0.8500000000000001	0.8999999999999999	0.8500000000000001	0.7000000000000001	0.7000000000000001	0.8	0.8999999999999999	0.95	0.8999999999999999	0.95	1.0	0.95	0.8	0.75	0.7000000000000001	0.7000000000000001	0.6	0.44999999999999996	0.35000000000000003	0.2	0.2	0.1
Node 24		0.05	0.15	0.25	0.4	3.5000000000000004	6.5	6.65	6.65	6.7	6.7	6.75	5.949999999999999	5.2	4.15	3.25	2.1999999999999997	1.15	0.75	0.7000000000000001	0.75	0.8	0.95	1.55	1.5	1.35	1.5	1.25	1.15	1.0999999999999999	1.05	1.0	1.0	0.8999999999999999	0.8500000000000001	1.05	1.0	1.15	1.05	1.15	1.2	1.25	1.3	1.35	1.3	1.3	1.0999999999999999	1.0	1.05	0.8999999999999999	0.8500000000000001	0.75	0.65	0.6	0.6	0.5499999999999999	0.6	0.6	0.5499999999999999	0.5499999999999999	0.5499999999999999	0.6	0.6	0.65	0.65	0.6	0.5	0.44999999999999996	0.35000000000000003	0.3	0.3	0.2	0.15	0.1	0.1	0.05
Node 2		0.0	0.15	0.2	0.25	0.4	0.44999999999999996	0.6	0.7000000000000001	0.8	0.8500000000000001	0.8500000000000001	0.8500000000000001	1.0	0.95	0.8999999999999999	1.0999999999999999	1.0999999999999999	1.15	1.0	1.05	1.25	1.35	1.6	2.0	1.9	1.95	1.95	1.7000000000000002	1.6	1.6	1.8499999999999999	1.9	1.6	1.6500000000000001	1.4500000000000002	1.0999999999999999	1.05	0.8999999999999999	1.0	1.0999999999999999	1.05	0.95	0.7000000000000001	1.3	1.3	1.15	1.05	1.0999999999999999	1.2	1.3	1.4500000000000002	1.55	1.7000000000000002	1.7000000000000002	1.6500000000000001	1.55	1.55	1.6500000000000001	1.55	1.4500000000000002	1.3	1.0999999999999999	0.8999999999999999	0.75	0.5499999999999999	0.44999999999999996	0.4	0.4	1.7000000000000002	1.5	1.25	1.05	0.8500000000000001	0.5499999999999999	0.2
Node 12		0.0	0.1	0.3	0.35000000000000003	0.5	0.5	0.6	0.7000000000000001	0.7000000000000001	0.75	0.8500000000000001	0.8500000000000001	0.8999999999999999	0.8999999999999999	0.7000000000000001	0.75	0.7000000000000001	0.75	0.65	0.5499999999999999	0.5499999999999999	0.6	0.5499999999999999	0.6	0.65	0.5499999999999999	0.5499999999999999	0.5	0.4	0.5	0.75	0.8500000000000001	0.95	1.0	1.05	1.3	1.35	1.4500000000000002	1.55	1.5	1.55	1.55	1.35	1.25	1.3	1.3	1.25	1.05	0.8999999999999999	0.8500000000000001	0.8	0.8999999999999999	0.8999999999999999	0.8500000000000001	0.8999999999999999	0.95	0.8500000000000001	0.8	0.8500000000000001	0.8	0.8500000000000001	0.8	0.8500000000000001	0.8	0.75	0.65	0.5499999999999999	4.8500000000000005	5.4	4.8500000000000005	3.9	3.0	1.8499999999999999	1.0999999999999999	0.3
Node 33		0.25	0.35000000000000003	0.35000000000000003	0.35000000000000003	0.44999999999999996	0.8	0.8999999999999999	1.2	1.3	1.3	1.35	1.15	1.2	1.0999999999999999	1.25	1.3	1.25	1.05	1.0	0.7000000000000001	0.7000000000000001	0.75	2.45	6.25	6.550000000000001	7.5	8.35	8.6	11.05	14.35	17.549999999999997	18.55	17.150000000000002	15.299999999999999	13.3	11.0	9.5	7.95	6.25	4.8500000000000005	3.45	2.15	1.0999999999999999	0.8	2.9000000000000004	3.55	12.45	14.149999999999999	17.5	16.1	15.049999999999999	13.65	12.0	10.6	8.799999999999999	7.1	5.4	4.5	3.2	2.15	1.25	1.25	1.0	0.8500000000000001	0.8	0.75	0.65	0.6	1.6	2.55	5.6000000000000005	4.7	3.35	1.9	0.5
Node 3		0.15	0.15	0.25	0.3	0.35000000000000003	9.9	11.0	11.05	11.05	11.15	11.25	10.05	8.35	7.1	5.5	4.05	2.75	1.25	0.65	0.75	0.95	0.95	0.8999999999999999	0.8500000000000001	0.95	0.95	0.95	1.0	1.0999999999999999	1.25	1.0999999999999999	1.0999999999999999	0.8999999999999999	0.8999999999999999	0.8500000000000001	0.8999999999999999	0.8	0.8	0.8999999999999999	0.8500000000000001	0.75	0.5499999999999999	0.5499999999999999	0.5499999999999999	0.65	0.6	0.8500000000000001	1.05	1.2	1.3	1.2	1.3	1.4000000000000001	1.4000000000000001	1.5	1.4500000000000002	1.35	1.3	1.15	0.95	0.95	0.8	0.8	0.7000000000000001	0.6	0.6	0.44999999999999996	1.5	4.5	4.0	3.3000000000000003	2.6	1.5	0.8	0.25
Node 40		0.0	0.0	0.0	0.0	0.95	5.8500000000000005	6.0	6.35	6.4	6.4	6.4	5.55	4.65	3.75	3.1	2.15	1.3	0.5	0.35000000000000003	0.05	0.0	0.0	0.0	0.0	0.0	0.0	0.0	0.0	0.0	0.0	0.0	0.0	0.0	0.0	0.0	0.0	0.0	0.0	0.0	0.0	0.0	0.0	0.0	0.0	0.0	0.0	0.0	0.0	0.0	0.0	0.0	0.0	0.0	0.0	0.0	0.0	0.0	0.0	0.0	0.0	0.0	0.0	0.0	0.0	0.0	0.0	0.0	0.0	0.0	0.0	0.0	0.0	0.0	0.0	0.0
Node 9		0.25	0.25	0.35000000000000003	0.35000000000000003	1.15	1.4500000000000002	1.55	1.7000000000000002	2.0500000000000003	2.1	2.25	2.15	2.0500000000000003	1.8499999999999999	1.6500000000000001	1.55	1.4500000000000002	2.5	2.1999999999999997	1.8499999999999999	1.6500000000000001	1.55	1.6	1.6500000000000001	1.3	1.25	1.35	1.15	1.15	1.15	1.25	1.3	1.35	1.3	1.2	1.05	1.15	1.05	1.0	0.95	0.8999999999999999	0.8999999999999999	1.05	1.15	1.4500000000000002	1.6500000000000001	1.7000000000000002	1.7500000000000002	1.7500000000000002	1.7999999999999998	1.6500000000000001	1.6	1.4000000000000001	1.35	1.35	1.25	1.15	1.0	1.0	1.0999999999999999	1.0999999999999999	1.0999999999999999	1.15	1.0999999999999999	1.05	1.0	0.95	0.8500000000000001	0.75	0.7000000000000001	0.5499999999999999	0.4	0.44999999999999996	2.15	0.5499999999999999
Node 27		0.15	0.25	0.3	0.4	0.4	0.8999999999999999	1.15	1.4500000000000002	1.4500000000000002	1.5	1.6	1.6	1.7000000000000002	1.6	1.6500000000000001	1.7000000000000002	1.7500000000000002	1.3	1.2	1.0	1.15	1.3	1.2	1.2	1.0999999999999999	1.05	0.95	0.8999999999999999	0.8999999999999999	1.05	1.2	1.25	1.2	1.0999999999999999	1.3	1.35	1.4500000000000002	1.4500000000000002	1.5	1.4500000000000002	1.4500000000000002	1.35	1.35	1.3	1.2	1.15	0.95	0.95	0.8500000000000001	0.8999999999999999	0.8	0.8999999999999999	0.8999999999999999	0.8500000000000001	0.7000000000000001	0.8	0.95	0.95	1.05	0.95	1.05	1.0	1.0	0.8500000000000001	0.8	0.8	0.75	0.6	0.44999999999999996	0.4	0.3	0.25	0.1	0.05	0.0
Node 0		0.1	0.25	0.3	0.35000000000000003	0.8999999999999999	7.1499999999999995	7.249999999999999	7.3	7.449999999999999	7.6	7.6499999999999995	6.75	5.55	4.7	3.4000000000000004	2.55	1.5	0.8999999999999999	0.8999999999999999	3.1	2.6	2.55	2.1999999999999997	2.15	1.95	1.9	1.95	1.8499999999999999	1.7500000000000002	1.6500000000000001	1.5	1.0999999999999999	1.05	0.8500000000000001	0.8500000000000001	0.8	0.65	0.44999999999999996	0.35000000000000003	0.4	0.44999999999999996	0.4	0.5	0.4	0.5	0.5499999999999999	0.5499999999999999	0.65	0.7000000000000001	0.7000000000000001	0.7000000000000001	0.65	0.65	0.65	0.6	0.7000000000000001	0.7000000000000001	0.8	0.75	0.7000000000000001	0.8	0.8	0.8	0.75	0.7000000000000001	0.7000000000000001	0.65	0.5499999999999999	0.44999999999999996	0.3	0.3	0.2	0.05	0.0	0.0
Node 29		0.25	0.4	0.65	0.65	0.7000000000000001	1.4500000000000002	1.55	1.6	1.7500000000000002	2.0500000000000003	2.15	1.95	1.95	1.7999999999999998	1.6500000000000001	1.6	1.6	1.55	1.6	2.3	2.0	2.45	2.3	2.85	2.5	2.4	2.1	2.0500000000000003	1.7999999999999998	1.55	1.2	1.15	1.0999999999999999	0.8999999999999999	0.8500000000000001	0.7000000000000001	0.8500000000000001	1.05	1.2	1.15	1.15	1.2	1.35	1.25	1.25	1.2	1.15	1.15	1.2	1.05	0.8	0.8	0.75	0.7000000000000001	0.5499999999999999	0.8	0.8	0.8500000000000001	0.8	0.8999999999999999	0.8500000000000001	0.8500000000000001	0.8999999999999999	0.8	0.75	0.7000000000000001	0.65	0.4	0.35000000000000003	0.25	0.25	0.1	0.05	0.05	0.0
Node 36		0.15	0.15	0.3	0.35000000000000003	0.4	0.65	5.75	5.949999999999999	6.1	6.2	6.2	7.1499999999999995	6.2	5.55	5.25	4.2	3.2	2.9499999999999997	2.75	2.55	2.25	2.25	2.25	1.9	1.8499999999999999	1.7000000000000002	1.4500000000000002	1.4000000000000001	2.0	1.7500000000000002	1.7000000000000002	1.6500000000000001	1.6500000000000001	1.5	1.95	2.15	2.1	2.0	2.0500000000000003	2.0500000000000003	2.0500000000000003	2.0500000000000003	2.1	2.45	3.5000000000000004	3.25	3.15	3.1	3.65	3.35	3.15	2.9000000000000004	2.75	2.55	2.4	2.25	2.1	2.0500000000000003	1.95	1.7000000000000002	1.25	1.4000000000000001	1.25	2.15	2.0500000000000003	1.9	2.1	1.8499999999999999	2.1999999999999997	1.8499999999999999	1.4500000000000002	1.05	0.75	0.4	0.1
