81	133
28	2188
1	59
32	149
75	286
10	34
35	46
72	200
70	114
60	36
26	52
80	193
15	432
12	33
48	86
34	391
55	12
31	30
54	12
68	43
40	23
96	147
20	103
9	205
61	4
25	56
44	56
89	1
93	97
11	325
64	94
94	668
53	220
21	39
37	35
62	126
3	151
92	39
19	78
16	257
67	9
91	86
87	12
8	5
38	930
76	159
50	95
57	31
78	47
85	929
95	1127
63	15
22	107
69	77
6	297
29	42
30	79
7	202
74	162
59	24
42	527
65	53
77	415
17	51
36	192
51	2
39	7
13	395
47	2
82	199
73	193
71	161
56	1442
79	206
41	255
52	8
88	210
90	139
49	294
5	46
4	21
84	186
43	40
46	41
45	112
14	213
58	136
18	289
27	58
33	36
2	19
23	154
83	242
0	1
