81	1497
28	14394
1	559
32	996
75	2965
10	256
35	321
72	2066
70	988
60	436
26	439
80	1612
15	3271
12	224
48	562
34	4458
55	86
31	325
54	92
68	365
40	147
96	1327
9	1901
20	677
61	51
25	481
44	425
89	32
93	802
11	3433
64	953
94	5964
53	2046
21	300
37	408
62	1159
3	2114
92	248
19	939
16	2518
67	161
91	713
87	78
8	52
38	8626
76	1346
50	734
57	265
78	419
85	9837
95	9119
63	170
69	744
22	1148
6	2390
29	373
30	719
7	1330
74	1215
59	288
42	6553
65	420
17	415
77	4225
36	1600
51	28
39	129
13	3102
47	45
82	1423
73	1770
71	1985
56	14100
79	1526
41	3115
52	75
88	1744
90	1232
49	2464
5	432
4	232
84	1355
43	739
46	772
45	1062
14	1600
58	1002
18	2957
27	456
33	268
2	197
23	1179
83	2051
0	59
