7 1.3945304218783172
9 1.9633877464490275
74 1.5207441170235174
71 1.2482192071231675
59 0.5499682001271952
25 0.6529679881280518
11 2.7961840152639543
33 0.472789908840367
30 0.5172143311426758
23 1.3420606317574815
53 2.052416790332842
67 0.5980708077167716
39 0.5349056603773639
8 0.424189103243588
95 8.842368030527863
24 0.48078227687089287
38 8.069821920712302
43 1.1153275386898367
63 0.46314394742421044
19 0.7801144795420777
52 0.49498622005512544
61 0.49726521093916026
20 0.5652109391562308
91 0.6225567097731655
66 0.4380220479118005
6 2.27138011447954
49 2.4443926224294956
93 0.6278566885732473
21 0.6778566885732462
68 0.7927178291286839
27 0.7222705109179645
73 1.8251960992156169
96 0.8109179563281815
64 1.1069429722281052
35 0.5452936188255219
46 1.0411490354038573
70 0.9590205639177419
72 2.107207971168123
81 1.7919440322238736
55 0.5433856264574968
14 1.3851918592325672
65 0.5343014627941496
51 0.4273478906084382
87 0.527273690905238
89 0.4315984736061069
44 0.5831036675853267
26 0.6584905660377384
32 1.341975832096667
1 0.5364108543565832
22 1.2617129531481985
82 1.6193449226203052
78 0.6213165147339412
4 0.6133559465762117
0 0.47722069111723403
31 0.45190799236803036
34 4.466154335382659
69 0.9288954844180568
13 2.8142251430994323
47 0.4560207759168973
54 0.43064447742208667
60 0.6089251642993491
88 1.8033707865168644
10 0.5097625609497556
92 0.41829552681789167
36 1.5595717617129494
2 0.5955056179775304
18 3.14004663981342
15 3.155056179775265
90 1.0502861988552132
86 0.480782276870891
75 2.9463006147975324
79 1.4512613949544069
85 9.843671825312695
56 13.575524697901164
77 3.9394954420182384
84 1.2604197583209615
62 1.1491626033496027
5 0.5571655713377153
80 1.1581831672673324
29 0.5839834640661418
94 5.453964384142517
58 1.9794572821708782
41 3.257441170235326
16 2.9921136315454753
76 2.049544201823194
50 0.6274220903116429
37 0.703890184439261
12 0.4850646597413687
40 0.5065295738817005
28 14.20576637693454
48 0.9759486962052185
3 1.4160271358914702
83 1.6102289590841543
42 7.535541657833345
45 1.0476150095399805
57 0.49950180199279204
17 0.44669281322874343
