NrofLatencyAverage/Contact
32000 261038.2598
64000 253822.0720
10500 252895.5405
42500 258699.8866
74500 256387.5399
21000 257122.5902
53000 257786.7707
85000 259916.1211
31500 260917.6900
63500 253843.6986
10000 253808.2666
42000 258529.3589
74000 256149.1586
20500 256801.7847
52500 257983.1361
84500 259916.1211
31000 260309.6704
63000 254152.5443
9500 253033.4795
41500 258786.2701
73500 256129.0625
20000 256714.0122
52000 258253.7676
84000 259916.1211
30500 259599.3245
62500 254342.1767
9000 254427.9391
41000 258899.5550
73000 256235.6508
19500 257604.2632
51500 258253.2655
83500 259916.1211
30000 259193.4039
62000 254614.3705
8500 254342.4197
40500 258681.8263
72500 256531.8992
19000 256377.3937
51000 258463.3492
83000 259916.1211
29500 257225.6310
61500 254755.3516
8000 255586.7454
40000 259250.2949
72000 256460.9114
18500 257456.9929
50500 258030.1050
82500 259916.1211
29000 256103.2049
61000 254817.6115
7500 253862.1013
39500 259166.1604
71500 256363.9185
18000 257274.1027
50000 258216.4529
82000 259916.1211
28500 256427.7675
60500 255105.7178
7000 254644.0479
39000 259164.7060
71000 256210.8984
17500 257635.2146
49500 258274.8034
81500 259916.1211
28000 255999.6640
60000 255507.0099
6500 255746.2958
38500 259005.1043
70500 255448.0053
17000 256899.9919
49000 257979.1523
81000 259431.2295
27500 256130.6541
59500 256164.7393
6000 257992.2443
38000 258571.9785
70000 255591.3503
16500 256819.8857
48500 257731.9564
80500 258971.9527
27000 256253.8670
59000 256358.6978
5500 258929.5698
37500 257811.2890
69500 255203.8483
16000 257261.5309
48000 257628.6181
80000 258556.0119
26500 256433.7382
58500 256935.7799
5000 259502.6902
37000 258194.3465
69000 255200.3841
15500 255178.7789
47500 257852.5505
79500 258350.3502
26000 257142.7527
58000 256947.7118
4500 262074.4745
36500 258202.2886
68500 255492.9210
15000 254931.2335
47000 258294.2616
79000 258420.4242
25500 257003.9442
57500 257331.6047
4000 253442.1454
36000 258321.7892
68000 255371.2602
14500 256164.9715
46500 258197.0994
78500 258441.8246
25000 255545.6978
57000 257391.0599
3500 235574.0710
35500 258519.4870
67500 254949.0960
14000 255962.3326
46000 257955.9269
78000 258223.5527
24500 257068.0088
56500 257022.5032
3000 219403.5091
35000 259353.4848
67000 254813.8001
13500 255441.9685
45500 258516.7813
77500 258572.7017
24000 256937.1795
56000 257630.8273
2500 188522.4762
34500 260039.1319
66500 254871.5243
13000 255406.2561
45000 258577.2092
77000 258213.9279
23500 257573.1497
55500 257482.5103
2000 79348.0000
34000 260118.1045
66000 254452.6205
12500 253993.6892
44500 258680.6323
76500 257201.4715
23000 257621.3844
55000 257451.1600
1500 77976.4839
33500 259588.8269
65500 254105.5177
12000 253944.3241
44000 258513.7343
76000 257139.4652
22500 257067.9287
54500 257727.9770
1000 72783.5556
33000 260796.7393
65000 253832.5243
11500 255524.3926
43500 258494.2860
75500 256828.6741
22000 256079.4784
54000 257767.5170
500 18204.5000
32500 260677.8619
64500 253791.0879
11000 254924.8616
43000 258607.2471
75000 256160.5770
21500 256980.7377
53500 257958.9667
85500 259916.1211

