Message stats for scenario simbetHcLcopy2
sim_time: 16981816.0000
created: 25299
started: 147596
relayed: 128165
aborted: 19431
dropped: 138308
removed: 7655
delivered: 7501
delivery_prob: 0.2965
response_prob: 0.0000
overhead_ratio: 16.0864
latency_avg: 259916.1211
latency_med: 242136.0000
hopcount_avg: 2.9581
hopcount_med: 3
buffertime_avg: 402180.3660
buffertime_med: 455328.0000
rtt_avg: NaN
rtt_med: NaN
TotalCopy: 120664
