Node	Value
81	43
28	2224
1	9
32	28
75	78
35	6
10	5
72	51
70	19
60	8
26	3
80	26
15	40
12	7
48	7
34	218
55	3
31	4
68	14
40	2
20	11
96	14
9	41
61	2
44	5
25	9
11	113
93	8
64	22
94	81
53	73
21	13
37	5
62	16
3	39
92	4
19	8
16	47
67	2
91	9
87	8
8	1
38	165
76	28
50	13
57	4
78	6
85	272
95	337
63	1
69	22
22	24
6	47
29	1
30	4
7	30
74	22
59	8
42	494
65	11
77	218
17	4
36	27
51	1
39	1
13	37
47	4
82	25
73	54
71	35
56	935
79	19
41	82
52	2
88	33
90	13
49	46
5	8
4	2
84	22
43	22
46	15
45	24
14	36
58	18
27	14
18	65
33	2
23	41
83	42
2	1
0	1
