A81	0.5733866482758283 
A28	0.5953481743117192 
A1	0.3786045535177129 
A10	0.3879588571869028 
A32	0.5251458793099726 
A75	0.5254249220705266 
A35	0.519201075984852 
A72	0.4954058991850876 
A70	0.4663000595785781 
A60	0.49643434088195326 
A26	0.4772031926098802 
A80	0.4630827952836954 
A15	0.5654899224680937 
A12	0.2199775005947623 
A48	0.5196371597800961 
A34	0.5180117612415915 
A31	0.33197854589516523 
A55	0.40454634708934134 
A54	0.2026102345060481 
A68	0.552531141880354 
A40	0.2718263678998321 
A96	0.539405167571009 
A9	0.5601272776052991 
A20	0.3347211149519681 
A61	0.21564307025047574 
A25	0.46791600244607745 
A44	0.445137501443819 
A89	0.2510796631594805 
A93	0.49408757550128013 
A11	0.47349317074965014 
A64	0.5348219125039937 
A94	0.54653847541113 
A53	0.4778039723454135 
A21	0.3973126673707949 
A37	0.4662985329608302 
A62	0.515822176920247 
A3	0.5073909067748849 
A92	0.23752125143241334 
A19	0.4456504783306446 
A16	0.6054351348275763 
A67	0.43623559112051497 
A91	0.45364926264622696 
A87	0.3494004616219966 
A8	0.41704718342250163 
A38	0.5592514150733245 
A76	0.4746828542152835 
A86	0.0 
A50	0.4535744319374376 
A57	0.3456587339490391 
A78	0.43290047916916036 
A85	0.5237860394419448 
A95	0.5682305516467868 
A63	0.2651332691905925 
A69	0.6032966000197088 
A22	0.5279614463230446 
A6	0.5081961790838038 
A29	0.3850954188436106 
A30	0.41327464078452225 
A7	0.4945701393062065 
A74	0.5256980657464684 
A59	0.4702904952978872 
A42	0.5279367911833043 
A65	0.5523398437787992 
A17	0.36365512842906633 
A77	0.5902523354938624 
A36	0.519230415452292 
A51	0.41138562992631683 
A39	0.45524101005430057 
A13	0.5223319809154628 
A47	0.3065261148186778 
A82	0.47720739509420745 
A73	0.5241361825103314 
A71	0.5381926520661672 
A56	0.5603012988919855 
A79	0.4714169221162565 
A41	0.5032764105869636 
A66	0.0 
A52	0.24679306536667114 
A88	0.48000224482245246 
A90	0.43015452216388383 
A49	0.49867320939882265 
A5	0.37095859763751454 
A4	0.5932196858302373 
A84	0.4425815218098382 
A43	0.5543575159300524 
A46	0.5207008724752469 
A45	0.49568038564986866 
A14	0.4600681155035962 
A58	0.5251229231293969 
A18	0.5042086241339402 
A33	0.4307329857962044 
A27	0.483945995086944 
A2	0.493427973316098 
A23	0.5676279746907926 
A83	0.4957666750285933 
A0	0.016536430445539277 
