78	43
4	16
7	168
9	230
34	361
74	162
31	2
71	99
69	85
59	24
25	23
13	330
11	243
33	20
30	24
53	236
23	130
67	9
39	7
95	1137
38	855
43	34
60	29
88	206
10	28
19	53
36	128
61	4
2	26
20	29
91	32
18	314
15	432
90	71
6	321
75	193
79	169
85	749
49	301
56	1067
77	394
84	147
62	87
93	31
21	25
68	38
80	170
5	15
27	30
29	25
94	704
73	175
96	119
58	133
41	169
64	112
76	268
16	277
35	5
50	28
37	29
46	44
70	78
72	172
81	136
55	9
14	139
65	22
40	5
28	1471
87	7
48	65
3	97
83	105
42	399
45	85
44	16
57	7
26	40
32	108
17	2
22	95
1	15
82	200
