10 0.29856900572397793
75 1.1668963324146782
72 0.5451452194191245
60 0.3880008479966095
26 0.5250476998092022
80 0.18677125291498964
12 0.26066355734576885
34 3.5846512613949457
31 0.3782488870044484
24 0.48078227687089287
54 0.3263620945516221
68 0.4896968412126368
40 0.3995336018655891
9 0.6615857536569874
96 0.38080347678608256
25 0.43728005087979294
44 0.3007207971168094
64 0.5765528937884278
94 0.40071019715920675
21 0.3780474878100478
53 1.096523213907163
62 0.38582785668857034
92 0.3479648081407665
67 0.5020563917744363
8 0.4028407886368433
38 1.1489612041551913
50 0.21653593385626388
95 1.3072821708713411
22 0.5868560525757904
69 0.748113207547167
29 0.2590947636209438
74 0.2493428026287908
65 0.33016747933008495
36 0.43311426754292465
47 0.3858490566037741
71 0.5368136527453842
73 0.7842802628789406
82 0.21396014415942266
56 9.846470214119133
79 0.324051303794787
66 0.43359126563493094
52 0.3713907144371426
88 0.5102819588721622
90 0.21425694297222653
4 0.5221857112571576
45 0.38587025651897383
27 0.3456328174687301
33 0.229383082467665
2 0.5599957600169616
23 0.8262984948060221
83 0.5647763408946441
0 0.541583633665465
81 1.046873012507948
28 14.47888488446047
1 0.227051091795632
32 0.3304218783124881
35 0.28786304854780653
70 0.31887852448590165
15 0.3787576849692601
48 0.19219843120627353
55 0.4602183591265628
20 0.20987916048335944
61 0.3518549925800325
89 0.4136103455586197
11 1.8288848844604568
93 0.23677125291498707
37 0.4235213059147749
3 1.485064659741358
19 0.27124231503073654
16 0.6366016535933913
91 0.37068051727792994
87 0.37974348102607225
76 0.5292346830612692
86 0.480782276870891
57 0.4775386898452417
78 0.37254610981555897
85 3.2849586601653575
63 0.3284608861564542
6 0.4109497562009744
30 0.2253020987916027
7 0.42127411490354083
59 0.4264044943820274
42 6.506677973288111
17 0.19341742633029105
77 2.7434280262878987
51 0.41939792240831086
39 0.47732669069323697
13 0.22755988976043848
41 2.6611617553530005
49 0.4096671613313514
5 0.34892940428237973
84 0.22357430570277712
43 1.0394106423574299
46 0.8215285138859476
14 0.5152003391986417
58 0.6407144371422553
18 1.482117871528513
