Message Drop for scenario FairRoutingHaggleInfocom#20M
sim_time: 274883.0000

10	2841
28	2884
36	2868
12	2199
17	2104
11	811
7	2885
26	2875
4	2851
8	2866
32	2869
35	1744
18	2869
15	2879
37	1673
30	211
33	2862
25	2881
2	2861
13	2876
24	2883
3	2870
16	2879
1	2848
31	2880
23	2886
20	2009
27	2101
39	2882
6	2063
29	2838
40	1940
0	2879
38	2866
9	2887
34	2852
21	2889
19	2848
22	2879
14	2779
5	2872

