Node 25		0.0	0.3	0.3	0.75	1.05	46.800000000000004	46.800000000000004	46.949999999999996	47.25	47.699999999999996	48.0	41.699999999999996	34.949999999999996	28.65	21.75	14.7	7.95	3.3000000000000003	3.3000000000000003	47.85	81.75	83.55	81.0	93.15	84.89999999999999	77.10000000000001	69.45	61.35	82.5	90.0	90.75	84.3	76.35	68.7	60.9	52.5	44.55	37.05	29.099999999999998	22.05	15.45	8.4	3.75	3.75	49.35	68.25	81.45	80.55	75.0	85.35000000000001	79.5	71.7	64.35	57.15	49.05	41.25	33.900000000000006	27.0	19.5	13.65	7.5	3.15	3.15	2.85	2.7	2.55	8.4	39.15	33.75	39.300000000000004	35.099999999999994	27.150000000000002	20.549999999999997	11.700000000000001	3.0
Node 19		0.3	0.75	1.2	1.5	9.75	41.4	41.699999999999996	42.15	42.15	42.15	42.15	45.0	37.65	31.2	24.3	17.25	17.549999999999997	12.9	10.5	15.6	66.75	78.3	80.85	90.0	82.05	75.14999999999999	68.10000000000001	59.699999999999996	51.300000000000004	43.95	36.75	28.199999999999996	21.0	13.350000000000001	6.6000000000000005	2.7	2.55	4.95	31.2	24.6	18.15	11.700000000000001	6.3	23.549999999999997	31.95	66.75	79.5	79.05	77.7	85.8	79.95	77.4	70.65	63.449999999999996	56.10000000000001	48.449999999999996	41.099999999999994	34.35	26.400000000000002	20.1	13.350000000000001	6.3	2.85	5.4	4.5	4.2	6.9	26.55	44.1	37.95	35.25	27.0	19.8	11.25	2.85
Node 13		0.3	0.3	0.44999999999999996	0.8999999999999999	8.4	41.25	41.55	41.55	41.85	42.0	42.15	36.0	30.3	23.849999999999998	16.8	10.35	3.75	2.1	2.1	2.25	51.300000000000004	84.89999999999999	88.94999999999999	94.05	92.4	87.9	86.85000000000001	80.25	82.8	89.85	89.85	84.0	75.9	67.5	59.550000000000004	51.15	43.35	36.0	27.900000000000002	21.0	14.249999999999998	7.95	2.85	25.650000000000002	54.0	58.8	74.1	69.3	62.1	55.65	48.9	77.85	71.85000000000001	64.95	57.45	49.8	42.3	35.699999999999996	28.050000000000004	21.3	14.549999999999999	7.6499999999999995	3.75	3.0	2.7	2.4	1.7999999999999998	3.0	45.0	39.900000000000006	32.1	25.05	18.0	10.5	2.55
Node 8		0.44999999999999996	0.75	1.05	1.05	4.05	45.0	46.650000000000006	47.099999999999994	47.25	47.4	47.55	40.65	36.75	30.0	22.05	15.0	7.8	4.2	3.75	64.05	80.85	82.5	89.25	94.19999999999999	92.55	86.4	78.60000000000001	70.65	82.5	85.5	90.14999999999999	84.0	76.95	68.4	60.150000000000006	51.9	44.85	37.2	29.099999999999998	22.05	15.15	9.15	3.45	2.4	2.1	42.6	67.05	61.050000000000004	72.3	82.95	75.44999999999999	67.2	60.0	52.949999999999996	45.15	37.5	30.45	24.15	30.0	23.7	17.1	10.95	7.95	7.5	7.199999999999999	6.45	5.7	4.95	38.4	40.2	33.900000000000006	26.400000000000002	19.2	11.25	2.7
Node 32		0.6	0.8999999999999999	0.8999999999999999	1.2	9.15	40.65	48.6	49.05	49.5	49.8	50.24999999999999	44.85	37.5	38.25	31.05	24.0	18.0	12.0	10.8	61.95	82.95	86.7	82.65	92.10000000000001	85.2	86.25	82.19999999999999	74.4	66.0	92.85	88.64999999999999	80.10000000000001	72.3	64.5	56.39999999999999	48.6	41.4	39.300000000000004	32.25	25.5	19.05	12.75	7.35	24.0	52.2	47.4	80.25	79.5	84.89999999999999	81.75	75.3	67.35	71.55	66.60000000000001	58.95	52.349999999999994	45.0	38.1	30.45	23.549999999999997	16.5	9.45	4.8	6.3	5.4	4.8	13.05	36.449999999999996	41.85	35.699999999999996	28.799999999999997	22.05	15.6	9.45	2.4
Node 22		0.6	0.8999999999999999	0.8999999999999999	1.2	1.35	37.95	40.050000000000004	40.2	40.35	40.5	40.65	37.65	32.25	26.700000000000003	20.4	13.8	7.35	3.75	2.55	13.8	78.14999999999999	85.05	83.85000000000001	92.4	88.94999999999999	82.35	90.3	83.39999999999999	74.85000000000001	92.25	90.14999999999999	85.65	78.0	69.89999999999999	61.95	53.7	46.050000000000004	38.4	30.15	23.25	16.5	9.75	4.35	46.949999999999996	44.55	67.5	75.9	77.10000000000001	83.39999999999999	84.15	81.75	80.10000000000001	73.05	66.0	58.35	50.55	43.35	36.449999999999996	28.65	21.75	15.0	8.1	4.35	3.3000000000000003	3.15	2.85	2.25	28.050000000000004	42.15	36.15	29.099999999999998	22.2	15.75	9.45	2.55
Node 11		0.75	1.05	1.2	1.2	1.35	21.0	32.550000000000004	32.7	33.300000000000004	49.05	49.8	43.95	37.35	31.05	23.549999999999997	16.650000000000002	9.75	6.15	5.1	4.65	4.35	3.9	3.3000000000000003	2.55	2.55	2.55	2.7	2.85	3.3000000000000003	3.15	3.3000000000000003	3.45	3.5999999999999996	3.45	3.3000000000000003	3.45	3.3000000000000003	3.15	3.45	3.0	2.7	2.85	2.85	2.85	2.7	2.55	2.85	2.7	2.7	2.7	2.4	2.7	19.650000000000002	19.650000000000002	18.75	16.05	14.85	10.65	9.45	3.45	2.85	3.15	2.1	1.95	1.7999999999999998	1.6500000000000001	1.6500000000000001	1.5	43.35	38.4	33.300000000000004	26.85	19.2	11.25	3.0
Node 7		0.3	0.6	0.6	0.8999999999999999	8.25	45.75	50.55	50.7	51.300000000000004	51.300000000000004	51.300000000000004	44.55	37.35	30.75	23.7	16.8	10.95	5.4	6.9	50.7	81.45	82.8	82.5	96.0	92.85	85.8	90.9	84.0	75.9	93.30000000000001	90.3	84.45	78.60000000000001	70.19999999999999	62.1	53.7	45.9	37.8	30.3	23.1	16.05	9.45	3.75	48.3	50.24999999999999	46.050000000000004	40.949999999999996	35.699999999999996	85.05	84.15	84.6	78.45	71.1	63.74999999999999	55.65	47.85	40.65	33.75	26.1	19.35	12.9	6.0	3.15	2.85	2.7	2.7	19.8	20.25	34.050000000000004	38.4	30.9	23.7	18.3	11.55	2.7
Node 37		0.75	1.05	1.2	1.35	7.8	47.85	50.4	50.55	50.7	50.849999999999994	54.75	48.75	41.4	34.5	27.3	20.1	13.05	7.049999999999999	4.05	50.7	81.75	80.4	79.80000000000001	93.60000000000001	92.4	86.4	80.4	72.6	64.2	88.5	80.4	72.45	64.5	56.85	48.9	40.949999999999996	33.0	25.650000000000002	17.4	10.65	5.4	2.4	2.55	2.4	2.25	2.4	2.4	2.25	2.7	2.7	2.85	3.0	3.3000000000000003	3.45	3.3000000000000003	3.15	3.3000000000000003	3.15	3.15	3.0	3.0	2.7	2.4	2.25	1.95	1.6500000000000001	1.6500000000000001	1.6500000000000001	1.35	0.75	0.6	0.44999999999999996	0.0	0.0	0.0
Node 34		0.6	0.6	0.75	1.2	9.45	47.55	49.65	50.1	50.55	50.7	51.0	44.4	37.2	30.75	23.400000000000002	16.8	9.9	4.5	3.3000000000000003	22.05	27.3	81.75	79.2	94.35	91.64999999999999	85.65	86.85000000000001	83.55	81.15	87.6	88.35	79.80000000000001	71.7	63.74999999999999	55.50000000000001	47.25	39.6	31.95	24.3	17.4	11.1	4.2	2.25	2.25	51.74999999999999	59.099999999999994	76.5	80.4	82.35	86.55000000000001	81.3	81.0	76.2	69.0	61.650000000000006	53.849999999999994	46.800000000000004	39.75	31.95	25.2	18.45	11.1	6.3	2.7	2.25	2.1	1.7999999999999998	1.7999999999999998	1.5	1.35	35.25	27.6	19.5	11.55	3.0
Node 28		0.3	0.3	0.6	0.8999999999999999	7.6499999999999995	41.25	41.4	41.699999999999996	42.449999999999996	42.75	43.2	36.75	30.45	36.0	28.65	21.3	14.549999999999999	8.25	9.6	41.4	76.64999999999999	72.0	65.10000000000001	94.5	92.7	86.7	78.45	71.25	84.15	92.85	91.2	84.6	81.75	75.14999999999999	67.35	59.099999999999994	51.6	43.5	35.099999999999994	28.499999999999996	21.6	14.399999999999999	8.7	6.45	5.1	47.25	75.44999999999999	76.5	68.85	86.55000000000001	82.95	74.85000000000001	67.35	60.6	52.949999999999996	45.45	37.95	31.05	23.1	17.1	10.5	4.2	2.85	2.7	2.55	5.25	6.9	34.8	44.1	38.25	30.599999999999998	23.549999999999997	16.8	10.05	2.7
Node 6		0.3	0.75	0.8999999999999999	1.05	5.55	46.050000000000004	48.75	49.35	49.95	49.95	50.1	43.5	36.15	29.549999999999997	22.05	15.0	8.1	2.4	5.25	45.0	65.7	81.3	88.8	94.8	92.85	87.45	89.1	85.95	77.7	69.89999999999999	62.1	54.0	46.35	38.1	30.15	21.9	14.549999999999999	8.85	3.9	3.75	4.05	4.65	4.2	4.05	3.75	3.45	3.15	3.5999999999999996	3.5999999999999996	3.75	3.9	3.5999999999999996	3.45	3.0	3.0	3.0	2.7	2.85	2.85	2.4	2.4	2.55	2.4	2.25	1.7999999999999998	1.5	7.8	35.85	43.8	38.550000000000004	30.9	23.7	16.950000000000003	10.05	2.55
Node 23		0.75	0.75	0.75	0.8999999999999999	7.049999999999999	41.25	41.4	41.699999999999996	48.9	48.9	49.05	42.449999999999996	35.55	28.799999999999997	21.6	14.549999999999999	7.8	2.85	2.55	51.0	79.65	85.05	88.8	96.3	90.9	83.1	75.0	86.4	85.8	91.05	90.0	83.85000000000001	81.0	75.3	67.35	59.4	51.9	43.65	35.55	28.199999999999996	21.15	13.8	15.9	46.2	54.449999999999996	57.75	75.14999999999999	68.4	61.35	54.75	84.15	77.25	70.05	62.849999999999994	54.75	46.949999999999996	40.5	33.45	25.650000000000002	19.2	12.0	4.65	2.25	2.4	2.1	2.1	2.1	30.15	42.9	40.5	35.699999999999996	27.450000000000003	19.8	11.55	3.0
Node 16		0.3	0.44999999999999996	0.44999999999999996	0.6	1.6500000000000001	46.949999999999996	47.099999999999994	47.4	47.55	47.85	48.15	41.55	34.65	28.199999999999996	20.7	13.65	6.9	2.1	2.1	67.05	79.65	85.5	78.75	90.0	90.45	87.15	79.80000000000001	82.65	74.55000000000001	88.94999999999999	90.14999999999999	84.45	78.14999999999999	69.75	61.8	53.25	45.6	37.95	29.849999999999998	22.650000000000002	15.6	8.7	3.45	39.0	53.1	67.35	76.05	78.9	78.45	82.65	75.3	67.5	65.7	58.5	50.7	43.05	36.15	29.099999999999998	21.3	14.85	8.4	6.15	3.15	2.25	2.1	1.95	2.25	31.8	39.6	37.5	32.4	26.700000000000003	19.950000000000003	11.25	2.85
Node 20		0.6	0.75	0.8999999999999999	1.05	1.2	48.0	48.3	48.3	48.449999999999996	48.9	49.05	42.15	35.099999999999994	28.199999999999996	21.0	13.8	7.199999999999999	2.4	2.4	2.55	2.55	2.25	2.1	2.25	2.4	2.85	2.7	2.4	2.55	2.1	2.1	1.95	1.95	1.7999999999999998	2.1	1.95	1.7999999999999998	1.35	1.35	1.5	1.6500000000000001	1.6500000000000001	1.35	1.5	61.050000000000004	66.60000000000001	76.64999999999999	79.80000000000001	73.65	86.55000000000001	82.05	82.95	77.7	70.65	63.0	55.50000000000001	48.449999999999996	41.4	34.2	27.3	20.25	12.9	7.6499999999999995	4.2	3.45	3.15	2.85	2.55	44.85	39.45	34.8	27.6	19.8	11.700000000000001	3.0
Node 1		0.6	0.8999999999999999	1.05	1.05	1.5	1.6500000000000001	1.6500000000000001	1.6500000000000001	1.7999999999999998	2.1	2.25	2.25	2.55	2.55	2.7	3.0	2.85	3.0	3.45	3.45	80.25	84.3	81.89999999999999	91.35	92.25	88.5	80.7	72.75	64.5	89.55	88.35	83.1	75.0	66.75	58.650000000000006	50.55	43.2	35.85	27.750000000000004	20.549999999999997	13.950000000000001	7.35	2.55	1.95	2.4	2.55	11.85	68.25	62.7	87.3	82.35	83.25	76.64999999999999	70.5	62.849999999999994	55.2	47.85	40.949999999999996	33.0	26.25	19.2	11.700000000000001	6.9	3.5999999999999996	2.7	2.1	1.95	1.6500000000000001	35.85	30.9	24.9	19.05	13.65	8.4	2.25
Node 35		0.6	0.6	0.75	1.05	6.6000000000000005	47.4	49.35	52.5	53.1	53.7	54.6	48.75	41.699999999999996	34.949999999999996	28.050000000000004	20.7	13.8	8.25	5.25	21.15	82.95	83.25	84.0	90.45	83.7	76.64999999999999	90.45	85.05	80.55	93.60000000000001	89.4	81.15	72.89999999999999	65.10000000000001	56.99999999999999	48.6	40.949999999999996	33.6	25.8	18.75	12.0	5.7	3.45	3.5999999999999996	3.5999999999999996	3.5999999999999996	3.5999999999999996	3.45	3.45	3.0	2.7	2.7	2.55	2.1	2.1	1.95	2.1	1.7999999999999998	1.7999999999999998	1.6500000000000001	1.6500000000000001	1.7999999999999998	1.7999999999999998	1.6500000000000001	1.5	1.35	1.05	0.8999999999999999	0.75	0.75	0.75	0.75	0.44999999999999996	0.3	0.0
Node 31		0.75	0.8999999999999999	0.8999999999999999	1.05	7.049999999999999	47.699999999999996	49.5	52.2	53.400000000000006	54.300000000000004	54.6	48.0	40.949999999999996	33.900000000000006	26.85	19.8	13.05	7.35	4.35	3.3000000000000003	2.7	69.15	80.4	95.25	91.95	86.85000000000001	90.60000000000001	83.25	82.65	91.2	89.25	84.89999999999999	77.4	69.45	61.5	53.849999999999994	46.2	38.85	30.75	23.7	16.950000000000003	10.5	5.1	7.6499999999999995	7.8	7.5	35.699999999999996	80.7	82.19999999999999	84.6	84.3	82.65	76.35	69.6	62.4	54.75	47.85	40.65	32.85	26.400000000000002	19.05	11.25	6.0	3.3000000000000003	2.55	2.25	10.5	37.95	42.3	37.95	34.2	27.0	19.8	11.85	3.0
Node 4		0.15	0.15	0.75	0.75	5.25	47.099999999999994	47.099999999999994	47.099999999999994	47.25	47.4	47.85	41.4	34.8	28.199999999999996	20.549999999999997	13.8	7.049999999999999	3.0	3.5999999999999996	69.75	78.14999999999999	84.0	84.89999999999999	95.85000000000001	92.4	84.6	77.10000000000001	85.95	78.0	88.5	80.7	72.0	63.74999999999999	55.50000000000001	47.25	39.15	31.35	23.7	15.9	9.9	4.2	2.25	2.25	17.849999999999998	53.55	60.75000000000001	68.4	78.60000000000001	73.05	82.5	76.8	69.3	62.55	55.35	47.4	39.6	32.4	25.650000000000002	18.45	13.5	7.5	3.9	3.15	2.7	2.1	1.95	1.7999999999999998	1.6500000000000001	1.6500000000000001	1.5	1.05	27.150000000000002	20.1	11.700000000000001	3.0
Node 17		0.8999999999999999	1.2	1.2	1.5	7.95	47.25	47.699999999999996	48.15	48.15	48.3	48.75	42.0	35.4	28.799999999999997	21.6	14.7	7.95	3.15	2.7	2.25	2.55	2.55	2.4	2.25	2.55	2.25	2.1	1.95	2.1	1.7999999999999998	1.95	2.1	1.7999999999999998	1.7999999999999998	2.1	2.1	1.95	1.95	2.1	2.25	2.1	2.1	3.45	30.3	27.6	65.10000000000001	81.0	78.9	83.7	86.55000000000001	82.95	78.45	70.65	62.849999999999994	54.900000000000006	47.25	39.75	32.550000000000004	24.3	17.4	10.95	4.35	2.7	2.25	1.95	3.0	5.55	34.8	43.35	38.1	34.65	27.0	19.5	11.4	2.85
Node 21		0.0	0.0	0.6	0.75	5.4	47.099999999999994	49.05	51.0	52.65	53.1	54.15	48.0	40.949999999999996	34.35	27.450000000000003	20.25	13.350000000000001	7.35	8.7	11.25	13.65	84.6	85.95	95.39999999999999	93.15	88.2	82.65	84.3	83.39999999999999	88.8	91.95	85.95	79.95	74.25	67.35	61.8	54.0	46.050000000000004	37.65	30.0	22.95	15.75	11.55	29.549999999999997	51.9	47.099999999999994	66.75	60.75000000000001	58.95	84.3	77.10000000000001	78.9	74.55000000000001	67.5	63.14999999999999	55.2	48.3	42.0	34.5	28.499999999999996	21.15	13.65	8.85	6.15	4.95	3.75	2.7	19.05	43.65	38.25	34.8	26.85	19.650000000000002	11.25	3.0
Node 15		0.3	0.6	0.75	0.8999999999999999	6.0	46.2	46.35	46.5	46.650000000000006	46.800000000000004	46.949999999999996	39.900000000000006	33.300000000000004	27.6	20.25	13.05	6.6000000000000005	2.4	2.7	2.85	76.2	79.95	81.15	93.75	89.85	81.89999999999999	85.2	77.10000000000001	75.44999999999999	92.25	90.14999999999999	83.55	75.9	67.5	59.699999999999996	51.449999999999996	43.8	36.449999999999996	28.65	21.6	15.0	8.25	3.15	3.15	15.9	63.0	75.44999999999999	78.75	81.15	85.95	79.5	71.39999999999999	64.35	57.599999999999994	49.5	42.0	35.25	27.900000000000002	20.4	14.399999999999999	8.25	3.15	3.15	3.15	2.85	2.4	2.25	41.699999999999996	44.1	39.6	35.4	27.6	19.950000000000003	11.700000000000001	3.0
Node 10		0.15	0.3	0.8999999999999999	0.8999999999999999	2.85	47.55	49.35	50.4	53.55	54.15	54.449999999999996	47.55	40.65	33.75	26.25	19.05	12.3	6.75	3.75	2.85	2.4	2.25	75.9	78.60000000000001	90.14999999999999	86.7	86.25	78.45	82.19999999999999	91.05	88.94999999999999	85.65	78.45	70.05	62.1	53.849999999999994	46.050000000000004	38.25	30.3	22.95	16.2	9.3	3.9	2.25	2.1	2.25	2.25	2.55	7.5	77.85	78.45	73.35000000000001	66.3	59.25	51.74999999999999	44.25	36.9	30.45	22.8	16.950000000000003	10.5	5.1	4.5	4.35	4.05	3.75	3.15	2.7	2.4	1.5	34.949999999999996	27.0	19.35	11.1	2.7
Node 39		0.15	0.6	0.8999999999999999	1.6500000000000001	12.75	46.949999999999996	48.9	49.05	49.05	49.8	50.1	43.5	36.9	30.45	23.400000000000002	16.950000000000003	10.2	4.95	3.3000000000000003	71.25	84.45	83.1	76.5	95.25	87.0	87.0	79.2	72.15	63.9	90.0	85.8	78.3	70.19999999999999	61.95	54.0	45.6	37.95	30.45	22.650000000000002	15.75	9.3	3.45	3.15	47.699999999999996	62.1	67.2	80.85	79.80000000000001	83.85000000000001	86.55000000000001	82.19999999999999	80.10000000000001	72.6	65.4	57.75	50.1	42.6	35.699999999999996	28.499999999999996	21.75	15.0	7.5	3.3000000000000003	2.1	2.1	1.7999999999999998	13.05	38.85	42.15	40.050000000000004	35.099999999999994	27.450000000000003	20.1	11.4	3.0
Node 26		0.75	0.8999999999999999	1.05	1.5	10.65	47.4	48.9	49.35	49.65	49.95	50.1	43.5	36.449999999999996	30.3	23.1	16.35	9.45	3.75	2.4	66.9	70.5	82.5	82.5	93.45	91.35	87.75	86.55000000000001	84.15	76.64999999999999	89.85	90.0	83.55	75.6	67.2	59.550000000000004	51.6	46.050000000000004	38.550000000000004	30.45	23.25	16.5	9.6	4.65	32.1	59.550000000000004	57.3	72.45	70.8	79.2	85.5	83.1	77.4	70.05	62.849999999999994	61.650000000000006	54.15	46.650000000000006	40.35	33.300000000000004	27.0	19.950000000000003	12.6	7.199999999999999	5.1	4.2	3.75	11.25	35.85	44.25	37.8	34.65	27.3	19.650000000000002	11.700000000000001	3.0
Node 30		0.75	0.8999999999999999	1.05	1.6500000000000001	1.95	2.4	2.4	2.55	2.85	3.0	3.3000000000000003	2.85	2.85	3.15	3.3000000000000003	3.0	2.85	2.55	3.0	3.0	2.85	3.0	3.0	3.0	3.0	2.7	2.7	2.85	3.0	3.0	3.0	3.15	3.0	2.7	2.4	2.4	2.4	2.25	2.25	2.1	2.25	2.25	2.1	1.95	2.1	2.1	2.25	2.1	1.95	1.95	1.95	1.7999999999999998	1.35	1.5	1.5	1.6500000000000001	1.7999999999999998	1.7999999999999998	1.95	1.95	2.25	2.4	2.4	2.4	2.4	2.1	1.7999999999999998	1.5	1.2	1.2	0.8999999999999999	0.8999999999999999	20.549999999999997	11.700000000000001	3.0
Node 5		0.8999999999999999	1.2	1.35	1.95	2.1	2.4	2.55	2.55	2.55	2.85	3.0	3.0	2.55	2.25	2.7	2.25	2.4	2.25	2.85	73.05	83.85000000000001	87.45	89.1	94.19999999999999	92.55	87.15	88.8	85.35000000000001	81.6	90.3	88.35	79.80000000000001	71.7	63.6	55.800000000000004	47.25	39.300000000000004	32.1	23.849999999999998	16.650000000000002	9.9	3.15	2.1	2.25	2.55	2.7	2.85	3.0	83.7	79.80000000000001	82.35	79.80000000000001	73.5	66.9	58.95	51.0	43.95	37.05	29.25	22.35	15.0	7.6499999999999995	3.3000000000000003	2.1	1.6500000000000001	1.35	15.6	37.05	42.3	36.3	28.95	22.05	15.45	9.3	2.55
Node 38		0.3	0.6	0.8999999999999999	0.8999999999999999	7.5	47.4	50.1	50.1	50.24999999999999	50.849999999999994	50.849999999999994	44.25	37.35	30.75	23.7	16.950000000000003	10.35	4.65	2.85	3.0	73.8	89.4	82.5	93.15	92.25	84.15	76.35	69.89999999999999	82.35	93.89999999999999	90.45	85.05	78.14999999999999	70.5	62.55	53.849999999999994	45.9	38.7	30.9	23.400000000000002	16.650000000000002	8.85	3.15	35.55	54.0	66.45	60.9	55.05	48.75	44.25	80.25	81.6	74.7	67.80000000000001	59.85	51.9	45.0	37.65	29.849999999999998	23.400000000000002	16.2	9.0	3.9	1.35	1.05	0.75	10.35	28.95	43.05	37.8	30.45	23.7	16.950000000000003	10.05	2.7
Node 14		0.75	1.2	1.35	1.6500000000000001	2.1	2.4	2.7	3.15	3.5999999999999996	52.5	52.65	45.6	38.7	31.65	24.75	17.4	10.65	4.95	3.3000000000000003	73.8	85.5	86.55000000000001	88.64999999999999	94.65	91.95	86.1	89.25	83.39999999999999	75.14999999999999	68.10000000000001	60.45	51.9	43.95	36.0	28.199999999999996	19.8	13.200000000000001	7.6499999999999995	3.15	3.15	3.0	2.55	2.7	3.15	3.9	67.35	74.1	80.7	84.45	87.3	83.1	77.10000000000001	69.89999999999999	63.0	55.35	47.699999999999996	40.65	33.75	25.95	19.35	12.45	6.3	3.45	3.0	2.7	2.25	2.1	1.7999999999999998	1.35	3.15	3.0	2.85	2.25	0.6	0.0
Node 18		0.15	0.3	0.8999999999999999	1.05	6.6000000000000005	45.300000000000004	45.45	45.75	45.9	46.2	46.949999999999996	40.35	34.2	27.900000000000002	20.25	13.200000000000001	6.45	3.3000000000000003	3.3000000000000003	49.8	84.15	86.1	85.95	97.05	94.05	88.94999999999999	82.95	86.1	83.85000000000001	81.15	73.5	64.8	56.85	49.05	40.65	32.7	25.05	17.849999999999998	10.5	5.7	4.35	4.05	3.5999999999999996	44.4	51.300000000000004	67.05	63.9	57.9	73.05	66.0	58.8	51.449999999999996	44.55	38.25	31.05	23.400000000000002	16.650000000000002	11.25	5.8500000000000005	3.45	2.85	2.7	2.85	3.0	2.85	2.4	9.6	27.0	44.1	40.2	34.949999999999996	27.6	20.1	11.55	3.0
Node 24		0.15	0.44999999999999996	0.75	1.2	10.8	47.55	48.9	48.9	49.05	49.05	49.2	42.449999999999996	35.699999999999996	28.799999999999997	21.9	15.15	8.55	3.15	2.1	2.25	2.4	30.0	88.94999999999999	90.0	81.45	74.1	66.3	58.650000000000006	50.55	43.2	36.0	71.55	80.7	74.1	67.80000000000001	59.4	51.74999999999999	43.5	35.85	28.799999999999997	22.05	15.0	9.3	32.25	51.9	46.800000000000004	41.85	73.65	86.1	79.2	84.75	83.1	75.6	69.0	63.449999999999996	56.25	48.75	41.55	33.900000000000006	27.0	20.25	12.45	7.199999999999999	4.5	3.3000000000000003	2.1	11.85	42.75	42.75	38.4	34.949999999999996	27.150000000000002	19.8	11.700000000000001	3.0
Node 2		0.0	0.44999999999999996	0.6	0.75	1.2	47.25	47.699999999999996	48.0	48.3	48.449999999999996	48.449999999999996	41.55	34.949999999999996	28.499999999999996	21.0	14.549999999999999	8.1	3.45	3.0	14.549999999999999	53.400000000000006	81.0	82.19999999999999	93.30000000000001	91.64999999999999	85.5	77.85	69.6	61.050000000000004	91.2	89.1	80.85	72.75	64.64999999999999	56.99999999999999	48.449999999999996	41.25	33.75	25.95	18.75	12.0	5.1	2.1	44.7	56.99999999999999	51.9	64.05	79.2	82.05	84.45	82.8	76.8	76.05	69.89999999999999	61.95	54.449999999999996	47.4	40.5	32.550000000000004	25.8	18.6	10.95	6.3	2.55	1.6500000000000001	1.35	1.2	5.8500000000000005	40.65	38.25	35.099999999999994	27.0	20.1	11.55	3.0
Node 12		0.0	0.3	0.8999999999999999	1.05	1.5	1.5	1.7999999999999998	2.1	2.1	2.25	2.55	2.55	2.7	2.7	2.1	2.25	2.1	2.25	1.95	73.05	83.85000000000001	83.55	83.55	84.15	92.4	84.45	76.35	84.3	77.10000000000001	93.45	90.0	82.95	75.3	67.2	59.099999999999994	51.6	44.25	37.05	28.95	21.75	14.85	8.25	4.05	5.1	5.25	4.95	4.65	4.05	3.45	3.15	2.85	3.15	3.0	2.7	2.7	2.85	2.55	2.4	2.55	2.4	2.55	2.4	2.55	2.4	2.25	1.95	1.6500000000000001	38.4	42.9	37.35	33.15	27.6	20.25	11.700000000000001	3.0
Node 33		0.75	1.05	1.05	1.05	3.9	46.050000000000004	49.2	51.300000000000004	51.449999999999996	51.449999999999996	51.6	44.85	37.8	30.9	24.0	17.1	10.5	4.65	2.7	1.95	2.1	83.1	85.35000000000001	94.5	91.8	88.64999999999999	90.0	83.39999999999999	83.85000000000001	92.10000000000001	90.60000000000001	83.85000000000001	76.05	67.95	60.150000000000006	51.6	44.1	36.6	28.349999999999998	21.15	14.399999999999999	7.95	2.7	2.4	7.5	51.0	77.85	79.80000000000001	80.10000000000001	79.95	80.85	75.6	75.6	68.25	60.45	52.800000000000004	45.300000000000004	38.4	30.599999999999998	24.3	17.25	10.35	6.15	2.7	2.4	2.25	1.95	1.7999999999999998	18.15	39.900000000000006	32.85	27.6	19.5	11.25	2.85
Node 3		0.44999999999999996	0.44999999999999996	0.75	0.8999999999999999	7.6499999999999995	47.85	49.8	49.95	49.95	50.24999999999999	50.55	43.65	36.6	30.0	22.5	15.45	8.55	3.3000000000000003	1.95	2.25	2.85	2.85	2.7	96.3	94.5	89.1	89.55	81.3	73.05	92.7	91.64999999999999	84.45	76.35	68.10000000000001	59.85	51.300000000000004	43.35	35.699999999999996	28.050000000000004	20.7	13.8	6.75	1.7999999999999998	1.6500000000000001	1.95	12.0	77.4	79.35	84.0	82.05	82.8	75.14999999999999	68.55	61.35	53.7	45.75	38.4	31.05	23.25	17.1	10.5	4.05	2.4	2.1	1.7999999999999998	1.7999999999999998	1.35	38.1	43.95	38.25	30.75	23.7	16.5	10.2	2.85
Node 40		0.0	0.0	0.0	0.0	7.95	47.699999999999996	51.9	52.5	52.949999999999996	52.949999999999996	52.949999999999996	45.9	38.550000000000004	31.35	23.7	16.2	9.15	3.15	1.05	0.15	0.0	0.0	0.0	0.0	0.0	0.0	0.0	0.0	0.0	0.0	0.0	0.0	0.0	0.0	0.0	0.0	0.0	0.0	0.0	0.0	0.0	0.0	0.0	0.0	0.0	0.0	80.7	81.75	73.65	81.75	84.15	82.65	77.25	69.75	61.5	55.95	48.3	40.949999999999996	32.85	25.8	18.45	10.65	4.65	1.5	0.6	0.3	7.199999999999999	25.5	22.2	36.9	29.549999999999997	22.650000000000002	15.9	9.45	2.55
Node 9		0.75	0.75	1.05	1.05	8.85	47.55	49.35	49.8	49.8	49.95	50.4	43.95	37.35	31.05	23.549999999999997	16.5	10.05	4.65	3.15	54.449999999999996	58.8	74.1	75.14999999999999	91.05	83.85000000000001	87.3	88.94999999999999	84.89999999999999	77.55	93.60000000000001	91.64999999999999	85.5	79.2	71.1	63.14999999999999	54.6	46.800000000000004	38.7	30.75	23.25	16.650000000000002	9.75	3.9	45.0	59.4	67.5	69.45	63.14999999999999	76.35	86.7	83.1	77.55	70.05	62.7	54.75	46.949999999999996	39.75	32.7	25.35	19.8	13.350000000000001	6.45	3.75	3.3000000000000003	3.15	3.0	2.85	2.55	42.15	38.7	32.1	27.450000000000003	20.25	11.700000000000001	3.0
Node 27		0.44999999999999996	0.75	0.8999999999999999	1.2	2.4	46.949999999999996	48.6	52.2	52.65	53.55	53.849999999999994	47.4	40.65	34.050000000000004	26.85	20.4	13.8	8.1	4.95	10.8	55.2	79.95	72.45	92.4	88.05	80.25	76.2	81.45	73.35000000000001	92.55	91.95	83.85000000000001	76.05	67.80000000000001	60.150000000000006	51.9	44.25	36.449999999999996	28.799999999999997	21.9	15.0	8.25	4.2	3.9	3.5999999999999996	3.45	2.85	2.85	2.55	2.7	2.4	2.7	2.7	2.55	2.1	2.4	2.85	2.85	3.15	2.85	3.15	3.0	3.0	2.55	2.4	2.4	2.25	25.650000000000002	22.2	39.6	31.65	24.75	18.15	11.55	3.0
Node 0		0.3	0.75	0.8999999999999999	1.05	4.95	42.6	49.8	50.849999999999994	52.349999999999994	52.800000000000004	52.949999999999996	46.800000000000004	41.699999999999996	34.8	27.450000000000003	21.9	15.15	9.15	6.9	69.3	82.95	86.55000000000001	84.6	94.8	91.8	84.6	82.65	85.2	84.0	80.10000000000001	71.85000000000001	63.6	55.50000000000001	47.4	39.15	31.05	23.25	16.5	9.0	3.5999999999999996	1.6500000000000001	1.2	1.6500000000000001	41.55	53.7	48.449999999999996	43.2	55.50000000000001	83.39999999999999	84.0	80.55	80.85	73.95	66.75	58.8	51.0	43.8	38.85	30.75	24.6	18.0	10.5	5.8500000000000005	4.8	4.5	4.35	3.5999999999999996	3.0	42.6	40.050000000000004	34.949999999999996	27.0	19.650000000000002	11.25	2.7
Node 29		0.75	1.2	1.95	1.95	3.9	48.0	48.9	49.05	49.5	49.8	49.8	43.05	36.449999999999996	29.7	22.5	15.299999999999999	8.7	3.45	3.15	43.35	72.3	73.8	84.45	93.75	89.25	81.6	74.4	82.8	76.2	89.25	89.25	82.5	74.4	68.4	60.0	51.449999999999996	43.35	35.699999999999996	28.050000000000004	20.849999999999998	14.399999999999999	7.5	3.45	2.4	2.4	2.4	79.80000000000001	76.5	68.85	61.650000000000006	54.15	46.800000000000004	39.900000000000006	33.0	25.650000000000002	19.2	12.75	7.8	2.85	2.7	2.55	2.55	2.7	2.4	2.25	2.1	1.95	1.2	42.0	38.4	34.35	26.85	19.5	11.25	3.0
Node 36		0.44999999999999996	0.44999999999999996	0.8999999999999999	1.05	7.95	46.650000000000006	48.0	51.74999999999999	52.5	52.800000000000004	53.55	50.7	44.1	37.8	30.75	23.549999999999997	17.1	13.8	10.65	20.849999999999998	76.5	84.3	81.6	87.75	91.95	84.15	87.15	83.39999999999999	80.85	91.2	90.60000000000001	84.6	76.8	68.55	60.6	52.349999999999994	45.9	39.900000000000006	32.1	25.35	18.9	12.15	6.6000000000000005	25.8	56.99999999999999	54.6	80.25	78.0	79.80000000000001	83.85000000000001	80.7	73.05	72.3	66.0	58.050000000000004	50.55	43.05	36.0	28.349999999999998	22.2	15.15	9.0	4.8	3.9	5.25	4.8	7.049999999999999	37.65	42.3	40.2	33.900000000000006	27.150000000000002	20.1	11.700000000000001	3.0
