25 33.000657894736825
19 30.498684210526317
13 33.12828947368421
8 32.954605263157895
32 34.50065789473683
22 34.47302631578946
11 14.410526315789474
7 34.294736842105266
37 19.121710526315788
34 33.62302631578947
28 34.555921052631575
6 22.703947368421044
23 34.480263157894726
16 34.398684210526326
20 22.786184210526315
1 29.57302631578947
35 21.425657894736833
31 34.99934210526315
4 31.123026315789478
17 24.26973684210526
21 35.500000000000014
15 34.58552631578947
10 28.253289473684216
39 36.294078947368426
26 36.302631578947384
30 2.7598684210526314
5 29.94802631578948
38 34.83355263157895
14 30.876973684210533
18 32.05657894736842
24 31.602631578947364
2 34.38092105263158
12 24.741447368421053
33 33.6375
3 33.61710526315789
40 19.909210526315793
9 34.869078947368415
27 22.371710526315788
0 34.059868421052634
29 30.17039473684211
36 35.21052631578946
