6 245
15 178
24 287
12 268
0 271
29 77
19 142
39 604
20 89
34 187
38 203
28 197
36 271
9 228
10 34
13 144
1 91
8 150
27 41
16 190
37 117
21 320
40 213
7 202
23 271
31 233
18 256
5 231
32 219
22 215
2 114
33 129
11 5
26 318
3 259
17 193
35 113
14 359
4 223
25 111
