Node 25		0.0	0.4	0.4	1.0	1.4000000000000001	62.4	62.4	62.6	63.0	63.6	64.0	64.4	65.0	65.60000000000001	66.2	66.2	66.60000000000001	66.8	66.8	100.0	99.8	99.8	100.0	99.8	96.0	94.39999999999999	91.8	88.6	100.0	99.8	100.0	97.0	94.6	90.4	84.8	80.4	72.8	67.80000000000001	61.0	55.400000000000006	54.400000000000006	51.800000000000004	51.0	47.599999999999994	88.6	99.8	99.8	98.4	94.6	99.2	95.39999999999999	89.0	82.19999999999999	74.4	68.0	62.2	61.4	60.4	60.4	57.99999999999999	57.8	53.800000000000004	52.0	46.400000000000006	42.199999999999996	38.6	64.2	99.8	93.2	97.6	97.8	91.4	99.8	99.4	94.6
Node 19		0.4	1.0	1.6	2.0	13.0	55.2	55.60000000000001	56.2	56.2	56.2	56.2	69.19999999999999	69.19999999999999	69.8	70.39999999999999	70.39999999999999	80.60000000000001	82.8	84.39999999999999	91.2	100.0	100.0	100.0	99.2	94.19999999999999	89.0	85.6	79.4	74.0	69.8	64.8	60.199999999999996	56.599999999999994	52.0	45.6	40.6	34.599999999999994	34.2	84.0	76.0	74.2	69.0	66.0	85.8	96.8	99.0	99.8	99.8	99.6	99.8	99.6	99.6	94.6	88.6	81.2	73.8	72.6	71.2	70.39999999999999	67.2	66.8	62.4	60.199999999999996	61.4	55.800000000000004	51.2	62.4	84.0	98.6	96.0	97.8	89.60000000000001	84.0	81.0	76.8
Node 13		0.4	0.4	0.6	1.2	11.200000000000001	55.00000000000001	55.400000000000006	55.400000000000006	55.800000000000004	56.00000000000001	56.2	56.2	56.599999999999994	56.599999999999994	56.99999999999999	57.199999999999996	57.599999999999994	57.8	58.199999999999996	58.4	99.8	100.0	100.0	99.4	99.0	99.8	99.8	98.4	100.0	99.8	99.8	98.8	96.39999999999999	91.2	86.4	82.0	74.2	69.39999999999999	63.0	57.199999999999996	56.00000000000001	53.6	50.8	98.0	99.6	98.4	99.2	96.8	92.4	86.6	79.4	97.0	93.0	85.8	80.4	73.0	72.2	71.8	71.6	67.60000000000001	67.80000000000001	64.4	62.2	56.8	51.2	47.0	38.0	32.6	99.6	97.2	89.0	80.4	76.4	74.4	71.2
Node 8		0.6	1.0	1.4000000000000001	1.4000000000000001	5.4	60.0	62.2	62.8	63.0	63.2	63.4	63.800000000000004	67.80000000000001	68.2	68.2	68.60000000000001	69.19999999999999	69.39999999999999	69.39999999999999	99.8	99.8	100.0	99.8	100.0	99.8	100.0	98.4	97.2	97.0	98.0	99.8	99.2	97.8	92.4	87.2	83.2	75.0	69.6	62.2	57.99999999999999	56.8	55.00000000000001	52.6	50.4	47.8	72.6	99.2	95.0	98.8	98.0	92.2	84.8	77.4	69.6	62.2	54.800000000000004	54.6	54.0	88.2	86.0	85.39999999999999	80.4	77.60000000000001	71.6	66.4	61.8	52.6	44.6	61.0	99.4	99.0	90.4	85.6	82.39999999999999	78.60000000000001
Node 32		0.8	1.2	1.2	1.6	12.2	54.2	64.8	65.4	66.0	66.4	67.0	68.8	68.8	79.2	79.60000000000001	80.2	80.60000000000001	81.0	84.0	99.8	99.8	99.8	100.0	99.2	99.2	96.8	99.8	94.6	89.0	99.6	99.6	92.0	87.6	81.8	75.2	68.2	64.4	92.80000000000001	85.39999999999999	77.8	76.2	71.6	68.60000000000001	86.8	99.6	95.8	99.4	97.8	99.6	97.8	92.60000000000001	87.4	95.6	94.8	87.4	81.6	80.80000000000001	79.0	78.60000000000001	75.0	74.0	69.39999999999999	67.2	65.8	59.8	55.2	75.4	99.8	97.2	89.8	82.0	75.0	70.39999999999999	68.8	65.4
Node 22		0.8	1.2	1.2	1.6	1.7999999999999998	50.6	53.400000000000006	53.6	53.800000000000004	54.0	54.2	55.400000000000006	55.60000000000001	55.800000000000004	56.2	56.39999999999999	56.599999999999994	56.8	56.8	65.0	99.0	99.8	100.0	99.6	95.6	98.6	99.8	99.4	95.0	99.8	99.4	98.6	97.8	93.2	87.0	82.8	75.4	70.19999999999999	63.2	57.4	56.2	53.2	51.800000000000004	99.8	97.39999999999999	100.0	99.8	97.6	99.2	99.6	98.8	97.39999999999999	89.4	82.19999999999999	75.8	69.39999999999999	69.19999999999999	67.60000000000001	67.2	64.8	65.2	62.0	60.0	55.60000000000001	49.8	45.800000000000004	37.2	97.8	97.8	90.4	82.0	73.2	67.80000000000001	62.8	59.199999999999996
Node 11		1.0	1.4000000000000001	1.6	1.6	1.7999999999999998	28.000000000000004	43.4	43.6	44.4	65.4	66.4	67.2	68.2	68.60000000000001	68.8	69.19999999999999	69.39999999999999	69.6	69.8	69.8	70.19999999999999	70.6	70.8	62.4	53.2	44.800000000000004	35.0	26.0	17.4	12.4	11.200000000000001	10.8	10.6	9.8	8.799999999999999	8.0	7.8	7.6	8.200000000000001	7.8	8.0	8.0	8.200000000000001	8.4	8.4	8.0	8.200000000000001	8.200000000000001	8.0	7.8	7.8	7.6	28.000000000000004	23.599999999999998	19.400000000000002	15.8	15.2	15.2	15.4	15.4	15.2	15.6	15.0	15.2	14.799999999999999	14.6	14.2	11.4	98.6	97.0	89.0	94.6	98.8	95.8	91.60000000000001
Node 7		0.4	0.8	0.8	1.2	11.0	61.0	67.4	67.60000000000001	68.4	68.4	68.4	68.8	68.8	69.0	69.6	70.19999999999999	71.6	71.6	77.2	99.8	99.8	100.0	100.0	100.0	99.6	98.2	99.8	98.0	96.6	100.0	100.0	94.39999999999999	91.0	85.8	82.39999999999999	77.2	70.39999999999999	65.2	60.0	54.0	53.2	49.4	48.199999999999996	99.8	97.39999999999999	93.4	87.8	83.39999999999999	99.8	99.4	99.8	95.0	87.8	81.6	75.2	69.6	68.60000000000001	66.2	66.0	62.8	61.6	58.599999999999994	55.800000000000004	51.800000000000004	46.2	42.4	90.8	86.4	92.4	94.6	87.2	79.0	74.2	98.0	93.0
Node 37		1.0	1.4000000000000001	1.6	1.7999999999999998	10.4	63.800000000000004	67.2	67.4	67.60000000000001	67.80000000000001	73.0	74.2	74.2	74.2	74.4	74.6	74.6	74.8	75.0	97.2	99.8	100.0	100.0	100.0	99.8	100.0	100.0	98.6	94.39999999999999	99.6	95.0	89.8	87.4	80.80000000000001	74.8	68.4	59.8	52.6	46.0	39.2	39.2	35.199999999999996	34.0	29.799999999999997	27.400000000000002	24.6	20.200000000000003	17.2	16.2	13.200000000000001	11.200000000000001	9.8	8.799999999999999	7.8	7.8	7.3999999999999995	7.3999999999999995	7.6	7.3999999999999995	7.000000000000001	7.6	7.199999999999999	7.000000000000001	7.000000000000001	7.000000000000001	6.800000000000001	6.6000000000000005	6.4	6.2	5.2	5.0	4.6	4.0	3.5999999999999996	3.2
Node 34		0.8	0.8	1.0	1.6	12.6	63.4	66.2	66.8	67.4	67.60000000000001	68.0	68.4	68.60000000000001	68.8	69.0	69.6	69.6	69.8	70.6	96.39999999999999	99.0	99.8	100.0	100.0	99.8	99.8	99.8	99.8	99.8	99.6	99.0	94.19999999999999	92.2	88.8	83.6	78.0	70.39999999999999	64.2	56.599999999999994	53.800000000000004	53.800000000000004	51.2	50.0	46.2	86.2	99.8	99.6	98.4	99.4	99.4	99.8	99.8	96.8	88.6	81.6	73.6	72.2	70.39999999999999	70.0	68.4	68.60000000000001	64.60000000000001	62.2	56.99999999999999	51.800000000000004	47.0	39.4	32.6	26.6	20.8	99.4	99.6	98.0	98.4	92.80000000000001
Node 28		0.4	0.4	0.8	1.2	10.2	55.00000000000001	55.2	55.60000000000001	56.599999999999994	56.99999999999999	57.599999999999994	57.599999999999994	57.8	76.8	77.0	77.0	77.4	77.8	85.2	100.0	99.8	99.8	99.8	100.0	99.8	98.8	94.6	92.0	92.60000000000001	99.8	99.8	99.2	99.8	99.0	94.0	90.0	82.0	76.0	68.8	65.0	64.60000000000001	62.4	59.8	56.99999999999999	54.800000000000004	99.8	100.0	97.2	92.0	99.8	98.6	92.0	85.0	77.8	71.2	65.4	64.4	62.8	62.4	60.4	59.8	56.00000000000001	53.6	48.4	43.4	52.6	64.60000000000001	99.6	99.6	94.19999999999999	86.6	78.4	73.8	71.0	67.2
Node 6		0.4	1.0	1.2	1.4000000000000001	7.3999999999999995	61.4	65.0	65.8	66.60000000000001	66.60000000000001	66.8	67.0	67.0	67.4	67.4	67.60000000000001	67.60000000000001	67.80000000000001	75.6	100.0	100.0	99.8	100.0	100.0	99.8	100.0	99.6	99.6	90.8	82.39999999999999	79.80000000000001	73.0	72.6	66.2	62.2	56.00000000000001	49.0	42.4	37.0	32.6	32.2	29.2	26.400000000000002	22.0	20.4	17.2	14.399999999999999	12.2	11.0	11.0	10.4	9.8	10.0	10.2	9.6	9.4	8.6	8.4	8.0	8.0	8.0	8.4	8.4	7.8	7.000000000000001	6.0	56.2	99.6	98.4	94.39999999999999	86.2	78.60000000000001	74.6	72.0	68.2
Node 23		1.0	1.0	1.0	1.2	9.4	55.00000000000001	55.2	55.60000000000001	65.2	65.2	65.4	65.8	66.0	66.4	66.8	67.0	67.2	67.80000000000001	68.0	99.8	99.8	99.8	99.8	99.8	96.6	94.8	91.8	100.0	99.8	99.6	99.8	99.2	99.8	99.6	95.6	93.0	84.6	78.8	72.39999999999999	67.2	65.8	61.8	81.0	99.8	99.6	98.2	99.8	96.6	91.4	85.2	100.0	95.19999999999999	87.4	79.2	71.8	65.0	65.4	64.60000000000001	64.60000000000001	61.0	61.0	57.4	55.400000000000006	50.6	45.6	41.6	33.6	97.8	99.2	99.8	99.6	91.8	86.6	83.39999999999999	80.0
Node 16		0.4	0.6	0.6	0.8	2.1999999999999997	62.6	62.8	63.2	63.4	63.800000000000004	64.2	64.4	64.60000000000001	64.8	64.8	65.2	65.2	65.4	65.60000000000001	99.8	99.8	100.0	100.0	99.8	95.19999999999999	100.0	98.2	99.2	95.19999999999999	95.39999999999999	99.8	100.0	99.2	93.4	88.4	83.0	75.2	68.8	62.2	57.599999999999994	57.4	55.400000000000006	55.2	99.4	99.6	99.8	99.8	98.2	99.8	99.8	94.39999999999999	87.8	85.0	76.6	70.0	63.4	63.0	61.8	61.199999999999996	60.199999999999996	60.0	56.39999999999999	55.00000000000001	50.0	45.2	42.199999999999996	36.4	99.2	96.2	99.8	99.0	99.6	99.8	99.0	93.60000000000001
Node 20		0.8	1.0	1.2	1.4000000000000001	1.6	64.0	64.4	64.4	64.60000000000001	65.2	65.4	65.4	65.60000000000001	65.60000000000001	66.0	66.2	66.4	67.2	67.60000000000001	67.80000000000001	68.0	68.2	68.2	59.199999999999996	50.0	41.4	31.6	21.8	13.0	6.0	6.0	6.0	6.0	5.4	5.6000000000000005	5.6000000000000005	5.6000000000000005	5.6000000000000005	5.4	5.2	5.6000000000000005	5.0	4.6	4.6	99.6	99.8	99.8	97.6	95.8	99.2	98.6	99.8	99.4	91.2	84.0	77.0	75.8	74.2	74.2	72.0	72.0	67.2	65.2	60.4	54.6	49.4	41.0	34.0	98.4	98.6	99.6	98.6	95.6	98.6	92.80000000000001
Node 1		0.8	1.2	1.4000000000000001	1.4000000000000001	2.0	2.1999999999999997	2.1999999999999997	2.1999999999999997	2.4	2.8000000000000003	3.0	3.4000000000000004	4.2	4.6	5.0	5.4	5.800000000000001	6.2	6.800000000000001	6.800000000000001	99.8	100.0	99.8	100.0	99.6	99.8	97.0	97.0	92.80000000000001	99.6	99.8	96.8	94.19999999999999	87.6	82.0	76.2	69.39999999999999	64.2	56.8	51.4	51.6	49.8	48.0	45.6	43.2	40.8	42.8	98.0	95.8	99.8	99.8	99.8	93.4	97.0	89.4	82.0	81.39999999999999	79.60000000000001	78.4	75.8	75.4	71.39999999999999	68.4	63.800000000000004	57.199999999999996	52.2	43.2	36.199999999999996	96.39999999999999	88.6	79.60000000000001	70.19999999999999	65.4	62.2	58.4
Node 35		0.8	0.8	1.0	1.4000000000000001	8.799999999999999	63.2	65.8	70.0	70.8	71.6	72.8	74.2	74.4	74.6	75.4	75.4	75.4	75.8	76.4	86.2	100.0	99.8	99.8	99.8	96.6	92.60000000000001	100.0	99.4	99.6	99.8	99.8	94.39999999999999	91.0	86.4	80.80000000000001	74.6	67.60000000000001	61.6	56.00000000000001	51.0	51.4	48.199999999999996	46.400000000000006	43.6	40.8	38.4	34.2	31.4	27.400000000000002	24.4	19.8	15.4	11.0	8.200000000000001	7.3999999999999995	7.3999999999999995	7.6	7.199999999999999	7.199999999999999	6.800000000000001	6.800000000000001	6.4	6.0	5.800000000000001	5.4	4.6	4.2	3.8	3.8	3.4000000000000004	3.4000000000000004	3.2	2.8000000000000003	2.8000000000000003	2.4
Node 31		1.0	1.2	1.2	1.4000000000000001	9.4	63.6	66.0	69.6	71.2	72.39999999999999	72.8	73.4	73.6	73.8	74.2	74.4	74.6	74.8	75.2	75.2	75.2	99.8	100.0	99.8	100.0	99.4	99.8	99.6	100.0	99.8	99.0	99.0	96.8	91.2	85.39999999999999	80.2	72.8	67.2	61.6	57.199999999999996	56.39999999999999	54.0	51.6	65.0	62.0	58.199999999999996	55.2	99.0	99.4	99.8	98.8	99.8	92.4	85.0	81.39999999999999	75.2	74.4	72.39999999999999	71.39999999999999	70.19999999999999	69.6	64.8	62.6	59.4	53.400000000000006	49.4	68.2	99.6	99.2	99.2	99.2	99.0	97.39999999999999	98.8	93.2
Node 4		0.2	0.2	1.0	1.0	7.000000000000001	62.8	62.8	62.8	63.0	63.2	63.800000000000004	64.60000000000001	64.8	65.0	65.0	65.60000000000001	66.2	66.8	67.60000000000001	100.0	100.0	99.8	99.8	99.8	98.4	96.0	94.8	99.4	94.6	95.6	92.0	85.39999999999999	81.6	75.4	70.19999999999999	63.0	55.00000000000001	48.0	41.0	35.8	35.0	30.4	27.200000000000003	63.4	99.6	99.6	99.0	98.4	99.2	99.0	98.2	92.2	84.2	77.2	71.39999999999999	65.2	63.800000000000004	61.6	61.8	59.599999999999994	59.8	55.2	53.0	47.8	43.4	38.6	30.0	23.400000000000002	18.0	13.200000000000001	9.2	99.8	100.0	98.8	93.8
Node 17		1.2	1.6	1.6	2.0	10.6	63.0	63.6	64.2	64.2	64.4	65.0	65.4	65.60000000000001	66.0	66.2	66.4	66.8	67.2	67.2	67.2	67.60000000000001	67.80000000000001	68.2	59.0	50.6	41.4	31.6	22.2	13.4	6.6000000000000005	6.2	5.800000000000001	5.800000000000001	5.800000000000001	6.0	5.800000000000001	6.0	5.6000000000000005	5.6000000000000005	5.6000000000000005	5.6000000000000005	5.4	12.4	89.8	86.2	99.8	99.8	98.8	99.8	100.0	99.6	95.8	90.2	83.6	77.60000000000001	71.8	69.6	67.0	65.8	63.4	63.2	58.199999999999996	56.8	49.8	44.4	42.4	49.4	99.4	99.2	97.0	95.6	98.4	100.0	98.4	93.60000000000001
Node 21		0.0	0.0	0.8	1.0	7.199999999999999	62.8	65.4	68.0	70.19999999999999	70.8	72.2	73.0	73.2	73.6	74.2	74.2	74.2	74.2	81.2	87.0	91.4	100.0	99.8	100.0	99.8	99.8	99.8	98.8	100.0	98.6	99.8	99.8	98.8	99.4	97.39999999999999	97.6	89.2	84.2	77.4	71.8	70.8	66.2	76.0	98.4	98.6	93.4	99.2	97.2	98.0	99.0	94.0	98.8	92.60000000000001	85.39999999999999	96.0	88.4	88.0	87.4	86.8	83.0	82.19999999999999	78.2	75.8	70.0	63.800000000000004	59.199999999999996	49.4	76.2	99.6	95.8	97.8	89.2	84.8	81.8	78.2
Node 15		0.4	0.8	1.0	1.2	8.0	61.6	61.8	62.0	62.2	62.4	62.6	62.6	63.0	63.800000000000004	63.800000000000004	64.0	64.60000000000001	64.8	65.4	65.8	100.0	99.8	99.8	99.8	98.0	92.0	98.4	94.0	96.6	99.8	99.8	95.39999999999999	94.39999999999999	88.4	83.8	79.0	72.6	67.80000000000001	61.0	56.2	55.2	52.800000000000004	50.0	48.199999999999996	77.60000000000001	100.0	99.6	98.4	97.39999999999999	99.8	99.4	92.0	84.6	76.6	69.6	63.2	62.2	61.0	60.8	59.4	59.0	54.6	52.6	48.8	43.6	40.400000000000006	34.0	99.8	99.6	96.0	99.0	99.8	97.2	98.0	92.60000000000001
Node 10		0.2	0.4	1.2	1.2	3.8	63.4	65.8	67.2	71.39999999999999	72.2	72.6	72.8	73.0	73.0	73.2	73.4	73.8	74.0	74.2	74.4	74.6	75.2	100.0	95.8	97.2	99.4	99.2	96.39999999999999	99.4	99.6	99.6	99.8	97.2	92.60000000000001	88.2	82.0	75.0	68.8	63.4	58.199999999999996	57.599999999999994	53.2	52.400000000000006	48.4	45.800000000000004	42.0	37.8	34.0	32.800000000000004	99.2	99.2	95.6	89.60000000000001	81.8	75.8	70.0	69.0	69.0	67.80000000000001	66.4	65.4	60.8	58.199999999999996	54.400000000000006	48.6	44.800000000000004	38.2	32.0	26.400000000000002	20.200000000000003	99.8	99.6	99.0	97.6	93.4
Node 39		0.2	0.8	1.2	2.1999999999999997	17.0	62.6	65.2	65.4	65.4	66.4	66.8	67.0	67.4	67.80000000000001	68.0	69.0	69.0	69.6	69.6	99.8	99.8	99.8	99.8	99.8	95.19999999999999	100.0	99.0	97.8	94.0	98.0	98.0	93.2	91.4	85.0	79.2	73.6	65.60000000000001	59.4	51.6	48.199999999999996	48.199999999999996	46.400000000000006	44.4	99.6	99.8	99.6	99.8	98.0	99.2	99.8	99.6	98.0	90.4	83.8	76.8	70.8	69.6	68.0	68.4	65.2	64.2	60.4	56.99999999999999	52.0	47.4	42.8	78.2	99.8	98.2	100.0	99.2	99.6	99.8	98.4	94.0
Node 26		1.0	1.2	1.4000000000000001	2.0	14.2	63.2	65.2	65.8	66.2	66.60000000000001	66.8	66.8	67.2	67.80000000000001	68.2	68.4	68.60000000000001	68.8	68.8	99.8	100.0	99.8	99.8	99.8	99.6	99.8	99.6	99.8	98.8	99.4	100.0	99.4	96.8	90.2	84.6	78.0	92.60000000000001	85.39999999999999	77.0	70.0	70.0	67.2	65.0	97.8	99.8	97.39999999999999	99.4	97.6	97.0	99.8	100.0	96.39999999999999	89.4	81.39999999999999	95.8	88.4	86.0	90.60000000000001	88.8	86.8	85.39999999999999	78.8	75.2	69.19999999999999	62.8	57.199999999999996	79.2	99.8	99.4	93.2	87.0	99.6	99.6	98.2	93.0
Node 30		1.0	1.2	1.4000000000000001	2.1999999999999997	2.6	3.2	3.2	3.4000000000000004	3.8	4.0	4.3999999999999995	4.6	4.8	5.4	6.0	6.2	6.4	6.6000000000000005	7.199999999999999	7.3999999999999995	7.6	8.0	8.4	7.8	7.8	7.8	8.0	7.8	7.8	7.3999999999999995	8.0	8.200000000000001	7.8	7.6	7.199999999999999	7.199999999999999	7.199999999999999	6.800000000000001	6.6000000000000005	6.6000000000000005	7.000000000000001	7.000000000000001	6.800000000000001	6.800000000000001	6.800000000000001	6.4	6.2	6.0	5.800000000000001	5.6000000000000005	5.6000000000000005	5.2	4.8	5.0	4.8	4.8	5.2	5.2	5.6000000000000005	5.4	5.6000000000000005	5.800000000000001	5.800000000000001	5.6000000000000005	5.0	4.8	4.3999999999999995	4.2	4.0	4.0	3.8	3.8	78.2	97.6	92.80000000000001
Node 5		1.2	1.6	1.7999999999999998	2.6	2.8000000000000003	3.2	3.4000000000000004	3.4000000000000004	3.4000000000000004	3.8	4.0	4.3999999999999995	4.6	4.6	5.4	5.6000000000000005	6.0	6.2	7.199999999999999	99.8	100.0	99.8	100.0	100.0	100.0	99.8	99.6	99.8	99.8	100.0	100.0	94.8	92.60000000000001	86.4	82.6	76.2	69.6	62.0	56.2	51.2	50.8	47.8	47.199999999999996	43.8	41.4	38.6	35.6	32.4	99.0	97.8	99.8	97.6	90.2	83.8	76.2	69.39999999999999	68.2	67.2	66.4	64.2	63.4	60.4	59.199999999999996	54.400000000000006	49.4	45.800000000000004	80.2	98.8	97.2	91.2	84.8	77.8	72.8	70.0	65.2
Node 38		0.4	0.8	1.2	1.2	10.0	63.2	66.8	66.8	67.0	67.80000000000001	67.80000000000001	68.2	68.4	69.0	69.39999999999999	70.0	70.19999999999999	70.39999999999999	70.6	70.8	100.0	99.8	100.0	99.8	99.4	97.39999999999999	96.2	93.2	99.8	99.6	100.0	99.8	98.2	91.4	86.4	77.8	69.39999999999999	62.0	54.400000000000006	47.199999999999996	47.8	45.6	44.0	99.8	99.8	99.6	94.8	89.8	85.2	81.8	98.6	99.8	98.2	91.60000000000001	84.6	77.4	76.6	74.0	73.4	70.19999999999999	68.60000000000001	63.2	60.199999999999996	55.00000000000001	48.8	43.6	77.60000000000001	98.6	99.2	98.4	92.60000000000001	84.6	79.2	76.4	71.8
Node 14		1.0	1.6	1.7999999999999998	2.1999999999999997	2.8000000000000003	3.2	3.5999999999999996	4.2	4.8	70.0	70.19999999999999	70.39999999999999	70.8	71.2	71.2	71.2	71.6	71.8	72.2	99.8	99.8	99.8	100.0	99.8	99.2	99.8	99.4	99.6	96.6	95.6	93.8	87.0	84.6	78.0	73.4	65.2	57.199999999999996	49.6	42.0	35.8	36.0	33.6	32.4	27.800000000000004	25.2	99.0	100.0	99.2	99.6	99.8	99.4	95.0	88.0	81.2	74.8	68.2	67.80000000000001	66.4	64.8	61.8	61.199999999999996	56.99999999999999	54.400000000000006	49.8	45.0	42.199999999999996	36.0	30.8	25.0	20.4	15.0	10.2	7.000000000000001	6.4	4.6
Node 18		0.2	0.4	1.2	1.4000000000000001	8.799999999999999	60.4	60.6	61.0	61.199999999999996	61.6	62.6	62.6	63.4	64.0	64.0	64.0	64.4	64.8	65.0	81.2	99.8	100.0	99.8	99.8	99.8	99.8	100.0	99.8	99.8	96.8	95.19999999999999	89.8	87.6	81.2	75.0	67.80000000000001	61.199999999999996	54.400000000000006	47.199999999999996	41.0	42.0	39.0	37.4	99.6	99.6	99.8	97.8	93.8	98.8	95.39999999999999	88.2	81.39999999999999	74.2	67.0	62.0	56.2	53.800000000000004	52.2	50.6	48.0	46.400000000000006	42.0	40.2	35.8	31.4	27.200000000000003	75.2	98.4	99.8	99.8	99.6	99.6	99.8	97.6	92.60000000000001
Node 24		0.2	0.6	1.0	1.6	14.399999999999999	63.4	65.2	65.2	65.4	65.4	65.60000000000001	65.8	66.2	66.2	67.0	67.60000000000001	67.60000000000001	67.80000000000001	68.0	68.2	68.60000000000001	77.0	100.0	99.4	95.19999999999999	94.6	92.2	88.8	84.2	80.2	75.4	99.6	99.4	98.4	98.2	93.0	84.8	79.0	72.8	68.0	67.0	63.4	60.4	97.8	97.2	93.0	87.6	98.8	99.4	95.0	99.8	99.8	92.2	91.8	95.39999999999999	88.0	87.2	85.8	85.39999999999999	81.39999999999999	80.80000000000001	76.4	73.4	67.80000000000001	61.4	56.8	68.4	98.4	99.6	99.4	98.6	98.6	97.0	97.8	95.0
Node 2		0.0	0.6	0.8	1.0	1.6	63.0	63.6	64.0	64.4	64.60000000000001	64.60000000000001	64.60000000000001	65.2	65.60000000000001	65.60000000000001	66.60000000000001	67.2	67.60000000000001	67.60000000000001	69.6	76.2	99.8	99.8	99.8	99.2	98.4	96.2	92.2	86.8	99.0	99.4	95.19999999999999	94.0	89.8	84.39999999999999	80.0	72.8	66.60000000000001	60.199999999999996	53.6	52.400000000000006	50.2	48.6	99.6	99.4	94.39999999999999	99.2	98.4	99.2	99.4	99.8	98.0	93.4	87.6	80.60000000000001	74.0	73.4	71.8	71.0	69.19999999999999	68.4	63.4	61.199999999999996	56.8	50.6	46.400000000000006	38.2	52.0	98.0	99.8	99.8	93.4	99.0	95.0	91.8
Node 12		0.0	0.4	1.2	1.4000000000000001	2.0	2.0	2.4	2.8000000000000003	2.8000000000000003	3.0	3.4000000000000004	3.4000000000000004	3.5999999999999996	4.0	4.0	4.3999999999999995	4.8	5.0	5.0	99.8	99.8	100.0	100.0	99.6	99.6	96.6	93.4	99.8	97.39999999999999	99.2	99.2	97.0	94.6	89.4	84.2	81.0	72.8	67.80000000000001	61.0	55.2	54.800000000000004	52.2	50.8	50.8	49.6	46.6	42.6	39.800000000000004	35.6	32.2	27.800000000000004	22.0	16.0	10.8	10.0	9.6	9.4	9.2	9.0	8.0	7.6	7.000000000000001	6.800000000000001	7.000000000000001	6.800000000000001	6.2	5.800000000000001	99.6	98.6	93.4	99.8	100.0	99.8	99.6	94.39999999999999
Node 33		1.0	1.4000000000000001	1.4000000000000001	1.4000000000000001	5.2	61.4	65.60000000000001	68.4	68.60000000000001	68.60000000000001	68.8	69.0	69.19999999999999	69.39999999999999	70.0	70.19999999999999	70.6	70.8	71.0	71.0	71.39999999999999	100.0	99.8	99.8	99.8	99.0	100.0	99.4	100.0	99.8	100.0	98.4	98.0	92.4	87.0	83.0	75.6	69.19999999999999	61.199999999999996	56.2	56.00000000000001	54.400000000000006	54.0	52.400000000000006	58.199999999999996	97.6	99.8	98.4	99.2	98.2	98.4	95.6	97.0	89.2	82.8	75.2	75.0	73.2	73.2	71.39999999999999	70.6	66.2	63.2	57.8	52.400000000000006	46.800000000000004	39.4	32.6	47.599999999999994	93.2	99.0	96.0	91.2	89.60000000000001	84.6
Node 3		0.6	0.6	1.0	1.2	10.2	63.800000000000004	66.4	66.60000000000001	66.60000000000001	67.0	67.4	67.60000000000001	67.60000000000001	68.0	68.2	68.2	68.2	68.60000000000001	69.0	69.6	70.39999999999999	70.8	71.0	100.0	100.0	99.8	99.8	99.2	95.8	99.8	99.8	96.2	93.8	90.0	85.2	81.0	73.6	68.0	60.6	55.800000000000004	55.00000000000001	51.800000000000004	50.2	48.0	45.800000000000004	48.6	99.8	98.2	99.0	98.8	98.4	91.60000000000001	85.8	78.60000000000001	73.4	66.60000000000001	64.8	62.6	61.199999999999996	58.199999999999996	57.4	54.0	52.0	49.0	44.0	39.4	33.2	98.8	99.6	93.4	85.8	77.60000000000001	72.8	71.0	67.2
Node 40		0.0	0.0	0.0	0.0	10.6	63.6	69.19999999999999	70.0	70.6	70.6	70.6	70.6	70.6	70.6	70.6	70.6	70.6	70.6	70.6	70.6	70.6	70.6	70.6	61.199999999999996	51.4	41.8	31.6	21.6	12.2	4.2	1.4000000000000001	0.2	0.0	0.0	0.0	0.0	0.0	0.0	0.0	0.0	0.0	0.0	0.0	0.0	0.0	0.0	99.4	98.2	92.2	98.8	98.4	99.8	93.0	84.6	77.4	90.4	89.0	86.6	85.8	82.6	81.6	75.4	72.0	66.0	59.4	54.6	49.0	98.8	91.0	96.39999999999999	88.0	79.4	73.6	69.19999999999999	64.2
Node 9		1.0	1.0	1.4000000000000001	1.4000000000000001	11.799999999999999	63.4	65.8	66.4	66.4	66.60000000000001	67.2	67.80000000000001	68.60000000000001	69.0	69.0	69.19999999999999	69.6	70.0	70.0	99.8	99.8	99.8	99.8	100.0	96.39999999999999	99.8	99.8	99.2	95.8	99.8	99.8	99.8	97.39999999999999	91.60000000000001	86.0	80.60000000000001	72.6	66.2	61.199999999999996	55.400000000000006	55.400000000000006	51.6	49.0	100.0	99.8	99.6	98.8	95.39999999999999	99.8	99.8	99.2	97.8	89.8	83.39999999999999	77.60000000000001	71.2	68.60000000000001	67.4	66.4	65.0	64.2	60.199999999999996	57.599999999999994	53.2	47.0	43.0	36.6	31.0	99.6	95.6	94.39999999999999	99.6	99.8	98.0	93.0
Node 27		0.6	1.0	1.2	1.6	3.2	62.6	64.8	69.6	70.19999999999999	71.39999999999999	71.8	72.2	72.8	73.2	73.8	74.6	74.8	74.8	75.0	96.39999999999999	99.8	100.0	100.0	100.0	99.8	97.0	99.0	99.4	94.6	99.8	100.0	95.19999999999999	93.4	87.8	82.6	76.8	70.19999999999999	64.8	58.199999999999996	53.400000000000006	53.2	50.6	50.0	47.4	44.800000000000004	42.0	37.2	34.599999999999994	31.0	27.800000000000004	23.0	17.8	13.600000000000001	9.4	8.200000000000001	8.4	8.6	8.4	8.0	7.6	7.6	7.6	7.199999999999999	7.000000000000001	6.800000000000001	6.6000000000000005	5.800000000000001	75.8	70.39999999999999	99.2	95.19999999999999	88.4	83.6	98.2	93.0
Node 0		0.4	1.0	1.2	1.4000000000000001	6.6000000000000005	56.8	66.4	67.80000000000001	69.8	70.39999999999999	70.6	71.0	73.8	74.0	74.2	76.2	76.4	77.2	77.8	100.0	100.0	99.8	100.0	99.8	99.6	98.0	98.8	99.8	100.0	96.39999999999999	93.8	87.4	85.2	78.2	73.8	66.8	57.8	49.2	41.8	35.8	35.4	31.6	31.8	99.4	99.6	95.39999999999999	90.0	99.6	99.8	99.2	98.8	98.8	93.4	85.0	79.0	72.0	71.0	85.8	83.8	81.8	81.0	75.2	71.39999999999999	65.4	59.4	54.6	46.6	39.0	99.4	99.8	99.6	94.39999999999999	92.80000000000001	98.0	92.4
Node 29		1.0	1.6	2.6	2.6	5.2	64.0	65.2	65.4	66.0	66.4	66.4	66.8	67.2	67.4	67.80000000000001	68.0	68.4	68.8	69.39999999999999	96.39999999999999	99.8	99.8	100.0	100.0	97.0	94.8	95.39999999999999	99.8	98.2	98.2	99.0	95.6	92.80000000000001	96.2	90.4	84.2	75.2	70.0	62.8	57.199999999999996	57.199999999999996	53.6	52.800000000000004	49.2	47.599999999999994	44.6	99.6	97.8	93.60000000000001	87.6	81.6	74.8	67.60000000000001	60.199999999999996	54.6	48.4	48.0	46.800000000000004	46.400000000000006	45.0	45.0	41.0	39.800000000000004	35.6	31.4	28.4	21.2	16.6	99.6	98.6	99.0	98.4	99.6	99.8	94.6
Node 36		0.6	0.6	1.2	1.4000000000000001	10.6	62.2	64.0	69.0	70.0	70.39999999999999	71.39999999999999	76.8	77.4	78.0	78.60000000000001	78.60000000000001	79.2	83.2	83.8	89.8	99.8	100.0	100.0	99.4	99.8	96.2	99.8	99.0	99.8	100.0	100.0	99.0	98.4	92.60000000000001	88.0	82.19999999999999	90.4	92.80000000000001	85.39999999999999	78.0	76.8	71.6	68.4	95.0	99.4	99.8	99.8	97.8	99.0	98.6	97.6	96.39999999999999	99.8	94.0	86.8	80.0	79.0	77.0	76.6	73.0	72.0	67.80000000000001	65.60000000000001	60.4	59.199999999999996	54.800000000000004	62.2	99.2	98.8	99.8	98.8	99.8	99.8	98.0	92.4
