Message Drop for scenario FairRoutingHaggleInfocom#1
sim_time: 274883.0000

25	2732
19	2637
13	2695
32	2827
8	2709
22	2726
11	857
7	2828
37	1527
34	2644
28	2767
6	1746
23	2838
16	2801
20	1646
35	1566
1	2265
31	2722
21	2846
4	2496
17	1657
15	2691
10	2361
39	2867
26	2873
30	233
5	2318
38	2782
14	2225
18	2495
24	2783
33	2660
2	2753
12	1689
3	2501
40	1535
9	2817
27	1892
0	2707
36	2858
29	2477

