3 58.43552631578949
4 57.44078947368421
7 63.16447368421054
18 59.78947368421051
25 62.06447368421053
8 61.79473684210527
23 65.58421052631579
12 39.740789473684195
14 51.46052631578947
1 52.26973684210526
28 63.33684210526319
34 61.398684210526305
9 64.64999999999999
16 64.04736842105265
17 40.79999999999999
26 67.35657894736842
6 40.15526315789474
33 62.04210526315788
5 54.09473684210527
30 5.656578947368422
21 66.92763157894738
32 65.8
0 63.55263157894739
20 41.05921052631579
13 61.79342105263156
24 64.64868421052631
37 35.81578947368422
38 63.52894736842105
11 19.451315789473682
15 62.1
22 62.07236842105262
2 62.171052631578945
27 43.43947368421052
10 55.93815789473683
19 59.86447368421052
29 56.98552631578949
35 36.74078947368421
40 37.011842105263156
36 67.47236842105262
39 64.46184210526314
31 62.53289473684212
