10	3426
28	3327
36	3448
17	2697
11	1369
12	2783
7	3471
26	3461
4	3435
8	3381
32	3292
35	1671
18	3452
15	3465
37	1600
30	798
33	3434
25	3461
2	3424
13	3385
24	3473
16	3474
3	3336
1	3113
31	3447
23	3445
20	2602
27	2664
39	3448
6	2533
29	3415
40	2365
0	3472
38	3340
9	3459
34	3440
21	3419
19	3385
22	3275
14	2706
5	3309
