Message stats for scenario FairRoutingHaggleInfocom#20M
sim_time: 274883.0000
created: 3892
started: 136347
relayed: 129287
aborted: 7060
dropped: 105739
removed: 0
delivered: 3387
delivery_prob: 0.8702
response_prob: 0.0000
overhead_ratio: 37.1715
latency_avg: 25698.5734
latency_med: 21752.0000
hopcount_avg: 3.3614
hopcount_med: 3
buffertime_avg: 62008.7973
buffertime_med: 68686.0000
rtt_avg: NaN
rtt_med: NaN
