10 32.8546052631579
28 36.93092105263158
36 38.23355263157894
11 9.743421052631579
12 23.89078947368421
17 22.96710526315789
7 37.26842105263158
26 38.32894736842106
4 34.584210526315765
8 36.24605263157895
15 36.54078947368421
18 34.526973684210546
32 37.66250000000001
35 22.196710526315783
37 21.277631578947364
30 2.824342105263158
33 36.458552631578954
25 36.857236842105266
2 36.93092105263158
13 35.889473684210536
24 36.51644736842104
1 31.50723684210527
3 34.77763157894738
16 37.34605263157895
23 37.885526315789484
31 36.89210526315788
20 22.76644736842105
27 25.321052631578947
39 38.03026315789472
6 23.71381578947367
29 33.711184210526305
40 20.77631578947369
0 36.80723684210527
38 36.882894736842104
9 37.49605263157895
34 36.296052631578945
19 34.59144736842103
21 37.85986842105262
22 36.788157894736834
14 31.390789473684208
5 32.91184210526317
