Node	Value
10	22
28	106
36	116
17	104
11	3
12	149
7	76
26	113
4	88
8	88
32	84
15	77
35	26
18	105
37	20
33	42
25	56
2	29
13	57
24	106
3	138
16	52
1	56
31	92
23	71
20	61
27	20
39	279
6	118
29	48
40	69
0	104
38	72
9	108
34	77
21	157
19	32
22	106
14	175
5	85
