25	84
19	116
13	151
32	207
8	161
22	176
11	13
37	64
7	178
34	151
28	208
6	221
23	172
16	129
20	78
35	101
1	95
31	209
17	196
21	288
4	189
15	150
39	538
10	28
26	281
5	194
38	183
14	344
18	247
24	240
33	124
2	68
12	243
3	219
40	158
9	191
27	23
0	198
36	202
29	69
