12 3.8745283018867798
77 12.253593385626461
74 12.408882764468945
62 14.311829552681846
29 10.162317150731392
15 16.760239559041764
36 13.058289166843306
33 10.736082255670985
26 2.2304536781852726
28 17.35025439898245
56 19.467458130167437
70 16.56319694721217
42 12.774263302946672
11 13.492134831460607
0 0.47722069111723403
27 10.07043671825314
46 8.385562857748567
66 0.4398028407886291
23 8.258829764680886
55 2.6377358490565994
38 18.8684757260971
64 12.554695781216868
7 16.064585541657806
95 19.013249947000187
69 7.197159211363157
1 8.618072927708258
10 8.206783972864091
52 0.49498622005512544
24 0.48078227687089287
71 12.147360610557422
31 4.225779096883613
76 12.141498834004723
67 2.540216239135044
39 1.8272630909476155
49 13.207907568369755
73 14.470691117235484
75 13.73398346406614
84 17.177496290014904
58 11.861182955268184
68 8.718009327962655
54 0.438043247827006
90 17.597233411066373
92 3.079891880432497
47 0.46469154123383755
30 9.242103031587861
35 11.257430570277727
5 8.378100487598083
25 7.663016747933037
85 18.983124867500507
2 2.0502437990248024
83 12.303413186347232
3 12.12169811320756
34 13.933093067627707
37 12.343724825100681
72 12.122948908204334
17 10.081259274962946
50 15.207568369726587
57 1.182594869620543
94 17.040767436930107
63 0.47361670553318
91 11.331068475726111
13 18.983750264998957
96 13.5187937248251
40 0.808246767012929
6 17.685509857960486
22 10.737460250159018
18 14.880421878312548
93 14.633400466398129
89 1.2761076955692179
78 9.338435446258217
88 16.507769768920863
59 6.975132499470015
82 15.633199067203652
87 6.102130591477653
65 8.44396862412555
4 4.146841212635161
9 15.858267966928064
32 12.604875980496072
14 16.396035615857503
80 18.842124231503053
79 15.424899300402764
61 3.193300826796692
44 10.090788636845444
19 11.87936188255246
81 10.55763196947213
20 12.995844816620611
53 12.868147127411447
41 12.83697265210936
16 16.87535509857963
43 6.6459508161967715
51 0.4273478906084382
8 2.5926860292558804
86 0.480782276870891
45 11.956158575365725
48 15.726309094763655
60 6.033146067415744
21 9.707843968624102
