83	11301
3	11750
77	10602
34	12656
37	11889
12	3831
74	10708
62	13177
72	11400
29	9512
17	9344
15	14340
50	13706
36	11898
57	1058
33	9910
56	15392
28	14275
26	2411
70	14504
42	10957
94	14533
11	12369
46	8617
27	9436
91	10731
13	15311
96	13918
23	8398
55	2591
38	15499
40	463
64	12123
6	14749
95	15155
7	13743
22	9463
18	13098
69	8261
93	14069
1	8790
10	7746
89	1048
78	9313
88	14058
59	7874
82	13465
87	6305
65	7812
71	11228
4	3957
9	14162
31	3663
32	12495
80	15366
14	14191
79	13576
76	11219
61	3415
67	2770
44	9137
19	10892
81	9764
39	1669
53	11232
20	11652
41	12607
49	11908
16	14125
84	14537
75	11924
73	13384
58	11351
43	6773
68	8310
90	14799
92	3665
8	2680
48	13988
45	10880
60	6994
21	8626
35	10886
30	8393
85	15337
5	7209
25	8594
2	2436
