Node	Value
83	106
3	93
77	229
34	216
12	18
37	38
74	113
72	113
62	114
29	41
17	19
15	271
36	114
50	110
57	1
33	70
28	875
56	458
26	24
70	68
42	195
94	362
11	164
27	53
46	48
63	1
0	1
91	83
96	79
13	233
23	144
55	12
38	521
40	3
64	121
6	281
7	170
95	421
22	81
18	305
69	78
93	112
1	31
10	33
89	6
78	66
88	152
52	2
82	120
59	36
87	6
65	74
71	199
9	191
4	11
31	67
32	76
80	319
14	170
79	130
76	116
61	3
67	9
44	60
81	153
19	177
39	10
20	168
53	130
41	92
49	327
16	165
84	261
75	158
73	155
58	55
43	37
68	39
54	2
90	189
92	14
8	4
48	40
45	104
47	3
60	52
21	73
35	66
30	85
85	247
5	58
25	39
2	3
