NrofLatencyAverage/Contact
8000 22614.7762
16000 24275.4671
2500 10720.6488
10500 21552.4560
18500 27989.9298
5000 20883.1932
13000 22713.6246
7500 22930.7650
15500 24222.8169
2000 10528.3623
10000 21937.0271
18000 27347.3026
4500 18447.1122
12500 22030.6822
7000 23101.5754
15000 24338.5612
1500 10520.5401
9500 22082.1949
17500 26688.9016
4000 11417.5431
12000 20940.1327
6500 22957.7805
14500 24111.6322
1000 10505.7870
9000 22376.8289
17000 25422.4353
3500 10176.1236
11500 21258.5440
6000 22919.7603
14000 24191.4044
500 10620.9328
8500 22497.3684
16500 24326.5562
3000 10495.3813
11000 21378.9495
19000 28543.4614
5500 22559.4217
13500 23538.6083

