25	1135
19	1075
13	1377
32	1378
8	613
22	1042
11	152
37	427
7	1428
34	1218
28	1678
6	1112
23	1460
16	1421
20	1524
35	726
1	743
31	2000
17	1060
21	1731
4	1061
15	1253
39	2730
10	420
26	1775
30	101
5	1181
38	1802
14	1439
18	1147
24	1253
33	1213
2	1419
12	1847
3	1876
40	1021
9	1511
27	358
0	1750
29	708
36	1759
