NrofDelivered/Contact
8000 1166
16000 2280
2500 242
10500 1364
18500 2792
5000 704
13000 1758
7500 1085
15500 2228
2000 207
10000 1291
18000 2720
4500 526
12500 1630
7000 1015
15000 2199
1500 187
9500 1267
17500 2633
4000 313
12000 1477
6500 952
14500 2107
1000 169
9000 1227
17000 2479
3500 267
11500 1443
6000 897
14000 2060
500 119
8500 1208
16500 2339
3000 257
11000 1405
19000 2839
5500 837
13500 1907

