NrofTotalCopy/Contact
8000 1835
16000 3538
2500 378
10500 2218
18500 4193
5000 1306
13000 3028
7500 1706
15500 3507
2000 352
10000 2079
18000 4063
4500 1191
12500 2833
7000 1595
15000 3467
1500 329
9500 1956
17500 3949
4000 873
12000 2363
6500 1490
14500 3422
1000 297
9000 1908
17000 3871
3500 505
11500 2284
6000 1412
14000 3277
500 283
8500 1856
16500 3718
3000 403
11000 2251
19000 4382
5500 1332
13500 3099

