25	7
19	35
13	23
32	49
8	59
22	61
37	26
7	94
34	16
28	66
6	133
23	58
16	75
20	18
35	38
31	82
21	166
4	647
17	1
15	54
39	77
10	7
26	5
5	25
38	82
14	1
18	27
24	52
33	251
2	15
12	33
3	104
40	77
9	36
27	9
0	34
29	36
36	133
