25 0.44605263157894753
19 0.3644736842105265
13 0.2381578947368422
8 0.8559210526315791
32 0.19539473684210543
22 1.2802631578947363
11 0.9072368421052633
7 0.6506578947368422
37 1.1434210526315791
34 0.318421052631579
28 0.6493421052631579
6 1.8309210526315798
23 0.5375
16 0.8592105263157894
20 0.6177631578947367
1 0.5328947368421051
35 0.7486842105263161
31 0.7032894736842106
4 6.4125
17 0.10723684210526316
21 1.536842105263158
15 0.6401315789473685
10 0.5421052631578946
39 0.5151315789473685
26 0.2407894736842105
30 1.3493421052631582
5 0.7368421052631581
38 1.0546052631578944
14 0.3177631578947369
18 0.45986842105263154
24 0.2822368421052632
2 0.4756578947368421
12 0.7144736842105265
33 2.6828947368421048
3 0.899342105263158
40 0.16184210526315787
9 0.6046052631578945
27 0.5427631578947366
0 0.22697368421052627
29 0.6421052631578946
36 1.1046052631578949
