Message stats for scenario SAdfTest2
sim_time: 274883.0000
created: 3892
started: 100614
relayed: 97230
aborted: 3384
dropped: 862
removed: 97230
delivered: 2693
delivery_prob: 0.6919
response_prob: 0.0000
overhead_ratio: 35.1047
latency_avg: 30756.7479
latency_med: 26440.0000
hopcount_avg: 22.4575
hopcount_med: 12
buffertime_avg: 1761.9246
buffertime_med: 67.0000
rtt_avg: NaN
rtt_med: NaN
TotalCopy: 94537
