NrofDelivered/Time = 
57600 259
115200 1295
172800 1749
230400 1992
1800 0
59400 260
117000 1307
174600 1768
232200 1995
3600 0
61200 261
118800 1322
176400 1797
234000 1995
5400 0
63000 261
120600 1324
178200 1817
235800 1995
7200 0
64800 261
122400 1324
180000 1845
237600 1995
9000 0
66600 261
124200 1325
181800 1877
239400 1995
10800 0
68400 261
126000 1326
183600 1903
241200 1997
12600 0
70200 263
127800 1327
185400 1928
243000 1997
14400 0
72000 273
129600 1328
187200 1938
244800 2032
16200 0
73800 388
131400 1329
189000 1947
246600 2059
18000 0
75600 475
133200 1329
190800 1956
248400 2117
19800 0
77400 568
135000 1331
192600 1965
250200 2210
21600 47
79200 598
136800 1332
194400 1975
252000 2310
23400 197
81000 628
138600 1332
196200 1978
253800 2323
25200 238
82800 719
140400 1332
198000 1978
255600 2345
27000 243
84600 763
142200 1334
199800 1981
257400 2374
28800 243
86400 769
144000 1334
201600 1981
259200 2390
30600 244
88200 805
145800 1334
203400 1982
261000 2399
32400 245
90000 998
147600 1334
205200 1982
262800 2419
34200 245
91800 1081
149400 1334
207000 1982
264600 2436
36000 245
93600 1097
151200 1335
208800 1982
266400 2458
37800 247
95400 1106
153000 1335
210600 1983
268200 2499
39600 247
97200 1111
154800 1335
212400 1984
270000 2499
41400 249
99000 1115
156600 1336
214200 1984
271800 2499
43200 250
100800 1142
158400 1341
216000 1987
273600 2499
45000 251
102600 1151
160200 1408
217800 1988
46800 251
104400 1158
162000 1446
219600 1989
48600 254
106200 1162
163800 1457
221400 1992
50400 257
108000 1173
165600 1523
223200 1992
52200 258
109800 1238
167400 1579
225000 1992
54000 258
111600 1268
169200 1623
226800 1992
55800 258
113400 1290
171000 1664
228600 1992

