Node 23		0.75	0.75	0.75	0.8999999999999999	1.2	25.650000000000002	25.650000000000002	25.95	26.1	26.1	26.25	22.650000000000002	27.150000000000002	21.9	16.8	11.55	6.15	5.25	5.1	18.3	24.75	56.25	51.74999999999999	67.2	60.75000000000001	54.6	47.4	41.85	43.2	67.05	66.0	65.4	61.199999999999996	56.39999999999999	51.6	44.55	38.25	31.35	25.5	19.35	14.549999999999999	9.6	14.85	31.8	32.4	30.75	38.1	34.65	30.599999999999998	27.450000000000003	25.8	22.2	18.9	15.45	12.0	9.3	7.5	8.4	7.199999999999999	5.8500000000000005	5.7	4.65	4.2	4.65	4.2	4.2	4.05	5.7	20.1	16.950000000000003	14.099999999999998	10.65	6.45	4.05	1.05
Node 11		0.75	1.05	1.2	1.2	1.35	1.35	1.5	1.6500000000000001	2.25	3.0	3.5999999999999996	3.0	3.0	2.85	2.85	3.15	3.15	3.3000000000000003	3.3000000000000003	3.0	2.85	2.55	2.1	2.25	2.4	2.55	2.7	2.85	3.3000000000000003	3.15	3.3000000000000003	3.45	3.5999999999999996	3.45	3.3000000000000003	3.45	3.3000000000000003	3.15	3.45	3.0	2.7	2.85	2.85	2.85	2.7	2.55	2.85	2.7	2.7	2.7	2.4	2.7	2.55	2.55	2.25	2.25	1.95	2.1	1.95	2.1	1.95	2.25	2.1	1.95	1.7999999999999998	1.6500000000000001	1.6500000000000001	1.5	1.5	1.35	1.2	0.8999999999999999	0.75	0.3	0.15
Node 29		0.75	1.2	1.95	1.95	2.1	40.35	41.85	42.0	42.449999999999996	43.8	44.1	38.4	32.85	27.150000000000002	21.75	15.75	10.05	5.7	5.4	24.9	40.5	39.900000000000006	56.85	57.45	56.10000000000001	50.4	44.1	39.900000000000006	34.050000000000004	34.2	31.95	26.400000000000002	22.5	18.0	15.0	12.3	12.9	12.3	10.95	9.0	8.1	6.3	5.8500000000000005	4.5	4.2	4.05	13.200000000000001	15.299999999999999	14.249999999999998	12.9	11.25	10.2	9.0	8.1	6.75	6.15	4.35	3.45	2.4	2.7	2.55	2.55	2.7	2.4	2.25	2.1	1.95	1.2	1.05	0.75	0.75	0.3	12.45	8.7	2.25
Node 0		0.3	0.75	0.8999999999999999	1.05	3.45	34.8	35.099999999999994	35.25	35.699999999999996	36.15	36.449999999999996	31.8	25.8	20.4	15.0	9.9	4.8	3.15	3.15	14.399999999999999	60.6	57.599999999999994	54.449999999999996	56.85	52.5	47.099999999999994	41.699999999999996	36.0	29.7	23.7	17.849999999999998	12.6	9.3	5.55	4.05	3.15	2.4	1.7999999999999998	1.2	1.2	1.35	1.2	1.5	4.95	15.45	13.8	12.15	13.950000000000001	12.45	13.350000000000001	11.55	9.75	8.55	6.9	5.1	4.2	3.45	3.15	2.85	2.4	2.55	2.4	2.4	2.25	2.1	2.1	1.95	1.6500000000000001	1.35	0.8999999999999999	1.95	2.25	1.35	9.15	2.1
Node 6		0.3	0.75	0.8999999999999999	1.05	1.6500000000000001	41.55	41.85	42.449999999999996	42.9	43.05	43.65	38.1	31.2	25.35	19.8	13.8	7.8	4.35	12.6	58.35	68.55	76.5	76.95	87.75	84.75	78.9	77.85	74.55000000000001	67.5	60.45	53.400000000000006	46.650000000000006	40.050000000000004	32.85	27.3	19.950000000000003	14.099999999999998	9.6	6.3	5.8500000000000005	6.15	6.75	6.45	6.15	5.8500000000000005	5.25	4.5	4.8	4.5	4.65	4.65	6.9	6.45	5.7	6.15	5.7	5.1	4.8	4.8	4.35	4.65	4.65	4.8	4.35	3.5999999999999996	3.0	5.4	16.05	28.199999999999996	23.849999999999998	18.6	14.85	10.2	5.8500000000000005	1.6500000000000001
Node 8		0.44999999999999996	0.75	1.05	1.05	1.5	4.8	5.4	6.0	6.75	7.049999999999999	7.199999999999999	6.75	8.7	8.1	6.6000000000000005	6.75	5.8500000000000005	5.8500000000000005	5.4	52.349999999999994	71.55	73.2	74.7	78.60000000000001	77.85	74.55000000000001	67.2	59.85	66.14999999999999	70.65	71.1	64.5	57.9	50.1	43.5	36.15	30.15	24.15	17.849999999999998	12.0	7.95	5.1	3.0	2.4	2.1	4.95	31.5	28.199999999999996	30.599999999999998	39.45	35.4	33.0	29.099999999999998	25.35	21.6	18.45	14.399999999999999	12.0	14.249999999999998	11.55	9.15	8.1	8.25	7.95	7.35	6.45	5.7	4.95	5.4	18.75	14.7	11.55	7.199999999999999	4.65	1.2
Node 27		0.44999999999999996	0.75	0.8999999999999999	1.2	2.25	40.2	42.449999999999996	43.5	43.65	43.65	43.95	38.25	32.25	26.1	20.1	14.85	9.0	4.65	3.45	8.25	44.85	58.5	52.65	57.15	53.25	47.4	42.6	40.2	33.900000000000006	38.550000000000004	35.85	30.15	26.55	22.35	20.25	18.0	16.35	14.099999999999998	11.4	9.0	7.199999999999999	4.65	4.05	3.9	3.5999999999999996	3.45	2.85	2.85	2.55	2.7	2.4	2.7	2.7	2.55	2.1	2.4	2.85	2.85	3.15	2.85	3.15	3.0	3.0	2.55	2.4	2.4	2.25	1.7999999999999998	1.35	1.2	0.8999999999999999	0.75	0.3	0.15	0.0
Node 31		0.75	0.8999999999999999	0.8999999999999999	1.05	1.95	41.55	43.95	45.15	45.75	46.35	46.650000000000006	40.8	34.2	27.750000000000004	21.9	16.05	10.05	5.55	4.2	3.3000000000000003	2.85	2.55	2.55	59.699999999999996	58.35	54.0	51.74999999999999	46.2	40.2	38.550000000000004	53.849999999999994	48.0	42.449999999999996	36.3	32.25	27.0	23.1	19.35	15.45	11.700000000000001	9.15	5.8500000000000005	5.55	9.0	9.15	8.7	55.50000000000001	53.1	50.55	47.4	45.6	42.6	38.1	34.5	30.9	27.0	22.5	19.2	15.0	12.3	8.25	5.55	4.2	3.9	3.0	2.4	6.3	17.4	26.25	22.2	18.0	13.950000000000001	10.05	6.15	1.5
Node 33		0.75	1.05	1.05	1.05	1.35	38.85	44.1	45.0	45.300000000000004	45.300000000000004	45.45	39.300000000000004	32.550000000000004	26.25	20.849999999999998	14.85	8.7	4.2	3.0	2.1	5.25	43.2	68.10000000000001	87.0	89.7	84.89999999999999	86.7	80.85	80.4	88.05	87.9	83.25	75.75	67.65	59.85	51.449999999999996	44.1	36.75	29.099999999999998	22.05	15.45	9.0	3.9	2.4	20.25	49.65	66.3	70.95	72.75	67.2	64.95	61.050000000000004	59.550000000000004	52.65	45.300000000000004	38.550000000000004	31.95	26.700000000000003	19.8	15.0	9.6	6.45	3.75	2.55	2.4	2.25	1.95	1.7999999999999998	19.8	30.599999999999998	28.199999999999996	24.45	17.4	9.75	2.4
Node 7		0.3	0.6	0.6	0.8999999999999999	4.65	39.300000000000004	44.4	44.55	45.300000000000004	45.45	45.45	39.15	32.25	26.25	20.7	14.549999999999999	9.3	4.8	4.05	54.300000000000004	69.75	73.2	74.1	80.10000000000001	77.85	71.25	77.55	71.1	63.9	76.2	73.5	68.7	61.5	54.0	48.0	40.65	33.900000000000006	27.0	21.15	15.0	10.05	5.7	3.15	33.15	31.2	28.050000000000004	25.2	22.2	38.85	37.95	34.65	31.65	27.750000000000004	24.3	20.25	17.1	12.75	10.35	8.25	6.75	4.65	3.75	2.85	2.85	2.7	2.7	5.4	9.0	19.05	16.8	12.9	10.2	6.3	11.1	2.7
Node 9		0.75	0.75	1.05	1.05	2.55	39.6	40.2	40.65	42.3	42.449999999999996	42.9	37.35	31.5	25.95	19.950000000000003	13.950000000000001	8.25	7.8	6.45	20.4	21.6	31.8	33.15	51.6	48.449999999999996	51.9	48.449999999999996	43.2	37.5	36.6	38.85	42.6	39.0	33.0	29.4	25.05	22.5	18.75	15.15	11.700000000000001	9.15	6.15	5.25	31.2	34.050000000000004	41.699999999999996	42.75	39.45	40.35	42.3	38.1	34.65	29.849999999999998	26.1	22.05	18.15	13.950000000000001	10.95	8.4	6.9	5.4	3.9	3.5999999999999996	3.3000000000000003	3.15	3.0	2.85	2.55	26.700000000000003	22.95	17.7	18.15	15.45	11.1	2.85
Node 12		0.0	0.3	0.8999999999999999	1.05	1.5	1.5	1.7999999999999998	2.1	2.1	2.25	2.55	2.55	2.7	2.7	2.1	2.25	2.1	2.25	1.95	7.199999999999999	9.9	9.3	8.85	8.4	9.0	8.1	7.199999999999999	6.15	4.65	4.05	3.3000000000000003	3.0	3.0	3.0	3.15	3.9	4.05	4.35	4.65	4.5	4.65	4.65	4.05	3.75	3.9	3.9	3.75	3.15	2.7	2.55	2.4	2.7	2.7	2.55	2.7	2.85	2.55	2.4	2.55	2.4	2.55	2.4	2.55	2.4	2.25	1.95	1.6500000000000001	15.45	18.15	18.3	21.45	16.5	11.700000000000001	9.75	2.4
Node 19		0.3	0.75	1.2	1.5	1.7999999999999998	40.2	40.8	41.55	41.85	42.15	42.6	42.15	35.55	30.0	24.45	18.75	13.05	8.85	7.049999999999999	13.8	30.3	35.55	36.6	34.2	31.35	27.3	25.35	21.75	17.849999999999998	14.099999999999998	10.8	7.35	5.1	4.35	3.5999999999999996	3.15	2.85	2.25	1.7999999999999998	1.95	1.95	1.95	1.7999999999999998	4.35	5.1	7.5	9.45	17.549999999999997	15.75	16.5	15.299999999999999	14.099999999999998	13.350000000000001	11.700000000000001	10.2	8.55	6.15	5.4	4.2	3.3000000000000003	3.15	2.4	2.25	2.1	1.5	1.5	1.35	1.35	6.15	5.25	6.15	4.95	2.85	1.6500000000000001	0.6
Node 36		0.44999999999999996	0.44999999999999996	0.8999999999999999	1.05	1.2	39.0	39.900000000000006	43.65	44.1	44.4	44.4	40.5	34.65	29.4	25.05	19.35	14.099999999999998	10.35	8.4	14.85	28.499999999999996	35.85	50.7	47.25	53.1	47.4	44.7	38.85	37.35	34.35	31.65	30.15	25.95	21.45	20.4	18.0	16.35	14.7	12.3	10.35	9.15	7.199999999999999	6.3	19.950000000000003	37.8	36.6	46.650000000000006	47.099999999999994	54.449999999999996	52.05	47.4	42.449999999999996	37.95	35.25	29.849999999999998	25.05	19.8	16.2	11.85	8.7	5.8500000000000005	5.25	4.5	7.049999999999999	6.15	5.7	8.7	7.5	18.75	15.15	14.399999999999999	11.55	15.0	8.7	2.25
Node 10		0.15	0.3	0.8999999999999999	0.8999999999999999	1.5	40.050000000000004	42.75	43.35	43.65	43.8	44.1	38.1	31.95	25.8	19.5	13.5	7.5	3.5999999999999996	2.4	2.1	1.95	2.25	1.95	1.95	1.7999999999999998	2.85	18.3	16.05	12.9	12.15	37.35	36.75	32.85	26.85	23.849999999999998	19.950000000000003	17.549999999999997	14.85	11.4	8.55	6.6000000000000005	3.9	2.7	2.1	2.1	2.25	2.25	2.55	2.55	48.9	45.9	41.699999999999996	37.35	33.75	29.099999999999998	25.650000000000002	20.549999999999997	17.7	12.9	9.6	6.45	4.95	4.5	4.35	4.05	3.75	3.15	2.7	2.4	2.4	24.75	18.9	12.75	8.85	2.1
Node 37		0.75	1.05	1.2	1.35	3.9	40.2	43.95	45.15	45.300000000000004	45.45	50.7	45.0	37.95	31.8	26.25	19.950000000000003	13.5	7.95	5.7	26.85	32.1	38.4	35.55	54.900000000000006	61.8	60.6	53.400000000000006	46.949999999999996	40.050000000000004	37.8	31.95	25.650000000000002	20.7	15.45	12.45	9.0	6.75	5.1	4.35	3.3000000000000003	2.7	2.4	2.55	2.4	2.25	2.4	2.4	2.25	2.7	2.7	2.85	3.0	3.3000000000000003	3.45	3.3000000000000003	3.15	3.3000000000000003	3.15	3.15	3.0	3.0	2.7	2.4	2.25	1.95	1.6500000000000001	1.6500000000000001	1.6500000000000001	1.35	0.75	0.6	0.44999999999999996	0.0	0.0	0.0
Node 13		0.3	0.3	0.44999999999999996	0.8999999999999999	1.5	23.7	24.0	24.0	24.3	24.45	24.6	21.3	17.25	12.6	8.85	5.8500000000000005	2.25	2.1	2.1	2.25	14.249999999999998	24.9	50.7	52.800000000000004	53.25	48.75	44.7	38.550000000000004	32.25	41.85	38.25	32.25	27.3	21.45	18.15	14.399999999999999	12.0	9.9	8.1	6.15	5.4	3.75	2.4	12.15	15.6	15.75	19.35	17.7	15.75	14.7	13.05	11.4	10.05	8.7	7.049999999999999	5.7	4.2	3.5999999999999996	3.15	2.7	2.85	2.85	2.85	2.55	2.4	2.1	1.7999999999999998	1.6500000000000001	3.0	1.95	1.7999999999999998	1.5	0.75	0.15	0.0
Node 4		0.15	0.15	0.75	0.75	1.2	39.45	39.45	39.45	39.6	39.75	40.2	34.949999999999996	28.799999999999997	23.1	17.1	11.4	5.7	3.0	6.9	67.35	75.3	77.7	84.89999999999999	98.55000000000001	92.55	84.45	76.8	86.4	78.0	88.5	80.7	72.0	63.74999999999999	55.50000000000001	47.25	39.15	31.35	24.0	16.35	9.75	4.5	2.25	2.25	35.85	53.400000000000006	61.35	60.6	67.2	72.45	74.1	71.1	64.35	58.199999999999996	51.300000000000004	43.95	36.449999999999996	29.849999999999998	24.6	18.45	13.5	8.4	4.05	3.15	2.7	2.1	1.95	1.7999999999999998	1.6500000000000001	1.6500000000000001	1.5	1.05	24.15	18.15	11.1	2.85
Node 35		0.6	0.6	0.75	1.05	2.25	39.900000000000006	40.8	43.05	43.05	43.2	43.35	37.35	31.05	25.2	19.5	13.350000000000001	7.199999999999999	3.45	2.4	20.4	68.7	67.80000000000001	62.25000000000001	63.9	57.75	56.39999999999999	50.4	44.55	38.4	63.3	67.5	60.9	54.0	47.4	41.699999999999996	34.5	29.099999999999998	23.400000000000002	18.45	13.200000000000001	8.85	4.65	3.45	3.5999999999999996	3.5999999999999996	3.5999999999999996	3.5999999999999996	3.45	3.45	3.0	2.7	2.7	2.55	2.1	2.1	1.95	2.1	1.7999999999999998	1.7999999999999998	1.6500000000000001	1.6500000000000001	1.7999999999999998	1.7999999999999998	1.6500000000000001	1.5	1.35	1.05	0.8999999999999999	0.75	0.75	0.75	0.75	0.44999999999999996	0.3	0.0
Node 1		0.6	0.8999999999999999	1.05	1.05	1.5	1.6500000000000001	1.6500000000000001	1.6500000000000001	1.7999999999999998	2.1	2.25	2.25	2.55	2.55	2.7	3.0	2.85	3.0	3.45	3.45	3.5999999999999996	5.4	5.4	4.8	12.9	11.85	10.65	9.3	7.6499999999999995	6.9	6.45	6.15	5.7	5.25	4.95	4.65	4.05	4.2	4.05	3.5999999999999996	3.5999999999999996	2.7	2.1	1.95	2.4	2.55	2.7	7.5	7.049999999999999	6.6000000000000005	6.45	6.15	6.15	6.3	5.7	5.1	4.5	4.05	3.5999999999999996	3.75	3.5999999999999996	3.5999999999999996	3.5999999999999996	3.3000000000000003	2.55	2.1	1.95	1.6500000000000001	1.35	1.05	0.8999999999999999	0.6	0.44999999999999996	0.3	0.0
Node 38		0.3	0.6	0.8999999999999999	0.8999999999999999	1.7999999999999998	39.75	41.4	41.4	41.55	45.75	45.9	40.2	33.900000000000006	27.900000000000002	22.2	16.35	10.5	6.45	5.4	5.25	23.1	77.55	71.1	82.19999999999999	77.55	70.5	62.7	57.3	57.45	63.449999999999996	65.85	64.35	58.650000000000006	52.05	45.9	38.25	32.550000000000004	27.3	21.75	16.8	12.45	7.199999999999999	4.95	36.449999999999996	44.85	50.1	45.15	40.65	35.55	40.65	40.050000000000004	42.6	36.9	32.7	27.6	23.849999999999998	19.8	16.8	13.65	10.8	7.199999999999999	3.9	2.25	1.2	1.05	0.75	6.45	10.2	18.0	15.299999999999999	12.0	19.05	13.05	7.6499999999999995	1.95
Node 18		0.15	0.3	0.8999999999999999	1.05	1.7999999999999998	40.949999999999996	41.099999999999994	41.4	41.55	41.85	42.6	36.6	30.45	24.6	18.75	12.3	6.15	3.3000000000000003	3.3000000000000003	37.95	69.15	69.3	63.9	66.45	64.8	64.05	56.699999999999996	52.65	46.949999999999996	40.35	34.65	27.6	22.5	16.950000000000003	13.200000000000001	9.6	7.049999999999999	5.8500000000000005	4.35	3.45	3.75	4.05	3.5999999999999996	3.9	3.9	10.8	12.3	11.4	10.95	10.2	9.15	8.25	6.9	6.0	4.95	3.9	2.4	2.1	2.4	2.7	2.85	2.7	2.85	3.0	2.85	2.4	2.25	3.75	5.1	10.2	12.45	10.35	12.6	7.6499999999999995	1.95
Node 21		0.0	0.0	0.6	0.75	2.7	39.15	40.050000000000004	45.300000000000004	46.050000000000004	46.5	46.800000000000004	41.4	35.099999999999994	29.25	23.400000000000002	17.4	11.25	5.8500000000000005	6.9	23.400000000000002	30.15	74.85000000000001	71.39999999999999	85.2	79.95	76.8	75.14999999999999	69.6	65.25	69.45	71.39999999999999	67.95	63.14999999999999	57.599999999999994	52.05	47.699999999999996	41.699999999999996	35.4	29.549999999999997	22.95	18.0	12.6	11.1	27.150000000000002	32.25	28.349999999999998	33.45	29.849999999999998	27.6	45.15	40.5	40.050000000000004	35.25	32.1	29.099999999999998	24.9	21.15	19.05	15.0	12.45	12.45	10.2	9.45	8.7	7.95	6.75	5.55	5.7	22.2	19.950000000000003	16.650000000000002	12.6	9.0	5.7	1.5
Node 28		0.3	0.3	0.6	0.8999999999999999	2.55	31.5	31.65	32.4	38.550000000000004	38.85	39.900000000000006	34.65	29.4	23.849999999999998	18.45	13.05	7.35	5.8500000000000005	5.55	18.9	39.45	46.800000000000004	42.6	51.74999999999999	46.2	47.85	43.95	38.7	33.0	26.400000000000002	54.449999999999996	49.35	46.2	43.2	39.300000000000004	33.900000000000006	29.7	24.6	20.4	16.650000000000002	13.65	9.9	8.1	6.6000000000000005	6.15	16.5	24.9	30.0	27.150000000000002	42.449999999999996	39.6	35.699999999999996	31.35	28.199999999999996	24.6	20.7	16.2	15.0	10.95	8.85	6.75	5.4	5.1	4.8	4.5	5.7	9.0	13.5	26.1	22.35	17.25	13.8	9.0	5.1	1.5
Node 39		0.15	0.6	0.8999999999999999	1.6500000000000001	3.15	39.300000000000004	40.65	40.8	40.8	41.55	41.85	36.449999999999996	30.599999999999998	24.9	19.35	13.65	7.6499999999999995	4.35	3.3000000000000003	54.449999999999996	64.8	67.2	61.5	67.5	61.650000000000006	63.14999999999999	57.3	50.24999999999999	43.5	45.75	40.2	34.5	29.099999999999998	23.25	19.5	14.85	12.0	9.75	7.5	5.7	4.05	3.15	3.15	8.4	11.55	13.350000000000001	22.95	21.15	19.35	22.05	20.549999999999997	18.9	16.5	14.549999999999999	12.6	10.35	6.9	5.8500000000000005	4.95	4.35	3.15	2.55	2.25	2.1	2.1	1.7999999999999998	1.6500000000000001	1.35	25.5	22.5	18.75	14.399999999999999	13.8	10.8	2.85
Node 25		0.0	0.3	0.3	0.75	1.05	39.15	39.15	39.300000000000004	39.6	40.050000000000004	40.35	35.25	29.25	23.7	18.45	12.15	6.3	3.3000000000000003	3.3000000000000003	19.05	18.3	16.650000000000002	39.45	53.849999999999994	48.3	42.9	37.8	32.1	35.55	35.4	33.75	27.6	23.7	19.2	16.5	13.350000000000001	11.25	9.9	7.5	5.4	4.35	3.0	3.15	3.75	13.200000000000001	13.200000000000001	17.7	16.35	14.85	16.5	15.15	14.099999999999998	12.6	11.1	9.3	7.5	5.1	4.5	3.45	3.45	3.0	3.15	3.15	2.85	2.7	2.55	2.4	2.1	1.7999999999999998	1.35	1.05	0.75	14.7	11.1	2.85
Node 15		0.3	0.6	0.75	0.8999999999999999	1.5	38.550000000000004	38.7	38.85	39.0	39.15	39.300000000000004	33.45	27.450000000000003	22.650000000000002	17.1	10.95	5.4	2.4	2.7	2.85	71.25	68.25	67.80000000000001	79.2	76.35	68.85	65.7	59.099999999999994	56.25	64.64999999999999	60.45	54.300000000000004	48.15	41.25	36.15	29.549999999999997	25.650000000000002	21.75	16.950000000000003	12.75	8.7	4.65	2.7	3.15	24.6	25.05	26.400000000000002	45.0	40.949999999999996	46.5	42.0	37.05	32.4	28.95	24.6	20.549999999999997	16.8	13.950000000000001	10.2	7.5	5.1	3.0	3.15	3.15	2.85	2.4	2.25	18.9	25.35	21.6	18.6	14.7	9.75	11.1	2.85
Node 3		0.44999999999999996	0.44999999999999996	0.75	0.8999999999999999	1.05	42.0	45.45	45.6	45.6	45.9	46.2	39.900000000000006	33.300000000000004	27.150000000000002	20.849999999999998	14.549999999999999	8.4	3.75	1.95	2.25	2.85	2.85	2.7	53.55	54.900000000000006	61.5	55.50000000000001	48.75	41.85	47.099999999999994	56.55	51.74999999999999	46.050000000000004	39.75	35.4	29.4	24.75	19.950000000000003	16.2	11.55	8.25	4.35	1.95	1.6500000000000001	1.95	12.6	46.800000000000004	48.15	50.4	47.85	45.6	41.25	37.65	33.75	29.25	25.2	19.8	16.2	11.700000000000001	8.7	5.25	3.15	2.85	2.25	1.7999999999999998	1.7999999999999998	1.35	15.9	28.799999999999997	24.9	19.35	15.0	9.45	5.55	1.6500000000000001
Node 20		0.6	0.75	0.8999999999999999	1.05	1.2	16.2	41.25	41.25	42.6	43.05	43.2	37.05	30.15	32.25	25.95	20.1	14.249999999999998	8.85	6.0	5.4	4.65	3.9	3.45	3.15	3.15	3.3000000000000003	2.7	2.4	2.55	2.1	2.1	1.95	1.95	1.7999999999999998	2.1	40.8	35.85	30.0	25.05	18.9	14.549999999999999	9.75	6.75	4.65	21.15	26.85	30.3	31.65	30.45	35.55	34.2	31.65	28.499999999999996	25.5	22.35	19.950000000000003	16.35	14.249999999999998	11.85	9.75	6.9	5.4	4.2	3.75	3.45	3.15	2.85	2.55	10.2	9.3	22.2	17.849999999999998	12.15	8.85	2.1
Node 2		0.0	0.44999999999999996	0.6	0.75	1.2	39.0	39.45	39.75	40.050000000000004	40.2	40.2	34.5	28.65	22.8	17.1	11.700000000000001	6.15	3.75	3.15	8.4	40.5	64.05	59.4	75.6	71.85000000000001	66.14999999999999	61.050000000000004	54.15	47.099999999999994	57.3	55.2	48.9	42.9	36.75	32.1	25.05	21.6	17.1	13.8	10.2	7.5	4.2	2.1	28.050000000000004	30.9	27.0	26.25	41.099999999999994	54.0	55.800000000000004	50.7	46.5	45.75	41.699999999999996	36.15	31.2	25.8	22.05	16.650000000000002	12.9	9.0	6.15	4.05	2.7	1.6500000000000001	1.35	1.2	1.2	9.45	9.0	9.6	7.049999999999999	5.1	8.7	2.25
Node 14		0.75	1.2	1.35	1.6500000000000001	2.1	2.4	2.7	3.15	3.5999999999999996	3.9	4.05	3.9	3.75	3.5999999999999996	3.45	3.15	3.0	2.85	2.85	11.85	20.25	24.15	22.5	20.25	21.0	20.4	18.15	15.75	12.45	10.35	7.6499999999999995	6.15	4.95	3.9	3.15	2.7	2.7	3.0	3.0	3.15	3.0	2.55	2.7	3.15	3.0	2.85	12.0	12.0	14.549999999999999	13.65	12.45	11.4	10.35	9.15	8.1	6.9	5.4	4.5	3.75	3.15	2.85	2.85	3.0	3.0	2.7	2.25	2.1	1.7999999999999998	1.35	1.05	0.8999999999999999	0.75	0.6	0.3	0.0
Node 34		0.6	0.6	0.75	1.2	4.2	39.75	40.949999999999996	41.4	41.85	42.0	42.3	36.75	30.3	24.6	18.75	13.05	6.9	3.45	3.3000000000000003	19.8	30.0	33.75	41.55	64.35	64.64999999999999	58.8	52.349999999999994	48.0	42.449999999999996	40.050000000000004	37.2	30.45	25.35	19.8	16.8	13.5	11.4	9.6	6.6000000000000005	4.8	3.9	2.85	2.25	2.25	11.25	11.25	17.7	19.5	18.0	19.35	17.1	15.45	13.65	11.85	10.5	9.0	7.199999999999999	6.0	4.35	3.45	2.4	1.95	2.25	2.25	2.25	2.1	1.7999999999999998	1.7999999999999998	1.5	1.35	2.7	2.55	2.1	1.5	0.3
Node 30		0.75	0.8999999999999999	1.05	1.6500000000000001	1.95	2.4	2.4	2.55	2.85	3.0	3.3000000000000003	2.85	2.85	3.15	3.3000000000000003	3.0	2.85	2.55	3.0	3.0	2.85	3.0	3.0	3.0	3.0	2.7	2.7	2.85	3.0	3.0	3.0	3.15	3.0	2.7	2.4	2.4	2.4	2.25	2.25	2.1	2.25	2.25	2.1	1.95	2.1	2.1	2.25	2.1	1.95	1.95	1.95	1.7999999999999998	1.35	1.5	1.5	1.6500000000000001	1.7999999999999998	1.7999999999999998	1.95	1.95	2.25	2.4	2.4	2.4	2.4	2.1	1.7999999999999998	1.5	1.2	1.2	0.8999999999999999	0.8999999999999999	0.6	0.3	0.0
Node 17		0.8999999999999999	1.2	1.2	1.5	1.5	30.3	30.75	31.2	31.2	31.35	31.8	27.6	21.9	17.1	12.6	8.1	3.45	3.15	2.7	2.25	2.55	2.55	2.4	2.25	2.55	2.25	2.1	1.95	2.1	1.7999999999999998	1.95	2.1	1.7999999999999998	1.7999999999999998	2.1	2.1	1.95	1.95	2.1	2.25	2.1	2.1	2.25	2.25	2.7	2.7	4.8	4.8	4.2	4.35	4.05	3.75	3.75	3.75	3.3000000000000003	2.85	2.55	2.1	2.1	2.1	2.55	2.25	2.55	2.25	1.95	1.6500000000000001	1.5	3.0	11.1	10.5	8.55	7.5	12.15	7.5	1.7999999999999998
Node 40		0.0	0.0	0.0	0.0	4.95	41.699999999999996	45.6	46.650000000000006	46.800000000000004	46.800000000000004	46.800000000000004	40.2	33.15	26.55	20.4	13.8	7.199999999999999	2.4	1.05	0.15	0.0	0.0	0.0	0.0	0.0	0.0	0.0	0.0	0.0	0.0	0.0	0.0	0.0	0.0	0.0	0.0	0.0	0.0	0.0	0.0	0.0	0.0	0.0	0.0	0.0	0.0	2.4	2.4	2.1	1.95	1.6500000000000001	1.35	1.2	1.05	0.6	0.15	0.15	0.0	0.0	0.0	0.0	0.0	0.0	0.0	0.0	0.0	0.0	0.0	0.0	0.0	0.0	0.0	0.0	0.0	0.0
Node 24		0.15	0.44999999999999996	0.75	1.2	4.65	40.050000000000004	42.9	42.9	43.05	43.05	43.2	37.2	30.75	24.3	18.75	12.6	6.6000000000000005	2.7	2.1	2.25	2.4	32.7	61.5	60.6	54.0	48.6	42.0	35.85	29.849999999999998	23.7	18.6	12.9	9.45	5.7	4.2	3.0	3.45	3.15	3.45	3.5999999999999996	3.75	3.9	4.05	6.15	13.5	11.4	10.05	11.85	9.9	9.15	7.6499999999999995	6.6000000000000005	5.55	4.5	3.3000000000000003	2.85	2.4	1.7999999999999998	1.6500000000000001	1.6500000000000001	1.7999999999999998	1.7999999999999998	1.95	1.95	1.7999999999999998	1.5	1.35	1.05	0.8999999999999999	1.5	10.2	12.6	8.55	9.15	2.25
Node 5		0.8999999999999999	1.2	1.35	1.95	2.1	2.4	2.55	2.55	2.55	2.85	3.0	3.0	2.55	2.25	2.7	2.25	2.4	2.25	2.85	12.15	40.2	61.35	63.9	73.8	71.7	66.0	66.45	63.14999999999999	60.0	61.199999999999996	58.5	51.74999999999999	46.35	40.2	35.55	29.4	24.45	19.950000000000003	14.549999999999999	9.15	6.3	3.0	2.1	2.25	2.55	2.7	2.85	14.7	27.6	26.25	29.25	28.95	32.550000000000004	29.7	26.25	23.1	19.05	16.650000000000002	13.200000000000001	10.65	7.049999999999999	5.25	3.75	2.4	1.6500000000000001	1.35	4.2	6.45	21.6	18.45	14.549999999999999	12.0	7.8	4.5	1.5
Node 16		0.3	0.44999999999999996	0.44999999999999996	0.6	0.75	39.300000000000004	39.45	39.75	39.900000000000006	40.2	40.5	35.099999999999994	28.95	23.25	17.549999999999997	11.55	5.55	2.1	2.1	44.25	45.300000000000004	45.6	40.949999999999996	57.599999999999994	52.65	47.099999999999994	41.699999999999996	35.699999999999996	29.549999999999997	33.45	56.25	50.7	45.300000000000004	38.85	34.050000000000004	27.150000000000002	23.849999999999998	19.35	15.299999999999999	11.55	8.55	4.95	2.55	45.45	44.55	52.05	50.7	50.24999999999999	46.949999999999996	62.849999999999994	55.50000000000001	49.65	43.8	38.25	31.65	26.700000000000003	21.3	17.25	12.0	7.6499999999999995	3.75	2.4	2.55	2.25	2.1	1.95	4.95	20.4	29.849999999999998	25.8	20.7	20.549999999999997	16.35	10.8	2.7
Node 22		0.6	0.8999999999999999	0.8999999999999999	1.2	1.35	1.5	1.95	2.1	2.25	4.8	5.55	6.0	5.8500000000000005	5.55	5.7	5.7	6.0	6.0	5.4	13.8	22.35	66.45	68.85	72.3	68.25	63.3	66.60000000000001	60.150000000000006	53.25	57.75	57.3	55.95	50.1	45.75	40.949999999999996	35.099999999999994	30.75	26.1	21.15	16.650000000000002	12.45	8.7	6.6000000000000005	19.950000000000003	26.25	37.8	41.699999999999996	40.5	41.55	39.75	37.35	34.35	32.4	30.15	26.55	23.7	19.35	16.5	13.05	10.8	8.4	8.85	7.8	7.199999999999999	6.15	5.25	4.5	10.2	21.3	17.849999999999998	15.15	11.85	8.4	4.95	1.6500000000000001
Node 32		0.6	0.8999999999999999	0.8999999999999999	1.2	4.35	32.25	39.6	40.050000000000004	40.5	40.8	41.25	36.3	29.7	24.15	18.45	12.75	7.5	3.75	4.05	10.8	25.5	27.450000000000003	29.7	55.35	49.95	44.4	41.099999999999994	35.699999999999996	29.849999999999998	25.35	23.1	18.0	15.299999999999999	12.6	11.25	9.9	8.7	7.8	6.6000000000000005	6.0	5.55	4.35	3.75	6.15	5.8500000000000005	5.4	9.75	21.75	20.1	18.15	16.5	15.0	12.9	11.1	9.15	7.199999999999999	4.35	3.45	2.7	2.55	2.1	2.4	2.4	2.1	1.95	1.6500000000000001	1.5	1.2	0.8999999999999999	0.8999999999999999	0.6	0.44999999999999996	0.44999999999999996	0.15	0.0
Node 26		0.75	0.8999999999999999	1.05	1.5	3.45	10.95	11.4	11.55	11.85	12.15	12.3	11.1	9.9	8.4	6.9	4.95	2.85	2.7	2.4	16.950000000000003	25.95	57.599999999999994	52.05	56.25	51.74999999999999	47.55	42.6	37.65	31.35	29.549999999999997	24.6	19.8	16.8	13.05	11.85	10.5	9.75	8.85	7.199999999999999	6.0	5.7	4.05	3.45	9.6	9.0	7.95	6.9	6.15	5.1	5.7	5.1	4.95	4.2	3.3000000000000003	2.55	2.1	2.1	1.7999999999999998	2.4	2.4	2.55	2.55	2.25	2.4	2.25	2.25	1.95	1.7999999999999998	1.6500000000000001	1.6500000000000001	1.05	0.75	1.5	11.1	2.85
