A18 0.5660687448989948 
A31 0.49581762924386985 
A22 0.5767544082302776 
A6 0.5718805851492825 
A3 0.5337202348948505 
A19 0.529138703247908 
A2 0.5648967041079007 
A35 0.5381601886402348 
A17 0.5678348909484503 
A20 0.6146043313760092 
A34 0.539734296645139 
A4 0.6046267677216721 
A14 0.559877903147953 
A15 0.5524876920720798 
A25 0.5669451038358385 
A21 0.5521725948255315 
A32 0.5124407955430642 
A26 0.5853139873404166 
A9 0.5420181678696212 
A39 0.546706665030392 
A23 0.5560789407583219 
A13 0.5750588756423576 
A8 0.5587932650897824 
A29 0.5439177858203583 
A12 0.6136549932864096 
A38 0.5661305402985555 
A5 0.5764423572883077 
A33 0.6201771358174426 
A11 0.2832661373640063 
A10 0.555520113500139 
A28 0.573164782270014 
A27 0.4952939419120246 
A36 0.5598649867858144 
A16 0.5435818295859361 
A0 0.5571245004741897 
A1 0.5317689382823244 
A40 0.4632085797920679 
A24 0.49670058333772193 
A37 0.5650549249897573 
A7 0.5534920493181792 
A30 0.0 
