Node 18		0.15	0.3	0.8999999999999999	1.05	1.7999999999999998	40.949999999999996	41.099999999999994	41.4	41.55	41.85	42.6	36.75	30.45	24.6	18.75	12.3	6.15	3.3000000000000003	3.3000000000000003	42.9	69.45	70.19999999999999	65.7	68.10000000000001	66.45	65.25	57.9	53.55	47.85	41.25	35.25	28.199999999999996	22.8	16.950000000000003	13.200000000000001	9.6	7.049999999999999	5.8500000000000005	4.35	3.45	3.75	4.05	3.5999999999999996	3.9	3.9	10.8	12.6	11.55	11.1	10.35	9.3	8.4	7.049999999999999	6.15	5.1	4.05	2.55	2.1	2.4	2.7	2.85	2.7	2.85	3.0	2.85	2.4	2.25	3.75	5.1	10.5	12.45	10.65	12.45	7.35	1.7999999999999998
Node 21		0.0	0.0	0.6	0.75	2.7	39.15	40.050000000000004	45.300000000000004	46.050000000000004	46.5	46.800000000000004	41.4	34.949999999999996	29.099999999999998	23.25	17.25	11.1	5.8500000000000005	6.9	22.35	30.15	75.9	73.35000000000001	84.0	78.9	75.75	74.4	68.85	64.8	69.0	70.8	67.5	62.7	57.15	51.6	47.4	41.699999999999996	35.4	29.549999999999997	22.95	18.0	12.6	11.1	27.150000000000002	32.25	28.349999999999998	33.6	30.0	27.750000000000004	45.300000000000004	40.65	40.2	35.4	32.25	29.25	25.05	21.3	19.05	15.0	12.45	12.45	10.2	9.45	8.7	7.95	6.75	5.55	5.7	22.35	20.1	16.8	12.75	9.15	5.7	1.5
Node 2		0.0	0.44999999999999996	0.6	0.75	1.2	39.15	39.6	39.900000000000006	40.2	40.35	40.35	34.8	28.799999999999997	23.1	17.4	12.0	6.3	3.75	3.15	8.4	35.4	65.25	61.199999999999996	77.10000000000001	73.05	67.2	62.25000000000001	55.2	48.15	58.8	56.699999999999996	50.24999999999999	44.1	37.65	32.7	25.650000000000002	22.2	17.549999999999997	14.099999999999998	10.35	7.5	4.2	2.1	28.199999999999996	31.05	27.150000000000002	26.55	41.4	54.300000000000004	56.10000000000001	51.0	46.800000000000004	45.9	41.85	36.3	31.35	25.95	22.05	16.650000000000002	12.9	9.0	6.15	4.05	2.7	1.6500000000000001	1.35	1.2	1.2	9.6	9.75	10.05	7.5	5.7	8.7	2.25
Node 5		0.8999999999999999	1.2	1.35	1.95	2.1	2.4	2.55	2.55	2.55	2.85	3.0	3.0	2.55	2.25	2.7	2.25	2.4	2.25	2.85	7.5	25.2	64.35	64.35	74.55000000000001	72.15	66.3	66.9	63.449999999999996	60.3	61.199999999999996	58.95	52.2	46.5	40.2	35.55	29.549999999999997	24.6	20.1	14.7	9.3	6.3	3.0	2.1	2.25	2.55	2.7	2.85	14.7	27.6	26.400000000000002	29.4	29.099999999999998	32.85	30.0	26.400000000000002	23.25	19.2	16.650000000000002	13.200000000000001	10.65	7.049999999999999	5.25	3.75	2.4	1.6500000000000001	1.35	4.2	6.45	21.15	18.15	14.249999999999998	11.700000000000001	7.6499999999999995	4.35	1.5
Node 34		0.6	0.6	0.75	1.2	4.05	40.2	42.9	43.35	43.8	43.95	44.25	38.4	31.8	25.95	19.950000000000003	14.249999999999998	8.1	3.9	3.3000000000000003	20.4	31.65	42.75	46.050000000000004	64.8	66.14999999999999	60.150000000000006	53.7	49.05	43.5	41.099999999999994	37.95	31.2	25.8	19.950000000000003	16.950000000000003	13.65	11.55	9.6	6.6000000000000005	4.8	3.9	2.85	2.25	2.25	11.25	11.25	17.849999999999998	19.650000000000002	18.15	19.5	17.25	15.6	13.8	12.0	10.65	9.15	7.35	6.0	4.35	3.45	2.4	1.95	2.25	2.25	2.25	2.1	1.7999999999999998	1.7999999999999998	1.5	1.35	2.7	2.55	2.55	1.6500000000000001	0.3
Node 38		0.3	0.6	0.8999999999999999	0.8999999999999999	1.7999999999999998	40.050000000000004	41.699999999999996	41.699999999999996	41.85	46.050000000000004	46.2	40.65	34.2	28.199999999999996	22.5	16.650000000000002	10.65	6.45	5.4	5.25	24.75	75.9	69.6	81.45	76.64999999999999	69.45	62.1	56.699999999999996	56.99999999999999	63.0	65.4	64.05	58.650000000000006	52.05	45.9	38.25	32.550000000000004	27.3	21.75	16.8	12.45	7.199999999999999	4.95	36.0	44.7	49.8	44.85	40.5	35.55	40.65	40.2	42.75	37.05	32.85	27.750000000000004	24.0	19.950000000000003	16.8	13.65	10.8	7.199999999999999	3.9	2.25	1.2	1.05	0.75	6.45	10.2	18.0	15.45	12.15	18.75	12.9	7.5	1.95
Node 4		0.15	0.15	0.75	0.75	1.2	39.15	39.15	39.15	39.300000000000004	39.45	39.900000000000006	34.8	28.65	23.1	17.1	11.55	5.8500000000000005	3.0	6.9	65.85	75.6	77.55	81.3	97.65	91.2	83.1	75.44999999999999	85.05	76.8	86.1	78.3	69.6	61.8	53.7	45.9	38.1	30.45	23.1	15.6	9.15	4.35	2.25	2.25	35.099999999999994	51.449999999999996	59.85	59.25	66.0	71.25	72.75	69.89999999999999	63.3	56.99999999999999	50.4	43.2	36.0	29.4	24.3	18.15	13.350000000000001	8.4	4.05	3.15	2.7	2.1	1.95	1.7999999999999998	1.6500000000000001	1.6500000000000001	1.5	1.05	24.0	18.15	11.1	2.85
Node 10		0.15	0.3	0.8999999999999999	0.8999999999999999	1.5	40.35	43.05	44.1	44.4	44.55	44.85	39.15	32.85	26.700000000000003	20.4	14.399999999999999	8.4	4.5	3.15	2.4	2.25	2.55	2.25	1.95	1.7999999999999998	4.2	16.650000000000002	14.7	11.700000000000001	11.85	38.25	37.35	33.15	26.85	23.849999999999998	19.950000000000003	17.549999999999997	14.85	11.4	8.55	6.6000000000000005	3.9	2.7	2.1	2.1	2.25	2.25	2.55	2.55	50.7	47.099999999999994	42.75	38.25	34.5	29.849999999999998	26.1	21.0	18.0	13.05	9.75	6.45	4.95	4.5	4.35	4.05	3.75	3.15	2.7	2.4	2.1	24.45	18.9	12.9	8.7	1.95
Node 13		0.3	0.3	0.44999999999999996	0.8999999999999999	1.5	27.0	27.3	27.3	27.6	27.750000000000004	27.900000000000002	23.7	19.2	14.099999999999998	10.05	6.3	2.25	2.1	2.1	3.0	15.45	25.05	50.849999999999994	52.949999999999996	55.95	51.0	46.2	39.45	33.15	42.9	39.0	33.300000000000004	28.050000000000004	21.9	18.6	14.85	12.45	10.35	8.25	6.15	5.4	3.75	2.4	12.3	15.6	15.75	19.5	17.849999999999998	15.9	14.85	13.200000000000001	11.55	10.2	8.85	7.199999999999999	5.8500000000000005	4.35	3.5999999999999996	3.15	2.7	2.85	2.85	2.85	2.55	2.4	2.1	1.7999999999999998	1.6500000000000001	3.0	1.95	1.7999999999999998	1.5	0.75	0.15	0.0
Node 39		0.15	0.6	0.8999999999999999	1.6500000000000001	3.15	39.300000000000004	40.65	40.8	40.8	41.55	41.85	36.449999999999996	30.599999999999998	24.9	19.35	13.65	7.6499999999999995	4.35	3.3000000000000003	54.15	67.05	67.95	62.25000000000001	70.05	63.74999999999999	64.5	58.5	51.15	44.4	46.2	40.35	34.65	28.95	22.8	19.05	14.399999999999999	11.55	9.45	7.199999999999999	5.7	4.05	3.15	3.15	8.4	11.55	13.5	22.95	21.15	19.35	22.2	20.7	19.05	16.650000000000002	14.7	12.75	10.5	7.049999999999999	5.8500000000000005	4.95	4.35	3.15	2.55	2.25	2.1	2.1	1.7999999999999998	1.6500000000000001	1.35	25.05	22.2	18.45	14.399999999999999	13.8	10.8	2.85
Node 8		0.44999999999999996	0.75	1.05	1.05	1.5	7.95	8.55	9.15	9.9	10.2	10.35	9.15	10.8	9.45	7.5	7.35	5.8500000000000005	5.8500000000000005	5.4	52.05	72.3	75.44999999999999	76.05	78.14999999999999	77.25	73.95	66.75	59.4	66.0	70.5	71.1	64.5	58.199999999999996	50.24999999999999	43.65	36.3	30.3	24.3	18.0	12.15	7.95	5.1	3.0	2.4	2.1	5.1	31.2	27.900000000000002	30.3	39.300000000000004	35.25	32.85	28.95	25.2	21.45	18.45	14.549999999999999	12.0	14.249999999999998	11.55	9.15	8.1	8.25	7.95	7.35	6.45	5.7	4.95	5.8500000000000005	18.75	14.7	11.55	7.199999999999999	4.65	1.2
Node 17		0.8999999999999999	1.2	1.2	1.5	1.5	25.2	25.650000000000002	26.1	26.1	26.25	26.700000000000003	22.95	18.15	14.549999999999999	10.95	7.049999999999999	3.45	3.15	2.7	2.25	2.55	2.55	2.4	2.25	2.55	2.25	2.1	1.95	2.1	1.7999999999999998	1.95	2.1	1.7999999999999998	1.7999999999999998	2.1	2.1	1.95	1.95	2.1	2.25	2.1	2.1	2.25	2.25	2.7	2.85	4.95	4.95	4.35	4.5	4.2	3.9	3.9	3.9	3.45	3.0	2.7	2.1	2.1	2.1	2.55	2.25	2.55	2.25	1.95	1.6500000000000001	1.5	3.0	11.1	10.5	9.45	8.1	12.45	7.5	1.7999999999999998
Node 29		0.75	1.2	1.95	1.95	2.1	40.65	42.15	42.3	42.75	44.1	44.4	38.7	33.0	27.3	21.9	15.9	10.2	5.7	5.4	22.8	38.1	37.95	59.699999999999996	60.75000000000001	59.099999999999994	53.25	46.5	41.55	35.699999999999996	34.949999999999996	33.0	27.3	22.95	18.3	15.299999999999999	12.6	13.200000000000001	12.45	11.1	9.15	8.1	6.3	5.8500000000000005	4.5	4.2	4.05	13.5	15.45	14.399999999999999	13.05	11.4	10.35	9.15	8.25	6.9	6.3	4.5	3.45	2.4	2.7	2.55	2.55	2.7	2.4	2.25	2.1	1.95	1.2	1.05	0.75	0.75	0.3	12.3	8.7	2.25
Node 16		0.3	0.44999999999999996	0.44999999999999996	0.6	0.75	39.75	39.900000000000006	40.2	40.35	40.65	40.949999999999996	35.55	29.25	23.549999999999997	17.849999999999998	11.85	5.8500000000000005	2.1	2.1	42.6	47.099999999999994	48.75	43.95	60.9	55.65	49.65	43.35	36.449999999999996	30.3	33.300000000000004	57.75	52.05	46.5	39.75	34.65	27.750000000000004	24.45	19.8	15.6	11.700000000000001	8.55	4.95	2.55	45.300000000000004	44.7	51.9	51.0	50.7	47.4	62.849999999999994	55.50000000000001	49.65	43.65	38.1	31.5	26.55	21.15	16.950000000000003	11.700000000000001	7.35	3.5999999999999996	2.4	2.55	2.25	2.1	1.95	4.95	20.4	29.7	25.650000000000002	21.0	20.4	16.35	10.8	2.7
Node 0		0.3	0.75	0.8999999999999999	1.05	3.45	34.050000000000004	34.35	34.5	34.949999999999996	35.4	35.699999999999996	31.35	25.35	19.950000000000003	14.549999999999999	9.6	4.65	3.15	3.15	15.0	62.849999999999994	62.1	58.35	60.0	55.2	49.35	43.35	36.9	30.599999999999998	24.6	18.6	13.05	9.6	5.7	4.2	3.15	2.4	1.7999999999999998	1.2	1.2	1.35	1.2	1.5	4.95	15.45	13.8	12.15	14.099999999999998	12.6	13.5	11.700000000000001	9.9	8.7	7.049999999999999	5.25	4.35	3.5999999999999996	3.15	2.85	2.4	2.55	2.4	2.4	2.25	2.1	2.1	1.95	1.6500000000000001	1.35	0.8999999999999999	1.95	2.25	1.35	9.15	2.1
Node 19		0.3	0.75	1.2	1.5	1.7999999999999998	40.35	40.949999999999996	41.85	42.15	42.449999999999996	42.9	42.15	35.4	29.849999999999998	24.3	18.6	13.05	8.85	7.199999999999999	15.45	32.25	39.6	40.050000000000004	37.8	33.900000000000006	29.7	27.150000000000002	23.400000000000002	19.2	14.7	11.25	7.6499999999999995	5.4	4.35	3.5999999999999996	3.15	2.85	2.25	1.7999999999999998	1.95	1.95	1.95	1.7999999999999998	4.35	5.1	7.5	9.6	17.7	15.9	16.650000000000002	15.45	14.249999999999998	13.5	11.85	10.35	8.7	6.3	5.4	4.2	3.3000000000000003	3.15	2.4	2.25	2.1	1.5	1.5	1.35	1.35	6.0	5.1	6.15	4.95	2.85	1.6500000000000001	0.6
Node 25		0.0	0.3	0.3	0.75	1.05	39.45	39.45	39.6	39.900000000000006	40.35	40.65	35.55	29.4	24.0	18.75	12.45	6.45	3.3000000000000003	3.3000000000000003	19.8	19.05	28.499999999999996	45.300000000000004	54.300000000000004	48.75	43.2	37.65	31.95	36.6	36.6	34.5	28.65	24.3	19.5	16.8	13.5	11.700000000000001	10.35	7.8	5.55	4.35	3.0	3.15	3.75	13.200000000000001	13.200000000000001	17.849999999999998	16.5	15.0	16.650000000000002	15.299999999999999	14.249999999999998	12.75	11.25	9.45	7.6499999999999995	5.25	4.5	3.45	3.45	3.0	3.15	3.15	2.85	2.7	2.55	2.4	2.1	1.7999999999999998	1.35	1.05	0.75	14.7	10.95	2.7
Node 30		0.75	0.8999999999999999	1.05	1.6500000000000001	1.95	2.4	2.4	2.55	2.85	3.0	3.3000000000000003	2.85	2.85	3.15	3.3000000000000003	3.0	2.85	2.55	3.0	3.0	2.85	3.0	3.0	3.0	3.0	2.7	2.7	2.85	3.0	3.0	3.0	3.15	3.0	2.7	2.4	2.4	2.4	2.25	2.25	2.1	2.25	2.25	2.1	1.95	2.1	2.1	2.25	2.1	1.95	1.95	1.95	1.7999999999999998	1.35	1.5	1.5	1.6500000000000001	1.7999999999999998	1.7999999999999998	1.95	1.95	2.25	2.4	2.4	2.4	2.4	2.1	1.7999999999999998	1.5	1.2	1.2	0.8999999999999999	0.8999999999999999	0.6	0.3	0.0
Node 35		0.6	0.6	0.75	1.05	2.25	40.2	41.55	43.05	43.05	43.2	43.35	37.35	30.9	25.05	19.35	13.200000000000001	7.049999999999999	3.3000000000000003	2.4	19.8	71.1	69.75	66.14999999999999	67.5	60.9	58.95	52.5	45.9	39.300000000000004	63.6	67.35	60.6	53.849999999999994	47.099999999999994	41.4	34.2	29.099999999999998	23.400000000000002	18.45	13.200000000000001	8.85	4.65	3.45	3.5999999999999996	3.5999999999999996	3.5999999999999996	3.5999999999999996	3.45	3.45	3.0	2.7	2.7	2.55	2.1	2.1	1.95	2.1	1.7999999999999998	1.7999999999999998	1.6500000000000001	1.6500000000000001	1.7999999999999998	1.7999999999999998	1.6500000000000001	1.5	1.35	1.05	0.8999999999999999	0.75	0.75	0.75	0.75	0.44999999999999996	0.3	0.0
Node 40		0.0	0.0	0.0	0.0	4.8	41.699999999999996	45.75	46.800000000000004	46.949999999999996	46.949999999999996	46.949999999999996	40.5	33.45	26.85	20.7	14.099999999999998	7.5	2.4	1.05	0.15	0.0	0.0	0.0	0.0	0.0	0.0	0.0	0.0	0.0	0.0	0.0	0.0	0.0	0.0	0.0	0.0	0.0	0.0	0.0	0.0	0.0	0.0	0.0	0.0	0.0	0.0	2.55	2.55	2.25	2.1	1.7999999999999998	1.5	1.35	1.2	0.75	0.3	0.3	0.0	0.0	0.0	0.0	0.0	0.0	0.0	0.0	0.0	0.0	0.0	0.0	0.0	0.0	0.0	0.0	0.0	0.0
Node 20		0.6	0.75	0.8999999999999999	1.05	1.2	13.65	41.25	41.25	42.9	43.35	43.5	37.5	30.45	31.95	25.650000000000002	19.8	13.950000000000001	8.7	5.8500000000000005	5.25	4.65	3.9	3.45	3.15	3.15	3.3000000000000003	2.7	2.4	2.55	2.1	2.1	1.95	1.95	1.7999999999999998	2.1	40.8	35.85	30.0	25.05	18.9	14.549999999999999	9.75	6.75	4.65	21.0	27.450000000000003	31.05	32.4	31.05	36.0	34.5	31.95	28.799999999999997	25.8	22.5	20.1	16.5	14.249999999999998	11.85	9.75	6.9	5.4	4.2	3.75	3.45	3.15	2.85	2.55	10.5	9.6	22.5	17.849999999999998	12.3	8.7	1.95
Node 37		0.75	1.05	1.2	1.35	3.9	40.35	44.1	45.300000000000004	45.45	45.6	50.4	44.85	37.8	31.65	26.1	19.8	13.350000000000001	7.95	5.7	26.55	33.300000000000004	38.85	36.15	62.7	63.14999999999999	61.95	54.75	48.0	41.099999999999994	38.25	32.1	25.8	20.549999999999997	15.0	12.0	8.55	6.6000000000000005	5.1	4.35	3.3000000000000003	2.7	2.4	2.55	2.4	2.25	2.4	2.4	2.25	2.7	2.7	2.85	3.0	3.3000000000000003	3.45	3.3000000000000003	3.15	3.3000000000000003	3.15	3.15	3.0	3.0	2.7	2.4	2.25	1.95	1.6500000000000001	1.6500000000000001	1.6500000000000001	1.35	0.75	0.6	0.44999999999999996	0.0	0.0	0.0
Node 9		0.75	0.75	1.05	1.05	2.4	40.050000000000004	41.099999999999994	41.55	44.1	44.25	44.7	39.0	33.0	27.3	21.15	15.15	9.3	8.1	6.45	20.4	22.95	33.0	34.050000000000004	54.300000000000004	50.849999999999994	53.25	49.05	43.2	37.65	37.35	39.75	43.2	39.300000000000004	33.0	29.4	25.05	22.5	18.75	15.15	11.700000000000001	9.15	6.15	5.25	32.25	34.65	42.3	43.5	40.050000000000004	40.949999999999996	42.6	38.4	34.949999999999996	30.0	26.25	22.2	18.3	14.099999999999998	10.95	8.4	6.9	5.4	3.9	3.5999999999999996	3.3000000000000003	3.15	3.0	2.85	2.55	26.700000000000003	22.95	17.7	18.0	15.6	11.1	2.85
Node 6		0.3	0.75	0.8999999999999999	1.05	1.7999999999999998	41.85	42.15	42.75	43.2	43.35	43.95	38.550000000000004	31.5	25.650000000000002	20.1	14.099999999999998	8.1	4.35	12.6	57.599999999999994	71.55	74.4	76.64999999999999	86.7	83.7	77.85	77.25	73.95	67.2	60.150000000000006	53.1	46.35	40.050000000000004	32.85	27.3	19.950000000000003	14.099999999999998	9.6	6.3	5.8500000000000005	6.15	6.75	6.45	6.15	5.8500000000000005	5.25	4.5	4.8	4.5	4.65	4.65	7.049999999999999	6.6000000000000005	5.8500000000000005	6.3	5.8500000000000005	5.25	4.8	4.8	4.35	4.65	4.65	4.8	4.35	3.5999999999999996	3.0	5.4	16.05	27.750000000000004	23.549999999999997	18.3	14.549999999999999	10.05	5.8500000000000005	1.6500000000000001
Node 22		0.6	0.8999999999999999	0.8999999999999999	1.2	1.35	1.5	1.95	2.1	2.25	4.8	5.55	6.0	5.8500000000000005	5.55	5.7	5.7	6.0	6.0	5.4	12.6	19.8	51.74999999999999	56.99999999999999	70.19999999999999	66.45	61.35	65.85	59.4	52.65	57.75	57.3	56.10000000000001	50.4	46.050000000000004	41.25	35.4	30.9	26.25	21.3	16.8	12.6	8.7	6.6000000000000005	19.950000000000003	26.25	37.5	41.85	40.65	41.699999999999996	39.900000000000006	37.5	34.5	32.550000000000004	30.3	26.700000000000003	23.849999999999998	19.5	16.5	13.05	10.8	8.4	8.85	7.8	7.199999999999999	6.15	5.25	4.5	10.2	21.6	18.3	15.15	12.0	8.7	5.25	1.6500000000000001
Node 24		0.15	0.44999999999999996	0.75	1.2	4.5	40.35	42.9	42.9	43.05	43.05	43.2	37.35	30.9	24.45	18.9	12.75	6.75	2.7	2.1	2.25	2.4	36.0	64.35	62.7	55.95	50.24999999999999	43.35	36.75	30.599999999999998	24.45	19.650000000000002	13.65	9.75	5.7	4.2	3.0	3.45	3.15	3.45	3.5999999999999996	3.75	3.9	4.05	6.15	13.5	11.4	10.05	12.0	10.05	9.3	7.8	6.75	5.7	4.65	3.45	3.0	2.55	1.7999999999999998	1.6500000000000001	1.6500000000000001	1.7999999999999998	1.7999999999999998	1.95	1.95	1.7999999999999998	1.5	1.35	1.05	0.8999999999999999	2.1	10.35	12.75	8.7	9.15	2.25
Node 26		0.75	0.8999999999999999	1.05	1.5	3.45	6.15	6.6000000000000005	6.75	7.049999999999999	7.35	7.5	6.75	5.55	4.95	4.35	3.5999999999999996	2.7	2.7	2.4	16.950000000000003	26.85	58.35	52.800000000000004	57.9	53.1	48.449999999999996	42.9	37.5	31.35	29.549999999999997	24.45	19.650000000000002	16.650000000000002	13.05	11.85	10.5	9.75	8.85	7.199999999999999	6.0	5.7	4.05	3.45	9.6	9.0	7.95	6.9	6.15	5.1	5.7	5.1	5.1	4.35	3.45	2.7	2.25	2.25	1.7999999999999998	2.4	2.4	2.55	2.55	2.25	2.4	2.25	2.25	1.95	1.7999999999999998	1.6500000000000001	1.6500000000000001	1.05	0.75	1.5	11.1	2.85
Node 12		0.0	0.3	0.8999999999999999	1.05	1.5	1.5	1.7999999999999998	2.1	2.1	2.25	2.55	2.55	2.7	2.7	2.1	2.25	2.1	2.25	1.95	7.95	11.25	10.65	9.9	9.3	9.9	8.85	7.6499999999999995	6.75	5.25	4.65	3.9	3.45	3.15	3.0	3.15	3.9	4.05	4.35	4.65	4.5	4.65	4.65	4.05	3.75	3.9	3.9	3.75	3.15	2.7	2.55	2.4	2.7	2.7	2.55	2.7	2.85	2.55	2.4	2.55	2.4	2.55	2.4	2.55	2.4	2.25	1.95	1.6500000000000001	15.45	18.15	18.45	21.3	16.2	11.85	9.75	2.4
Node 33		0.75	1.05	1.05	1.05	1.35	39.15	44.25	45.15	45.45	45.45	45.6	39.45	32.7	26.400000000000002	21.0	15.0	8.85	4.2	3.0	2.1	5.25	46.800000000000004	69.0	86.4	88.35	83.55	85.35000000000001	79.5	79.05	86.4	85.8	81.0	73.95	66.0	58.650000000000006	50.55	43.35	36.0	28.349999999999998	21.45	15.15	8.85	3.75	2.4	21.6	48.6	65.10000000000001	69.75	71.7	66.14999999999999	63.9	60.0	58.5	51.9	44.55	38.1	31.5	26.400000000000002	19.5	14.85	9.45	6.3	3.5999999999999996	2.55	2.4	2.25	1.95	1.7999999999999998	19.35	29.7	27.750000000000004	24.3	17.25	9.6	2.4
Node 1		0.6	0.8999999999999999	1.05	1.05	1.5	1.6500000000000001	1.6500000000000001	1.6500000000000001	1.7999999999999998	2.1	2.25	2.25	2.55	2.55	2.7	3.0	2.85	3.0	3.45	3.45	3.5999999999999996	5.25	7.8	7.5	13.8	12.6	11.1	9.9	8.25	7.5	7.049999999999999	6.6000000000000005	5.8500000000000005	5.25	4.95	4.65	4.05	4.2	4.05	3.5999999999999996	3.5999999999999996	2.7	2.1	1.95	2.4	2.55	2.7	7.6499999999999995	7.199999999999999	6.75	6.6000000000000005	6.3	6.3	6.45	5.8500000000000005	5.25	4.65	4.05	3.5999999999999996	3.75	3.5999999999999996	3.5999999999999996	3.5999999999999996	3.3000000000000003	2.55	2.1	1.95	1.6500000000000001	1.35	1.05	0.8999999999999999	0.6	0.44999999999999996	0.3	0.0
Node 23		0.75	0.75	0.75	0.8999999999999999	1.2	28.799999999999997	28.799999999999997	29.099999999999998	29.25	29.25	29.4	25.05	26.85	21.6	16.5	11.4	6.0	5.25	5.1	18.45	27.0	57.45	52.800000000000004	68.85	62.4	56.10000000000001	48.9	43.2	43.65	67.65	66.45	65.7	61.8	56.85	51.9	44.85	38.550000000000004	31.65	25.650000000000002	19.5	14.549999999999999	9.6	14.85	31.8	32.4	30.75	38.25	34.8	30.75	27.6	25.95	22.35	19.05	15.6	12.15	9.45	7.6499999999999995	8.4	7.199999999999999	5.8500000000000005	5.7	4.65	4.2	4.65	4.2	4.2	4.05	5.7	20.1	16.950000000000003	14.099999999999998	10.65	6.45	4.05	1.05
Node 31		0.75	0.8999999999999999	0.8999999999999999	1.05	1.95	41.4	43.65	44.7	45.300000000000004	45.9	46.2	40.5	33.900000000000006	27.450000000000003	21.6	15.75	9.75	5.55	4.2	3.3000000000000003	2.85	2.7	2.7	64.2	61.5	56.85	54.15	47.699999999999996	41.4	39.300000000000004	54.0	48.15	42.3	36.0	31.95	26.700000000000003	23.1	19.35	15.45	11.700000000000001	9.15	5.8500000000000005	5.55	9.15	9.3	8.85	55.800000000000004	53.400000000000006	50.849999999999994	47.699999999999996	45.9	42.9	38.25	34.65	31.05	27.150000000000002	22.650000000000002	19.2	15.0	12.3	8.25	5.55	4.2	3.9	3.0	2.4	6.3	17.4	26.1	22.2	18.45	14.249999999999998	10.35	6.45	1.5
Node 32		0.6	0.8999999999999999	0.8999999999999999	1.2	4.35	32.550000000000004	39.6	40.050000000000004	40.5	40.8	41.25	36.3	29.549999999999997	24.15	18.45	12.6	7.35	3.9	4.05	11.55	27.900000000000002	30.75	33.300000000000004	58.95	53.400000000000006	47.55	43.5	37.5	31.35	27.3	24.6	19.2	15.9	12.75	11.4	10.05	8.85	7.8	6.6000000000000005	6.0	5.55	4.35	3.75	6.15	5.8500000000000005	5.4	9.9	21.75	20.1	18.3	16.650000000000002	15.15	13.05	11.25	9.3	7.35	4.5	3.45	2.7	2.55	2.1	2.4	2.4	2.1	1.95	1.6500000000000001	1.5	1.2	1.2	1.2	0.6	0.44999999999999996	0.44999999999999996	0.15	0.0
Node 36		0.44999999999999996	0.44999999999999996	0.8999999999999999	1.05	1.2	39.45	40.35	43.8	44.25	44.55	44.55	40.65	34.65	29.4	24.75	19.05	13.8	10.05	8.4	14.7	32.7	43.95	57.599999999999994	52.800000000000004	55.65	49.8	46.650000000000006	39.900000000000006	38.4	35.55	32.7	31.05	26.400000000000002	21.75	20.7	18.15	16.5	14.7	12.3	10.35	9.15	7.199999999999999	6.3	19.950000000000003	37.95	36.75	46.949999999999996	47.4	54.75	52.349999999999994	47.699999999999996	42.75	38.1	35.4	30.0	25.2	19.950000000000003	16.2	11.85	8.7	5.8500000000000005	5.25	4.5	7.049999999999999	6.15	5.7	8.7	7.5	18.45	15.0	14.249999999999998	11.700000000000001	15.0	8.7	2.25
Node 11		0.75	1.05	1.2	1.2	1.35	1.35	1.5	1.6500000000000001	2.25	3.0	3.5999999999999996	3.0	3.0	2.85	2.85	3.15	3.15	3.3000000000000003	3.3000000000000003	3.0	2.85	2.55	2.1	2.25	2.4	2.55	2.7	2.85	3.3000000000000003	3.15	3.3000000000000003	3.45	3.5999999999999996	3.45	3.3000000000000003	3.45	3.3000000000000003	3.15	3.45	3.0	2.7	2.85	2.85	2.85	2.7	2.55	2.85	2.7	2.7	2.7	2.4	2.7	2.55	2.55	2.25	2.25	1.95	2.1	1.95	2.1	1.95	2.25	2.1	1.95	1.7999999999999998	1.6500000000000001	1.6500000000000001	1.5	1.5	1.35	1.2	0.8999999999999999	0.75	0.3	0.15
Node 27		0.44999999999999996	0.75	0.8999999999999999	1.2	2.25	40.35	42.3	43.2	43.2	43.2	43.5	37.8	31.65	25.5	19.5	14.249999999999998	8.4	4.35	3.3000000000000003	6.6000000000000005	46.2	54.0	48.449999999999996	59.85	56.55	50.24999999999999	44.7	41.4	35.099999999999994	39.15	36.75	30.9	26.700000000000003	22.35	20.25	18.0	16.35	14.099999999999998	11.4	9.0	7.199999999999999	4.65	4.05	3.9	3.5999999999999996	3.45	2.85	2.85	2.55	2.7	2.4	2.7	2.7	2.55	2.1	2.4	2.85	2.85	3.15	2.85	3.15	3.0	3.0	2.55	2.4	2.4	2.25	1.7999999999999998	1.35	1.2	0.8999999999999999	0.75	0.3	0.15	0.0
Node 14		0.75	1.2	1.35	1.6500000000000001	2.1	2.4	2.7	3.15	3.5999999999999996	3.9	4.05	3.9	3.75	3.5999999999999996	3.45	3.15	3.0	2.85	2.85	10.35	21.3	24.15	22.5	20.25	20.7	19.8	17.549999999999997	15.299999999999999	12.15	10.5	7.95	6.45	5.25	3.9	3.15	2.7	2.7	3.0	3.0	3.15	3.0	2.55	2.7	3.15	3.0	2.85	12.0	12.0	14.7	13.8	12.6	11.55	10.5	9.3	8.25	7.049999999999999	5.55	4.5	3.75	3.15	2.85	2.85	3.0	3.0	2.7	2.25	2.1	1.7999999999999998	1.35	1.05	0.8999999999999999	0.75	0.6	0.3	0.0
Node 15		0.3	0.6	0.75	0.8999999999999999	1.5	38.7	38.85	39.0	39.15	39.300000000000004	39.45	33.75	27.6	22.8	17.25	11.1	5.4	2.4	2.7	2.85	70.35	67.95	70.19999999999999	78.0	75.3	67.80000000000001	64.95	58.35	55.800000000000004	64.35	60.150000000000006	54.0	48.0	41.099999999999994	36.0	29.549999999999997	25.650000000000002	21.75	16.950000000000003	12.75	8.7	4.65	2.7	3.15	24.45	25.05	26.55	45.15	41.099999999999994	46.650000000000006	42.15	37.2	32.550000000000004	29.099999999999998	24.75	20.7	16.950000000000003	13.950000000000001	10.2	7.5	5.1	3.0	3.15	3.15	2.85	2.4	2.25	18.9	25.2	21.6	19.05	14.85	10.05	11.1	2.85
Node 28		0.3	0.3	0.6	0.8999999999999999	2.55	31.95	32.1	33.45	37.8	38.1	39.15	34.2	28.95	23.400000000000002	18.0	12.75	7.199999999999999	5.8500000000000005	5.55	19.650000000000002	44.25	44.25	40.050000000000004	54.6	48.75	48.75	43.05	37.65	32.1	25.95	54.900000000000006	49.8	46.35	43.35	39.45	34.050000000000004	30.0	24.9	20.7	16.950000000000003	13.65	9.9	8.1	6.6000000000000005	6.15	16.5	25.05	30.15	27.3	42.9	39.900000000000006	36.0	31.65	28.499999999999996	24.75	20.849999999999998	16.35	15.0	10.95	8.85	6.75	5.4	5.1	4.8	4.5	5.7	9.0	13.5	25.95	22.35	17.25	13.65	9.0	5.1	1.5
Node 7		0.3	0.6	0.6	0.8999999999999999	4.5	39.300000000000004	44.55	44.7	45.45	45.6	45.6	39.45	32.550000000000004	26.55	21.0	14.85	9.6	4.8	4.05	46.949999999999996	70.35	75.75	72.6	79.65	77.25	70.5	77.25	70.8	63.74999999999999	76.05	73.35000000000001	68.55	61.650000000000006	54.0	48.0	40.65	33.900000000000006	27.0	21.15	15.0	10.05	5.7	3.15	33.45	31.5	28.349999999999998	25.5	22.5	39.300000000000004	38.25	34.949999999999996	31.95	27.900000000000002	24.45	20.4	17.25	12.9	10.35	8.25	6.75	4.65	3.75	2.85	2.85	2.7	2.7	5.4	9.0	19.05	16.950000000000003	13.05	10.2	6.3	11.1	2.7
Node 3		0.44999999999999996	0.44999999999999996	0.75	0.8999999999999999	1.05	42.0	45.45	45.6	45.6	45.9	46.2	39.900000000000006	33.300000000000004	27.150000000000002	20.849999999999998	14.549999999999999	8.4	3.75	1.95	2.25	2.85	2.85	2.7	46.35	58.35	63.14999999999999	56.99999999999999	49.95	43.05	47.699999999999996	56.39999999999999	51.6	45.6	39.15	34.8	28.799999999999997	24.75	19.950000000000003	16.2	11.55	8.25	4.35	1.95	1.6500000000000001	1.95	12.6	46.949999999999996	48.449999999999996	50.7	48.15	45.9	41.55	37.8	33.900000000000006	29.4	25.35	19.950000000000003	16.2	11.700000000000001	8.7	5.25	3.15	2.85	2.25	1.7999999999999998	1.7999999999999998	1.35	15.9	28.499999999999996	24.75	19.05	14.7	9.3	5.4	1.6500000000000001
