Message Drop for scenario SimBetHaggleInfocom_#HillClimbing_0.1
sim_time: 274883.0000

6	1610
7	1937
21	2187
10	1351
28	1713
1	249
11	119
26	1082
15	1966
17	516
0	1191
4	2448
37	1031
31	1903
20	1352
19	1102
12	535
29	1236
36	1791
9	1798
33	2416
8	1648
24	1075
35	1268
3	1775
2	1978
23	1694
16	2092
27	1109
40	329
18	1267
25	1271
14	734
5	1308
30	92
13	1041
22	1778
32	1018
38	2060
39	1565
34	1252

