21	1943
18	1196
38	1934
34	1116
2	1754
5	1238
4	2297
13	952
10	1185
39	1444
8	1554
17	310
29	1099
16	1997
0	997
19	779
25	1091
40	330
35	1195
20	1131
37	932
9	1677
6	1413
22	1428
24	979
26	735
12	316
33	2292
1	120
23	1633
31	1589
32	902
36	1623
11	1
27	906
14	291
28	1524
15	1809
7	1866
3	1613
