Message Drop for scenario SimBetHaggleInfocom_#HillClimbing_0.2
sim_time: 274883.0000

9	1798
18	1268
27	1107
15	1961
32	1025
3	1772
22	1771
23	1683
2	1973
37	1029
31	1902
39	1559
0	1138
13	1025
12	507
4	2444
16	2095
11	119
30	92
19	1060
40	328
33	2416
24	1074
10	1345
1	232
26	1057
34	1185
21	2178
8	1638
35	1266
25	1217
5	1308
36	1781
14	659
29	1212
6	1529
20	1344
38	2054
17	409
28	1703
7	1935

