Node	Value
18	76
31	72
22	66
6	119
3	120
19	12
2	39
17	6
35	35
20	30
4	267
34	23
14	19
15	70
25	25
21	153
26	32
32	31
39	124
9	60
8	61
23	65
13	24
29	30
12	31
38	109
5	45
33	135
11	3
10	18
28	70
27	17
36	82
0	30
16	78
1	12
40	34
24	51
37	21
7	103
