Node 9		0.75	0.75	1.05	1.05	3.75	40.050000000000004	40.65	41.099999999999994	42.75	42.9	43.35	37.8	31.8	26.25	20.4	14.399999999999999	8.7	7.95	6.6000000000000005	22.8	22.95	40.65	40.050000000000004	55.05	50.1	54.449999999999996	49.5	43.8	37.8	35.85	38.85	43.65	40.5	34.35	30.3	25.35	22.8	19.05	15.45	12.0	9.45	6.3	5.4	30.9	34.050000000000004	41.55	42.75	39.300000000000004	40.050000000000004	41.85	37.65	34.2	29.4	25.8	21.75	17.849999999999998	13.8	10.8	8.4	6.9	5.4	3.9	3.5999999999999996	3.3000000000000003	3.15	3.0	2.85	2.55	26.400000000000002	22.2	17.849999999999998	20.25	15.6	11.1	2.85
Node 18		0.15	0.3	0.8999999999999999	1.05	1.5	38.85	39.0	39.300000000000004	39.45	39.75	40.5	34.65	28.95	23.25	17.549999999999997	11.55	6.0	3.3000000000000003	3.3000000000000003	47.25	69.0	68.10000000000001	61.95	66.14999999999999	63.0	63.9	56.55	52.5	46.5	40.2	34.35	27.6	22.95	17.4	13.65	9.75	6.9	5.7	4.2	3.45	3.75	4.05	3.5999999999999996	3.9	3.9	10.8	12.3	11.4	10.95	10.2	9.15	8.25	6.9	6.0	4.95	3.9	2.4	2.1	2.4	2.7	2.85	2.7	2.85	3.0	2.85	2.4	2.25	3.75	6.3	11.4	12.6	10.35	12.9	7.95	1.95
Node 15		0.3	0.6	0.75	0.8999999999999999	1.5	39.0	39.15	39.300000000000004	39.45	39.6	39.75	33.75	27.6	22.8	17.25	11.1	5.55	2.4	2.7	2.85	70.95	67.65	66.60000000000001	88.8	81.3	73.05	69.3	62.7	59.4	66.3	61.5	55.05	48.449999999999996	41.099999999999994	35.25	28.65	24.75	21.0	16.8	12.6	8.55	4.65	2.7	3.15	25.2	25.2	26.700000000000003	45.300000000000004	41.4	46.800000000000004	42.3	37.2	32.4	28.95	24.6	20.549999999999997	16.8	13.950000000000001	10.2	7.5	5.1	3.0	3.15	3.15	2.85	2.4	2.25	10.65	25.5	21.15	19.8	14.399999999999999	9.6	11.1	2.85
Node 27		0.44999999999999996	0.75	0.8999999999999999	1.2	1.6500000000000001	40.65	42.75	45.6	45.75	45.9	46.2	40.5	34.35	28.199999999999996	22.35	17.1	11.25	5.8500000000000005	3.75	15.45	57.45	64.8	57.599999999999994	70.65	64.5	57.9	51.300000000000004	47.699999999999996	40.65	42.75	39.0	32.7	28.349999999999998	22.95	20.25	16.8	15.15	13.200000000000001	11.1	8.7	7.049999999999999	4.65	4.05	3.9	3.5999999999999996	3.45	2.85	2.85	2.55	2.7	2.4	2.7	2.7	2.55	2.1	2.4	2.85	2.85	3.15	2.85	3.15	3.0	3.0	2.55	2.4	2.4	2.25	1.7999999999999998	1.35	1.2	0.8999999999999999	0.75	0.3	0.15	0.0
Node 3		0.44999999999999996	0.44999999999999996	0.75	0.8999999999999999	1.05	41.85	45.15	45.300000000000004	45.300000000000004	45.6	45.9	39.75	33.15	27.0	20.7	14.399999999999999	8.4	3.75	1.95	2.25	2.85	2.85	2.7	64.05	60.9	60.45	54.449999999999996	47.85	40.949999999999996	48.15	61.199999999999996	56.699999999999996	51.15	44.85	40.2	34.5	29.25	23.849999999999998	19.05	13.65	9.45	4.8	1.95	1.6500000000000001	1.95	12.9	46.050000000000004	47.099999999999994	49.2	46.5	44.25	39.900000000000006	36.449999999999996	32.550000000000004	28.050000000000004	24.0	18.9	15.6	11.700000000000001	8.7	5.25	3.15	2.85	2.25	1.7999999999999998	1.7999999999999998	1.35	8.7	34.5	30.0	23.7	18.3	12.15	7.049999999999999	1.95
Node 32		0.6	0.8999999999999999	0.8999999999999999	1.2	5.25	29.25	40.35	40.8	41.25	41.55	42.0	36.9	30.3	24.75	19.2	13.350000000000001	8.1	3.75	4.05	6.45	25.95	38.25	37.2	58.650000000000006	52.2	46.2	41.25	35.55	28.799999999999997	24.6	23.25	18.0	16.2	13.05	11.25	9.9	8.7	7.8	6.6000000000000005	6.0	5.55	4.35	3.75	6.15	5.8500000000000005	5.4	9.75	21.75	20.1	18.15	16.5	15.0	12.9	11.1	9.15	7.199999999999999	4.35	3.45	2.7	2.55	2.1	2.4	2.4	2.1	1.95	1.6500000000000001	1.5	1.2	0.8999999999999999	0.8999999999999999	0.6	0.44999999999999996	0.44999999999999996	0.15	0.0
Node 22		0.6	0.8999999999999999	0.8999999999999999	1.2	1.35	1.5	1.95	2.1	2.25	5.1	5.8500000000000005	6.0	5.8500000000000005	5.55	5.7	5.7	6.0	6.0	5.4	12.3	59.4	68.55	67.2	72.0	67.95	63.0	66.14999999999999	60.0	52.800000000000004	56.699999999999996	57.3	56.25	50.4	46.050000000000004	40.949999999999996	34.949999999999996	30.599999999999998	25.95	21.15	16.650000000000002	12.45	8.7	6.6000000000000005	20.1	26.400000000000002	49.95	58.199999999999996	60.6	59.4	55.2	50.1	45.9	42.15	38.25	32.4	27.750000000000004	22.2	18.45	13.350000000000001	10.8	8.4	8.85	7.8	7.199999999999999	6.15	5.25	4.5	10.8	23.849999999999998	19.2	16.8	11.85	8.4	4.95	1.7999999999999998
Node 23		0.75	0.75	0.75	0.8999999999999999	1.2	24.15	24.15	24.45	24.6	24.6	24.75	21.75	26.55	21.3	16.2	11.25	6.3	4.95	4.8	36.0	41.099999999999994	61.650000000000006	55.800000000000004	65.55	58.650000000000006	52.800000000000004	45.75	40.35	41.099999999999994	66.60000000000001	67.2	66.60000000000001	62.4	57.9	52.800000000000004	45.75	39.300000000000004	32.4	26.400000000000002	20.25	15.15	9.9	15.0	31.8	32.4	30.75	38.25	34.65	30.599999999999998	27.450000000000003	25.8	22.05	18.75	15.45	12.0	9.3	7.5	8.4	7.199999999999999	5.8500000000000005	5.7	4.65	4.2	4.65	4.2	4.2	4.05	5.7	11.700000000000001	9.3	8.4	6.15	3.75	2.1	0.44999999999999996
Node 2		0.0	0.44999999999999996	0.6	0.75	1.2	39.300000000000004	39.75	40.050000000000004	40.35	40.5	40.5	34.65	28.65	22.8	17.1	11.700000000000001	6.15	3.45	3.0	34.8	68.55	68.55	62.55	75.6	70.95	65.4	60.6	53.849999999999994	46.650000000000006	56.699999999999996	54.75	48.449999999999996	42.449999999999996	36.449999999999996	31.8	24.9	21.45	16.950000000000003	13.65	10.05	7.35	4.2	2.1	28.199999999999996	31.35	27.6	26.85	41.099999999999994	58.050000000000004	58.199999999999996	52.349999999999994	47.85	46.800000000000004	42.449999999999996	36.449999999999996	31.2	25.8	21.75	16.650000000000002	12.9	9.0	6.15	4.05	2.7	1.6500000000000001	1.35	1.2	1.2	22.8	19.650000000000002	17.4	13.5	9.75	9.6	2.4
Node 37		0.75	1.05	1.2	1.35	2.55	40.5	43.65	44.1	44.25	44.4	49.65	44.4	37.35	31.2	25.95	19.650000000000002	13.200000000000001	7.8	5.55	29.4	42.6	60.45	54.0	64.2	58.8	59.4	52.349999999999994	46.2	39.300000000000004	36.9	30.9	25.05	20.849999999999998	15.6	12.6	8.85	6.45	4.95	4.2	3.3000000000000003	2.7	2.4	2.55	2.4	2.25	2.4	2.4	2.25	2.7	2.7	2.85	3.0	3.3000000000000003	3.45	3.3000000000000003	3.15	3.3000000000000003	3.15	3.15	3.0	3.0	2.7	2.4	2.25	1.95	1.6500000000000001	1.6500000000000001	1.6500000000000001	1.35	0.75	0.6	0.44999999999999996	0.0	0.0	0.0
Node 31		0.75	0.8999999999999999	0.8999999999999999	1.05	1.95	41.55	43.8	46.800000000000004	47.4	48.0	48.3	42.449999999999996	35.85	29.4	23.7	17.849999999999998	11.85	6.45	4.35	3.3000000000000003	2.85	2.85	2.85	66.3	64.95	59.099999999999994	56.10000000000001	49.65	42.9	41.099999999999994	59.550000000000004	54.300000000000004	49.2	43.2	38.85	33.75	29.549999999999997	24.6	19.8	15.0	11.25	6.75	5.4	8.85	9.0	8.55	62.849999999999994	60.45	56.85	52.349999999999994	49.65	46.2	40.8	36.3	31.95	27.450000000000003	22.650000000000002	18.9	14.549999999999999	12.0	8.1	5.55	4.2	3.9	3.0	2.4	6.3	12.45	37.65	32.550000000000004	25.650000000000002	19.5	13.950000000000001	8.4	2.1
Node 39		0.15	0.6	0.8999999999999999	1.6500000000000001	2.7	39.45	40.65	40.8	40.8	41.55	41.85	36.3	30.3	24.6	19.2	13.5	7.6499999999999995	4.35	3.3000000000000003	58.199999999999996	67.80000000000001	67.2	61.199999999999996	70.19999999999999	63.74999999999999	62.7	56.55	49.65	42.75	45.15	39.45	34.050000000000004	29.099999999999998	23.25	19.5	14.85	12.0	9.9	7.6499999999999995	5.55	4.05	3.15	3.15	8.4	11.4	13.350000000000001	22.95	21.15	19.35	22.05	20.549999999999997	18.9	16.5	14.549999999999999	12.6	10.35	6.9	5.8500000000000005	4.95	4.35	3.15	2.55	2.25	2.1	2.1	1.7999999999999998	1.6500000000000001	1.35	25.2	22.5	19.5	13.950000000000001	14.7	10.8	2.85
Node 0		0.3	0.75	0.8999999999999999	1.05	4.8	34.5	34.8	34.949999999999996	35.4	35.85	36.0	31.2	25.5	20.1	14.7	9.9	4.65	2.7	2.7	29.4	66.0	60.75000000000001	57.75	63.9	57.45	51.449999999999996	44.7	38.550000000000004	31.65	25.8	19.650000000000002	14.249999999999998	10.8	5.8500000000000005	4.05	3.0	2.25	1.6500000000000001	1.05	1.2	1.35	1.2	1.5	4.8	15.45	13.8	12.15	14.249999999999998	12.75	13.5	11.700000000000001	9.9	8.7	7.049999999999999	5.25	4.35	3.45	3.15	2.85	2.4	2.55	2.4	2.4	2.25	2.1	2.1	1.95	1.6500000000000001	1.35	0.8999999999999999	3.9	3.15	1.7999999999999998	9.6	2.1
Node 12		0.0	0.3	0.8999999999999999	1.05	1.5	1.5	1.7999999999999998	2.1	2.1	2.25	2.55	2.55	2.7	2.7	2.1	2.25	2.1	2.25	1.95	12.0	14.399999999999999	13.05	11.700000000000001	10.5	9.6	8.25	6.9	5.7	4.05	3.3000000000000003	2.7	2.55	2.85	3.0	3.15	3.9	4.05	4.35	4.65	4.5	4.65	4.65	4.05	3.75	3.9	3.9	3.75	3.15	2.7	2.55	2.4	2.7	2.7	2.55	2.7	2.85	2.55	2.4	2.55	2.4	2.55	2.4	2.55	2.4	2.25	1.95	1.6500000000000001	30.75	36.75	31.8	26.1	19.5	13.8	10.2	2.55
Node 13		0.3	0.3	0.44999999999999996	0.8999999999999999	2.85	23.849999999999998	24.15	24.15	24.45	24.6	24.75	21.45	17.549999999999997	13.05	8.85	5.4	2.1	2.1	2.1	2.25	17.1	37.5	54.75	53.400000000000006	56.699999999999996	52.349999999999994	46.949999999999996	40.35	33.6	41.4	37.65	32.1	27.900000000000002	22.05	18.75	14.7	12.15	10.05	8.25	6.3	5.4	3.75	2.4	12.45	15.75	15.9	19.5	17.849999999999998	15.9	14.85	13.200000000000001	11.55	10.05	8.7	7.049999999999999	5.7	4.2	3.5999999999999996	3.15	2.7	2.85	2.85	2.85	2.55	2.4	2.1	1.7999999999999998	1.6500000000000001	3.0	1.95	1.7999999999999998	1.5	0.75	0.15	0.0
Node 4		0.15	0.15	0.75	0.75	0.8999999999999999	39.900000000000006	39.900000000000006	39.900000000000006	40.050000000000004	40.2	40.65	35.25	28.95	23.25	17.25	11.55	5.8500000000000005	3.0	7.049999999999999	75.6	77.7	79.95	84.89999999999999	99.0	92.85	84.75	77.10000000000001	86.7	78.3	88.2	80.4	71.7	63.449999999999996	55.2	46.949999999999996	38.85	31.05	23.7	16.2	9.6	4.5	2.25	2.25	31.35	51.15	61.95	61.050000000000004	67.35	74.25	74.1	70.8	64.05	57.75	50.849999999999994	43.5	36.0	29.4	24.0	18.0	13.200000000000001	8.25	4.05	3.15	2.7	2.1	1.95	1.7999999999999998	1.6500000000000001	1.6500000000000001	1.5	1.05	24.3	18.3	11.1	2.85
Node 16		0.3	0.44999999999999996	0.44999999999999996	0.6	0.75	39.6	39.75	40.050000000000004	40.2	40.5	40.8	35.25	28.95	23.25	17.549999999999997	11.55	5.7	2.1	2.1	51.449999999999996	50.849999999999994	48.9	42.9	65.10000000000001	58.199999999999996	52.05	45.300000000000004	38.85	32.25	35.099999999999994	55.800000000000004	50.4	45.0	38.7	33.900000000000006	27.150000000000002	23.849999999999998	19.35	15.299999999999999	11.55	8.55	5.1	2.7	41.4	42.15	49.65	49.35	49.05	46.050000000000004	62.849999999999994	55.65	49.95	43.95	38.4	31.8	26.85	21.45	17.25	11.85	7.6499999999999995	3.75	2.4	2.55	2.25	2.1	1.95	4.95	10.8	37.2	32.4	25.95	21.15	16.8	10.8	2.7
Node 11		0.75	1.05	1.2	1.2	1.35	1.35	1.5	1.6500000000000001	2.25	2.85	3.45	2.85	3.0	2.85	2.85	3.15	3.15	3.3000000000000003	3.3000000000000003	3.0	2.85	2.55	2.1	2.25	2.4	2.55	2.7	2.85	3.3000000000000003	3.15	3.3000000000000003	3.45	3.5999999999999996	3.45	3.3000000000000003	3.45	3.3000000000000003	3.15	3.45	3.0	2.7	2.85	2.85	2.85	2.7	2.55	2.85	2.7	2.7	2.7	2.4	2.7	2.55	2.55	2.25	2.25	1.95	2.1	1.95	2.1	1.95	2.25	2.1	1.95	1.7999999999999998	1.6500000000000001	1.6500000000000001	1.5	4.2	4.05	3.15	2.4	1.5	0.8999999999999999	0.3
Node 30		0.75	0.8999999999999999	1.05	1.6500000000000001	1.95	2.4	2.4	2.55	2.85	3.0	3.3000000000000003	2.85	2.85	3.15	3.3000000000000003	3.0	2.85	2.55	3.0	3.0	2.85	3.0	3.0	3.0	3.0	2.7	2.7	2.85	3.0	3.0	3.0	3.15	3.0	2.7	2.4	2.4	2.4	2.25	2.25	2.1	2.25	2.25	2.1	1.95	2.1	2.1	2.25	2.1	1.95	1.95	1.95	1.7999999999999998	1.35	1.5	1.5	1.6500000000000001	1.7999999999999998	1.7999999999999998	1.95	1.95	2.25	2.4	2.4	2.4	2.4	2.1	1.7999999999999998	1.5	1.2	1.2	0.8999999999999999	0.8999999999999999	0.6	0.3	0.0
Node 19		0.3	0.75	1.2	1.5	1.7999999999999998	40.65	41.25	42.0	42.3	42.75	43.2	40.5	33.900000000000006	28.349999999999998	23.1	17.4	11.700000000000001	7.8	7.049999999999999	18.45	41.55	49.05	55.50000000000001	50.55	44.25	39.15	41.699999999999996	36.0	29.549999999999997	23.849999999999998	18.75	13.350000000000001	11.25	8.1	6.3	4.65	3.9	3.3000000000000003	2.25	2.1	1.95	1.95	1.7999999999999998	4.35	5.1	7.5	9.45	17.849999999999998	16.35	16.950000000000003	15.75	14.549999999999999	13.8	12.15	10.5	8.85	6.3	5.55	4.2	3.3000000000000003	3.15	2.4	2.25	2.1	1.5	1.5	1.35	1.35	7.35	6.45	7.199999999999999	5.7	3.45	2.25	0.6
Node 40		0.0	0.0	0.0	0.0	3.9	41.55	45.300000000000004	46.35	46.5	46.5	46.5	40.050000000000004	33.0	26.400000000000002	20.4	13.8	7.35	2.4	1.05	0.15	0.0	0.0	0.0	0.0	0.0	0.0	0.0	0.0	0.0	0.0	0.0	0.0	0.0	0.0	0.0	0.0	0.0	0.0	0.0	0.0	0.0	0.0	0.0	0.0	0.0	0.0	2.7	2.7	2.4	2.1	1.7999999999999998	1.5	1.35	1.2	0.75	0.3	0.15	0.0	0.0	0.0	0.0	0.0	0.0	0.0	0.0	0.0	0.0	0.0	0.0	0.0	0.0	0.0	0.0	0.0	0.0
Node 33		0.75	1.05	1.05	1.05	1.35	37.65	44.1	45.0	45.300000000000004	45.300000000000004	45.45	39.300000000000004	32.550000000000004	26.25	21.0	15.0	9.0	4.2	3.0	2.1	5.55	47.699999999999996	66.60000000000001	90.75	89.7	85.05	86.85000000000001	81.3	80.85	88.35	87.9	83.25	75.75	67.65	59.85	51.449999999999996	44.1	36.75	29.099999999999998	22.05	15.45	9.0	3.9	2.4	15.9	49.65	66.3	70.8	72.6	67.05	64.8	60.9	59.099999999999994	52.2	44.85	38.1	31.5	26.1	19.5	14.85	9.45	6.45	3.75	2.55	2.4	2.25	1.95	1.7999999999999998	13.65	31.95	30.3	24.45	17.4	9.75	2.4
Node 24		0.15	0.44999999999999996	0.75	1.2	11.85	40.5	42.9	42.9	43.05	43.05	43.2	37.2	30.75	24.3	18.9	12.75	6.9	2.7	2.1	2.25	2.4	41.699999999999996	64.64999999999999	61.199999999999996	53.7	47.85	40.949999999999996	34.8	28.349999999999998	22.35	17.25	11.85	9.0	5.55	4.05	3.0	3.45	3.15	3.45	3.5999999999999996	3.75	3.9	4.05	6.0	13.350000000000001	11.700000000000001	10.35	12.15	10.2	9.3	7.8	6.75	5.7	4.65	3.45	3.0	2.4	1.7999999999999998	1.6500000000000001	1.6500000000000001	1.7999999999999998	1.7999999999999998	1.95	1.95	1.7999999999999998	1.5	1.35	1.05	0.8999999999999999	1.5	10.35	13.65	9.0	10.05	2.4
Node 1		0.6	0.8999999999999999	1.05	1.05	1.5	1.6500000000000001	1.6500000000000001	1.6500000000000001	1.7999999999999998	2.1	2.25	2.25	2.55	2.55	2.7	3.0	2.85	3.0	3.45	3.45	3.5999999999999996	5.55	5.55	4.8	13.8	12.3	10.65	9.15	7.35	6.45	5.8500000000000005	5.7	5.55	5.25	4.95	4.65	4.05	4.2	4.05	3.5999999999999996	3.5999999999999996	2.7	2.1	1.95	2.4	2.55	2.7	7.8	7.35	6.75	6.6000000000000005	6.3	6.3	6.45	5.8500000000000005	5.25	4.5	4.05	3.5999999999999996	3.75	3.5999999999999996	3.5999999999999996	3.5999999999999996	3.3000000000000003	2.55	2.1	1.95	1.6500000000000001	1.35	1.05	0.8999999999999999	0.6	0.44999999999999996	0.3	0.0
Node 10		0.15	0.3	0.8999999999999999	0.8999999999999999	1.5	40.5	41.099999999999994	41.25	41.55	41.699999999999996	42.0	36.15	29.849999999999998	23.849999999999998	17.849999999999998	11.85	6.0	2.4	2.1	2.1	1.95	2.25	1.95	1.95	1.7999999999999998	1.95	34.65	28.95	22.5	19.35	35.699999999999996	35.4	32.25	26.1	22.650000000000002	18.45	16.05	13.65	10.8	8.1	6.3	3.75	2.55	2.1	2.1	2.25	2.25	2.55	2.55	48.3	45.0	40.8	36.6	33.0	28.349999999999998	24.75	19.950000000000003	17.25	12.75	9.45	6.3	4.95	4.5	4.35	4.05	3.75	3.15	2.7	2.4	2.1	28.65	21.6	14.7	9.3	2.25
Node 26		0.75	0.8999999999999999	1.05	1.5	3.5999999999999996	30.3	30.599999999999998	30.75	31.05	31.35	31.5	26.700000000000003	21.0	16.650000000000002	12.15	7.6499999999999995	3.0	2.7	2.4	22.5	38.25	61.050000000000004	54.449999999999996	63.9	57.45	52.65	46.35	40.8	34.050000000000004	31.95	26.700000000000003	21.75	18.75	13.5	12.15	10.5	9.75	8.85	7.199999999999999	6.0	5.7	4.05	3.45	9.6	9.0	8.1	7.049999999999999	6.3	5.25	5.8500000000000005	5.25	5.25	4.5	3.5999999999999996	2.7	2.25	2.1	1.7999999999999998	2.4	2.4	2.55	2.55	2.25	2.4	2.25	2.25	1.95	1.7999999999999998	1.6500000000000001	1.6500000000000001	1.05	0.75	1.95	11.1	2.85
Node 34		0.6	0.6	0.75	1.2	3.75	40.2	41.099999999999994	41.55	42.0	42.15	42.449999999999996	36.9	30.3	24.6	18.9	13.200000000000001	7.199999999999999	3.45	3.3000000000000003	23.1	39.45	43.05	55.05	63.0	63.449999999999996	57.3	51.0	46.949999999999996	41.4	38.25	35.25	28.95	24.45	18.9	15.9	12.45	10.35	8.85	6.45	4.65	3.9	2.85	2.25	2.25	11.25	11.25	18.0	19.5	18.0	19.35	17.1	15.45	13.65	11.85	10.5	9.0	7.199999999999999	6.0	4.35	3.45	2.4	1.95	2.25	2.25	2.25	2.1	1.7999999999999998	1.7999999999999998	1.5	1.35	2.7	4.05	2.55	1.7999999999999998	0.3
Node 8		0.44999999999999996	0.75	1.05	1.05	1.5	3.9	4.5	5.1	5.8500000000000005	6.15	6.3	5.8500000000000005	7.8	7.199999999999999	5.8500000000000005	6.15	5.8500000000000005	5.8500000000000005	5.4	55.2	71.1	73.35000000000001	74.4	77.85	77.25	73.8	66.45	59.25	66.14999999999999	70.5	74.7	68.10000000000001	61.5	53.849999999999994	47.25	39.900000000000006	33.900000000000006	27.450000000000003	20.849999999999998	14.7	9.45	5.55	3.0	2.4	2.1	4.95	31.65	28.199999999999996	30.599999999999998	39.45	35.4	33.0	29.099999999999998	25.35	21.6	18.45	14.399999999999999	12.0	14.249999999999998	11.55	9.15	8.1	8.25	7.95	7.35	6.45	5.7	4.95	5.4	17.4	14.099999999999998	11.1	6.9	4.5	1.2
Node 21		0.0	0.0	0.6	0.75	2.1	39.6	40.35	44.85	45.6	46.050000000000004	46.35	41.099999999999994	34.65	28.799999999999997	23.25	17.25	11.1	5.7	6.75	24.9	43.95	75.75	71.55	84.89999999999999	79.05	76.35	74.85000000000001	69.45	64.8	69.15	70.65	67.5	64.2	58.95	53.400000000000006	49.2	43.05	36.449999999999996	30.599999999999998	24.0	18.75	13.05	11.25	27.3	32.4	28.65	33.300000000000004	29.7	27.450000000000003	45.9	41.099999999999994	40.35	35.4	32.1	29.099999999999998	24.9	21.15	19.05	15.0	12.45	12.45	10.2	9.45	8.7	7.95	6.75	5.55	5.7	37.2	33.0	27.3	20.7	14.399999999999999	8.55	2.25
Node 25		0.0	0.3	0.3	0.75	1.05	39.6	39.6	39.75	40.050000000000004	40.5	40.8	35.55	29.4	23.849999999999998	18.6	12.3	6.45	3.3000000000000003	3.3000000000000003	21.9	22.2	19.650000000000002	55.800000000000004	55.800000000000004	49.05	43.2	37.35	31.5	35.4	35.699999999999996	32.85	27.0	23.400000000000002	18.45	15.75	12.3	10.2	9.15	7.35	5.25	4.35	3.0	3.15	3.75	13.200000000000001	13.200000000000001	17.7	16.35	14.85	16.5	15.15	14.099999999999998	12.6	11.1	9.3	7.5	5.1	4.5	3.45	3.45	3.0	3.15	3.15	2.85	2.7	2.55	2.4	2.1	1.7999999999999998	1.35	1.05	0.75	15.75	11.1	2.85
Node 35		0.6	0.6	0.75	1.05	2.1	40.2	40.949999999999996	41.4	41.4	41.55	41.699999999999996	35.85	29.4	23.549999999999997	18.15	12.0	6.0	2.4	2.25	22.2	70.05	68.7	63.3	63.9	57.45	58.650000000000006	52.05	45.9	39.15	63.0	67.2	60.6	53.7	47.25	41.55	34.35	28.95	23.25	18.3	13.200000000000001	8.85	4.65	3.45	3.5999999999999996	3.5999999999999996	3.5999999999999996	3.5999999999999996	3.45	3.45	3.0	2.7	2.7	2.55	2.1	2.1	1.95	2.1	1.7999999999999998	1.7999999999999998	1.6500000000000001	1.6500000000000001	1.7999999999999998	1.7999999999999998	1.6500000000000001	1.5	1.35	1.05	0.8999999999999999	0.75	0.75	0.75	0.75	0.44999999999999996	0.3	0.0
Node 5		0.8999999999999999	1.2	1.35	1.95	2.1	2.4	2.55	2.55	2.55	2.85	3.0	3.0	2.55	2.25	2.7	2.25	2.4	2.25	2.85	24.75	69.45	70.5	70.8	73.95	70.19999999999999	64.64999999999999	65.4	62.55	59.25	60.45	56.99999999999999	50.55	45.15	39.15	34.5	28.499999999999996	23.549999999999997	19.35	14.549999999999999	9.15	6.45	3.0	2.1	2.25	2.55	2.7	2.85	14.549999999999999	27.6	26.25	29.099999999999998	28.799999999999997	32.550000000000004	29.7	26.25	23.1	19.05	16.650000000000002	13.200000000000001	10.65	7.049999999999999	5.25	3.75	2.4	1.6500000000000001	1.35	4.2	6.45	10.65	9.45	7.35	5.8500000000000005	4.05	1.95	0.6
Node 14		0.75	1.2	1.35	1.6500000000000001	2.1	2.4	2.7	3.15	3.5999999999999996	3.9	4.05	3.9	3.75	3.5999999999999996	3.45	3.15	3.0	2.85	2.85	15.45	39.75	61.35	54.900000000000006	48.9	44.85	40.5	34.8	28.95	22.35	17.549999999999997	12.45	7.6499999999999995	6.0	3.9	3.15	2.7	2.7	3.0	3.0	3.15	3.0	2.55	2.7	3.15	3.0	2.85	11.85	11.85	14.549999999999999	13.65	12.45	11.4	10.35	9.15	8.1	6.9	5.4	4.5	3.75	3.15	2.85	2.85	3.0	3.0	2.7	2.25	2.1	1.7999999999999998	1.35	1.05	0.8999999999999999	0.75	0.6	0.3	0.0
Node 36		0.44999999999999996	0.44999999999999996	0.8999999999999999	1.05	1.2	39.6	40.65	41.699999999999996	42.15	42.449999999999996	42.449999999999996	38.85	32.85	27.6	23.549999999999997	17.849999999999998	12.6	9.15	8.25	15.299999999999999	27.450000000000003	44.4	57.15	53.7	57.9	51.74999999999999	47.85	41.55	38.7	35.699999999999996	32.7	30.9	27.0	21.9	20.849999999999998	18.15	16.5	14.85	12.45	10.35	9.15	7.199999999999999	6.3	19.950000000000003	38.25	37.05	55.35	55.05	59.550000000000004	56.39999999999999	50.7	45.300000000000004	40.5	37.5	31.35	26.1	20.4	16.35	11.85	8.7	5.8500000000000005	5.25	4.5	7.049999999999999	6.15	5.7	8.7	7.5	18.75	15.75	13.65	11.4	16.2	9.6	2.4
Node 29		0.75	1.2	1.95	1.95	2.1	40.65	42.3	42.449999999999996	42.9	44.1	44.4	38.550000000000004	32.85	27.150000000000002	21.9	15.9	10.2	5.7	5.4	23.1	43.5	42.9	59.4	58.5	58.650000000000006	52.65	45.75	41.25	34.8	34.8	32.25	26.700000000000003	23.1	18.0	15.0	12.0	12.75	12.3	10.95	9.0	8.1	6.3	5.8500000000000005	4.5	4.2	4.05	13.200000000000001	15.299999999999999	14.249999999999998	12.9	11.25	10.2	9.0	8.1	6.75	6.15	4.35	3.45	2.4	2.7	2.55	2.55	2.7	2.4	2.25	2.1	1.95	1.2	1.05	0.75	0.75	0.3	12.75	9.6	2.4
Node 6		0.3	0.75	0.8999999999999999	1.05	1.6500000000000001	42.0	42.3	42.9	43.2	43.35	43.95	38.25	31.2	25.35	19.8	13.8	7.95	4.35	12.6	61.050000000000004	71.25	76.5	77.10000000000001	88.05	84.6	78.75	78.0	74.85000000000001	67.5	60.3	53.25	46.5	39.900000000000006	32.85	27.3	19.950000000000003	14.099999999999998	9.6	6.3	5.8500000000000005	6.15	6.75	6.45	6.15	5.8500000000000005	5.25	4.5	4.8	4.5	4.65	4.65	7.049999999999999	6.6000000000000005	5.8500000000000005	6.3	5.8500000000000005	5.1	4.8	4.8	4.35	4.65	4.65	4.8	4.35	3.5999999999999996	3.0	5.4	6.75	29.25	24.3	20.1	15.15	10.65	5.8500000000000005	1.6500000000000001
Node 20		0.6	0.75	0.8999999999999999	1.05	1.2	39.0	42.75	42.75	43.35	43.8	43.95	37.65	30.599999999999998	31.8	25.8	19.950000000000003	14.099999999999998	8.7	5.8500000000000005	5.4	4.65	3.9	3.45	3.15	3.15	3.3000000000000003	2.7	2.4	2.55	2.1	2.1	1.95	1.95	1.7999999999999998	2.1	48.15	42.3	35.25	29.4	22.650000000000002	17.4	11.55	7.6499999999999995	5.4	21.75	27.0	30.45	31.65	30.45	35.55	34.2	31.65	28.499999999999996	25.5	22.35	19.950000000000003	16.35	14.249999999999998	11.85	9.75	6.9	5.4	4.2	3.75	3.45	3.15	2.85	2.55	33.75	30.0	26.1	20.549999999999997	14.099999999999998	9.3	2.25
Node 38		0.3	0.6	0.8999999999999999	0.8999999999999999	1.35	40.050000000000004	41.4	41.4	41.55	45.75	45.9	40.2	33.75	27.750000000000004	22.2	16.35	10.5	6.45	5.4	5.25	42.9	77.25	70.5	82.19999999999999	76.8	69.89999999999999	62.1	56.85	56.99999999999999	62.1	68.10000000000001	65.4	59.699999999999996	53.25	47.099999999999994	39.45	33.6	28.349999999999998	22.8	17.549999999999997	13.05	7.5	4.95	36.0	42.449999999999996	48.3	44.1	39.75	35.25	39.900000000000006	39.300000000000004	42.15	36.6	32.7	27.6	23.849999999999998	19.8	16.8	13.65	10.8	7.199999999999999	3.9	2.25	1.2	1.05	0.75	6.45	10.2	20.849999999999998	18.45	14.549999999999999	21.75	15.0	8.85	2.25
Node 17		0.8999999999999999	1.2	1.2	1.5	1.5	25.05	25.5	25.95	25.95	26.1	26.55	23.400000000000002	18.9	14.549999999999999	10.35	6.6000000000000005	3.3000000000000003	3.15	2.7	2.25	2.55	2.55	2.4	2.25	2.55	2.25	2.1	1.95	2.1	1.7999999999999998	1.95	2.1	1.7999999999999998	1.7999999999999998	2.1	2.1	1.95	1.95	2.1	2.25	2.1	2.1	2.25	2.25	2.7	2.7	5.1	5.1	4.5	4.5	4.2	3.9	3.9	3.9	3.45	3.0	2.55	2.1	2.1	2.1	2.55	2.25	2.55	2.25	1.95	1.6500000000000001	1.5	3.0	11.1	10.2	8.1	6.75	14.099999999999998	8.7	2.1
Node 7		0.3	0.6	0.6	0.8999999999999999	4.35	39.75	44.25	44.4	45.15	45.300000000000004	45.300000000000004	39.0	32.1	26.1	20.7	14.549999999999999	9.45	4.8	3.75	51.9	70.05	73.65	73.95	79.5	77.25	70.8	77.55	71.25	63.74999999999999	76.05	74.1	69.45	62.25000000000001	54.900000000000006	48.9	41.55	34.8	27.900000000000002	22.05	15.9	10.8	6.15	3.3000000000000003	33.0	31.2	28.349999999999998	25.5	22.5	38.7	37.8	34.5	31.5	27.6	24.3	20.25	17.1	12.75	10.35	8.25	6.75	4.65	3.75	2.85	2.85	2.7	2.7	5.4	9.0	12.3	10.95	8.55	6.6000000000000005	4.5	11.1	2.7
Node 28		0.3	0.3	0.6	0.8999999999999999	2.55	27.6	27.750000000000004	28.199999999999996	37.65	37.95	39.0	34.050000000000004	28.95	23.400000000000002	18.0	12.9	7.6499999999999995	5.8500000000000005	5.55	23.849999999999998	45.9	49.5	43.05	55.2	48.449999999999996	51.449999999999996	46.2	40.65	34.8	28.349999999999998	59.699999999999996	54.75	51.9	48.3	44.1	39.0	34.65	29.099999999999998	24.0	19.5	15.299999999999999	10.35	8.1	6.6000000000000005	6.15	16.5	25.05	30.15	27.3	42.449999999999996	39.6	35.699999999999996	31.35	28.199999999999996	24.45	20.549999999999997	16.05	14.85	10.95	8.85	6.75	5.4	5.1	4.8	4.5	5.7	9.0	13.5	25.650000000000002	21.45	17.25	12.6	8.4	4.2	1.35
