21 160
18 114
34 48
38 88
5 41
2 44
13 49
4 237
10 6
39 188
17 8
29 25
8 52
16 102
0 71
19 13
25 13
35 55
40 47
20 38
37 37
9 89
6 131
22 99
24 48
26 46
12 43
33 140
1 8
23 67
31 84
32 49
36 109
27 18
14 44
28 93
15 61
7 83
3 105
