Message stats for scenario SimBetHaggleInfocom_#HillClimbing_0.5
sim_time: 274883.0000
created: 3892
started: 58215
relayed: 53116
aborted: 5099
dropped: 54610
removed: 0
delivered: 2398
delivery_prob: 0.6161
response_prob: 0.0000
overhead_ratio: 21.1501
latency_avg: 17018.1555
latency_med: 15156.0000
hopcount_avg: 2.1397
hopcount_med: 2
buffertime_avg: 25663.7163
buffertime_med: 27415.0000
rtt_avg: NaN
rtt_med: NaN
