Message Drop for scenario SimBetHaggleInfocom_#HillClimbing_0.7
sim_time: 274883.0000

23	1704
11	100
29	1168
0	1051
6	1513
8	1630
27	992
31	1684
33	2415
7	1961
9	1739
12	402
19	848
36	1685
10	1266
37	1003
13	983
4	2434
35	1253
1	222
38	2023
18	1282
21	2054
28	1626
39	1543
25	1161
15	1913
3	1693
20	1219
2	1837
14	388
34	1163
30	92
40	328
17	427
24	1038
32	961
16	2041
22	1553
5	1346
26	842

