21 154
13 44
10 6
18 110
34 40
3 105
27 11
19 14
40 36
6 138
35 57
9 80
5 34
22 81
15 65
28 82
26 45
29 36
37 39
32 48
24 57
17 8
7 86
4 240
12 55
16 88
38 77
14 33
31 83
23 65
36 112
0 57
2 41
25 10
1 11
39 198
33 150
20 26
8 52
