Message Drop for scenario SimBetHaggleInfocom_#HillClimbing_0.9
sim_time: 274883.0000

13	1098
21	2051
10	1272
18	1351
11	100
34	1250
30	92
3	1720
19	899
27	780
40	326
6	1516
35	1285
9	1760
5	1302
22	1418
15	1909
28	1610
26	761
29	1198
37	1054
32	932
24	1091
17	382
7	1975
4	2394
12	444
16	2044
38	2004
14	396
31	1705
36	1705
23	1744
0	1016
2	1876
25	1228
1	235
39	1616
33	2401
20	1001
8	1723

