Message stats for scenario SimBetHaggleInfocom_#HillClimbing_1
sim_time: 274883.0000
created: 3892
started: 38917
relayed: 33151
aborted: 5766
dropped: 34875
removed: 0
delivered: 2168
delivery_prob: 0.5570
response_prob: 0.0000
overhead_ratio: 14.2911
latency_avg: 17206.1190
latency_med: 15355.0000
hopcount_avg: 1.8040
hopcount_med: 2
buffertime_avg: 27173.6686
buffertime_med: 29020.0000
rtt_avg: NaN
rtt_med: NaN
