18 117
31 80
22 101
3 105
6 122
19 23
2 47
35 50
17 4
20 41
34 43
4 239
14 27
25 11
15 58
21 157
32 49
9 83
39 175
26 50
23 72
8 52
13 42
29 27
12 46
38 93
5 72
33 137
10 10
28 90
27 15
36 88
0 69
16 98
1 9
40 52
24 54
37 36
7 89
