Node	Value
13	24
31	69
39	126
20	29
15	65
14	23
10	19
29	33
7	89
11	3
35	31
21	162
18	79
38	95
40	25
0	33
33	128
36	86
28	71
5	64
16	71
27	16
4	245
6	124
19	19
26	37
34	20
23	66
2	40
1	12
32	22
9	55
3	109
12	62
37	19
24	67
22	88
25	24
17	5
8	62
