10 12
12 45
0 59
29 24
5 56
14 33
8 51
34 47
18 117
15 60
21 157
17 5
20 41
1 8
31 84
3 107
24 63
27 24
9 87
32 47
2 46
23 62
22 100
28 87
19 14
38 82
7 85
6 127
36 105
39 176
4 250
16 106
40 41
25 10
37 36
35 56
26 52
33 145
13 46
