A9 0.5854685656597677 
A18 0.6433085159663616 
A27 0.48955566578554904 
A15 0.5477629678848217 
A32 0.5487023759622919 
A3 0.5588563415503183 
A22 0.6234295149848285 
A23 0.5697669139484745 
A37 0.6122335556107329 
A2 0.5667843964891741 
A31 0.4880934021983191 
A39 0.5690146377573361 
A0 0.5803310740308706 
A13 0.6228080179979555 
A12 0.5778936682843843 
A16 0.588048514546468 
A4 0.6789802586184491 
A11 0.3348453720347411 
A30 0.0 
A19 0.5658881275200585 
A40 0.48769144087516214 
A33 0.689750671703748 
A24 0.4921608592546416 
A10 0.603900127159811 
A1 0.5763553664952088 
A26 0.6262670616131583 
A34 0.5758499104765741 
A21 0.5839678843481153 
A8 0.5920970820743431 
A35 0.5752741946999071 
A25 0.5921115003027106 
A5 0.6159387096232778 
A36 0.5871099742348821 
A14 0.5984270112047777 
A29 0.570103429538502 
A6 0.6354846061585233 
A20 0.6801712241121575 
A38 0.6167609610798411 
A17 0.6058137341215554 
A7 0.5931501652739819 
A28 0.6172232461043946 
