A8 0.5607000176417324 
A39 0.5584779066983228 
A32 0.5220722595216378 
A3 0.5484138006334104 
A34 0.5516925950264298 
A28 0.584459475571414 
A25 0.5658715914746987 
A2 0.5643512900997172 
A12 0.5127785633482542 
A33 0.6475689960432838 
A17 0.5828788189266703 
A4 0.6334590134581937 
A23 0.5700972142663828 
A13 0.5883376495239221 
A22 0.5786566477808907 
A6 0.5958309548928779 
A30 0.010526315789473684 
A5 0.6093173259203687 
A10 0.5743058103948377 
A16 0.5643440677976334 
A14 0.5782503938331759 
A9 0.5637030353129655 
A29 0.5534054380131824 
A15 0.5575392511035828 
A31 0.49174374069785065 
A7 0.563470569497053 
A40 0.438349127056216 
A35 0.5436369736359172 
A18 0.576975335068102 
A19 0.5405128210545981 
A20 0.644416190375919 
A24 0.4902975974266826 
A0 0.5617176508185326 
A37 0.5850746181726129 
A26 0.6031972966309982 
A27 0.4878960180032005 
A1 0.5359043743772965 
A36 0.5735944862933916 
A11 0.34014851159178505 
A21 0.5641599502880381 
A38 0.5815703067095263 
