21 20.82631578947367
29 15.369078947368424
14 6.874342105263156
23 17.101973684210535
34 15.771710526315793
8 17.585526315789483
17 5.392105263157898
10 9.065131578947364
22 7.7328947368421055
32 9.603947368421052
9 18.029605263157897
33 13.328289473684208
37 13.178289473684208
40 5.342763157894734
36 19.08157894736842
6 16.342105263157894
7 20.02105263157895
13 12.828947368421053
18 17.169078947368426
20 5.24407894736842
26 7.890789473684208
2 13.98355263157895
3 16.31052631578947
15 16.67565789473685
0 10.697368421052627
24 13.46842105263158
12 4.338157894736841
38 20.611184210526318
39 18.305921052631586
19 10.922368421052637
28 13.997368421052634
30 2.1750000000000007
35 16.58486842105263
5 5.19078947368421
16 16.300657894736847
31 14.725657894736838
1 4.500000000000002
11 2.3486842105263146
25 15.836842105263166
27 8.861842105263156
4 18.582236842105267
