18 18.219078947368427
31 24.34539473684211
22 22.912499999999998
3 24.617763157894732
6 23.026973684210525
2 26.435526315789474
19 13.531578947368425
17 6.120394736842111
20 15.639473684210522
35 19.14868421052631
4 34.865131578947384
14 7.724999999999997
34 17.275657894736835
15 26.267763157894745
25 15.540789473684208
21 32.25394736842105
9 24.884210526315787
26 13.028289473684213
32 14.143421052631583
39 21.138157894736842
8 23.046710526315795
13 13.807894736842101
23 24.763815789473682
12 4.4625
29 16.75657894736842
5 21.48355263157895
38 29.907236842105256
33 34.95394736842105
11 2.372368421052631
10 16.142763157894738
28 24.361184210526325
27 17.060526315789474
36 23.646710526315786
0 14.171052631578947
16 27.12434210526316
1 3.7144736842105273
40 5.810526315789473
24 13.52565789473684
37 15.901973684210537
7 30.982894736842102
30 2.1750000000000007
