Message stats for scenario HC_1
sim_time: 274883.0000
created: 3892
started: 83554
relayed: 78360
aborted: 5194
dropped: 66599
removed: 0
delivered: 3214
delivery_prob: 0.8258
response_prob: 0.0000
overhead_ratio: 23.3808
latency_avg: 27828.5261
latency_med: 23403.0000
hopcount_avg: 2.1490
hopcount_med: 2
buffertime_avg: 56252.4223
buffertime_med: 62520.0000
rtt_avg: NaN
rtt_med: NaN
TotalCopy: 75146
