25	1960
19	1147
13	1453
32	1291
8	2338
22	2209
11	15
37	1165
7	2676
34	1532
28	2092
6	1942
23	2197
16	2987
20	2036
35	1422
1	322
31	2451
21	2557
4	3304
17	727
15	2702
39	2281
10	2209
26	1734
5	1961
38	2503
14	1006
18	1710
24	1703
33	3216
2	2455
12	886
3	2493
40	353
9	2718
27	1210
0	1873
29	1755
36	2555
