Node	Value
25	27
19	11
13	25
8	86
32	34
22	106
11	4
37	17
7	121
34	31
28	97
6	185
23	93
16	110
20	42
35	31
1	12
31	107
17	8
4	367
21	212
15	102
39	143
10	38
26	36
5	53
38	135
14	32
18	97
24	58
33	160
12	52
2	69
3	167
40	34
9	105
27	19
0	36
29	39
36	113
