A25	0.6079616206316347 
A19	0.5518077246909433 
A13	0.5626872177656228 
A32	0.5330334872355115 
A8	0.5424769525471601 
A22	0.5737696958829217 
A11	0.2830237189400385 
A37	0.5823900429969303 
A7	0.5513652562863929 
A34	0.568759780412453 
A28	0.5735092871942484 
A6	0.5721336757177983 
A23	0.5674474126810867 
A16	0.5394858914631658 
A20	0.6154892812308967 
A35	0.5372636483094363 
A1	0.5584383164666988 
A31	0.48311949374418817 
A17	0.5466726335453232 
A21	0.5466501773836581 
A4	0.5685405572665937 
A15	0.5491003037047668 
A39	0.5407834729546283 
A10	0.5584123024183075 
A26	0.585914758401987 
A30	0.18125502911114325 
A5	0.5835978003335248 
A38	0.5573900161800865 
A14	0.5924764049618818 
A18	0.5718630883599065 
A24	0.5149400206383254 
A33	0.6124593156000648 
A2	0.558072367265948 
A12	0.6021284287445108 
A3	0.5297881627968627 
A40	0.4863712929629232 
A9	0.542087168951756 
A27	0.4978106741526573 
A0	0.542670746592051 
A36	0.5542326407266787 
A29	0.5798317007289002 
