NrofTotalCopy/Contact
64000 8935
42500 6257
21000 5201
85000 9269
63500 8926
42000 6235
106000 11442
20500 4726
84500 9243
63000 8906
41500 6128
105500 11274
20000 3839
84000 9243
62500 8901
41000 6116
105000 11269
19500 3758
83500 9243
62000 8699
40500 6116
104500 11251
19000 3754
83000 9243
61500 8511
40000 6104
104000 11251
18500 3745
82500 9243
61000 8503
39500 6104
103500 11235
18000 3743
82000 9243
60500 8381
39000 6084
103000 11107
17500 3739
81500 9226
60000 8324
38500 6084
102500 11106
17000 3497
81000 9178
59500 8309
38000 6084
102000 10896
16500 3085
80500 9178
59000 8144
37500 6023
101500 10769
16000 3066
80000 9164
58500 7987
37000 5966
101000 10643
15500 3066
79500 9164
58000 7931
36500 5964
100500 10523
15000 3066
79000 9164
57500 7560
36000 5888
100000 10523
14500 2966
78500 9164
57000 7363
35500 5741
99500 10523
14000 2966
78000 9154
56500 7324
35000 5741
99000 10523
13500 2966
77500 9154
56000 7315
34500 5741
98500 10513
13000 2966
77000 9154
55500 7315
34000 5741
98000 10513
12500 2746
76500 9154
55000 7263
33500 5706
97500 10507
12000 2684
76000 9134
54500 7196
33000 5682
97000 10460
11500 2683
75500 9102
54000 7196
32500 5645
96500 10457
11000 2682
75000 9096
53500 7185
32000 5641
96000 10455
10500 2366
74500 9096
53000 7088
31500 5635
95500 10455
10000 1741
74000 9080
52500 6942
31000 5635
95000 10379
9500 1255
73500 9075
52000 6896
30500 5635
94500 10361
9000 1149
73000 9068
51500 6850
30000 5635
94000 10361
8500 867
72500 9045
51000 6844
29500 5480
93500 10054
8000 660
72000 9040
50500 6757
29000 5349
93000 9922
7500 544
71500 9040
50000 6740
28500 5348
92500 9748
7000 275
71000 9040
49500 6735
28000 5348
92000 9688
6500 118
70500 9040
49000 6732
27500 5323
91500 9675
6000 31
70000 9040
48500 6732
27000 5283
91000 9590
5500 21
69500 9040
48000 6732
26500 5213
90500 9584
5000 10
69000 9036
47500 6684
26000 5202
90000 9584
4500 9
68500 9034
47000 6683
25500 5201
89500 9573
4000 9
68000 9034
46500 6679
25000 5201
89000 9543
3500 8
67500 9033
46000 6664
24500 5201
88500 9520
3000 2
67000 8995
45500 6590
24000 5201
88000 9517
2500 2
66500 8995
45000 6560
23500 5201
87500 9515
2000 2
66000 8995
44500 6560
23000 5201
87000 9317
1500 2
65500 8995
44000 6560
22500 5201
86500 9279
1000 2
65000 8995
43500 6484
22000 5201
86000 9279
500 2
64500 8974
43000 6379
21500 5201
85500 9269

