Message stats for scenario SimBetHaggleInfocom_#SA_0.6
sim_time: 274883.0000
created: 3892
started: 93393
relayed: 88265
aborted: 5128
dropped: 89576
removed: 0
delivered: 2578
delivery_prob: 0.6624
response_prob: 0.0000
overhead_ratio: 33.2378
latency_avg: 16690.9961
latency_med: 14823.0000
hopcount_avg: 2.9950
hopcount_med: 3
buffertime_avg: 26330.1764
buffertime_med: 28326.0000
rtt_avg: NaN
rtt_med: NaN
