Message Drop for scenario SimBetHaggleInfocom_#SA_0.1
sim_time: 274883.0000

38	2674
40	919
9	2741
2	2693
27	1560
29	2257
36	2705
33	2625
35	1546
7	2740
30	92
32	2382
18	2120
25	2365
12	1225
0	2389
1	1809
10	2281
17	1454
31	2647
14	1710
37	1481
5	2225
16	2671
4	2597
39	2632
8	2531
26	2444
21	2759
22	2543
6	2150
11	143
3	2396
28	2570
13	2174
34	2451
19	2558
24	2491
20	1989
23	2678
15	2567

