A38 0.606962637568498 
A40 0.6058239117976166 
A9 0.5281419600885044 
A2 0.5477787369454179 
A27 0.49219613792130334 
A29 0.5315620430599406 
A36 0.560703223904104 
A33 0.6625831427501518 
A35 0.5386801436938972 
A7 0.5970936283363495 
A30 0.0 
A32 0.47246651048902105 
A18 0.4796891936623006 
A25 0.5390862618930735 
A12 0.44392343114181393 
A0 0.5004558467431461 
A1 0.4859546187549884 
A10 0.45404117648340714 
A17 0.5267230229452755 
A31 0.4771691325559183 
A14 0.5293704645441111 
A37 0.5762626057609863 
A5 0.5477342973414475 
A16 0.5550814907074151 
A4 0.6961593191858414 
A39 0.4506029497221315 
A8 0.5696393670029277 
A26 0.5088773433083882 
A21 0.5242208407939082 
A22 0.5479998458736899 
A6 0.6814094948311787 
A11 0.38049869350219984 
A3 0.577077953967423 
A28 0.5646474117172948 
A13 0.5208497205191226 
A34 0.5840871937546246 
A19 0.5476828032231286 
A24 0.379629210334714 
A23 0.5034386709440146 
A20 0.6556681987905609 
A15 0.5094293951051739 
