Node 22		0.6	0.8999999999999999	0.8999999999999999	1.2	1.35	1.5	1.95	2.1	2.25	4.8	5.55	6.0	5.8500000000000005	5.55	5.7	5.7	6.0	6.0	5.4	33.75	62.25000000000001	89.55	86.85000000000001	94.8	89.25	83.25	89.4	82.5	74.55000000000001	92.55	88.35	84.6	77.10000000000001	69.0	61.050000000000004	55.35	48.15	40.949999999999996	33.6	26.400000000000002	19.5	12.75	7.199999999999999	52.349999999999994	52.349999999999994	64.64999999999999	75.9	77.85	84.6	83.1	79.2	73.05	65.4	60.75000000000001	53.400000000000006	46.2	39.6	33.6	26.25	19.950000000000003	13.8	10.95	8.55	7.199999999999999	6.15	5.25	4.5	23.7	39.75	34.050000000000004	27.150000000000002	20.7	14.249999999999998	8.7	2.25
Node 12		0.0	0.3	0.8999999999999999	1.05	1.5	1.5	1.7999999999999998	2.1	2.1	2.25	2.55	2.55	2.7	2.7	2.1	2.25	2.1	2.25	1.95	49.05	79.35	83.55	84.89999999999999	85.65	90.0	81.89999999999999	73.65	65.7	57.599999999999994	91.35	87.15	79.35	72.0	63.9	55.800000000000004	48.449999999999996	41.25	34.2	26.700000000000003	19.650000000000002	12.9	6.6000000000000005	4.05	9.3	7.95	7.199999999999999	6.75	6.15	5.25	4.65	3.75	3.75	3.45	2.85	2.7	2.85	2.55	2.4	2.55	2.4	2.55	2.4	2.55	2.4	2.25	1.95	1.6500000000000001	32.7	36.9	36.6	32.7	27.150000000000002	20.25	11.700000000000001	3.0
Node 40		0.0	0.0	0.0	0.0	9.0	42.9	49.2	50.24999999999999	50.4	50.4	50.4	43.5	36.3	29.549999999999997	23.1	16.2	9.6	3.5999999999999996	1.05	0.15	0.0	0.0	0.0	0.0	0.0	0.0	0.0	0.0	0.0	0.0	0.0	0.0	0.0	0.0	0.0	0.0	0.0	0.0	0.0	0.0	0.0	0.0	0.0	0.0	0.0	0.0	77.55	79.80000000000001	71.7	64.95	69.15	72.45	68.10000000000001	60.0	51.9	44.1	36.9	30.45	22.8	16.35	9.6	3.9	1.35	0.0	0.0	0.0	0.0	24.15	21.3	18.75	14.7	10.95	7.049999999999999	4.2	1.05
Node 3		0.44999999999999996	0.44999999999999996	0.75	0.8999999999999999	1.05	43.5	46.949999999999996	47.099999999999994	47.099999999999994	47.4	47.699999999999996	41.25	34.35	27.900000000000002	21.6	15.0	8.7	3.75	1.95	2.25	2.85	2.85	2.7	95.7	92.4	87.3	89.1	81.15	73.05	91.95	89.1	82.8	75.0	66.75	58.5	50.1	42.3	34.8	27.750000000000004	20.4	13.65	6.9	2.1	1.6500000000000001	1.95	42.449999999999996	75.3	78.45	84.6	81.0	79.05	71.39999999999999	67.95	60.150000000000006	52.65	45.0	37.95	31.5	24.15	17.849999999999998	11.55	6.15	3.9	2.25	1.7999999999999998	1.7999999999999998	1.35	29.099999999999998	38.7	33.45	26.700000000000003	20.25	13.8	8.55	2.25
Node 0		0.3	0.75	0.8999999999999999	1.05	3.3000000000000003	37.95	47.55	48.449999999999996	50.24999999999999	50.7	51.6	45.9	39.75	33.300000000000004	27.150000000000002	21.0	15.0	9.15	6.75	43.5	81.3	88.2	82.05	94.8	89.4	85.95	79.35	81.45	82.19999999999999	75.9	68.25	82.35	74.55000000000001	66.45	58.199999999999996	58.199999999999996	50.849999999999994	43.35	35.699999999999996	28.95	22.8	15.6	10.2	31.5	51.449999999999996	46.35	41.099999999999994	61.95	73.65	81.3	73.8	71.1	63.6	55.800000000000004	48.0	40.5	33.75	27.750000000000004	20.1	14.549999999999999	8.4	3.5999999999999996	2.4	2.25	2.1	2.1	1.95	1.6500000000000001	36.449999999999996	31.2	24.45	20.7	18.0	11.25	2.7
Node 1		0.6	0.8999999999999999	1.05	1.05	1.5	1.6500000000000001	1.6500000000000001	1.6500000000000001	1.7999999999999998	2.1	2.25	2.25	2.55	2.55	2.7	3.0	2.85	3.0	3.45	3.45	43.35	85.95	82.95	89.1	89.4	81.75	73.8	81.0	73.05	90.9	87.45	81.45	73.95	65.7	57.599999999999994	49.65	42.449999999999996	35.25	27.750000000000004	20.549999999999997	14.099999999999998	7.8	3.15	2.25	2.4	2.55	2.7	63.6	72.0	84.0	79.65	75.0	67.80000000000001	60.9	54.0	46.800000000000004	40.050000000000004	34.050000000000004	26.55	20.4	13.8	8.4	6.15	4.65	3.75	3.0	2.25	5.25	36.3	31.05	24.45	18.3	12.3	7.5	1.7999999999999998
Node 16		0.3	0.44999999999999996	0.44999999999999996	0.6	0.75	41.85	42.0	42.3	42.449999999999996	42.75	43.05	37.35	30.75	24.75	19.05	12.75	6.6000000000000005	2.1	2.1	63.14999999999999	80.25	88.2	81.0	94.65	87.75	85.05	77.25	81.89999999999999	73.95	91.5	89.25	84.3	77.85	69.45	61.5	53.1	45.6	38.1	30.45	23.25	16.35	9.45	4.2	54.15	53.7	66.45	74.85000000000001	79.35	76.05	82.19999999999999	77.55	69.75	67.35	60.45	52.800000000000004	45.45	39.0	32.7	25.2	18.75	12.0	6.3	3.9	2.25	2.1	1.95	11.1	35.85	41.25	35.699999999999996	32.550000000000004	27.0	19.950000000000003	11.25	2.85
Node 35		0.6	0.6	0.75	1.05	3.75	43.05	46.5	49.95	50.849999999999994	51.300000000000004	52.2	46.2	39.300000000000004	32.85	27.150000000000002	20.549999999999997	14.249999999999998	8.55	5.7	50.849999999999994	81.6	84.6	82.35	90.45	90.3	88.2	88.8	81.6	80.7	91.95	88.05	80.4	72.45	64.64999999999999	56.55	48.3	40.65	33.45	26.25	19.2	12.6	6.45	3.45	3.5999999999999996	3.5999999999999996	3.5999999999999996	3.5999999999999996	3.45	3.45	3.0	2.7	2.7	2.55	2.1	2.1	1.95	2.1	1.7999999999999998	1.7999999999999998	1.6500000000000001	1.6500000000000001	1.7999999999999998	1.7999999999999998	1.6500000000000001	1.5	1.35	1.05	0.8999999999999999	0.75	0.75	0.75	0.75	0.44999999999999996	0.3	0.0
Node 32		0.6	0.8999999999999999	0.8999999999999999	1.2	6.45	34.8	41.85	42.3	42.75	43.05	43.5	38.25	31.35	25.5	19.8	13.65	8.25	3.75	4.05	28.050000000000004	80.4	88.64999999999999	82.95	92.10000000000001	90.75	85.35000000000001	80.4	72.89999999999999	64.8	90.75	86.4	78.45	70.95	63.449999999999996	55.50000000000001	48.0	40.2	32.85	25.95	19.2	12.9	6.15	3.75	10.05	51.449999999999996	48.3	75.75	77.7	84.89999999999999	81.0	73.8	65.85	58.050000000000004	50.4	42.9	45.0	38.1	31.65	24.45	18.15	11.55	6.15	3.75	2.1	1.95	1.6500000000000001	8.25	32.1	37.95	32.4	25.95	19.650000000000002	13.5	7.95	1.95
Node 15		0.3	0.6	0.75	0.8999999999999999	1.5	41.699999999999996	41.85	42.0	42.15	42.3	42.449999999999996	36.3	29.849999999999998	24.75	19.2	12.75	6.9	2.4	2.7	3.9	80.25	79.95	85.05	94.65	91.35	83.1	88.5	80.85	83.1	91.2	87.75	81.45	74.1	65.7	57.9	49.8	42.3	35.099999999999994	27.900000000000002	20.849999999999998	14.399999999999999	7.95	3.15	3.15	54.75	64.2	74.4	78.9	76.35	81.3	75.9	67.80000000000001	60.150000000000006	52.800000000000004	44.85	37.65	31.2	24.75	18.0	12.75	7.049999999999999	3.3000000000000003	3.15	3.15	2.85	2.4	2.25	30.15	39.6	33.900000000000006	33.45	25.8	18.75	11.700000000000001	3.0
Node 23		0.75	0.75	0.75	0.8999999999999999	1.2	35.85	35.85	36.75	36.9	36.9	37.05	31.65	39.75	33.45	27.450000000000003	21.3	15.299999999999999	10.35	7.8	47.099999999999994	79.80000000000001	88.64999999999999	88.05	95.7	89.4	81.45	73.2	84.15	84.45	91.5	88.35	86.1	81.6	75.0	67.65	59.25	51.9	43.8	36.3	28.95	22.05	14.7	23.1	51.74999999999999	58.8	67.65	77.4	71.25	64.2	57.9	80.85	73.5	65.85	58.050000000000004	50.1	42.6	36.6	31.95	24.6	18.45	12.0	6.0	4.2	4.65	4.2	4.2	4.05	25.650000000000002	39.75	38.85	33.0	25.5	18.45	10.8	2.7
Node 24		0.15	0.44999999999999996	0.75	1.2	8.85	43.5	47.099999999999994	47.099999999999994	47.25	47.25	47.4	40.8	34.2	27.450000000000003	21.75	15.6	9.6	3.9	2.1	2.25	2.4	60.6	87.6	89.1	80.55	73.05	65.10000000000001	57.75	49.8	42.6	36.0	84.45	79.95	73.2	66.0	57.75	50.24999999999999	42.15	35.099999999999994	28.050000000000004	21.45	14.399999999999999	9.0	51.74999999999999	51.449999999999996	46.35	41.4	79.2	78.75	82.5	79.2	74.85000000000001	66.75	58.95	51.15	44.1	37.05	30.75	23.549999999999997	17.25	11.1	5.4	3.15	1.95	1.7999999999999998	1.5	3.75	4.95	35.699999999999996	34.050000000000004	33.0	26.400000000000002	19.2	11.85	3.0
Node 28		0.3	0.3	0.6	0.8999999999999999	3.0	35.55	35.699999999999996	37.2	51.449999999999996	51.74999999999999	52.800000000000004	46.35	40.050000000000004	33.45	27.150000000000002	20.7	14.549999999999999	8.85	12.75	52.949999999999996	81.45	77.55	70.35	93.89999999999999	90.60000000000001	85.8	78.3	71.55	82.95	91.8	88.64999999999999	83.55	80.7	74.1	66.3	58.5	51.15	43.2	35.55	29.25	22.650000000000002	15.45	9.9	7.049999999999999	6.15	55.35	75.9	74.25	66.60000000000001	83.55	79.5	71.39999999999999	63.3	55.95	48.449999999999996	41.099999999999994	34.050000000000004	29.849999999999998	22.35	16.8	11.1	6.3	5.1	4.8	4.5	7.199999999999999	13.950000000000001	32.25	38.7	33.15	26.25	19.950000000000003	13.8	8.55	2.25
Node 6		0.3	0.75	0.8999999999999999	1.05	2.25	42.9	43.2	43.8	45.75	45.9	46.5	40.5	33.45	27.3	21.6	15.6	9.6	4.35	13.350000000000001	64.64999999999999	81.15	88.2	87.3	95.1	92.25	85.95	89.1	85.05	77.55	70.19999999999999	63.14999999999999	55.800000000000004	48.449999999999996	40.35	32.85	24.75	17.25	11.25	6.3	5.8500000000000005	6.15	6.75	6.45	6.15	5.8500000000000005	5.25	4.5	4.8	4.5	4.65	4.65	66.45	58.8	51.300000000000004	44.4	37.5	30.75	24.6	17.7	12.0	7.049999999999999	4.8	4.8	4.35	3.5999999999999996	7.049999999999999	8.25	31.65	38.85	33.15	26.400000000000002	20.1	14.099999999999998	8.55	2.1
Node 25		0.0	0.3	0.3	0.75	1.05	42.9	42.9	43.05	43.35	43.8	44.1	38.4	31.95	25.95	20.7	14.249999999999998	8.1	3.3000000000000003	3.3000000000000003	41.85	77.85	87.75	81.45	93.60000000000001	85.35000000000001	77.25	69.6	61.8	83.25	89.25	88.5	83.55	76.05	68.4	60.6	52.349999999999994	44.55	37.2	29.849999999999998	22.8	16.35	9.3	4.65	3.9	34.65	64.5	76.95	79.65	77.10000000000001	81.45	73.95	66.14999999999999	58.199999999999996	50.4	42.449999999999996	35.099999999999994	28.199999999999996	22.2	15.299999999999999	10.2	4.95	3.15	3.15	2.85	2.7	2.55	2.4	2.1	1.7999999999999998	2.1	1.7999999999999998	1.5	20.549999999999997	11.700000000000001	3.0
Node 27		0.44999999999999996	0.75	0.8999999999999999	1.2	3.75	42.75	46.050000000000004	49.8	49.95	50.1	50.4	44.1	37.5	31.05	25.05	19.2	13.200000000000001	7.049999999999999	3.75	44.7	78.45	88.8	81.15	95.85000000000001	91.35	83.25	87.9	82.65	74.4	92.25	88.64999999999999	82.65	75.14999999999999	66.9	59.25	51.15	43.65	36.0	28.95	22.05	15.299999999999999	8.85	4.5	3.9	3.5999999999999996	3.45	2.85	2.85	2.55	2.7	2.4	2.7	2.7	2.55	2.1	2.4	2.85	2.85	3.15	2.85	3.15	3.0	3.0	2.55	2.4	2.4	2.25	1.7999999999999998	1.35	1.2	0.8999999999999999	0.75	17.849999999999998	10.8	2.85
Node 29		0.75	1.2	1.95	1.95	2.1	43.65	45.6	45.75	46.2	48.9	49.2	42.75	36.6	30.3	24.6	18.0	12.15	6.75	5.4	41.699999999999996	77.85	81.15	82.65	90.60000000000001	88.94999999999999	81.15	89.4	85.8	80.25	91.64999999999999	87.45	82.95	75.14999999999999	73.5	65.10000000000001	56.699999999999996	50.1	42.75	35.85	28.349999999999998	22.05	14.85	9.9	6.15	4.65	4.05	74.7	73.5	66.0	58.95	52.2	45.0	65.55	57.9	50.24999999999999	43.95	37.05	31.8	25.05	19.650000000000002	13.5	8.4	6.15	4.65	4.35	4.2	3.75	2.85	35.699999999999996	30.599999999999998	24.15	17.849999999999998	19.650000000000002	11.25	3.0
Node 2		0.0	0.44999999999999996	0.6	0.75	1.2	43.2	43.95	44.25	44.55	44.7	44.7	38.4	32.1	25.8	19.950000000000003	14.249999999999998	8.4	9.15	6.9	27.0	81.3	88.05	85.05	94.95	89.25	84.0	78.9	76.64999999999999	68.25	91.05	87.75	80.25	72.45	64.35	56.699999999999996	48.3	41.25	33.75	26.55	19.35	12.75	5.8500000000000005	13.65	52.349999999999994	52.800000000000004	57.599999999999994	69.6	78.45	85.65	82.95	79.95	74.7	69.3	62.4	54.6	47.4	40.8	34.8	27.150000000000002	21.0	14.399999999999999	8.1	5.1	2.85	1.6500000000000001	1.35	1.2	24.0	39.6	33.75	28.199999999999996	21.45	19.950000000000003	11.700000000000001	3.0
Node 30		0.75	0.8999999999999999	1.05	1.6500000000000001	1.95	2.4	2.4	2.55	2.85	3.0	3.3000000000000003	2.85	2.85	3.15	3.3000000000000003	3.0	2.85	2.55	3.0	3.0	2.85	3.0	3.0	3.0	3.0	2.7	2.7	2.85	3.0	3.0	3.0	3.15	3.0	2.7	2.4	2.4	2.4	2.25	2.25	2.1	2.25	2.25	2.1	1.95	2.1	2.1	2.25	2.1	1.95	1.95	1.95	1.7999999999999998	1.35	1.5	1.5	1.6500000000000001	1.7999999999999998	1.7999999999999998	1.95	1.95	2.25	2.4	2.4	2.4	2.4	2.1	1.7999999999999998	1.5	1.2	1.2	0.8999999999999999	0.8999999999999999	0.6	0.3	0.0
Node 7		0.3	0.6	0.6	0.8999999999999999	6.0	42.3	47.699999999999996	47.85	48.6	48.75	48.75	42.15	35.099999999999994	28.95	23.1	16.650000000000002	11.4	5.8500000000000005	3.75	69.6	82.65	90.0	84.45	96.45	92.4	85.95	90.60000000000001	85.2	80.4	92.25	89.1	86.1	78.3	69.89999999999999	61.8	53.55	45.9	37.95	31.05	23.849999999999998	16.950000000000003	10.35	4.8	56.10000000000001	51.449999999999996	46.949999999999996	41.55	36.6	85.65	83.85000000000001	79.95	75.44999999999999	67.95	60.3	52.349999999999994	45.0	38.1	31.5	24.3	18.15	12.3	7.199999999999999	4.8	3.5999999999999996	3.3000000000000003	3.0	11.85	26.55	40.050000000000004	36.6	29.099999999999998	22.05	16.8	11.55	2.7
Node 13		0.3	0.3	0.44999999999999996	0.8999999999999999	4.5	35.699999999999996	36.0	36.0	36.3	36.449999999999996	36.6	31.2	25.8	20.25	14.85	9.3	3.5999999999999996	2.1	2.1	7.35	78.45	88.64999999999999	84.3	94.8	90.3	86.55000000000001	89.4	82.65	80.25	89.55	87.6	83.1	75.3	66.9	58.95	50.7	43.05	35.85	28.349999999999998	21.45	14.85	8.55	3.3000000000000003	29.099999999999998	51.74999999999999	55.800000000000004	75.9	71.1	63.74999999999999	57.15	50.55	72.0	64.05	56.55	48.9	41.55	34.5	28.799999999999997	21.6	15.299999999999999	9.15	4.2	2.85	2.55	2.4	2.1	1.7999999999999998	1.6500000000000001	39.300000000000004	33.6	26.700000000000003	20.4	14.099999999999998	8.55	1.95
Node 20		0.6	0.75	0.8999999999999999	1.05	1.2	43.2	43.8	43.8	45.0	45.45	45.6	39.300000000000004	32.25	35.55	29.099999999999998	22.95	16.950000000000003	10.65	6.75	5.8500000000000005	4.95	4.2	3.45	3.15	3.15	3.3000000000000003	2.7	2.4	2.55	2.1	2.1	1.95	1.95	1.7999999999999998	2.1	59.25	52.349999999999994	44.7	37.05	29.549999999999997	23.1	15.9	9.9	6.9	62.7	63.9	75.6	78.75	73.35000000000001	83.85000000000001	79.65	75.3	67.35	59.550000000000004	52.05	44.85	38.25	32.1	25.35	19.05	16.650000000000002	11.700000000000001	10.05	8.85	8.1	6.9	5.7	4.95	40.65	34.5	33.0	27.150000000000002	19.8	11.700000000000001	3.0
Node 4		0.15	0.15	0.75	0.75	1.35	43.05	43.05	43.05	43.2	43.35	43.8	37.95	31.35	25.35	19.2	13.200000000000001	7.199999999999999	3.0	6.9	80.10000000000001	79.80000000000001	89.1	90.14999999999999	99.75	93.60000000000001	85.5	77.85	88.35	79.80000000000001	90.60000000000001	82.8	74.1	65.85	57.599999999999994	49.35	41.25	33.6	26.400000000000002	18.6	11.700000000000001	5.25	2.25	2.25	56.699999999999996	69.6	73.5	76.5	81.15	78.9	85.35000000000001	83.55	75.6	68.25	60.45	52.5	44.55	37.5	31.05	23.849999999999998	17.849999999999998	11.4	4.8	3.15	2.7	2.1	1.95	1.7999999999999998	1.6500000000000001	1.6500000000000001	1.5	1.05	27.150000000000002	20.1	11.700000000000001	3.0
Node 10		0.15	0.3	0.8999999999999999	0.8999999999999999	1.5	43.65	46.650000000000006	50.24999999999999	50.55	50.7	51.0	44.25	37.5	30.9	24.6	18.0	11.85	5.8500000000000005	2.7	2.1	1.95	2.25	81.3	76.95	91.64999999999999	84.45	83.39999999999999	83.7	82.95	90.45	86.7	85.05	77.4	69.0	61.050000000000004	52.949999999999996	45.300000000000004	37.65	30.3	22.95	16.35	9.45	4.2	2.1	2.1	2.25	2.25	2.55	85.05	81.3	76.5	72.0	67.5	59.85	52.5	45.300000000000004	38.4	32.85	25.5	19.650000000000002	13.5	8.85	5.55	4.35	4.05	3.75	3.15	2.7	2.4	2.55	32.7	25.35	18.15	11.1	2.7
Node 39		0.15	0.6	0.8999999999999999	1.6500000000000001	3.5999999999999996	42.9	46.050000000000004	46.2	46.2	46.949999999999996	47.25	41.099999999999994	34.65	28.349999999999998	22.5	16.5	10.35	5.25	6.9	68.10000000000001	82.8	88.35	81.6	95.25	90.0	89.25	84.45	77.7	69.6	90.60000000000001	84.45	77.55	69.6	61.35	53.400000000000006	45.15	37.65	30.3	22.95	15.9	9.45	3.3000000000000003	3.15	52.05	58.35	63.449999999999996	75.14999999999999	78.45	71.25	81.75	76.95	70.95	62.849999999999994	55.2	47.699999999999996	40.35	33.300000000000004	27.3	20.549999999999997	14.85	8.85	4.05	2.55	2.1	2.1	1.7999999999999998	9.15	23.400000000000002	38.550000000000004	38.1	33.900000000000006	27.0	20.1	11.4	3.0
Node 19		0.3	0.75	1.2	1.5	2.1	42.3	43.5	44.25	44.55	45.0	45.45	48.9	41.85	35.699999999999996	29.7	23.400000000000002	17.549999999999997	12.15	9.0	37.5	79.5	80.10000000000001	81.3	90.0	89.85	82.5	80.10000000000001	72.45	64.5	56.99999999999999	85.05	76.8	69.75	61.650000000000006	54.0	46.650000000000006	39.15	31.95	25.2	18.75	12.6	6.15	3.75	19.05	19.2	63.0	75.0	78.14999999999999	73.65	81.15	75.14999999999999	70.8	63.6	55.95	48.9	45.45	38.85	32.85	25.650000000000002	19.650000000000002	13.350000000000001	8.4	5.8500000000000005	4.2	3.45	3.15	6.3	6.75	39.75	33.900000000000006	30.75	23.7	17.1	10.2	2.55
Node 34		0.6	0.6	0.75	1.2	4.8	43.2	46.800000000000004	47.699999999999996	48.15	48.449999999999996	49.2	43.05	36.0	29.7	23.549999999999997	17.25	11.1	5.8500000000000005	4.35	50.849999999999994	77.85	83.1	84.6	93.75	90.45	84.6	83.85000000000001	81.45	82.65	90.75	86.25	78.3	70.5	62.55	54.300000000000004	46.2	38.7	31.2	24.15	17.25	11.1	4.5	2.25	2.25	34.2	56.25	74.7	78.60000000000001	72.15	80.4	75.3	68.55	62.7	54.900000000000006	47.699999999999996	40.2	33.6	27.450000000000003	20.1	13.950000000000001	7.95	3.3000000000000003	2.4	2.25	2.25	2.1	1.7999999999999998	1.7999999999999998	1.5	1.35	28.349999999999998	25.5	18.3	11.55	3.0
Node 14		0.75	1.2	1.35	1.6500000000000001	2.1	2.4	2.7	3.15	3.5999999999999996	4.5	4.65	4.5	4.35	4.2	3.9	3.3000000000000003	3.15	3.0	3.0	57.15	82.35	88.35	86.25	94.65	89.7	85.65	87.75	80.4	72.3	65.4	58.35	50.4	76.2	68.4	60.9	52.5	45.0	38.7	31.95	24.9	18.75	11.25	6.3	5.4	5.25	63.9	78.14999999999999	74.85000000000001	84.6	81.45	76.5	73.65	65.85	58.35	50.849999999999994	43.5	36.9	30.9	23.549999999999997	17.4	10.8	5.8500000000000005	3.75	3.0	2.7	2.25	2.1	1.7999999999999998	1.35	1.05	0.8999999999999999	0.75	0.6	0.3	0.0
Node 9		0.75	0.75	1.05	1.05	4.8	43.35	46.5	47.55	48.0	48.3	48.9	42.9	36.449999999999996	30.3	24.0	17.4	11.4	9.15	6.9	48.9	65.25	82.95	84.0	90.60000000000001	89.55	86.25	88.64999999999999	82.8	75.6	92.25	89.85	86.4	78.60000000000001	70.5	62.55	54.15	46.5	38.4	31.05	23.400000000000002	16.950000000000003	10.05	6.45	52.2	58.95	64.5	68.25	74.4	84.6	81.89999999999999	79.05	73.35000000000001	65.25	57.3	49.5	42.0	35.25	29.099999999999998	22.2	16.950000000000003	10.95	6.15	4.05	3.3000000000000003	3.15	3.0	2.85	20.1	38.85	33.300000000000004	28.499999999999996	27.0	20.25	11.700000000000001	3.0
Node 8		0.44999999999999996	0.75	1.05	1.05	1.95	39.900000000000006	40.5	41.099999999999994	41.85	42.15	42.3	36.3	32.7	26.85	20.549999999999997	14.7	8.7	5.8500000000000005	5.4	64.35	81.6	89.4	88.2	91.64999999999999	91.35	85.2	77.25	69.6	83.39999999999999	85.8	88.2	83.85000000000001	76.5	67.95	59.699999999999996	51.6	44.7	37.2	29.4	22.35	15.6	9.6	4.2	2.4	2.1	66.45	70.19999999999999	64.05	73.2	79.2	72.0	71.1	63.3	55.800000000000004	48.15	40.949999999999996	34.2	28.349999999999998	28.499999999999996	22.2	15.9	10.65	8.85	7.95	7.35	6.45	5.7	4.95	30.45	37.5	30.599999999999998	23.849999999999998	17.1	10.35	2.55
Node 26		0.75	0.8999999999999999	1.05	1.5	5.25	43.05	46.35	46.5	46.800000000000004	48.6	48.75	42.75	36.0	30.15	24.45	18.3	12.3	6.75	5.1	44.25	65.7	88.35	80.85	93.89999999999999	90.60000000000001	86.4	88.2	81.75	73.65	91.05	87.6	81.89999999999999	74.4	66.0	58.35	50.55	50.55	43.05	36.15	28.799999999999997	22.2	15.0	9.75	19.05	53.400000000000006	56.99999999999999	74.1	73.35000000000001	70.95	80.25	78.0	71.25	66.60000000000001	59.099999999999994	51.74999999999999	44.55	37.5	32.1	25.5	19.950000000000003	13.5	8.1	5.8500000000000005	4.5	4.2	4.05	13.8	31.35	38.85	33.15	26.400000000000002	20.849999999999998	18.3	11.700000000000001	3.0
Node 36		0.44999999999999996	0.44999999999999996	0.8999999999999999	1.05	1.2	41.4	43.35	49.05	49.8	50.24999999999999	51.300000000000004	46.949999999999996	40.65	34.8	30.15	23.849999999999998	18.45	13.5	10.2	16.2	78.3	83.39999999999999	83.39999999999999	83.39999999999999	89.7	81.75	88.64999999999999	82.35	80.55	91.35	88.64999999999999	83.1	75.0	66.75	60.3	52.65	45.45	38.550000000000004	31.5	24.9	18.75	12.15	7.199999999999999	26.55	63.14999999999999	64.2	76.35	79.05	78.75	81.75	78.75	71.1	64.05	58.8	51.0	43.8	36.75	30.599999999999998	23.400000000000002	17.849999999999998	11.25	6.9	4.65	7.049999999999999	6.15	5.7	8.7	24.45	39.45	38.550000000000004	33.900000000000006	26.25	20.1	11.700000000000001	3.0
Node 17		0.8999999999999999	1.2	1.2	1.5	1.95	43.35	44.1	44.55	46.35	46.5	47.099999999999994	40.8	34.35	28.050000000000004	22.35	15.9	9.6	4.2	3.5999999999999996	3.15	3.45	3.45	3.15	2.85	3.15	2.55	2.4	30.599999999999998	75.44999999999999	68.25	61.199999999999996	54.15	46.800000000000004	39.0	31.8	23.849999999999998	16.650000000000002	11.1	6.3	5.8500000000000005	6.15	6.75	6.45	19.2	16.5	60.75000000000001	75.6	79.65	84.89999999999999	80.25	74.25	68.4	60.6	52.949999999999996	45.75	38.550000000000004	31.65	25.5	18.3	12.45	7.049999999999999	4.65	4.65	4.2	3.5999999999999996	5.4	13.65	31.65	38.85	33.900000000000006	32.7	25.35	18.3	11.4	2.85
Node 31		0.75	0.8999999999999999	0.8999999999999999	1.05	1.95	43.65	46.650000000000006	50.7	51.15	51.74999999999999	52.05	45.75	38.85	32.1	26.25	19.8	13.65	7.5	4.35	3.3000000000000003	2.85	69.6	85.35000000000001	95.25	90.60000000000001	85.65	89.1	82.8	74.85000000000001	90.9	87.75	84.6	76.95	69.0	61.050000000000004	53.400000000000006	45.9	38.7	31.2	24.15	17.549999999999997	11.1	7.049999999999999	8.55	8.7	8.55	73.05	80.85	84.3	81.6	79.65	75.44999999999999	67.95	60.6	56.10000000000001	48.75	42.3	36.0	28.65	22.8	15.75	10.05	7.199999999999999	5.4	4.05	2.7	15.45	33.75	39.0	33.6	32.85	25.5	19.05	11.55	3.0
Node 33		0.75	1.05	1.05	1.05	1.35	41.099999999999994	48.0	48.9	49.2	49.2	49.35	42.75	35.85	29.4	23.7	17.4	11.25	5.4	3.0	2.1	7.5	84.45	82.95	93.89999999999999	90.45	86.55000000000001	88.64999999999999	84.89999999999999	82.95	91.05	88.35	83.39999999999999	75.9	67.80000000000001	60.0	51.6	44.25	36.9	29.25	22.05	15.45	9.0	3.9	2.4	39.300000000000004	58.050000000000004	75.9	79.2	84.6	80.4	79.2	74.25	67.2	59.25	51.6	44.25	37.2	31.2	23.849999999999998	18.15	11.700000000000001	7.199999999999999	3.9	2.55	2.4	2.25	1.95	1.7999999999999998	31.95	38.1	32.25	27.150000000000002	19.5	11.25	2.85
Node 21		0.0	0.0	0.6	0.75	3.5999999999999996	43.05	46.35	49.8	50.55	51.0	51.9	45.75	38.85	32.550000000000004	26.55	19.950000000000003	13.65	7.35	7.5	48.9	78.60000000000001	88.8	86.1	95.85000000000001	92.55	88.64999999999999	88.64999999999999	83.85000000000001	80.10000000000001	87.15	89.1	85.65	79.80000000000001	73.05	65.7	60.3	52.65	44.85	37.2	29.7	22.95	15.9	13.8	31.95	51.300000000000004	46.35	75.0	78.45	72.75	81.3	77.85	74.1	66.45	59.25	52.5	45.0	38.550000000000004	33.0	25.95	20.549999999999997	16.5	11.55	9.9	8.7	7.95	6.75	5.55	23.1	39.15	34.35	33.0	25.5	18.6	11.1	2.85
Node 5		0.8999999999999999	1.2	1.35	1.95	2.1	2.4	2.55	2.55	2.55	2.85	3.0	3.0	2.55	2.25	2.7	2.25	2.4	2.25	2.85	51.0	82.95	89.4	88.2	95.7	90.9	86.1	89.4	84.45	84.75	91.2	87.15	79.2	71.39999999999999	63.3	55.50000000000001	47.099999999999994	39.300000000000004	32.25	24.6	17.4	10.8	4.05	2.1	2.25	2.55	2.7	2.85	44.85	84.15	79.95	79.35	74.25	68.4	61.199999999999996	53.25	45.6	39.0	33.0	25.650000000000002	19.35	12.6	7.049999999999999	4.5	2.4	1.6500000000000001	1.35	9.75	28.799999999999997	37.2	33.45	26.55	20.1	13.8	8.55	2.25
Node 37		0.75	1.05	1.2	1.35	4.65	43.65	47.85	48.0	48.15	48.3	52.5	46.5	39.300000000000004	33.0	27.3	20.7	14.249999999999998	8.25	5.7	58.199999999999996	77.7	84.89999999999999	84.0	94.35	91.64999999999999	84.75	76.95	69.45	61.199999999999996	81.0	73.5	66.0	58.35	50.7	42.75	34.949999999999996	27.3	20.7	13.5	7.049999999999999	3.3000000000000003	2.4	2.55	2.4	2.25	2.4	2.4	2.25	2.7	2.7	2.85	3.0	3.3000000000000003	3.45	3.3000000000000003	3.15	3.3000000000000003	3.15	3.15	3.0	3.0	2.7	2.4	2.25	1.95	1.6500000000000001	1.6500000000000001	1.6500000000000001	1.35	0.75	0.6	0.44999999999999996	0.0	0.0	0.0
Node 18		0.15	0.3	0.8999999999999999	1.05	1.95	41.699999999999996	41.85	42.15	42.3	42.6	43.35	37.35	31.05	25.2	19.35	12.9	6.75	3.3000000000000003	3.3000000000000003	66.3	82.95	89.4	85.5	96.45	93.75	88.64999999999999	81.89999999999999	84.15	84.45	86.85000000000001	79.65	71.55	63.9	56.10000000000001	47.699999999999996	39.900000000000006	32.25	25.2	17.849999999999998	10.8	6.15	4.05	3.5999999999999996	31.8	40.2	64.5	61.8	56.10000000000001	73.5	66.14999999999999	59.25	51.74999999999999	44.25	37.2	30.0	22.8	16.2	11.1	5.55	3.45	2.85	2.7	2.85	3.0	2.85	2.4	13.65	23.25	40.35	34.2	33.75	27.150000000000002	20.1	11.55	3.0
Node 11		0.75	1.05	1.2	1.2	1.35	1.35	1.5	1.6500000000000001	2.25	3.15	3.75	3.15	3.15	3.0	3.0	3.3000000000000003	3.3000000000000003	3.3000000000000003	3.45	3.15	2.85	2.55	2.1	2.25	2.4	6.15	6.15	6.15	6.0	5.4	5.1	5.1	4.8	21.15	20.549999999999997	48.449999999999996	43.95	37.2	30.599999999999998	24.0	17.849999999999998	11.55	6.45	5.25	4.8	4.2	4.2	3.75	3.3000000000000003	3.15	2.7	2.7	19.650000000000002	19.650000000000002	18.45	15.6	14.099999999999998	10.5	8.85	3.3000000000000003	2.7	10.65	8.1	7.199999999999999	6.15	5.25	4.5	3.9	17.4	14.85	11.85	8.55	7.8	5.1	1.35
Node 38		0.3	0.6	0.8999999999999999	0.8999999999999999	2.55	43.2	47.85	47.85	48.0	52.2	52.349999999999994	45.75	38.85	32.4	26.400000000000002	19.950000000000003	13.8	7.8	5.4	5.25	81.75	88.8	82.05	95.25	90.60000000000001	82.35	74.4	84.45	83.25	91.8	88.35	84.0	77.55	70.19999999999999	62.4	53.849999999999994	46.35	39.6	32.550000000000004	25.5	19.05	11.4	5.8500000000000005	41.699999999999996	53.400000000000006	63.0	57.3	51.9	45.75	70.95	77.4	74.1	66.0	58.650000000000006	50.849999999999994	43.2	36.75	30.45	23.1	16.950000000000003	10.35	4.95	2.55	1.2	1.05	0.75	13.950000000000001	23.549999999999997	36.6	31.35	24.75	25.8	18.75	11.1	2.85
