Node 36		0.44999999999999996	0.44999999999999996	0.8999999999999999	1.05	1.2	41.4	43.35	48.0	48.75	49.2	50.24999999999999	46.2	39.900000000000006	34.050000000000004	29.4	23.400000000000002	18.0	13.350000000000001	10.2	16.35	59.25	80.55	81.3	81.15	86.7	78.75	83.1	75.6	75.3	83.1	82.19999999999999	78.60000000000001	70.65	62.7	57.15	49.8	43.2	36.9	30.599999999999998	24.6	19.05	12.75	7.8	25.650000000000002	60.0	57.15	70.19999999999999	69.0	66.3	66.60000000000001	66.0	59.099999999999994	52.5	52.5	45.6	39.0	32.7	27.450000000000003	20.849999999999998	15.9	9.9	6.6000000000000005	4.8	7.049999999999999	6.15	5.7	8.85	32.25	41.25	35.55	31.65	25.650000000000002	19.2	11.700000000000001	3.0
Node 39		0.15	0.6	0.8999999999999999	1.6500000000000001	6.15	42.75	45.45	45.6	45.6	46.35	46.650000000000006	40.5	34.2	27.900000000000002	22.05	16.05	9.9	4.95	6.9	69.3	80.10000000000001	85.95	79.35	92.10000000000001	87.0	85.2	78.45	71.85000000000001	64.2	81.6	74.7	68.25	60.45	52.5	45.300000000000004	37.35	30.75	24.45	17.7	11.4	6.9	3.3000000000000003	3.15	53.25	51.300000000000004	60.45	57.75	56.10000000000001	50.1	66.9	61.5	56.10000000000001	48.449999999999996	42.449999999999996	36.0	29.7	24.15	19.650000000000002	14.7	10.35	6.3	3.15	2.4	2.1	2.1	1.7999999999999998	5.8500000000000005	29.4	38.1	33.6	30.3	24.9	18.0	11.4	3.0
Node 10		0.15	0.3	0.8999999999999999	0.8999999999999999	1.5	43.5	46.050000000000004	49.5	50.1	50.7	51.0	44.85	38.1	31.5	25.2	18.9	12.75	7.049999999999999	4.05	3.15	2.7	2.55	75.9	80.85	87.15	80.85	76.05	79.05	74.55000000000001	81.15	81.89999999999999	79.95	72.75	64.64999999999999	57.599999999999994	49.8	42.75	35.699999999999996	29.099999999999998	22.35	16.35	9.75	4.8	2.25	2.1	2.25	2.25	2.55	33.900000000000006	72.6	67.5	61.199999999999996	53.849999999999994	47.55	41.099999999999994	34.8	28.95	24.75	18.15	13.5	8.55	5.1	4.5	4.35	4.05	3.75	3.15	2.7	2.4	1.5	31.8	24.3	16.8	10.5	2.55
Node 34		0.6	0.6	0.75	1.2	5.8500000000000005	43.05	45.9	46.35	46.800000000000004	46.949999999999996	47.25	41.099999999999994	34.2	27.900000000000002	21.75	15.75	9.6	4.5	3.3000000000000003	56.25	75.6	80.10000000000001	81.75	88.5	87.0	80.7	81.15	77.10000000000001	74.85000000000001	84.0	81.45	73.95	66.3	58.650000000000006	51.300000000000004	43.5	36.6	29.7	23.400000000000002	16.950000000000003	11.4	4.8	2.25	2.25	33.45	38.1	57.9	58.199999999999996	52.05	65.7	59.550000000000004	54.300000000000004	58.35	51.9	45.6	39.0	33.45	28.65	22.2	16.650000000000002	11.4	6.3	3.75	2.25	2.25	2.1	1.7999999999999998	1.7999999999999998	1.5	1.35	30.75	24.3	16.950000000000003	11.55	3.0
Node 38		0.3	0.6	0.8999999999999999	0.8999999999999999	3.15	43.05	46.5	46.5	46.650000000000006	50.849999999999994	51.0	44.7	37.95	31.5	25.5	19.35	13.200000000000001	7.5	5.4	5.25	79.35	86.7	79.80000000000001	91.95	87.0	78.75	70.8	79.95	75.44999999999999	85.05	83.85000000000001	78.60000000000001	72.3	65.25	58.35	50.1	43.2	37.05	30.599999999999998	24.15	18.3	10.95	5.8500000000000005	52.65	52.05	60.150000000000006	54.75	49.8	43.8	66.3	61.199999999999996	66.14999999999999	58.5	52.5	45.45	38.7	33.15	28.199999999999996	21.6	16.35	10.8	5.4	2.7	1.2	1.05	0.75	10.5	29.7	39.45	34.050000000000004	27.450000000000003	24.75	17.4	10.65	2.85
Node 29		0.75	1.2	1.95	1.95	2.1	43.5	45.0	45.15	45.6	48.0	48.3	41.85	35.85	29.549999999999997	23.849999999999998	17.549999999999997	11.700000000000001	6.45	5.4	50.7	76.64999999999999	76.95	80.4	92.10000000000001	85.35000000000001	81.45	84.75	81.0	73.8	82.19999999999999	81.75	78.0	70.35	62.55	55.05	46.949999999999996	41.699999999999996	35.4	29.099999999999998	22.5	16.950000000000003	10.35	6.0	4.5	4.2	4.05	56.55	55.95	49.35	43.95	38.1	32.550000000000004	57.599999999999994	51.449999999999996	44.7	39.300000000000004	33.45	29.4	23.7	18.9	13.65	8.7	6.15	4.65	4.35	4.2	3.75	2.85	38.85	33.300000000000004	30.0	22.8	17.7	11.25	3.0
Node 31		0.75	0.8999999999999999	0.8999999999999999	1.05	1.95	43.5	46.050000000000004	49.65	50.1	50.7	51.0	45.0	38.1	31.35	25.5	19.35	13.200000000000001	7.35	4.35	3.3000000000000003	2.85	67.65	82.5	91.95	87.3	80.85	84.3	77.25	74.7	81.45	82.65	78.9	71.25	63.6	56.55	49.2	42.3	35.699999999999996	28.95	22.5	16.5	10.35	15.45	15.45	13.950000000000001	12.6	68.7	70.05	66.9	72.3	68.55	66.75	59.550000000000004	53.55	49.95	43.5	38.1	33.0	26.55	21.3	15.299999999999999	9.75	7.049999999999999	5.4	4.05	2.7	12.3	31.8	39.15	33.75	31.8	24.45	17.25	10.8	2.85
Node 15		0.3	0.6	0.75	0.8999999999999999	1.6500000000000001	41.85	42.0	42.15	42.3	42.449999999999996	42.6	36.449999999999996	30.0	24.9	19.35	12.9	7.049999999999999	2.4	2.7	3.9	78.9	75.9	82.65	89.85	88.05	79.80000000000001	82.8	75.3	75.6	84.75	83.1	77.25	70.05	61.95	54.75	46.949999999999996	40.050000000000004	33.45	27.0	20.549999999999997	14.7	8.25	3.3000000000000003	3.15	39.75	58.95	57.75	58.050000000000004	52.05	66.14999999999999	66.9	59.85	52.65	46.650000000000006	39.6	33.300000000000004	27.900000000000002	22.8	16.650000000000002	11.85	6.75	3.3000000000000003	3.15	3.15	2.85	2.4	2.25	30.15	40.050000000000004	34.35	30.9	24.6	17.4	11.700000000000001	3.0
Node 2		0.0	0.44999999999999996	0.6	0.75	1.2	43.05	43.65	43.95	44.25	44.4	44.4	38.1	31.8	25.5	19.650000000000002	13.950000000000001	8.1	3.75	3.15	14.549999999999999	78.45	85.5	82.35	91.64999999999999	86.25	81.0	74.4	72.45	64.5	84.75	82.95	76.05	68.4	60.6	53.7	45.6	39.15	32.1	25.650000000000002	19.05	13.05	6.15	12.45	53.55	52.05	46.949999999999996	55.35	68.4	69.45	73.65	70.95	68.4	63.74999999999999	57.9	51.0	44.4	38.4	33.300000000000004	26.25	20.4	14.549999999999999	8.4	4.95	2.7	1.6500000000000001	1.35	1.2	28.95	37.65	34.2	30.3	23.25	17.849999999999998	11.55	3.0
Node 1		0.6	0.8999999999999999	1.05	1.05	1.5	1.6500000000000001	1.6500000000000001	1.6500000000000001	1.7999999999999998	2.1	2.25	2.25	2.55	2.55	2.7	3.0	2.85	3.0	3.45	3.45	28.65	80.25	79.2	89.1	86.1	79.5	71.55	64.05	56.39999999999999	83.7	82.05	77.10000000000001	69.75	61.8	54.6	46.949999999999996	40.35	33.75	26.85	20.1	14.249999999999998	7.95	3.3000000000000003	2.25	2.4	2.55	2.7	50.1	46.5	67.2	61.8	66.75	59.85	53.7	47.099999999999994	40.5	34.65	29.849999999999998	23.25	17.849999999999998	12.45	7.35	4.8	3.3000000000000003	2.55	2.1	1.95	1.6500000000000001	1.35	1.05	0.8999999999999999	0.6	0.44999999999999996	0.3	0.0
Node 11		0.75	1.05	1.2	1.2	1.35	1.35	1.5	1.6500000000000001	2.25	3.0	3.5999999999999996	3.0	3.0	2.85	2.85	3.15	3.15	3.3000000000000003	5.1	4.5	3.75	3.15	2.4	2.4	2.55	2.7	2.7	2.85	3.3000000000000003	3.15	3.3000000000000003	3.45	3.5999999999999996	3.45	3.3000000000000003	3.45	3.3000000000000003	3.15	3.45	3.0	2.7	2.85	2.85	2.85	2.7	2.55	2.85	2.7	2.7	2.7	2.4	2.7	2.55	2.55	2.25	2.25	1.95	2.1	1.95	2.1	1.95	2.25	2.1	1.95	1.7999999999999998	1.6500000000000001	1.6500000000000001	1.5	22.05	28.65	23.849999999999998	18.6	16.8	10.5	2.85
Node 12		0.0	0.3	0.8999999999999999	1.05	1.5	1.5	1.7999999999999998	2.1	2.1	2.25	2.55	2.55	2.7	2.7	2.1	2.25	2.1	2.25	1.95	41.099999999999994	79.05	81.45	82.35	81.45	87.0	78.9	71.7	63.9	56.25	80.55	83.25	75.9	68.55	60.75000000000001	53.55	46.5	39.900000000000006	33.45	26.700000000000003	20.25	14.099999999999998	7.8	4.05	7.8	7.5	7.199999999999999	6.75	6.15	5.25	4.65	3.75	3.75	3.45	2.85	2.7	2.85	2.55	2.4	2.55	2.4	2.55	2.4	2.55	2.4	2.25	1.95	1.6500000000000001	32.4	37.05	34.949999999999996	28.799999999999997	25.2	19.35	11.700000000000001	3.0
Node 23		0.75	0.75	0.75	0.8999999999999999	1.2	35.85	36.0	36.3	36.449999999999996	36.449999999999996	36.6	31.2	37.35	31.05	25.05	19.05	12.9	7.6499999999999995	5.4	50.24999999999999	77.7	84.6	84.89999999999999	92.25	86.1	78.14999999999999	69.89999999999999	79.65	76.5	85.05	82.8	80.7	76.05	69.75	63.3	55.2	48.15	40.65	33.900000000000006	27.150000000000002	20.849999999999998	13.8	16.2	49.65	52.65	59.099999999999994	58.650000000000006	54.6	48.449999999999996	43.95	66.3	59.85	52.65	46.050000000000004	39.0	32.4	27.6	28.349999999999998	21.9	16.650000000000002	11.4	6.3	4.5	4.65	4.2	4.2	4.05	10.95	39.6	34.35	30.9	23.7	16.650000000000002	10.5	2.85
Node 27		0.44999999999999996	0.75	0.8999999999999999	1.2	4.2	42.6	45.45	49.05	49.5	50.1	50.4	44.4	37.8	31.35	25.35	19.8	13.8	7.95	4.8	31.5	78.60000000000001	86.1	79.05	92.55	87.45	79.35	84.15	79.35	71.55	84.75	84.0	77.85	70.5	62.55	55.800000000000004	48.0	41.099999999999994	34.050000000000004	27.750000000000004	21.45	15.299999999999999	8.7	4.2	3.9	3.5999999999999996	3.45	2.85	2.85	2.55	2.7	2.4	2.7	2.7	2.55	2.1	2.4	2.85	2.85	3.15	2.85	3.15	3.0	3.0	2.55	2.4	2.4	2.25	1.7999999999999998	1.35	1.2	27.450000000000003	24.3	17.1	10.65	2.85
Node 33		0.75	1.05	1.05	1.05	1.35	42.15	47.099999999999994	48.0	48.3	48.3	48.449999999999996	41.85	35.099999999999994	28.65	22.95	16.950000000000003	10.8	5.1	3.0	2.1	7.199999999999999	81.89999999999999	81.45	91.64999999999999	90.60000000000001	86.85000000000001	88.05	83.85000000000001	82.05	90.75	89.55	84.15	76.64999999999999	68.55	60.75000000000001	52.349999999999994	45.0	37.65	30.0	22.8	16.2	9.75	4.35	2.4	56.699999999999996	53.849999999999994	68.7	75.0	76.95	72.15	75.6	73.95	67.65	60.0	52.65	45.75	39.15	33.45	26.400000000000002	20.4	13.65	8.7	4.8	2.55	2.4	2.25	1.95	1.7999999999999998	33.900000000000006	37.35	32.550000000000004	27.150000000000002	19.5	11.25	2.85
Node 5		0.8999999999999999	1.2	1.35	1.95	2.1	2.4	2.55	2.55	2.55	2.85	3.0	3.0	2.55	2.25	2.7	2.25	2.4	2.25	2.85	42.75	80.4	87.0	84.89999999999999	92.25	87.9	82.35	84.45	80.55	77.25	82.95	80.55	73.05	65.4	57.599999999999994	50.7	42.6	35.55	29.25	22.35	15.75	9.9	3.5999999999999996	2.1	2.25	2.55	2.7	2.85	45.300000000000004	68.7	62.7	69.45	66.14999999999999	61.5	55.35	48.3	41.55	35.85	31.05	24.6	18.75	13.05	7.8	4.8	2.4	1.6500000000000001	1.35	6.6000000000000005	30.75	36.9	33.900000000000006	27.150000000000002	20.849999999999998	14.399999999999999	9.0	2.55
Node 8		0.44999999999999996	0.75	1.05	1.05	1.7999999999999998	41.4	42.0	42.6	43.35	43.65	43.8	37.65	33.75	27.450000000000003	21.15	15.299999999999999	9.15	5.8500000000000005	5.4	65.10000000000001	83.7	89.55	87.9	95.1	90.14999999999999	85.05	77.10000000000001	69.3	79.2	83.55	85.65	81.3	74.55000000000001	66.14999999999999	58.35	50.4	43.5	36.449999999999996	29.099999999999998	22.35	15.75	10.05	4.8	2.4	2.1	62.849999999999994	59.25	54.15	54.6	62.849999999999994	56.10000000000001	61.95	54.6	47.699999999999996	40.949999999999996	34.65	29.25	24.75	26.55	20.7	15.299999999999999	10.05	8.7	7.95	7.35	6.45	5.7	4.95	30.75	34.65	31.05	24.0	17.1	10.5	2.7
Node 25		0.0	0.3	0.3	0.75	1.05	42.6	42.6	42.75	43.05	43.5	43.8	38.25	31.8	25.8	20.549999999999997	14.099999999999998	7.95	3.3000000000000003	3.3000000000000003	41.699999999999996	70.8	85.2	80.4	87.6	79.65	71.55	63.9	56.25	75.3	81.15	83.1	78.3	70.95	63.6	56.699999999999996	48.75	41.55	34.8	28.199999999999996	21.75	15.9	9.15	4.95	3.9	31.05	61.35	59.25	56.99999999999999	52.65	63.449999999999996	56.25	49.8	42.6	36.3	29.549999999999997	23.25	17.849999999999998	13.5	8.25	4.95	3.15	3.15	3.15	2.85	2.7	2.55	2.4	2.1	1.7999999999999998	2.1	2.55	2.25	19.5	11.700000000000001	3.0
Node 13		0.3	0.3	0.44999999999999996	0.8999999999999999	3.0	35.699999999999996	36.0	36.0	36.3	36.449999999999996	36.6	31.2	25.8	20.1	14.7	9.15	3.45	2.1	2.1	6.9	77.85	84.6	84.45	89.55	87.75	81.89999999999999	84.0	78.0	75.14999999999999	83.85000000000001	82.19999999999999	78.0	70.35	62.25000000000001	55.2	47.25	40.2	33.6	26.85	20.4	14.399999999999999	8.4	3.5999999999999996	30.15	52.949999999999996	56.99999999999999	58.050000000000004	54.0	47.55	42.75	37.05	58.95	51.449999999999996	45.300000000000004	48.0	41.699999999999996	35.699999999999996	31.35	25.2	19.650000000000002	14.549999999999999	9.6	6.9	5.4	4.35	3.15	1.95	16.5	39.75	34.050000000000004	27.3	21.15	14.7	9.0	2.25
Node 35		0.6	0.6	0.75	1.05	4.8	42.9	45.45	48.9	49.8	50.24999999999999	51.15	45.45	38.550000000000004	32.1	26.400000000000002	20.1	13.8	8.4	5.7	61.199999999999996	79.80000000000001	80.55	80.4	86.55000000000001	87.0	84.0	83.85000000000001	76.8	75.6	86.1	82.65	75.3	67.5	60.0	52.800000000000004	44.85	37.8	31.2	24.75	18.3	12.3	6.3	3.45	3.5999999999999996	3.5999999999999996	3.5999999999999996	3.5999999999999996	3.45	3.45	3.0	2.7	2.7	2.55	2.1	2.1	1.95	2.1	1.7999999999999998	1.7999999999999998	1.6500000000000001	1.6500000000000001	1.7999999999999998	1.7999999999999998	1.6500000000000001	1.5	1.35	1.05	0.8999999999999999	0.75	0.75	0.75	0.75	0.44999999999999996	0.3	0.0
Node 37		0.75	1.05	1.2	1.35	4.95	43.5	46.650000000000006	47.25	47.4	47.55	51.6	45.9	38.7	32.4	26.700000000000003	20.4	13.950000000000001	8.25	5.7	61.5	77.85	80.4	81.15	90.9	87.45	80.7	73.65	66.3	58.5	83.85000000000001	76.35	69.3	61.8	54.449999999999996	47.4	39.900000000000006	32.85	26.25	19.35	12.6	6.9	2.4	2.55	2.4	2.25	2.4	2.4	2.25	2.7	2.7	2.85	3.0	3.3000000000000003	3.45	3.3000000000000003	3.15	3.3000000000000003	3.15	3.15	3.0	3.0	2.7	2.4	2.25	1.95	1.6500000000000001	1.6500000000000001	1.6500000000000001	1.35	0.75	0.6	0.44999999999999996	0.0	0.0	0.0
Node 3		0.44999999999999996	0.44999999999999996	0.75	0.8999999999999999	1.05	43.5	46.949999999999996	47.099999999999994	47.099999999999994	47.4	47.699999999999996	41.25	34.35	27.900000000000002	21.6	15.0	8.7	3.75	1.95	2.25	2.85	2.85	2.7	92.85	88.64999999999999	83.25	83.85000000000001	76.05	68.25	83.39999999999999	84.3	78.9	71.25	63.3	55.95	47.85	40.65	33.75	27.450000000000003	20.7	14.549999999999999	7.8	2.7	1.6500000000000001	1.95	38.550000000000004	63.9	70.5	74.7	72.15	68.25	61.650000000000006	60.3	53.849999999999994	47.25	40.5	34.5	29.4	22.95	17.25	12.0	6.75	4.05	2.25	1.7999999999999998	1.7999999999999998	1.35	35.25	41.25	35.85	28.799999999999997	22.05	15.0	9.3	2.55
Node 4		0.15	0.15	0.75	0.75	1.2	43.05	43.05	43.05	43.2	43.35	43.8	37.95	31.35	25.35	19.2	13.200000000000001	7.199999999999999	3.0	6.9	78.60000000000001	82.65	88.64999999999999	89.4	99.45	93.45	85.35000000000001	77.7	87.3	78.75	88.35	80.55	71.85000000000001	63.6	55.35	47.099999999999994	39.0	31.2	24.0	16.35	9.75	4.5	2.25	2.25	55.800000000000004	66.60000000000001	66.3	66.45	79.05	75.6	84.0	82.19999999999999	74.25	66.9	59.099999999999994	51.15	43.2	36.15	29.7	22.650000000000002	16.8	10.65	4.05	3.15	2.7	2.1	1.95	1.7999999999999998	1.6500000000000001	1.6500000000000001	1.5	1.05	27.150000000000002	20.1	11.700000000000001	3.0
Node 0		0.3	0.75	0.8999999999999999	1.05	3.5999999999999996	41.25	46.650000000000006	47.699999999999996	48.15	48.6	48.75	42.75	36.0	29.549999999999997	23.25	17.4	11.25	5.4	3.45	58.5	78.45	85.95	79.80000000000001	91.64999999999999	87.0	81.6	74.1	76.64999999999999	69.3	73.35000000000001	65.7	58.5	50.849999999999994	43.05	35.699999999999996	28.050000000000004	21.3	15.45	9.6	4.2	1.5	1.2	15.9	48.6	52.349999999999994	47.099999999999994	42.0	57.3	53.55	63.449999999999996	67.05	60.75000000000001	53.7	47.25	40.35	33.75	28.050000000000004	23.400000000000002	16.650000000000002	12.0	7.049999999999999	3.5999999999999996	2.7	2.25	2.1	2.1	1.95	1.6500000000000001	38.7	33.300000000000004	30.15	24.3	16.950000000000003	11.1	2.7
Node 9		0.75	0.75	1.05	1.05	3.75	43.2	45.6	46.050000000000004	47.099999999999994	47.25	47.699999999999996	41.699999999999996	35.4	29.25	22.95	16.650000000000002	10.65	8.55	6.45	60.9	63.3	78.9	81.3	89.1	86.4	81.75	82.65	77.4	70.5	85.5	84.45	81.75	74.4	66.60000000000001	59.550000000000004	51.449999999999996	44.4	36.9	30.3	23.25	17.4	10.8	7.35	53.55	56.699999999999996	62.1	59.4	58.8	57.45	71.39999999999999	71.1	67.65	60.0	53.400000000000006	46.5	39.75	33.6	28.199999999999996	22.05	16.5	11.4	6.15	4.05	3.3000000000000003	3.15	3.0	2.85	20.4	41.55	35.85	31.5	24.9	18.15	11.700000000000001	3.0
Node 19		0.3	0.75	1.2	1.5	1.95	42.3	43.5	44.25	44.55	45.0	45.45	47.699999999999996	40.65	34.65	28.799999999999997	22.8	16.950000000000003	11.85	8.85	43.65	78.14999999999999	75.6	77.10000000000001	87.75	80.85	73.5	76.8	69.3	61.8	54.6	79.95	72.15	65.25	57.75	51.0	43.95	37.05	30.45	24.3	18.45	12.75	6.3	3.75	17.4	18.75	59.85	56.699999999999996	56.10000000000001	49.8	66.0	66.45	60.45	53.7	47.4	41.25	40.5	34.949999999999996	30.3	24.0	18.6	13.350000000000001	8.55	5.8500000000000005	4.2	3.45	3.15	6.3	19.05	39.45	33.900000000000006	31.2	24.0	17.1	10.35	2.7
Node 40		0.0	0.0	0.0	0.0	6.75	42.9	48.3	49.35	49.5	49.5	49.5	42.6	35.55	28.799999999999997	22.35	15.75	9.15	3.3000000000000003	1.05	0.15	0.0	0.0	0.0	0.0	0.0	0.0	0.0	0.0	0.0	0.0	0.0	0.0	0.0	0.0	0.0	0.0	0.0	0.0	0.0	0.0	0.0	0.0	0.0	0.0	0.0	0.0	58.8	57.45	50.7	50.1	43.95	65.7	60.45	53.7	46.5	39.6	33.45	28.349999999999998	21.6	15.75	10.05	4.5	1.5	0.0	0.0	0.0	0.0	28.050000000000004	24.45	34.65	27.750000000000004	21.45	15.0	9.3	2.55
Node 17		0.8999999999999999	1.2	1.2	1.5	2.4	43.2	43.65	44.1	45.9	46.050000000000004	46.650000000000006	40.35	33.900000000000006	27.6	21.9	15.45	9.15	4.2	3.5999999999999996	3.15	3.45	3.45	3.15	2.85	3.15	2.55	2.4	30.599999999999998	71.25	64.2	57.15	50.55	43.35	35.85	29.549999999999997	21.9	15.45	10.35	6.3	5.8500000000000005	6.15	6.75	6.45	17.549999999999997	16.05	61.050000000000004	57.45	57.75	51.6	64.5	58.35	54.0	46.650000000000006	40.65	34.65	28.499999999999996	22.95	18.45	12.9	8.55	5.4	4.65	4.65	4.2	3.5999999999999996	3.0	10.2	31.5	36.75	33.300000000000004	31.8	24.3	16.950000000000003	11.4	2.85
Node 22		0.6	0.8999999999999999	0.8999999999999999	1.2	1.35	2.55	4.05	4.2	4.35	6.9	7.6499999999999995	8.1	7.5	7.199999999999999	7.049999999999999	6.75	6.75	6.6000000000000005	5.4	33.0	54.900000000000006	87.3	84.0	89.55	85.95	79.35	84.0	77.4	69.89999999999999	85.8	83.1	79.5	72.15	66.60000000000001	59.550000000000004	52.2	45.300000000000004	38.7	32.1	25.5	19.2	12.75	7.5	53.55	53.25	60.9	58.650000000000006	67.80000000000001	68.7	69.15	66.45	61.8	56.55	56.85	50.4	44.1	38.25	33.45	26.55	20.7	15.299999999999999	11.700000000000001	9.0	7.199999999999999	6.15	5.25	4.5	10.8	39.900000000000006	34.2	27.6	21.3	14.7	9.15	2.55
Node 32		0.6	0.8999999999999999	0.8999999999999999	1.2	7.6499999999999995	34.5	41.699999999999996	42.15	42.6	42.9	43.35	38.1	31.2	25.35	19.650000000000002	13.5	8.1	3.75	4.05	34.35	78.60000000000001	82.35	77.55	87.9	82.05	81.6	77.55	70.19999999999999	62.55	80.7	81.75	74.25	66.9	59.699999999999996	52.65	45.300000000000004	38.1	31.35	25.05	18.9	13.05	6.3	3.75	11.85	51.74999999999999	46.949999999999996	57.45	55.95	51.6	46.050000000000004	40.2	34.8	28.349999999999998	23.400000000000002	18.9	40.65	34.8	29.7	23.400000000000002	17.7	12.0	6.75	3.9	2.1	1.95	1.6500000000000001	4.95	31.8	37.35	31.95	25.650000000000002	19.8	13.65	8.1	2.25
Node 20		0.6	0.75	0.8999999999999999	1.05	1.2	43.35	43.95	43.95	44.7	45.15	45.300000000000004	39.0	31.95	34.5	28.050000000000004	22.2	16.35	10.35	6.6000000000000005	5.8500000000000005	4.95	4.2	3.45	3.15	3.15	3.3000000000000003	2.7	2.4	2.55	2.1	2.1	1.95	1.95	1.7999999999999998	2.1	56.39999999999999	50.1	42.9	36.0	29.099999999999998	23.25	16.35	10.8	7.5	54.449999999999996	60.9	58.8	68.4	63.0	68.10000000000001	68.7	67.35	59.85	53.400000000000006	46.650000000000006	40.35	34.65	29.849999999999998	24.0	18.3	18.0	13.200000000000001	11.1	9.9	8.55	7.049999999999999	5.7	4.95	38.4	34.2	32.25	24.6	17.4	11.700000000000001	3.0
Node 21		0.0	0.0	0.6	0.75	2.7	43.05	45.6	48.9	49.65	50.1	51.0	45.15	38.25	31.95	25.95	19.650000000000002	13.350000000000001	7.199999999999999	7.199999999999999	45.300000000000004	75.75	82.35	83.39999999999999	92.4	88.35	84.6	83.85000000000001	79.05	74.7	80.4	83.25	80.55	75.14999999999999	68.7	62.4	57.3	50.24999999999999	43.05	36.15	29.25	23.1	16.35	12.9	48.6	50.849999999999994	45.75	57.9	58.5	53.1	64.2	57.15	66.0	58.8	52.949999999999996	48.15	41.55	36.15	31.95	25.650000000000002	20.7	17.7	12.9	10.95	9.75	8.4	6.9	5.55	21.6	39.300000000000004	34.65	30.45	23.400000000000002	16.650000000000002	10.2	2.85
Node 6		0.3	0.75	0.8999999999999999	1.05	2.25	43.05	43.35	43.95	45.300000000000004	45.45	46.050000000000004	40.050000000000004	33.0	26.85	21.15	15.15	9.15	4.35	13.350000000000001	62.849999999999994	78.60000000000001	86.1	84.15	91.64999999999999	88.05	82.19999999999999	84.0	80.25	73.2	66.0	58.95	52.05	44.85	37.05	30.45	22.650000000000002	15.9	10.5	6.3	5.8500000000000005	6.15	6.75	6.45	6.15	5.8500000000000005	5.25	4.5	4.8	4.5	4.65	4.65	52.65	45.45	39.6	33.900000000000006	28.050000000000004	22.650000000000002	18.15	12.9	8.55	5.4	4.8	4.8	4.35	3.5999999999999996	3.0	7.049999999999999	31.05	39.15	33.45	26.700000000000003	20.4	14.249999999999998	8.85	2.25
Node 28		0.3	0.3	0.6	0.8999999999999999	2.7	35.099999999999994	35.25	37.2	50.1	50.4	52.05	45.45	39.45	32.85	26.55	20.4	14.099999999999998	8.55	12.75	44.55	79.2	72.15	65.10000000000001	91.8	86.25	80.55	73.5	66.9	73.5	85.05	83.25	77.55	76.35	70.05	63.14999999999999	55.65	48.9	41.55	34.65	28.799999999999997	22.8	15.9	10.8	7.5	6.15	38.1	63.0	73.2	65.55	73.35000000000001	71.39999999999999	63.74999999999999	55.800000000000004	49.2	42.3	35.4	28.95	27.3	20.549999999999997	15.6	10.95	6.6000000000000005	5.4	4.8	4.5	7.199999999999999	13.950000000000001	41.25	39.300000000000004	33.75	26.85	20.7	14.399999999999999	9.0	2.55
Node 30		0.75	0.8999999999999999	1.05	1.6500000000000001	1.95	2.4	2.4	2.55	2.85	3.0	3.3000000000000003	2.85	2.85	3.15	3.3000000000000003	3.0	2.85	2.55	3.0	3.0	2.85	3.0	3.0	3.0	3.0	2.7	2.7	2.85	3.0	3.0	3.0	3.15	3.0	2.7	2.4	2.4	2.4	2.25	2.25	2.1	2.25	2.25	2.1	1.95	2.1	2.1	2.25	2.1	1.95	1.95	1.95	1.7999999999999998	1.35	1.5	1.5	1.6500000000000001	1.7999999999999998	1.7999999999999998	1.95	1.95	2.25	2.4	2.4	2.4	2.4	2.1	1.7999999999999998	1.5	1.2	1.2	0.8999999999999999	0.8999999999999999	0.6	11.700000000000001	3.0
Node 7		0.3	0.6	0.6	0.8999999999999999	6.3	42.0	46.800000000000004	46.949999999999996	47.699999999999996	47.85	47.85	41.25	34.35	28.199999999999996	22.35	16.2	10.95	5.55	3.75	69.89999999999999	81.45	87.45	82.35	93.0	89.25	81.45	86.55000000000001	81.15	75.44999999999999	87.3	84.15	82.35	74.7	68.7	61.5	53.55	46.2	38.85	32.4	25.650000000000002	19.2	12.6	7.35	56.85	50.849999999999994	46.2	40.949999999999996	36.15	69.45	68.25	67.05	66.60000000000001	60.150000000000006	53.849999999999994	46.800000000000004	40.35	34.5	29.099999999999998	22.8	17.4	12.6	7.8	5.1	3.5999999999999996	3.3000000000000003	3.0	16.650000000000002	29.849999999999998	36.15	34.2	27.450000000000003	21.15	14.7	11.55	2.7
Node 16		0.3	0.44999999999999996	0.44999999999999996	0.6	0.75	42.0	42.15	42.449999999999996	42.6	42.9	43.2	37.5	30.9	24.9	19.2	12.9	6.75	2.1	2.1	59.550000000000004	78.45	85.8	78.75	91.8	84.89999999999999	81.15	84.3	78.60000000000001	71.1	81.89999999999999	83.7	78.9	72.3	64.2	56.99999999999999	48.9	42.0	35.099999999999994	28.199999999999996	21.6	15.299999999999999	8.7	3.9	52.949999999999996	52.2	60.45	58.35	68.55	65.7	71.7	64.2	57.45	55.35	52.949999999999996	46.2	39.75	34.2	29.4	22.95	17.4	12.0	6.9	4.05	2.25	2.1	1.95	7.8	31.5	38.85	33.6	27.150000000000002	24.9	18.9	11.25	2.85
Node 18		0.15	0.3	0.8999999999999999	1.05	2.25	41.699999999999996	41.85	42.15	42.3	42.6	43.35	37.35	31.05	25.2	19.35	12.9	6.75	3.3000000000000003	3.3000000000000003	65.85	81.15	85.5	82.8	93.30000000000001	89.85	84.0	82.19999999999999	79.5	76.8	70.8	63.6	55.800000000000004	48.3	40.8	33.300000000000004	25.650000000000002	18.75	13.200000000000001	7.8	4.35	4.05	4.05	3.5999999999999996	48.9	51.300000000000004	61.050000000000004	56.85	51.6	53.55	48.15	42.3	36.75	30.3	25.5	20.7	14.85	10.5	7.35	4.35	3.0	2.85	2.7	2.85	3.0	2.85	2.4	10.2	29.4	39.45	34.35	32.550000000000004	25.2	18.15	11.55	3.0
Node 24		0.15	0.44999999999999996	0.75	1.2	9.0	43.35	45.9	45.9	46.050000000000004	46.050000000000004	46.2	40.050000000000004	33.6	26.85	21.0	14.85	8.85	3.45	2.1	2.25	2.4	61.5	84.3	85.2	76.95	69.45	61.5	54.300000000000004	46.800000000000004	39.900000000000006	33.300000000000004	80.7	75.44999999999999	69.0	62.849999999999994	54.900000000000006	48.0	40.5	34.2	27.750000000000004	21.75	15.0	10.05	38.7	51.0	45.75	40.949999999999996	58.199999999999996	52.349999999999994	46.650000000000006	58.35	66.75	59.099999999999994	53.1	48.6	42.6	36.6	31.65	25.35	19.650000000000002	14.549999999999999	9.0	6.3	4.95	3.9	2.7	1.5	29.7	39.6	34.949999999999996	30.599999999999998	25.650000000000002	18.3	11.85	3.0
Node 14		0.75	1.2	1.35	1.6500000000000001	2.1	2.4	2.7	3.15	3.5999999999999996	3.9	4.05	3.9	3.75	3.5999999999999996	3.45	3.15	3.0	2.85	2.85	58.199999999999996	79.80000000000001	84.6	82.05	91.8	86.85000000000001	82.5	82.95	79.05	71.39999999999999	64.64999999999999	57.599999999999994	50.1	71.39999999999999	63.74999999999999	56.99999999999999	48.9	42.0	36.3	30.15	23.7	18.0	10.8	6.3	5.4	6.15	60.6	60.75000000000001	57.45	53.7	66.75	61.050000000000004	64.05	56.699999999999996	50.55	43.95	37.5	31.95	27.3	21.0	15.45	10.05	5.25	3.75	3.0	2.7	2.25	2.1	1.7999999999999998	1.35	1.05	0.8999999999999999	0.75	0.6	0.3	0.0
Node 26		0.75	0.8999999999999999	1.05	1.5	5.4	42.9	45.45	45.6	45.9	47.699999999999996	47.85	41.85	35.25	29.4	23.7	17.849999999999998	11.85	6.45	5.1	32.25	63.0	86.1	78.75	90.75	86.1	81.45	83.1	76.8	69.0	83.39999999999999	81.89999999999999	77.10000000000001	69.75	61.650000000000006	54.900000000000006	47.4	42.0	35.55	29.4	22.95	17.1	10.5	5.8500000000000005	17.4	36.15	35.85	57.75	56.25	52.5	65.25	58.650000000000006	61.050000000000004	58.8	52.65	46.2	39.75	33.75	29.7	24.0	19.05	13.65	8.4	5.8500000000000005	4.5	4.2	4.05	10.5	31.35	39.15	33.45	31.65	24.3	17.1	11.700000000000001	3.0
