Node 29		0.75	1.2	1.95	1.95	2.1	43.05	44.4	44.55	45.0	48.6	48.9	42.449999999999996	36.3	30.0	24.3	17.7	11.85	6.45	5.4	47.85	77.25	78.75	81.0	90.60000000000001	88.5	80.7	88.64999999999999	84.89999999999999	77.10000000000001	89.1	86.25	80.25	72.45	70.19999999999999	62.25000000000001	54.0	47.55	40.65	33.900000000000006	26.55	20.25	13.65	9.45	6.15	4.65	4.05	67.05	64.35	57.75	51.6	45.15	38.85	56.699999999999996	49.8	43.05	36.9	29.849999999999998	24.3	18.3	14.249999999999998	10.2	6.3	4.8	4.65	4.35	4.2	3.75	2.85	34.8	29.4	24.15	18.15	18.75	11.25	3.0
Node 20		0.6	0.75	0.8999999999999999	1.05	1.2	43.2	43.8	43.8	45.15	45.6	45.75	39.45	32.4	35.55	29.099999999999998	22.95	16.950000000000003	10.8	6.75	5.8500000000000005	4.95	4.2	3.45	3.15	3.15	3.3000000000000003	2.7	2.4	2.55	2.1	2.1	1.95	1.95	1.7999999999999998	2.1	56.85	50.1	42.75	35.25	27.900000000000002	21.45	14.7	9.45	6.9	59.4	60.150000000000006	71.25	76.2	70.19999999999999	78.3	73.95	72.3	65.25	58.050000000000004	51.300000000000004	44.25	37.35	30.9	24.9	19.35	18.15	12.9	10.95	9.3	8.1	6.9	5.7	4.95	43.35	37.2	31.5	24.3	19.35	11.700000000000001	3.0
Node 13		0.3	0.3	0.44999999999999996	0.8999999999999999	3.9	35.55	35.85	35.85	36.15	36.3	36.449999999999996	31.05	25.650000000000002	20.1	14.7	9.15	3.45	2.1	2.1	7.35	78.0	82.65	85.05	92.7	89.85	84.15	88.5	81.45	74.1	85.65	85.8	79.95	72.15	63.9	56.39999999999999	48.3	40.8	34.050000000000004	26.700000000000003	19.950000000000003	13.350000000000001	7.6499999999999995	3.0	28.799999999999997	49.2	47.55	57.9	63.449999999999996	57.3	51.74999999999999	46.050000000000004	48.9	41.55	34.8	28.199999999999996	21.3	15.0	10.05	5.4	3.45	3.5999999999999996	3.0	2.85	2.55	2.4	2.1	1.7999999999999998	1.6500000000000001	41.699999999999996	35.85	28.799999999999997	22.2	15.299999999999999	9.3	2.25
Node 15		0.3	0.6	0.75	0.8999999999999999	1.5	41.699999999999996	41.85	42.0	42.15	42.3	42.449999999999996	36.3	29.849999999999998	24.75	19.2	12.75	6.9	2.4	2.7	3.9	80.4	76.05	85.65	92.4	90.9	82.65	87.6	79.95	79.2	89.1	86.55000000000001	79.5	72.15	63.9	56.39999999999999	48.449999999999996	41.099999999999994	34.35	27.3	20.4	13.950000000000001	7.8	3.15	3.15	53.1	62.849999999999994	66.3	76.64999999999999	72.89999999999999	77.4	70.35	62.849999999999994	55.50000000000001	48.75	41.699999999999996	34.65	28.199999999999996	21.45	15.15	10.95	6.6000000000000005	3.0	3.15	3.15	2.85	2.4	2.25	29.849999999999998	42.15	36.3	31.65	24.3	19.5	11.700000000000001	3.0
Node 32		0.6	0.8999999999999999	0.8999999999999999	1.2	5.4	35.699999999999996	42.0	42.449999999999996	42.9	43.2	43.65	38.4	31.5	25.650000000000002	19.950000000000003	13.8	8.4	3.75	4.05	33.15	79.5	76.35	72.45	93.45	85.5	84.0	78.75	71.25	63.14999999999999	88.5	84.75	76.8	69.3	61.95	54.449999999999996	47.099999999999994	39.45	32.550000000000004	25.8	19.2	12.9	6.45	3.75	22.35	48.9	46.050000000000004	68.25	73.2	79.05	74.1	67.05	59.699999999999996	52.05	45.0	38.4	31.8	24.75	18.0	11.85	7.5	3.9	2.55	2.4	2.1	1.95	1.6500000000000001	13.05	28.050000000000004	40.65	34.949999999999996	28.199999999999996	21.45	14.7	8.7	2.25
Node 6		0.3	0.75	0.8999999999999999	1.05	2.1	42.9	43.2	43.8	44.85	45.0	45.6	39.75	32.7	26.55	20.849999999999998	14.85	8.85	4.35	12.6	65.7	78.75	86.55000000000001	87.9	94.5	90.75	84.75	87.75	84.0	76.5	69.15	62.1	54.75	47.4	39.45	32.4	24.45	17.1	11.55	6.45	5.8500000000000005	6.15	6.75	6.45	6.15	5.8500000000000005	5.25	4.5	4.8	4.5	4.65	4.65	60.6	53.25	46.35	40.35	33.45	26.55	20.1	13.950000000000001	9.45	6.3	4.8	4.8	4.35	3.5999999999999996	7.049999999999999	13.05	28.199999999999996	41.099999999999994	35.25	28.199999999999996	21.45	14.85	9.15	2.25
Node 9		0.75	0.75	1.05	1.05	3.75	42.75	46.5	46.949999999999996	48.0	48.15	48.6	42.6	36.15	30.0	23.7	17.1	11.1	8.85	6.6000000000000005	53.7	65.25	78.3	84.6	91.5	89.1	86.4	87.6	80.55	73.35000000000001	90.0	87.0	82.8	75.14999999999999	67.2	59.699999999999996	51.449999999999996	43.95	36.3	29.099999999999998	21.6	15.15	8.85	6.0	50.7	53.849999999999994	60.45	58.5	63.6	79.05	77.85	74.7	71.25	63.449999999999996	56.10000000000001	49.2	41.85	34.949999999999996	28.499999999999996	22.35	17.25	12.3	6.6000000000000005	4.5	3.3000000000000003	3.15	3.0	2.85	20.4	41.55	35.85	31.2	24.0	19.35	11.700000000000001	3.0
Node 26		0.75	0.8999999999999999	1.05	1.5	4.95	42.449999999999996	46.050000000000004	46.2	46.5	48.3	48.449999999999996	42.449999999999996	35.699999999999996	30.0	24.3	18.15	12.15	6.6000000000000005	5.25	38.7	64.64999999999999	86.55000000000001	81.3	93.60000000000001	90.14999999999999	84.45	87.0	81.15	73.05	85.95	85.8	79.05	71.55	63.3	56.10000000000001	48.449999999999996	47.85	40.8	34.050000000000004	26.85	20.25	13.65	9.3	50.24999999999999	53.1	50.24999999999999	48.9	62.7	56.699999999999996	65.10000000000001	71.85000000000001	65.10000000000001	57.9	51.0	44.55	37.5	30.3	24.6	18.75	14.549999999999999	10.2	6.0	4.5	4.5	4.2	4.05	6.9	27.150000000000002	39.900000000000006	34.050000000000004	27.3	20.849999999999998	14.549999999999999	11.700000000000001	3.0
Node 34		0.6	0.6	0.75	1.2	6.45	42.6	46.800000000000004	47.699999999999996	48.15	48.449999999999996	49.2	43.05	36.0	29.7	23.549999999999997	17.25	11.1	5.8500000000000005	4.35	58.5	79.05	79.95	85.2	91.5	90.14999999999999	85.5	83.39999999999999	81.15	78.75	88.5	84.6	76.64999999999999	68.85	61.050000000000004	53.25	45.300000000000004	37.95	30.9	24.0	17.25	11.1	4.8	2.25	2.25	43.95	57.45	68.10000000000001	73.2	71.85000000000001	75.44999999999999	67.95	60.75000000000001	53.7	46.5	40.2	32.85	26.25	19.8	13.200000000000001	8.85	4.8	2.1	2.25	2.25	2.25	2.1	1.7999999999999998	1.7999999999999998	1.5	1.35	26.85	24.15	16.8	11.55	3.0
Node 14		0.75	1.2	1.35	1.6500000000000001	2.1	2.4	2.7	3.15	3.5999999999999996	3.9	4.05	3.9	3.75	3.5999999999999996	3.45	3.15	3.0	2.85	2.85	60.45	80.4	82.65	86.85000000000001	94.35	89.4	84.45	87.15	82.35	74.25	67.35	60.3	52.349999999999994	50.7	43.05	35.55	27.3	20.1	14.7	9.45	7.199999999999999	5.1	3.45	3.0	3.3000000000000003	3.15	59.85	71.1	72.45	78.9	75.9	68.85	61.8	54.300000000000004	47.4	40.8	33.6	26.85	20.549999999999997	13.950000000000001	9.45	5.55	3.15	3.0	3.0	2.7	2.25	2.1	1.7999999999999998	1.35	1.05	0.8999999999999999	0.75	0.6	0.3	0.0
Node 35		0.6	0.6	0.75	1.05	2.1	42.6	46.5	49.5	50.4	50.849999999999994	51.74999999999999	46.050000000000004	39.15	32.7	27.0	20.4	14.099999999999998	8.55	5.7	59.85	79.5	81.15	80.7	89.85	89.7	85.05	87.75	80.55	78.75	89.7	85.95	78.3	70.35	62.7	55.05	46.949999999999996	39.45	32.7	25.650000000000002	18.75	12.15	6.3	3.45	3.5999999999999996	3.5999999999999996	3.5999999999999996	3.5999999999999996	3.45	3.45	3.0	2.7	2.7	2.55	2.1	2.1	1.95	2.1	1.7999999999999998	1.7999999999999998	1.6500000000000001	1.6500000000000001	1.7999999999999998	1.7999999999999998	1.6500000000000001	1.5	1.35	1.05	0.8999999999999999	0.75	0.75	0.75	0.75	0.44999999999999996	0.3	0.0
Node 4		0.15	0.15	0.75	0.75	1.2	42.9	42.9	42.9	43.05	43.2	43.65	37.8	31.2	25.2	19.05	13.05	7.049999999999999	3.0	7.049999999999999	79.35	81.0	89.7	90.45	99.75	93.60000000000001	85.5	77.85	87.3	78.9	89.7	81.89999999999999	73.2	64.95	56.699999999999996	48.449999999999996	40.35	32.7	25.5	17.7	10.95	4.8	2.25	2.25	55.50000000000001	64.05	70.35	69.3	79.05	76.5	80.4	79.05	71.7	64.64999999999999	57.45	50.4	42.6	35.4	28.65	22.2	16.650000000000002	10.95	4.65	3.15	2.7	2.1	1.95	1.7999999999999998	1.6500000000000001	1.6500000000000001	1.5	1.05	26.1	19.35	11.700000000000001	3.0
Node 3		0.44999999999999996	0.44999999999999996	0.75	0.8999999999999999	1.05	43.5	46.949999999999996	47.099999999999994	47.099999999999994	47.4	47.699999999999996	41.25	34.35	27.900000000000002	21.6	15.0	8.7	3.75	1.95	2.25	2.85	2.85	2.7	95.39999999999999	91.95	87.45	88.5	80.55	72.45	89.4	87.45	80.7	72.89999999999999	64.8	56.99999999999999	48.75	41.099999999999994	34.050000000000004	27.150000000000002	19.950000000000003	13.200000000000001	6.75	2.1	1.6500000000000001	1.95	40.65	70.19999999999999	75.6	78.14999999999999	75.14999999999999	73.5	66.45	61.35	54.15	47.55	40.050000000000004	32.85	26.1	19.5	14.099999999999998	9.3	4.35	3.15	2.25	1.7999999999999998	1.7999999999999998	1.35	29.25	41.25	35.85	28.799999999999997	22.05	15.0	9.3	2.55
Node 27		0.44999999999999996	0.75	0.8999999999999999	1.2	3.5999999999999996	42.75	46.050000000000004	49.35	49.5	49.65	49.95	43.95	37.35	30.9	24.9	19.05	13.05	7.049999999999999	3.75	39.0	79.80000000000001	86.7	79.35	95.25	90.3	82.19999999999999	88.2	81.3	73.05	90.3	87.45	80.25	72.75	64.64999999999999	57.45	49.5	42.15	34.949999999999996	28.050000000000004	21.3	14.549999999999999	8.25	4.05	3.9	3.5999999999999996	3.45	2.85	2.85	2.55	2.7	2.4	2.7	2.7	2.55	2.1	2.4	2.85	2.85	3.15	2.85	3.15	3.0	3.0	2.55	2.4	2.4	2.25	1.7999999999999998	1.35	1.2	0.8999999999999999	0.75	0.3	0.15	0.0
Node 28		0.3	0.3	0.6	0.8999999999999999	3.0	35.55	35.699999999999996	37.05	50.4	50.7	51.74999999999999	45.300000000000004	39.0	32.4	26.1	19.650000000000002	13.5	7.8	12.0	52.2	79.65	75.0	67.95	94.65	89.1	85.95	79.2	72.45	74.25	89.7	87.0	80.7	77.4	70.95	63.6	55.95	48.75	41.25	33.75	27.450000000000003	20.849999999999998	14.249999999999998	9.45	7.049999999999999	6.15	55.35	71.39999999999999	72.6	65.10000000000001	77.85	73.95	66.45	58.650000000000006	51.74999999999999	45.15	37.95	30.75	26.85	20.1	15.45	11.25	6.9	5.1	4.8	4.5	7.199999999999999	14.399999999999999	29.099999999999998	41.4	35.699999999999996	28.499999999999996	21.75	15.0	9.3	2.55
Node 11		0.75	1.05	1.2	1.2	1.35	1.35	1.5	1.6500000000000001	2.25	3.0	3.5999999999999996	3.0	3.0	2.85	2.85	3.15	3.15	3.3000000000000003	3.3000000000000003	3.0	2.85	2.55	2.1	2.25	2.4	2.55	2.7	2.85	3.3000000000000003	3.15	3.3000000000000003	3.45	3.5999999999999996	3.45	3.3000000000000003	3.45	3.3000000000000003	3.15	3.45	3.0	2.7	2.85	2.85	2.85	2.7	2.55	2.85	2.7	2.7	2.7	2.4	2.7	2.55	2.55	2.25	2.25	1.95	2.1	1.95	2.1	1.95	2.25	2.1	1.95	1.7999999999999998	1.6500000000000001	1.6500000000000001	1.5	26.55	23.1	18.75	15.0	9.6	6.15	1.5
Node 33		0.75	1.05	1.05	1.05	1.35	41.25	48.0	48.9	49.2	49.2	49.35	42.75	35.85	29.4	23.7	17.4	11.25	5.4	3.0	2.1	7.5	82.05	81.89999999999999	94.35	90.60000000000001	87.0	89.4	84.75	82.8	91.05	88.35	83.39999999999999	75.9	67.80000000000001	60.0	51.6	44.25	36.9	29.25	22.05	15.45	9.0	3.9	2.4	41.55	56.25	74.85000000000001	79.80000000000001	82.5	79.35	77.55	76.35	70.65	62.7	55.05	47.699999999999996	40.35	33.6	26.25	20.549999999999997	13.950000000000001	8.7	4.65	2.55	2.4	2.25	1.95	1.7999999999999998	33.900000000000006	39.45	33.45	26.55	18.75	10.8	2.7
Node 25		0.0	0.3	0.3	0.75	1.05	42.3	42.3	42.449999999999996	42.75	43.2	43.5	37.95	31.5	25.5	20.25	13.8	7.6499999999999995	3.3000000000000003	3.3000000000000003	58.8	78.9	85.8	79.35	91.35	83.1	75.0	67.35	59.550000000000004	79.2	87.6	86.7	80.4	72.89999999999999	65.4	58.050000000000004	49.95	42.3	35.4	28.199999999999996	21.3	14.85	8.4	4.35	3.9	30.75	60.9	69.3	74.25	79.65	76.35	69.0	61.8	54.15	46.800000000000004	39.75	32.4	25.35	19.05	12.75	8.7	5.1	3.15	3.15	2.85	2.7	2.55	2.4	2.1	1.7999999999999998	2.1	1.7999999999999998	1.5	19.650000000000002	11.700000000000001	3.0
Node 23		0.75	0.75	0.75	0.8999999999999999	1.2	35.699999999999996	35.85	36.75	36.9	36.9	37.05	31.65	39.0	32.7	26.700000000000003	20.4	14.399999999999999	9.15	6.75	50.4	79.05	82.95	88.5	95.1	88.64999999999999	80.7	72.45	82.8	78.9	89.25	86.55000000000001	83.1	78.3	71.85000000000001	64.95	56.699999999999996	49.5	41.85	34.5	27.3	20.4	13.65	20.25	52.2	56.39999999999999	63.449999999999996	75.44999999999999	69.45	62.55	56.39999999999999	75.6	70.35	63.0	55.800000000000004	48.75	41.4	35.25	30.3	23.7	18.15	12.9	6.6000000000000005	4.35	4.65	4.2	4.2	4.05	29.7	42.15	37.35	31.8	24.45	17.1	10.5	2.7
Node 22		0.6	0.8999999999999999	0.8999999999999999	1.2	1.35	5.4	5.8500000000000005	6.0	6.15	9.0	9.75	9.15	8.7	7.8	7.5	6.3	6.15	6.0	5.4	45.6	79.65	87.75	87.6	92.4	88.35	81.6	88.35	81.6	73.65	90.3	86.85000000000001	81.3	73.8	68.10000000000001	60.6	53.1	45.75	39.0	31.8	24.75	17.849999999999998	11.700000000000001	6.9	50.849999999999994	47.55	60.0	68.7	77.10000000000001	78.9	77.10000000000001	73.5	70.95	65.55	59.699999999999996	53.25	46.2	39.300000000000004	33.0	26.1	20.4	15.15	11.25	8.7	7.199999999999999	6.15	5.25	4.5	30.0	42.3	36.449999999999996	29.25	22.35	15.299999999999999	9.45	2.55
Node 10		0.15	0.3	0.8999999999999999	0.8999999999999999	1.5	43.05	46.5	46.650000000000006	46.949999999999996	47.099999999999994	47.4	40.949999999999996	34.2	27.750000000000004	21.45	14.85	8.7	3.5999999999999996	2.1	2.1	1.95	2.25	70.95	84.45	91.05	82.95	84.6	81.6	75.44999999999999	88.05	85.05	81.89999999999999	74.25	66.0	58.5	50.55	43.05	35.85	28.65	21.45	14.85	8.55	4.05	2.1	2.1	2.25	2.25	2.55	81.3	78.75	74.85000000000001	70.19999999999999	62.55	55.35	48.449999999999996	41.4	34.35	28.199999999999996	21.0	16.05	11.4	6.45	4.5	4.35	4.05	3.75	3.15	2.7	2.4	2.55	32.550000000000004	25.05	17.4	10.95	2.7
Node 12		0.0	0.3	0.8999999999999999	1.05	1.5	1.5	1.7999999999999998	2.1	2.1	2.25	2.55	2.55	2.7	2.7	2.1	2.25	2.1	2.25	1.95	52.349999999999994	79.80000000000001	75.14999999999999	85.65	84.75	89.7	81.6	73.35000000000001	65.4	57.3	51.6	84.89999999999999	77.10000000000001	69.75	61.8	54.15	46.949999999999996	39.900000000000006	33.300000000000004	25.95	19.05	12.3	6.3	4.05	9.3	7.95	7.199999999999999	6.75	6.15	5.25	4.65	3.75	3.75	3.45	2.85	2.7	2.85	2.55	2.4	2.55	2.4	2.55	2.4	2.55	2.4	2.25	1.95	1.6500000000000001	38.550000000000004	40.5	36.3	29.849999999999998	24.3	17.7	11.700000000000001	3.0
Node 21		0.0	0.0	0.6	0.75	2.55	42.6	46.050000000000004	49.35	50.1	50.55	51.449999999999996	45.6	38.7	32.4	26.400000000000002	19.8	13.5	7.35	7.5	48.449999999999996	75.9	82.95	86.85000000000001	95.25	91.05	88.64999999999999	88.05	82.8	78.14999999999999	84.6	86.85000000000001	82.5	76.5	69.89999999999999	63.0	57.75	50.24999999999999	42.9	35.4	28.050000000000004	21.3	14.7	13.350000000000001	32.4	48.0	43.35	60.9	68.10000000000001	72.0	76.35	73.95	69.89999999999999	62.55	55.95	50.24999999999999	42.9	36.3	30.599999999999998	24.3	19.650000000000002	18.0	12.75	10.8	9.15	7.95	6.75	5.55	10.35	41.85	36.75	31.2	24.0	16.950000000000003	10.2	2.7
Node 39		0.15	0.6	0.8999999999999999	1.6500000000000001	3.0	42.3	46.050000000000004	46.2	46.2	46.949999999999996	47.25	41.099999999999994	34.65	28.349999999999998	22.5	16.5	10.35	5.25	6.9	66.3	80.10000000000001	86.4	79.80000000000001	94.8	89.85	86.7	81.75	80.10000000000001	72.0	88.2	82.8	75.9	67.95	59.85	52.2	44.1	36.75	29.849999999999998	22.650000000000002	15.75	9.3	3.45	3.15	50.24999999999999	53.1	59.550000000000004	67.65	73.35000000000001	66.45	75.75	68.85	68.85	61.050000000000004	54.0	47.25	39.900000000000006	32.7	26.400000000000002	20.4	15.0	10.05	4.5	2.55	2.1	2.1	1.7999999999999998	13.200000000000001	20.1	41.25	36.449999999999996	31.2	24.0	19.2	11.4	3.0
Node 40		0.0	0.0	0.0	0.0	9.15	42.75	49.2	50.24999999999999	50.4	50.4	50.4	43.5	36.3	29.549999999999997	23.1	16.2	9.6	3.5999999999999996	1.05	0.15	0.0	0.0	0.0	0.0	0.0	0.0	0.0	0.0	0.0	0.0	0.0	0.0	0.0	0.0	0.0	0.0	0.0	0.0	0.0	0.0	0.0	0.0	0.0	0.0	0.0	0.0	69.45	75.0	67.2	61.8	55.50000000000001	47.85	40.2	32.85	25.8	18.75	12.3	7.199999999999999	2.25	0.75	0.75	0.15	0.0	0.0	0.0	0.0	0.0	20.4	18.45	16.2	12.75	9.45	6.3	3.45	1.05
Node 0		0.3	0.75	0.8999999999999999	1.05	3.45	36.75	47.25	47.4	47.85	48.3	48.6	42.75	35.85	29.4	23.1	16.950000000000003	11.1	5.1	3.15	60.75000000000001	79.5	86.4	80.4	94.5	88.94999999999999	84.6	77.4	80.85	73.5	76.5	68.85	61.650000000000006	53.849999999999994	45.9	38.1	30.599999999999998	23.25	16.950000000000003	10.2	5.25	2.25	1.5	1.6500000000000001	32.4	48.9	43.8	39.300000000000004	60.3	72.6	66.3	59.099999999999994	65.55	58.35	51.15	44.25	36.9	30.0	23.7	16.8	12.15	8.25	4.2	2.4	2.25	2.1	2.1	1.95	1.6500000000000001	35.4	30.0	25.8	21.0	14.399999999999999	11.25	2.7
Node 1		0.6	0.8999999999999999	1.05	1.05	1.5	1.6500000000000001	1.6500000000000001	1.6500000000000001	1.7999999999999998	2.1	2.25	2.25	2.55	2.55	2.7	3.0	2.85	3.0	3.45	3.45	38.25	82.5	81.15	94.5	89.1	82.5	74.55000000000001	66.9	58.8	85.5	85.65	78.75	71.25	63.14999999999999	55.50000000000001	47.699999999999996	40.65	33.900000000000006	26.55	19.5	13.05	7.049999999999999	3.15	2.25	2.4	2.55	2.7	49.65	49.8	76.95	69.75	63.74999999999999	56.699999999999996	49.8	43.05	35.85	28.799999999999997	22.35	15.6	11.1	6.75	4.05	3.9	3.3000000000000003	2.55	2.1	1.95	1.6500000000000001	1.35	1.05	0.8999999999999999	0.6	0.44999999999999996	0.3	0.0
Node 16		0.3	0.44999999999999996	0.44999999999999996	0.6	0.75	41.85	42.0	42.3	42.449999999999996	42.75	43.05	37.35	30.75	24.75	19.05	12.75	6.6000000000000005	2.1	2.1	64.8	79.35	86.1	79.05	94.35	90.45	85.8	78.0	70.35	62.4	89.1	87.6	81.6	75.3	67.05	59.550000000000004	51.300000000000004	43.95	36.9	29.4	22.35	15.45	8.85	3.75	52.65	51.449999999999996	59.699999999999996	70.19999999999999	76.5	73.35000000000001	79.35	75.14999999999999	67.5	60.45	53.1	45.9	38.7	32.1	25.35	18.15	12.6	7.5	2.85	2.55	2.25	2.1	1.95	15.15	29.25	41.4	35.699999999999996	28.799999999999997	24.0	19.2	11.25	2.85
Node 31		0.75	0.8999999999999999	0.8999999999999999	1.05	1.95	43.65	46.650000000000006	50.1	50.7	51.300000000000004	51.6	45.6	38.7	31.95	26.1	19.650000000000002	13.5	7.5	4.35	3.3000000000000003	2.85	56.699999999999996	85.95	94.95	90.14999999999999	83.85000000000001	87.9	80.85	74.85000000000001	88.5	85.95	81.45	73.95	66.14999999999999	58.650000000000006	51.15	43.8	37.05	29.7	22.8	16.2	10.35	6.6000000000000005	8.25	8.4	8.25	72.75	78.9	75.3	76.35	75.9	72.3	65.10000000000001	58.35	54.75	47.55	40.949999999999996	34.35	27.750000000000004	22.650000000000002	16.8	10.8	7.6499999999999995	5.4	4.05	2.7	19.2	36.6	41.55	35.85	31.05	24.15	17.1	10.5	2.7
Node 38		0.3	0.6	0.8999999999999999	0.8999999999999999	2.55	42.6	47.85	48.0	48.75	52.949999999999996	53.1	46.5	39.6	33.15	27.150000000000002	20.7	14.549999999999999	8.55	6.15	5.8500000000000005	79.95	87.15	80.25	94.8	89.55	81.3	73.35000000000001	83.7	79.35	89.7	87.15	80.7	74.25	67.05	59.699999999999996	51.300000000000004	43.95	37.65	30.599999999999998	23.7	17.25	10.2	5.4	49.35	51.300000000000004	59.25	54.0	49.05	43.35	69.89999999999999	72.0	71.25	63.6	56.85	49.8	42.6	36.15	29.549999999999997	22.95	17.549999999999997	12.15	6.45	3.75	1.95	1.6500000000000001	1.35	14.399999999999999	22.8	40.65	34.949999999999996	28.050000000000004	25.5	18.0	10.8	2.85
Node 5		0.8999999999999999	1.2	1.35	1.95	2.1	2.4	2.55	2.55	2.55	2.85	3.0	3.0	2.55	2.25	2.7	2.25	2.4	2.25	2.85	54.300000000000004	80.55	87.45	88.64999999999999	95.1	90.75	84.89999999999999	87.9	83.39999999999999	79.05	88.64999999999999	84.75	76.8	69.0	61.050000000000004	53.7	45.45	37.8	31.2	23.7	16.650000000000002	10.05	3.75	2.1	2.25	2.55	2.7	2.85	44.85	78.60000000000001	73.95	74.85000000000001	70.19999999999999	64.64999999999999	58.050000000000004	51.0	43.5	36.75	30.45	23.7	18.15	12.6	6.9	4.35	2.4	1.6500000000000001	1.35	12.6	29.25	39.900000000000006	36.0	28.799999999999997	21.9	15.0	9.3	2.55
Node 37		0.75	1.05	1.2	1.35	4.65	43.05	47.4	47.699999999999996	47.85	48.0	52.05	46.35	39.15	32.85	27.150000000000002	20.549999999999997	14.099999999999998	8.25	5.7	59.25	78.45	80.85	84.6	93.75	90.14999999999999	85.35000000000001	86.85000000000001	79.35	71.1	85.5	78.0	70.5	62.849999999999994	55.35	47.85	40.2	32.7	26.1	18.6	11.85	6.0	2.4	2.55	2.4	2.25	2.4	2.4	2.25	2.7	2.7	2.85	3.0	3.3000000000000003	3.45	3.3000000000000003	3.15	3.3000000000000003	3.15	3.15	3.0	3.0	2.7	2.4	2.25	1.95	1.6500000000000001	1.6500000000000001	1.6500000000000001	1.35	0.75	0.6	0.44999999999999996	0.0	0.0	0.0
Node 18		0.15	0.3	0.8999999999999999	1.05	1.5	41.699999999999996	41.85	42.15	42.3	42.6	43.35	37.35	31.05	25.2	19.35	12.9	6.75	3.3000000000000003	3.3000000000000003	60.75000000000001	80.25	83.55	86.25	96.0	92.4	87.6	88.94999999999999	83.1	80.55	75.0	67.80000000000001	59.699999999999996	52.05	44.4	36.449999999999996	28.65	21.15	15.45	9.15	5.4	4.2	4.05	3.5999999999999996	32.25	38.1	60.6	55.50000000000001	50.24999999999999	72.89999999999999	65.85	58.95	51.6	44.1	37.5	30.75	23.549999999999997	16.950000000000003	11.85	6.6000000000000005	3.45	2.85	2.7	2.85	3.0	2.85	2.4	6.75	5.55	41.699999999999996	36.75	31.2	24.3	19.05	11.4	3.0
Node 7		0.3	0.6	0.6	0.8999999999999999	6.45	42.3	47.699999999999996	47.85	48.6	48.75	48.75	42.15	35.099999999999994	28.95	23.1	16.650000000000002	11.4	5.8500000000000005	3.75	62.1	79.95	87.3	82.05	95.85000000000001	91.8	84.6	88.8	83.55	77.4	90.3	87.15	82.8	75.0	66.75	59.099999999999994	51.0	43.5	36.0	29.25	22.2	15.299999999999999	9.15	4.35	50.849999999999994	46.650000000000006	42.3	37.8	33.6	79.2	76.64999999999999	73.2	70.8	63.449999999999996	56.39999999999999	49.35	42.15	35.4	29.099999999999998	22.650000000000002	17.25	12.6	7.5	5.1	3.5999999999999996	3.3000000000000003	3.0	13.05	21.3	40.2	36.15	28.95	22.05	16.5	11.55	2.7
Node 8		0.44999999999999996	0.75	1.05	1.05	2.4	40.2	40.8	41.4	42.15	42.449999999999996	42.6	36.6	33.0	27.0	20.7	15.0	8.85	5.8500000000000005	5.4	67.35	83.25	90.0	88.8	91.05	90.75	84.15	76.2	68.55	78.75	84.75	86.25	80.85	73.5	65.10000000000001	57.3	49.35	42.449999999999996	35.4	27.750000000000004	20.849999999999998	14.099999999999998	8.7	3.9	2.4	2.1	63.0	60.75000000000001	55.65	68.10000000000001	75.6	68.55	62.4	54.900000000000006	48.0	41.25	34.050000000000004	27.150000000000002	21.3	20.4	15.45	11.25	8.4	8.25	7.95	7.35	6.45	5.7	4.95	32.7	36.75	31.2	24.15	17.1	10.35	2.55
Node 17		0.8999999999999999	1.2	1.2	1.5	1.5	42.75	43.2	43.65	45.45	45.6	46.2	40.050000000000004	33.6	27.3	21.6	15.15	8.85	4.2	3.5999999999999996	3.15	3.45	3.45	3.15	2.85	3.15	2.55	2.4	30.599999999999998	74.55000000000001	67.35	60.3	53.25	45.9	38.25	31.5	23.7	16.650000000000002	11.4	6.45	5.8500000000000005	6.15	6.75	6.45	39.0	35.4	48.449999999999996	68.25	65.85	79.2	74.25	67.35	62.1	54.6	47.55	41.25	34.050000000000004	27.0	20.549999999999997	14.099999999999998	9.6	6.3	4.65	4.65	4.2	3.5999999999999996	5.4	12.75	27.750000000000004	41.55	36.449999999999996	31.05	24.0	17.549999999999997	11.4	2.85
Node 30		0.75	0.8999999999999999	1.05	1.6500000000000001	1.95	2.4	2.4	2.55	2.85	3.0	3.3000000000000003	2.85	2.85	3.15	3.3000000000000003	3.0	2.85	2.55	3.0	3.0	2.85	3.0	3.0	3.0	3.0	2.7	2.7	2.85	3.0	3.0	3.0	3.15	3.0	2.7	2.4	2.4	2.4	2.25	2.25	2.1	2.25	2.25	2.1	1.95	2.1	2.1	2.25	2.1	1.95	1.95	1.95	1.7999999999999998	1.35	1.5	1.5	1.6500000000000001	1.7999999999999998	1.7999999999999998	1.95	1.95	2.25	2.4	2.4	2.4	2.4	2.1	1.7999999999999998	1.5	1.2	1.2	0.8999999999999999	0.8999999999999999	0.6	0.3	0.0
Node 24		0.15	0.44999999999999996	0.75	1.2	12.75	43.05	46.5	46.5	46.650000000000006	46.650000000000006	46.800000000000004	40.65	34.050000000000004	27.3	21.6	15.45	9.45	3.9	2.1	2.25	2.4	55.65	87.9	88.94999999999999	80.4	72.89999999999999	64.95	57.599999999999994	49.65	42.449999999999996	35.85	82.35	76.5	69.89999999999999	63.14999999999999	55.05	47.699999999999996	40.050000000000004	33.15	26.25	19.650000000000002	13.200000000000001	8.55	51.15	46.800000000000004	42.0	37.95	65.55	58.8	60.75000000000001	72.89999999999999	66.0	58.199999999999996	51.0	46.35	39.6	32.4	25.8	19.35	13.950000000000001	9.75	4.8	3.15	2.85	2.55	1.95	3.9	3.15	9.3	36.6	31.35	25.35	18.15	11.85	3.0
Node 36		0.44999999999999996	0.44999999999999996	0.8999999999999999	1.05	1.2	41.4	43.2	48.75	49.5	49.95	50.849999999999994	46.800000000000004	40.5	34.65	30.0	23.7	18.3	13.5	10.2	16.950000000000003	78.9	80.85	81.6	89.7	90.14999999999999	82.8	87.0	81.3	76.5	89.1	86.25	80.55	72.45	64.35	58.35	50.849999999999994	43.8	37.35	30.45	24.0	17.849999999999998	11.85	7.199999999999999	27.450000000000003	58.5	61.95	71.1	76.05	73.95	77.7	75.44999999999999	68.25	61.5	57.45	50.55	43.5	36.3	29.849999999999998	23.400000000000002	18.3	12.15	7.6499999999999995	4.65	7.049999999999999	6.15	5.7	8.85	22.05	42.15	38.4	32.4	25.2	18.45	11.700000000000001	3.0
Node 2		0.0	0.44999999999999996	0.6	0.75	1.2	42.6	43.35	43.65	43.95	44.1	44.1	37.95	31.65	25.35	19.5	13.8	7.95	9.0	6.75	27.3	80.10000000000001	86.1	85.8	94.5	89.25	84.15	78.75	76.5	68.10000000000001	88.94999999999999	86.4	78.75	70.95	63.0	55.65	47.4	40.5	33.45	26.400000000000002	19.35	12.75	6.15	13.350000000000001	49.65	48.6	43.8	60.150000000000006	75.6	79.80000000000001	77.55	76.05	72.0	66.75	60.9	54.0	46.949999999999996	40.2	33.900000000000006	27.0	21.45	15.75	9.15	5.8500000000000005	3.15	1.6500000000000001	1.35	1.2	11.55	42.3	36.3	30.599999999999998	23.400000000000002	17.25	11.25	2.85
Node 19		0.3	0.75	1.2	1.5	1.95	42.3	43.35	44.1	44.4	44.85	45.300000000000004	48.75	41.699999999999996	35.55	29.549999999999997	23.25	17.4	12.15	9.0	40.949999999999996	78.45	75.44999999999999	76.35	88.64999999999999	84.75	77.4	78.45	70.8	62.849999999999994	55.35	83.39999999999999	75.14999999999999	68.10000000000001	60.150000000000006	52.949999999999996	45.75	38.4	31.65	25.05	18.75	12.6	6.45	3.75	19.8	37.65	59.099999999999994	67.65	73.05	66.60000000000001	75.9	68.85	66.14999999999999	59.25	52.2	46.050000000000004	39.15	32.4	26.25	19.8	15.15	10.8	6.45	4.5	4.2	3.45	3.15	6.3	5.25	41.699999999999996	36.75	31.5	24.15	17.1	10.2	2.55
