A22 0.533733337546983 
A12 0.493968566456467 
A40 0.48601624807396837 
A3 0.5192192387456978 
A0 0.5018703166144656 
A16 0.5438593155238743 
A35 0.49895701939423553 
A1 0.3979921449254102 
A32 0.49164591806328733 
A23 0.5195142330615427 
A15 0.5370179449973163 
A24 0.46511662488525585 
A28 0.5597185116509097 
A6 0.6192368108807373 
A27 0.47773991625700607 
A29 0.5105327447013533 
A25 0.49291225691938545 
A2 0.5300952066319966 
A30 0.0 
A13 0.4506531127914593 
A7 0.5730400500940119 
A20 0.5523248484665734 
A4 0.5911092995976452 
A39 0.47391147010475876 
A10 0.45333920464946925 
A19 0.5113677998947628 
A34 0.5415725910396714 
A14 0.43135194874452276 
A9 0.5219229077915788 
A8 0.5309041847142273 
A26 0.48199296753870285 
A36 0.5328011525149937 
A17 0.3766381626735537 
A31 0.4727559080913359 
A33 0.5693910226745579 
A21 0.5548632136254043 
A37 0.5343023285658633 
A5 0.5574426771877499 
A18 0.47508450377935285 
A11 0.2887316768344469 
A38 0.5744321447043051 
