Message stats for scenario SimBetHaggleInfocom_#SA_0.3
sim_time: 274883.0000
created: 3892
started: 101854
relayed: 96883
aborted: 4971
dropped: 98123
removed: 0
delivered: 2648
delivery_prob: 0.6804
response_prob: 0.0000
overhead_ratio: 35.5872
latency_avg: 16469.1416
latency_med: 14240.0000
hopcount_avg: 3.3746
hopcount_med: 3
buffertime_avg: 26851.2362
buffertime_med: 29203.0000
rtt_avg: NaN
rtt_med: NaN
