38 258
40 53
9 140
2 67
27 33
29 68
36 121
33 77
35 152
7 177
32 133
18 133
25 48
12 107
0 164
1 38
10 35
17 82
31 137
14 188
37 82
5 234
16 132
4 151
39 418
8 72
26 129
21 214
22 192
6 228
28 233
3 263
34 122
19 78
13 115
24 139
23 180
20 75
15 150
