22 214
4 176
28 174
40 137
10 32
23 93
35 169
37 69
8 53
34 120
12 139
14 228
36 136
33 88
0 188
17 89
25 48
24 159
18 202
16 84
19 98
9 136
20 51
2 71
6 128
38 85
1 40
39 264
15 126
11 13
21 294
27 46
29 73
5 121
32 153
13 145
3 132
26 194
31 153
7 230
