A26 0.5114096227633969 
A37 0.5506499240794789 
A12 0.46723161321262585 
A20 0.5780446651142538 
A1 0.46803423935566724 
A10 0.42030212948683515 
A28 0.5577981012536931 
A16 0.5226335393115698 
A19 0.5252339130262037 
A2 0.4836701591067833 
A21 0.5672025957650504 
A38 0.6075813789339423 
A14 0.43415941336965425 
A17 0.35679305801029776 
A33 0.5546477658734752 
A40 0.5568661164703066 
A30 0.0 
A9 0.5491619401871681 
A36 0.5426516702964781 
A35 0.5229715080829315 
A8 0.481831276609486 
A0 0.4895745822655223 
A7 0.5806480357815234 
A39 0.5122107715748675 
A15 0.47550596666606443 
A4 0.5919494996949266 
A32 0.4387741543921464 
A11 0.44289350838377556 
A23 0.48751572787687814 
A13 0.4951396069525051 
A31 0.4530251148851594 
A24 0.4439230025518069 
A27 0.47823667120484287 
A22 0.5318690161740267 
A18 0.5327576856178963 
A29 0.4808419765512708 
A3 0.5504860753972128 
A5 0.5634604050936991 
A34 0.601857968827831 
A6 0.6153131298509719 
A25 0.5129721477145524 
