29	2386
20	1876
13	2254
15	2456
32	2418
6	2018
26	2517
9	2594
34	2351
14	1673
35	1452
4	2491
27	1441
3	2289
28	2513
11	175
33	2562
25	2245
23	2658
22	2348
10	2214
12	1536
40	1068
39	2575
21	2616
31	2447
0	2383
16	2612
1	1639
38	2579
37	1385
5	2095
18	2246
7	2597
8	2422
17	1933
24	2415
36	2606
2	2571
19	2488
