Node	Value
26	75
37	28
12	67
20	53
1	32
10	13
28	91
16	71
19	32
2	58
21	105
38	68
14	105
17	52
33	64
40	35
9	56
36	101
35	26
8	44
0	96
39	136
7	96
15	83
4	105
32	70
11	3
23	80
13	41
24	107
31	86
27	13
22	83
29	40
18	77
3	120
5	44
34	73
6	81
25	38
