9 38.35855263157895
3 33.625657894736854
30 2.1750000000000007
16 37.653947368421065
6 27.588157894736838
37 24.094736842105267
21 41.555921052631554
18 29.958552631578947
35 24.824999999999992
38 38.066447368421045
34 32.275657894736845
12 13.701315789473677
28 37.12500000000001
7 39.36907894736842
0 29.026973684210517
29 31.667763157894736
4 37.34210526315788
36 39.195394736842125
19 28.99539473684212
32 31.06973684210526
15 36.42631578947368
26 32.388157894736835
1 23.101973684210527
5 29.978289473684214
23 37.436842105263146
27 25.52171052631579
10 30.392763157894734
14 22.482236842105266
40 10.993421052631575
22 34.8375
2 38.141447368421034
31 36.361184210526304
8 35.03881578947367
17 15.418421052631578
33 38.786842105263155
25 30.94736842105263
24 23.8203947368421
11 4.389473684210525
39 33.3157894736842
13 29.013157894736853
20 24.175657894736844
