Node	Value
22	54
12	58
40	44
3	92
0	69
35	43
16	64
1	38
32	63
23	91
15	47
24	90
28	73
6	82
27	16
29	33
25	31
2	50
7	95
13	44
20	56
4	170
39	193
10	9
19	32
34	60
14	99
9	64
8	39
26	63
36	87
17	47
33	55
31	99
21	93
37	22
5	57
18	104
11	3
38	55
