25 28.764473684210536
39 30.730263157894743
40 9.64342105263158
8 34.849342105263155
13 25.50394736842104
3 33.1184210526316
23 36.9078947368421
4 36.86250000000002
18 25.825657894736832
22 35.37236842105262
26 29.64276315789473
12 15.627631578947364
33 38.48684210526316
20 23.721710526315785
28 36.215131578947364
35 24.276315789473678
11 2.725657894736841
0 26.435526315789463
30 2.1750000000000007
21 41.52828947368422
32 29.127631578947373
38 38.06052631578947
14 19.64802631578947
5 29.85197368421052
24 27.19934210526316
27 24.653289473684218
7 38.24802631578946
15 35.482894736842105
2 37.14276315789474
6 27.76184210526316
16 36.65723684210526
17 14.098026315789472
10 28.059868421052634
29 30.282236842105256
31 35.86578947368421
1 21.33552631578948
19 30.963157894736845
9 38.271710526315786
37 23.04276315789475
36 38.27368421052632
34 29.411842105263155
