Message Drop for scenario SimBetHaggleInfocom_#SA_0.8
sim_time: 274883.0000

29	2636
2	2770
15	2646
19	2691
20	1998
39	2771
10	2421
31	2698
38	2726
32	2676
40	1361
0	2690
6	2218
23	2789
11	439
21	2810
16	2832
35	1586
27	1899
1	1936
18	2665
26	2768
28	2763
36	2808
3	2456
7	2922
37	1531
5	2254
14	2101
22	2510
30	218
4	2644
12	2001
13	2622
17	2171
34	2604
8	2636
9	2803
25	2657
33	2707
24	2692

