29 61
20 78
13 131
15 144
32 174
26 175
9 177
6 295
34 136
14 218
35 156
4 133
3 232
27 28
28 204
11 5
33 83
25 48
23 113
22 219
10 29
12 98
39 293
40 76
21 221
0 140
31 132
16 80
1 39
38 179
37 84
5 164
18 202
7 257
8 81
17 105
24 179
36 105
2 70
19 65
