Message stats for scenario SimBetHaggleInfocom_#SA_0.9
sim_time: 274883.0000
created: 3892
started: 100488
relayed: 95430
aborted: 5058
dropped: 96711
removed: 0
delivered: 2609
delivery_prob: 0.6703
response_prob: 0.0000
overhead_ratio: 35.5772
latency_avg: 16293.1077
latency_med: 14240.0000
hopcount_avg: 3.4186
hopcount_med: 3
buffertime_avg: 26889.1479
buffertime_med: 29025.0000
rtt_avg: NaN
rtt_med: NaN
