Node	Value
2	55
33	92
34	45
37	21
15	41
11	4
29	39
36	120
31	106
8	51
0	91
39	151
21	93
35	38
16	40
27	15
3	73
7	63
9	59
32	71
10	23
18	86
40	35
13	61
5	48
22	74
23	52
28	71
19	29
24	104
12	72
17	62
4	177
6	86
20	45
38	60
25	42
26	81
14	103
1	30
