12 24.34539473684211
26 41.840131578947364
37 26.40394736842106
20 27.428289473684213
1 29.707894736842114
10 34.776315789473664
28 42.41644736842106
2 42.49736842105263
16 42.02368421052631
19 37.991447368421056
21 45.41644736842106
38 42.459868421052626
14 32.621052631578955
17 27.95921052631579
33 41.03684210526315
30 2.1750000000000007
40 13.971710526315789
9 43.6717105263158
36 43.55723684210525
35 27.477631578947378
8 39.53092105263157
0 42.149999999999984
7 43.780263157894765
15 40.10526315789474
39 40.997368421052634
4 38.74934210526315
32 39.51118421052631
11 3.613815789473683
23 43.3875
13 37.6953947368421
24 37.186184210526314
31 41.45723684210526
22 41.26973684210526
27 28.90263157894738
18 36.465789473684204
29 39.30394736842104
3 37.12500000000001
5 34.199999999999996
34 39.45394736842105
6 31.434868421052634
25 37.61447368421053
