A22 0.5195446031940341 
A4 0.5377480788387681 
A28 0.5658109367710139 
A40 0.46164756951539004 
A10 0.4801811755182077 
A23 0.49836867327659956 
A35 0.5169454789980873 
A37 0.5207230506755676 
A8 0.5148691849402426 
A34 0.5313715739833086 
A12 0.4669834743463637 
A14 0.48040393758296795 
A36 0.5256458142075678 
A33 0.540937517467016 
A0 0.4976054965551737 
A17 0.48502869874104587 
A25 0.49359641241878094 
A24 0.4693547828625526 
A18 0.4967332861105469 
A16 0.5249679217384855 
A19 0.5126778331110663 
A9 0.5277748252745418 
A2 0.5311671481568033 
A20 0.5202874740101231 
A6 0.5572481853618464 
A38 0.5644080223841608 
A1 0.46007128363171373 
A39 0.4937209565834674 
A15 0.5200215630006163 
A11 0.307163282949774 
A21 0.5472863954000976 
A27 0.47323371007164494 
A29 0.5241657464078296 
A5 0.5383022744602165 
A30 0.3869488483779631 
A32 0.4756576968577852 
A13 0.4912217812982286 
A3 0.5321294738719939 
A26 0.49148100068638856 
A31 0.48780784862715343 
A7 0.5358312109539222 
