Node	Value
39	97
25	34
40	24
8	41
13	29
3	138
23	68
4	201
18	59
22	105
26	46
33	99
12	72
28	74
20	49
35	26
11	3
0	68
32	43
21	147
38	99
14	64
5	50
24	89
27	18
7	95
15	78
2	46
6	100
16	52
17	17
10	6
29	51
31	70
1	24
19	24
9	84
37	17
36	95
34	32
