Message Drop for scenario SimBetHaggleInfocom_#SA_0.6
sim_time: 274883.0000

36	2638
39	2514
10	2200
34	2405
38	2583
29	2431
31	2502
15	2478
2	2612
1	1745
11	361
12	1587
27	1751
23	2595
33	2610
5	2113
8	2529
25	2186
13	2462
35	1508
37	1456
3	2333
4	2622
0	2455
9	2651
19	2489
40	1315
32	2422
17	1872
22	2333
20	1886
21	2649
6	2023
28	2586
30	213
18	2220
7	2666
24	2516
16	2649
14	1890
26	2520

