36	2536
39	2401
10	2106
38	2504
34	2313
31	2389
29	2332
15	2380
2	2509
1	1635
11	262
12	1491
27	1642
23	2505
33	2520
5	2013
8	2436
25	2085
13	2377
35	1424
37	1367
4	2526
3	2242
9	2540
0	2368
19	2388
40	1315
32	2326
17	1784
22	2225
20	1796
21	2545
6	1927
28	2466
30	121
24	2426
7	2570
18	2122
16	2562
14	1785
26	2426
