A78	0.4146899877116411 
A4	0.43109324205737515 
A0	0.0 
A7	0.511174622939541 
A9	0.5203950996605856 
A74	0.4429539801025962 
A34	0.5826926907022508 
A31	0.3959357568397389 
A71	0.48961708550920835 
A69	0.46599083070485436 
A59	0.4938864252592622 
A25	0.4371228757879493 
A13	0.47965865328835905 
A11	0.4936145481816012 
A33	0.42236006699248047 
A47	0.24240384495220108 
A54	0.16458994512637498 
A30	0.4102976345669156 
A53	0.5221058119242508 
A23	0.5799308490639408 
A67	0.36175248588559245 
A39	0.30356584218951277 
A95	0.4919127091834233 
A8	0.3952103093251499 
A38	0.4894123007116785 
A43	0.6590055509550931 
A60	0.34358730975934376 
A88	0.49044669429142584 
A92	0.3857831036056323 
A10	0.43106885840580134 
A63	0.14594990690273524 
A19	0.41201848106235683 
A52	0.027495952918066894 
A36	0.5225672726368086 
A61	0.4877296298678297 
A2	0.41238071029391077 
A20	0.4166001471644876 
A91	0.43871300141212227 
A18	0.5398286600362414 
A15	0.5106495963422608 
A90	0.4893284802423878 
A6	0.5182431145768355 
A86	0.0 
A79	0.5156107770423226 
A75	0.6011595432191208 
A85	0.48407213410552075 
A49	0.47835259271138564 
A56	0.5918115333932724 
A77	0.5765559823534043 
A84	0.4931662119218181 
A62	0.4366285664429881 
A93	0.42428279050154205 
A21	0.4106161918045401 
A68	0.49099192334555836 
A80	0.4485590113646726 
A5	0.48291688792992427 
A27	0.4820050694764008 
A29	0.4461781991168032 
A94	0.44795599112897844 
A73	0.54320195382178 
A96	0.4557904598375877 
A58	0.5638729601372382 
A41	0.521106985993986 
A64	0.5082286889683278 
A16	0.5798263402988956 
A76	0.5107786125061012 
A35	0.37647831028413964 
A50	0.4842456153129776 
A37	0.4830104026585851 
A12	0.22053224158011978 
A46	0.47368077373770084 
A70	0.4696959247641172 
A81	0.5404617805429474 
A72	0.4669436333519243 
A55	0.5613970089602442 
A14	0.5142067879836355 
A65	0.41414291446584134 
A40	0.35014258628975353 
A51	0.0 
A28	0.6695206452078688 
A87	0.5847296967775348 
A89	0.3328016394703249 
A48	0.43503327436481587 
A3	0.46628970111037155 
A83	0.46002332297303894 
A42	0.740022862870371 
A45	0.47684164803044654 
A44	0.43006991666816397 
A57	0.47505697860608725 
A17	0.4316126893501323 
A26	0.3716163704924691 
A32	0.5511280736483807 
A1	0.3259167240373716 
A82	0.46075323079743397 
A22	0.519468756776237 
