28 85
22 125
16 137
35 56
11 1
25 9
14 47
40 42
0 80
10 13
37 28
31 78
9 85
26 39
19 23
23 99
4 191
38 89
34 41
24 82
7 81
20 53
18 101
13 43
33 125
29 15
8 53
17 2
21 172
27 14
15 61
36 91
5 115
1 10
6 114
2 50
12 104
3 121
32 44
39 153
