28	2169
22	2445
16	3077
35	1585
11	51
25	2094
14	1219
40	354
10	2329
0	1991
37	1204
31	2530
9	2899
26	1818
19	1375
23	2261
38	2468
4	3336
34	1579
24	1795
7	2721
20	2139
18	1726
13	1493
33	3223
29	1818
8	2338
17	760
21	2634
27	1247
15	2751
36	2767
5	1980
1	484
6	1840
2	2482
12	1207
3	2653
32	1443
39	2341
