28 7.892105263157893
22 8.473684210526313
16 9.15526315789474
11 0.8263157894736841
35 6.812499999999997
25 5.374999999999999
14 3.0894736842105264
0 4.919736842105263
10 5.205263157894737
40 1.9210526315789473
37 5.532236842105265
31 8.396052631578948
9 8.065789473684212
26 4.826973684210525
19 5.138815789473683
23 8.388157894736835
4 11.694078947368423
38 9.927631578947365
34 5.944078947368421
7 9.684868421052638
20 5.554605263157895
24 4.6848684210526335
18 6.085526315789473
13 4.959868421052632
29 5.661842105263159
33 11.63815789473684
8 7.910526315789471
17 1.8782894736842102
21 10.680921052631575
27 5.738815789473684
5 6.440131578947367
15 8.943421052631578
36 8.096052631578948
1 1.5276315789473685
6 7.665789473684212
2 9.119078947368417
12 2.515131578947368
30 0.725
3 8.035526315789474
32 5.178947368421052
39 7.1164473684210545
