62 34
20 4
58 91
16 104
55 1
53 124
43 15
6 81
93 7
28 2550
15 261
30 15
11 261
37 13
85 484
14 49
36 89
3 122
21 20
76 105
5 5
44 8
25 10
70 34
88 71
4 4
74 37
35 15
18 147
45 30
94 553
73 56
96 52
50 11
72 111
80 32
68 11
79 79
59 8
32 39
67 3
40 7
75 83
46 33
1 6
90 23
9 71
84 39
10 6
91 30
57 1
42 407
77 326
48 15
23 114
38 647
60 15
17 1
33 7
78 9
92 1
19 36
29 12
56 1029
83 73
39 8
22 32
49 134
81 132
34 584
69 43
71 105
31 5
7 65
82 63
65 10
95 767
27 2
26 18
41 177
13 107
2 20
64 54
