A17 0.3855471576162056 
A6 0.5056210937443515 
A34 0.5256849973620679 
A93 0.5004194965971088 
A35 0.4822679910480656 
A84 0.4920621013261378 
A83 0.4597389004868758 
A69 0.5451990966678839 
A70 0.44844096090110064 
A50 0.44719023908126027 
A22 0.4959474271242965 
A32 0.4829753280383142 
A21 0.5789246675937457 
A59 0.4625206002259828 
A18 0.5078613116962367 
A78 0.47093553631354096 
A60 0.5154802759282837 
A56 0.5216102750389804 
A58 0.5079744124140639 
A62 0.4785734997106666 
A54 0.1951030023489157 
A5 0.4605776638708738 
A57 0.4814744329324868 
A73 0.516494884626755 
A13 0.5074692675652361 
A39 0.5097143422914744 
A27 0.4618310825064048 
A53 0.5782714555374341 
A72 0.5155514977434434 
A76 0.5429389189315603 
A10 0.44278516387696865 
A43 0.5707412352220754 
A4 0.3691582803763914 
A33 0.44590052838787086 
A47 0.12846388120349422 
A3 0.5135387906808572 
A64 0.5929776056978593 
A68 0.4502525735562686 
A38 0.5243049050063272 
A48 0.45895490422503843 
A40 0.32238007503091876 
A16 0.5189164775943906 
A81 0.5354172652486174 
A8 0.3469214179027942 
A92 0.21566023611928214 
A19 0.5122544215234927 
A42 0.5296747715449273 
A63 0.1596542740723247 
A91 0.560358482983187 
A25 0.4799061575638774 
A45 0.4807672320594611 
A9 0.5385308179692513 
A37 0.49256496974410796 
A86 0.0 
A2 0.49269336556652543 
A87 0.4722738311021004 
A95 0.5255020365587336 
A67 0.3849155901224515 
A28 0.534184513639141 
A61 0.36148945771384583 
A82 0.4983602043406932 
A36 0.47032451746308895 
A65 0.5370814833142905 
A55 0.5358505548588922 
A46 0.528256530339548 
A80 0.5195346500233542 
A96 0.5447601880039745 
A23 0.578476680652576 
A20 0.45872496347124275 
A88 0.5246093183331314 
A79 0.5270969868368047 
A14 0.4816563607212988 
A41 0.517103500791338 
A0 0.02860501567398119 
A77 0.5141710743925673 
A90 0.4825936837108883 
A94 0.5150889145990291 
A11 0.5334310899355584 
A15 0.5552287907963008 
A12 0.3055322982326037 
A26 0.42785281259307134 
A49 0.5512589262381515 
A44 0.4327713521921954 
A31 0.4657545515533935 
A7 0.5098967846644057 
A29 0.42698583632153664 
A71 0.48564918785436023 
A1 0.5083527985235956 
A51 0.0 
A75 0.506845154246509 
A52 0.15155780705524072 
A74 0.4975144421767784 
A85 0.5177015089831677 
A89 0.4678952513264352 
A30 0.4568663373838438 
