Node	Value
34	287
20	33
50	27
80	90
60	16
15	146
18	90
23	76
77	307
71	55
93	31
52	16
75	78
85	284
51	3
36	72
81	79
61	10
87	17
94	305
3	44
56	799
21	27
29	26
57	2
27	23
28	2691
78	13
30	19
67	11
14	44
40	11
31	14
33	17
19	38
11	108
96	15
91	31
92	7
49	103
90	46
89	7
5	28
82	72
4	6
53	92
2	5
9	69
79	58
32	27
43	18
12	15
47	13
44	7
65	19
26	3
41	85
84	62
7	73
45	32
37	28
76	60
0	1
17	7
58	42
25	14
22	19
68	31
48	21
95	482
64	65
8	6
35	16
70	29
46	14
88	71
42	389
59	12
72	74
6	108
16	79
55	10
83	33
13	63
69	31
62	32
10	22
74	65
63	12
38	410
73	56
39	4
1	18
54	13
