72	496
1	12
26	68
55	6
22	149
25	31
73	275
5	23
10	19
42	2937
33	26
18	692
30	31
20	11
37	79
91	78
15	838
78	101
96	196
62	101
16	543
94	1873
85	2968
41	1763
6	297
71	344
13	566
43	146
28	27554
76	402
32	136
60	30
93	48
29	64
88	280
83	312
80	194
79	219
61	1
45	118
4	23
68	85
46	150
19	84
53	436
23	552
11	1184
65	27
50	41
81	557
56	5584
27	35
3	443
67	22
14	184
36	315
44	19
92	1
59	35
95	2560
64	269
58	466
70	74
39	34
49	457
82	176
9	382
34	2771
38	2900
35	14
2	55
69	176
74	141
57	22
40	13
7	151
21	48
84	159
31	18
48	69
90	64
75	537
77	1553
