Message stats for scenario SimBetReality#SA_0.1
sim_time: 16981816.0000
created: 25299
started: 89754
relayed: 76592
aborted: 13162
dropped: 92958
removed: 0
delivered: 8933
delivery_prob: 0.3531
response_prob: 0.0000
overhead_ratio: 7.5741
latency_avg: 618840.8585
latency_med: 480783.0000
hopcount_avg: 2.2634
hopcount_med: 2
buffertime_avg: 1232159.8960
buffertime_med: 1602009.0000
rtt_avg: NaN
rtt_med: NaN
