Message Drop for scenario SimBetReality#SA_0
sim_time: 16981816.0000

58	745
55	280
43	402
6	538
28	31983
15	1093
11	1632
85	2884
14	421
36	611
3	766
51	240
21	327
76	530
25	339
5	308
88	532
47	261
35	296
0	268
45	379
73	537
50	313
80	386
79	486
32	376
75	795
1	262
52	278
9	616
91	359
57	267
77	1925
48	318
17	256
29	329
56	5660
54	246
63	266
83	684
39	306
49	693
34	3036
69	429
71	722
82	439
26	353
87	292
8	249
13	708
2	321
64	537
62	377
20	253
16	838
12	273
53	711
93	300
30	269
37	352
44	285
70	369
74	413
4	311
18	879
94	2012
96	186
72	729
68	383
59	282
67	291
61	284
40	294
66	247
46	421
86	270
89	247
90	343
84	395
10	269
42	3085
23	810
38	3124
60	277
33	263
92	237
78	324
19	336
22	428
81	807
31	282
7	403
65	300
95	2652
24	270
27	273
41	1975

