42 28.285647657409307
0 2.863451346194612
35 3.088976044095818
95 31.644244223023094
48 3.8352766588933473
87 3.1521941912232303
69 4.3743057027771455
14 4.586983252067036
18 10.845346618613538
22 4.1311002755988255
93 3.294445622217505
15 8.64006783972873
45 4.123383506466027
10 2.840343438626205
28 71.98755564977725
72 7.204748781004878
78 3.5390078439686428
59 2.9256094975620095
61 3.0450074199703145
36 4.526287894848421
43 4.161755352978612
6 6.586008055967788
19 4.231990672037304
44 2.9727369090524016
41 16.275238499045926
80 5.590629637481427
56 58.830549077803454
92 2.5214967140131335
90 4.12781428874285
79 6.188255246979017
88 6.378715285138869
67 3.1497774008903283
68 3.7672885308459283
8 2.69018443926223
26 3.709370362518529
66 2.639029043883802
91 3.7453254186983016
27 3.3843544625821407
52 2.9702141191435287
38 29.48426966292142
51 2.564256942972201
24 2.884820860716559
34 25.012105151579455
65 3.5072927708289168
77 14.06989612041548
64 5.384100063599757
94 18.548399406402442
76 9.677570489718038
54 2.6283866864532652
89 2.639071443714228
33 2.7969896120415365
62 4.312804748780989
13 9.052872588509658
5 3.3188679245283104
70 3.5204579181683213
21 3.6344286622853197
57 2.9504345982615665
17 2.687640449438222
4 3.259465762136941
74 5.064723341106608
2 3.425100699597165
7 4.883252066991664
84 4.427983888064395
71 4.065825736697069
85 29.686771252915044
81 8.533517065931782
3 3.8483570065719417
11 7.337926648293357
32 4.109751960992119
31 2.9485478058087815
25 3.513631545473823
9 7.2252278990884
12 2.9168115327538726
16 6.641785032859853
96 2.586474454102256
63 2.841997032011885
73 5.903900784396882
39 3.10379478482089
86 2.8848208607165717
29 3.4755352978588068
50 3.2662073351706598
83 4.435213059147739
30 3.0878524485902457
47 2.7885308458766067
49 11.572736909052393
75 8.71782912868349
82 5.178800084799683
53 6.9417426330294925
1 2.993724825100716
46 4.015263938944184
60 3.1594869620521124
40 3.0023107907568405
58 7.076595293618791
37 3.458193767224925
55 3.053063387746452
23 7.064362942548219
20 3.393216027135901
