Node	Value
29	26
25	13
90	46
8	6
80	95
27	23
1	19
76	64
92	7
84	63
47	13
48	22
51	3
94	299
67	11
72	75
77	300
74	65
58	46
88	73
54	13
13	63
44	7
71	51
62	34
93	33
9	71
32	27
30	19
15	144
68	28
63	11
19	38
91	31
5	28
43	17
2	5
31	14
95	488
40	11
11	95
28	2622
69	33
18	95
17	6
56	842
39	4
78	14
75	77
65	20
70	27
89	6
38	424
57	2
49	108
37	26
0	1
34	297
26	4
16	80
79	61
46	11
20	34
73	56
4	6
59	12
12	14
50	24
96	16
21	29
7	76
23	78
35	15
60	17
53	97
81	76
10	24
85	300
55	10
14	43
22	19
52	16
41	82
36	71
42	382
6	115
33	19
61	9
87	17
83	34
82	71
45	32
3	39
64	65
