72 119
1 6
26 23
55 1
22 32
25 9
73 58
5 5
10 4
42 413
33 6
18 153
30 15
37 14
20 6
91 33
15 255
78 9
96 52
16 101
62 36
94 570
85 544
41 172
6 90
71 81
43 17
13 147
28 2556
76 152
32 38
60 16
93 6
29 13
88 70
83 73
80 67
79 79
45 32
4 4
68 14
46 27
19 41
53 130
11 258
23 124
65 10
50 12
81 139
56 1088
27 6
3 111
67 2
14 54
36 76
44 8
92 1
59 8
95 785
64 60
58 89
70 25
39 5
82 65
49 163
9 76
34 600
38 681
35 9
2 22
69 46
74 39
57 1
40 7
7 73
21 20
84 42
31 5
48 21
90 26
75 85
77 317
