90	80
19	113
96	249
76	685
33	20
10	19
6	389
15	713
39	23
23	494
11	599
60	43
83	199
37	70
79	312
85	3316
27	62
3	158
88	359
53	445
36	221
59	31
70	82
21	79
30	37
84	171
77	1384
9	482
16	469
8	1
50	36
73	305
31	19
71	180
25	32
13	688
44	16
94	1992
32	131
22	124
56	7293
58	483
41	1679
20	43
35	14
38	3255
4	26
5	27
68	64
28	24031
26	57
14	198
62	138
78	116
75	580
48	109
40	1
55	6
29	74
91	97
72	564
82	228
81	683
95	3203
17	1
7	209
42	3360
69	171
34	2665
2	63
61	1
1	28
43	146
64	266
65	53
80	283
67	32
45	133
57	34
74	185
93	56
46	113
18	930
49	882
