Message stats for scenario SimBetReality#SA_1
sim_time: 16981816.0000
created: 25299
started: 67758
relayed: 52755
aborted: 15003
dropped: 69171
removed: 0
delivered: 8883
delivery_prob: 0.3511
response_prob: 0.0000
overhead_ratio: 4.9389
latency_avg: 634614.3336
latency_med: 504894.0000
hopcount_avg: 2.1674
hopcount_med: 2
buffertime_avg: 1508498.8827
buffertime_med: 1763151.0000
rtt_avg: NaN
rtt_med: NaN
