16 7.043417426330323
18 11.103582785668808
31 2.9485478058087815
93 3.180220479118089
74 4.523150307398795
38 27.307504769980913
84 4.256455374178439
56 55.23139707441157
40 3.0126351494594235
51 2.564256942972201
12 2.9168115327538726
57 2.853974984100008
37 3.5167479330082756
60 3.023404706381138
95 26.531948272206897
70 3.464256942972245
32 4.0695145219418665
2 3.4264150943395912
88 5.851876192495219
77 14.942081831672624
20 2.8366758532965903
34 25.137396650413326
54 2.6283866864532652
50 3.169684121263542
6 5.976976892092434
87 3.119885520457911
58 6.805130379478524
26 3.8220267118931464
55 2.9909688361246602
1 2.8895272418910434
65 3.341382234471065
90 3.850455798176802
48 3.684354462582133
94 16.92018231927068
49 9.497434810260726
9 6.670638117447506
36 5.1496290014840005
73 5.723871104515581
92 2.5214967140131335
42 30.011702353190824
91 3.656794572821677
11 9.044668221326956
59 2.9484418062327884
79 5.4769132923468
75 8.08742845028624
61 3.0343862624549467
63 2.841997032011885
4 3.249650201399185
27 2.987449650201382
19 3.635085859656587
62 4.263536145855373
44 3.0468518125927835
89 2.639071443714228
25 3.432584269662918
29 3.4076319694721295
30 2.873690905236406
71 4.79412762348951
5 3.2787152851388606
82 4.684227263090967
81 8.674517701929187
8 2.660462158151356
68 3.841679033283898
52 2.9702141191435287
22 4.103370786516918
67 3.181746873012458
0 2.863451346194612
66 2.639029043883802
23 7.123701505193968
35 3.0888912444350174
78 3.36417214331146
83 4.706423574305717
76 7.871528513885937
3 4.558278566885736
43 4.162285350858582
10 2.840343438626205
15 8.65764256942981
69 4.448823404706352
17 2.669641721433135
33 2.758893364426556
7 4.379181683273225
80 4.999385202459238
64 5.3659741361034365
21 3.39219843120627
28 79.05685817256742
39 3.135043459826191
47 2.7885308458766067
41 16.91782912868353
14 4.617892728429095
85 28.709264362942562
53 7.0471486114055875
72 7.5618189527242
45 3.804197583209676
46 4.211426754292944
96 2.32009751960996
24 2.884820860716559
86 2.8848208607165717
13 8.598685605257618
