9	382
49	435
42	2858
37	78
40	13
72	499
71	370
53	423
55	6
90	59
44	19
56	5521
82	172
75	526
83	388
25	39
2	61
79	220
20	8
30	31
26	66
27	34
6	283
28	28820
69	174
39	34
31	18
59	35
85	2855
50	45
1	12
38	2884
70	102
35	14
19	81
88	304
13	483
32	126
60	28
74	138
16	552
68	86
41	1755
58	467
7	140
57	22
11	1251
96	188
64	260
14	178
92	1
15	836
23	550
10	20
80	182
62	97
18	625
73	270
22	159
78	99
43	146
77	1585
94	1788
76	334
33	26
36	317
5	22
93	48
3	483
61	1
21	48
65	27
45	117
91	79
81	534
84	154
95	2445
4	23
48	61
46	151
29	64
67	23
34	2801
