Node	Value
62	29
20	29
12	14
16	82
58	51
55	10
53	93
43	17
93	32
6	92
28	2625
15	144
30	19
11	132
37	28
85	255
14	41
36	87
3	45
51	3
21	28
76	55
5	29
25	12
44	7
70	27
88	69
74	65
4	5
47	13
35	18
0	1
18	75
45	32
94	299
73	56
96	13
50	29
72	71
80	72
68	33
79	57
59	13
32	31
67	11
61	10
40	10
75	78
46	18
1	17
52	16
89	8
90	49
9	74
84	61
10	22
91	32
57	2
77	318
42	369
23	70
48	22
38	397
60	17
17	7
33	16
78	13
92	7
19	40
29	28
56	733
54	13
63	12
83	38
39	4
22	19
81	68
49	81
34	274
69	33
71	70
31	14
7	72
82	66
65	19
95	450
27	23
26	3
87	18
41	82
13	58
8	6
2	5
64	69
