90 3.8704685181259393
96 2.4068687725249744
63 2.841997032011885
39 3.10379478482089
87 3.119885520457911
11 8.030655077379583
23 7.059889760440925
60 3.0738393046427483
79 5.771698113207561
85 28.957388170447288
27 3.1933432266270683
3 4.188382446470182
92 2.5214967140131335
47 2.7885308458766067
89 2.639071443714228
59 2.938583845664614
21 3.5910324358702206
77 14.67939368242519
73 5.766864532541874
13 8.72808988764042
44 2.98373966504138
94 17.56220055119773
32 3.972503709985108
58 6.7877676489294645
20 3.053572185711248
41 16.974560101759508
4 3.259465762136941
5 3.3188679245283104
38 28.077697689209213
68 3.7892728429086615
14 4.64753020987922
78 3.4451134195463586
75 8.184057663769304
40 3.0126351494594235
29 3.4509645961416173
55 2.9909688361246602
24 2.884820860716559
91 3.7037735849056674
82 4.934831460674157
17 2.669662921348336
34 25.18978164087343
2 3.4366122535509525
43 4.163430146279415
64 5.365825736697093
51 2.564256942972201
66 2.639029043883802
67 3.182573669705273
57 2.885774856900528
74 4.65558617765532
46 4.044307822768642
18 11.180983676065246
49 10.444350222599025
19 3.9219207123171764
33 2.7382446470214203
76 8.346173415306339
10 2.840343438626205
6 6.19548441806231
15 8.576298494806025
83 4.576001695993166
37 3.4831036675853317
88 6.070659317362699
53 7.033411066355739
36 4.867330930676275
70 3.483146067415746
30 2.894848420606343
84 4.26020775916895
0 2.863451346194612
9 6.908246767012903
8 2.6706805172779284
16 6.893110027559937
50 3.2038371846512774
31 2.9485478058087815
86 2.8848208607165717
25 3.462158151367382
71 4.453572185711253
22 4.102204791180828
56 57.37095611617554
35 3.086856052575784
28 76.79807080771697
54 2.6283866864532652
26 3.7596565613737343
62 4.364150943396208
12 2.9168115327538726
48 3.7552257790968833
72 7.763514945940232
81 8.713589145643404
95 28.39631121475509
7 4.541021835912604
42 29.874687301250805
69 4.416239135043426
61 3.0343862624549467
1 2.9466610133559663
65 3.44594021623914
52 2.9702141191435287
80 5.271507313970744
45 3.9915624337502704
93 3.222599109603569
