34 630
65 21
77 313
64 58
94 555
76 244
42 369
62 48
33 3
35 6
13 177
5 7
70 15
21 27
57 7
95 964
4 6
74 59
48 29
2 25
7 92
84 51
85 550
71 36
69 48
81 146
14 67
3 26
18 226
22 36
93 15
15 221
45 35
11 152
28 2335
32 30
10 4
78 17
72 111
31 5
25 11
59 4
61 1
9 119
16 93
96 60
36 42
43 13
73 84
6 128
44 6
19 59
41 179
80 118
50 12
29 13
56 1320
83 58
30 20
49 304
90 33
75 88
82 98
53 122
88 96
79 119
1 9
60 20
46 21
67 2
68 14
58 103
37 22
26 22
55 4
91 33
27 12
23 121
20 41
38 818
