Message stats for scenario SimBetReality#SA_0.3
sim_time: 16981816.0000
created: 25299
started: 87774
relayed: 74314
aborted: 13460
dropped: 90567
removed: 0
delivered: 9046
delivery_prob: 0.3576
response_prob: 0.0000
overhead_ratio: 7.2151
latency_avg: 621173.5597
latency_med: 481954.0000
hopcount_avg: 2.2863
hopcount_med: 2
buffertime_avg: 1278326.1321
buffertime_med: 1631610.0000
rtt_avg: NaN
rtt_med: NaN
