9 6.239834640661436
49 6.6604833580665534
37 3.5902268390926046
40 3.1194615221539355
63 2.841997032011885
72 7.125270298918792
53 6.938393046427768
55 2.9909688361246602
0 2.863451346194612
44 3.0314182743269327
66 2.639029043883802
90 3.6548653805384745
75 7.76756412974345
83 6.2176171295315
2 3.4143099427601955
79 4.940555437778257
20 2.70252278990884
86 2.8848208607165717
26 3.8556073775704762
27 2.9517065931736326
6 5.431185075259705
28 79.57926648293393
69 4.443693025227876
59 2.9769980920076353
51 2.564256942972201
70 3.6929616281534776
19 3.6330294678821113
13 7.397201611193573
68 3.992834428662314
58 6.851346194615249
11 13.775980496077974
96 1.8423150307398863
87 3.119885520457911
15 9.6434386262455
10 2.850137799448761
23 7.3525333898663945
62 3.963832944668261
80 4.2871740513038405
18 8.72486750053
12 2.9168115327538726
78 3.3030315878736487
77 16.267479330082654
94 16.087301250795104
33 2.7970532117871505
93 3.1381386474454325
65 3.1895272418910245
95 22.72599109603563
46 4.443629425482286
29 3.3712741149035352
67 3.0979648081407203
24 2.884820860716559
42 26.78730125079509
54 2.6283866864532652
71 5.9699173203307465
56 47.860038159847235
82 4.41823192707229
47 2.7885308458766067
25 3.5250582997668034
30 2.8461098155607685
31 2.937926648293388
39 3.2030527877888884
50 3.3129107483570395
85 25.37350010599969
1 2.79495442018232
38 25.03247827008687
35 3.095823616705528
32 3.934025863896587
60 2.9368030527877673
88 5.460101759592905
74 4.235403858384603
16 7.557663769344833
41 17.468539325842528
7 4.012507949968204
57 2.7614585541657357
64 5.261818952724209
89 2.639071443714228
14 4.4714437142251615
92 2.532181471274107
17 2.660483358066589
73 5.431884672461293
22 4.453826584693726
43 4.201844392622397
76 5.360928556285777
36 5.718104727581131
5 3.2679881280474863
3 7.182382870468509
21 3.307759168963332
61 3.0343862624549467
45 3.790205639177465
81 7.611405554377772
91 3.577528089887631
84 4.089930040279778
4 3.2448590205639083
48 3.4393258426966313
34 25.880877676489224
52 2.9702141191435287
8 2.660462158151356
