78	83
4	22
7	139
9	370
34	2024
74	138
31	8
71	176
69	174
59	33
25	28
13	496
11	688
33	24
30	31
53	386
23	409
67	31
39	27
95	2005
38	2093
43	139
60	33
88	252
10	19
19	68
36	200
61	1
2	58
20	15
91	50
18	765
15	577
90	72
6	274
75	492
79	222
85	2259
49	521
56	4576
77	1092
84	142
62	119
93	43
21	29
68	65
80	179
5	22
27	29
29	49
94	1134
73	253
96	209
58	337
41	1368
64	223
16	381
76	438
35	13
50	33
37	50
46	133
70	67
72	439
81	519
55	6
14	184
65	34
40	12
28	8750
48	87
3	205
83	193
42	2453
45	95
44	19
57	24
26	64
32	145
17	1
1	17
22	128
82	163
