78	6
4	4
7	43
9	54
34	229
74	28
31	1
71	27
69	30
59	6
25	9
13	104
11	116
33	5
30	10
53	84
23	53
67	2
95	451
38	361
43	7
60	9
88	49
10	4
19	15
36	29
2	15
20	6
91	15
18	140
15	156
90	21
6	57
75	56
79	57
85	312
49	122
56	652
77	175
84	33
62	29
93	5
21	9
68	7
80	50
5	4
27	1
29	7
94	239
73	41
96	36
58	51
41	91
64	21
16	54
76	114
35	6
50	7
37	4
46	14
70	10
72	62
81	69
55	2
14	38
65	7
40	2
28	1382
48	16
3	34
83	37
42	233
45	17
44	5
57	1
26	22
32	27
22	23
1	6
82	57
