Message stats for scenario saSassy_1
sim_time: 6826000.0000
created: 10377
started: 98563
relayed: 19037
aborted: 79526
dropped: 27903
removed: 0
delivered: 1511
delivery_prob: 0.1456
response_prob: 0.0000
overhead_ratio: 11.5989
latency_avg: 251743.5877
latency_med: 227597.0000
hopcount_avg: 2.1079
hopcount_med: 2
buffertime_avg: 447892.4690
buffertime_med: 537966.0000
rtt_avg: NaN
rtt_med: NaN
TotalCopy: 17526
