NrofLatencyAverage/Contact
64000 244342.2247
42500 228376.5473
21000 226494.2855
85000 242511.5564
63500 244342.2247
42000 228376.5473
106000 251743.5877
20500 229777.4841
84500 242671.8280
63000 244544.8341
41500 228087.0127
105500 251782.8375
20000 227694.7656
84000 242671.8280
62500 244742.6360
41000 227877.3077
105000 251555.0734
19500 225203.0409
83500 242671.8280
62000 245993.6640
40500 227877.3077
104500 251779.8503
19000 225203.0409
83000 242671.8280
61500 244537.9889
40000 228143.7240
104000 251779.8503
18500 225203.0409
82500 242671.8280
61000 244381.6893
39500 228143.7240
103500 251942.2659
18000 225203.0409
82000 242671.8280
60500 244138.5544
39000 227805.8021
103000 251727.7647
17500 225203.0409
81500 242992.0978
60000 244657.1079
38500 227805.8021
102500 251727.7647
17000 222630.5468
81000 243259.4935
59500 242816.3699
38000 227805.8021
102000 250796.9924
16500 210118.6715
80500 243259.4935
59000 243873.6230
37500 227872.1253
101500 249639.5050
16000 210118.6715
80000 243556.8886
58500 240570.8601
37000 228714.3088
101000 248303.9439
15500 210118.6715
79500 243556.8886
58000 241093.9540
36500 228714.3088
100500 248810.3904
15000 210118.6715
79000 243556.8886
57500 240411.6620
36000 229387.6552
100000 248810.3904
14500 206429.2015
78500 243556.8886
57000 239082.4158
35500 228657.4858
99500 248810.3904
14000 206429.2015
78000 243556.8886
56500 239156.4004
35000 228919.7100
99000 248668.9912
13500 206131.0742
77500 243556.8886
56000 238029.3919
34500 228919.7100
98500 248356.1217
13000 206131.0742
77000 243556.8886
55500 238029.3919
34000 228919.7100
98000 248356.1217
12500 202951.5425
76500 243556.8886
55000 237606.4075
33500 228391.8251
97500 248257.8655
12000 200851.9078
76000 243556.8886
54500 237387.3366
33000 228127.0536
97000 248102.8138
11500 200851.9078
75500 243736.0479
54000 237387.3366
32500 228127.0536
96500 248102.8138
11000 200851.9078
75000 243736.0479
53500 236625.6403
32000 228127.0536
96000 248102.8138
10500 196350.2283
74500 243736.0479
53000 236731.4787
31500 228219.7964
95500 248102.8138
10000 181825.8514
74000 243929.1595
52500 237210.7682
31000 228219.7964
95000 246248.0294
9500 160052.7143
73500 243929.1595
52000 237039.9140
30500 228219.7964
94500 247015.7906
9000 158730.5305
73000 243929.1595
51500 236426.8795
30000 228219.7964
94000 247015.7906
8500 142211.0986
72500 243754.0035
51000 236426.8795
29500 229907.1911
93500 248256.3241
8000 126578.1709
72000 243748.1760
50500 236245.8908
29000 227032.2450
93000 245333.9624
7500 98047.4066
71500 243748.1760
50000 234633.7974
28500 227350.0823
92500 244799.1322
7000 46035.9600
71000 243748.1760
49500 234633.7974
28000 227350.0823
92000 243994.3570
6500 9215.4000
70500 243748.1760
49000 234529.2485
27500 227350.0823
91500 243761.6836
6000 3561.8333
70000 243748.1760
48500 234529.2485
27000 227384.1317
91000 244012.8159
5500 1588.0000
69500 243748.1760
48000 234529.2485
26500 226854.1802
90500 244012.8159
5000 685.5000
69000 243748.1760
47500 234320.5781
26000 226494.2855
90000 244012.8159
4500 478.0000
68500 243748.1760
47000 234320.5781
25500 226494.2855
89500 244008.2867
4000 478.0000
68000 243748.1760
46500 234320.5781
25000 226494.2855
89000 243819.6745
3500 478.0000
67500 243748.1760
46000 233792.4303
24500 226494.2855
88500 243566.6105
3000 478.0000
67000 243446.3260
45500 233149.7926
24000 226494.2855
88000 243470.8995
2500 478.0000
66500 243446.3260
45000 229038.3601
23500 226494.2855
87500 243199.4911
2000 478.0000
66000 243446.3260
44500 229038.3601
23000 226494.2855
87000 242981.0034
1500 478.0000
65500 243446.3260
44000 229038.3601
22500 226494.2855
86500 243202.2216
1000 478.0000
65000 243446.3260
43500 229384.6847
22000 226494.2855
86000 243202.2216
500 478.0000
64500 244130.4525
43000 230018.7125
21500 226494.2855
85500 242511.5564

