83	119969
3	67074
77	10314
34	91343
37	23909
12	895
74	16691
62	12525
72	90266
29	2639
17	29016
15	15053
50	37861
36	81227
57	477
33	3852
28	9131
56	3947
26	493
70	45954
42	1742
94	23330
11	130198
27	18264
46	1547
91	74112
96	2705
13	106769
23	4291
55	5030
38	29952
40	19
64	3589
6	36340
7	3674
95	37571
22	60980
18	77782
69	2692
1	51
93	1809
10	2084
89	1
78	21875
88	58842
59	4948
82	55544
87	384
65	54085
71	79573
9	3923
4	827
31	188
32	6081
80	83657
14	61749
79	58997
76	33034
61	1
67	47
44	53915
19	62041
81	1239
39	8445
53	9336
20	36471
41	63907
49	114307
16	13585
84	36659
73	48417
75	67730
58	4344
43	1240
68	1233
90	33675
92	1542
8	16
48	2782
45	74725
60	408
35	20874
21	12677
30	67072
85	41211
5	37231
25	2565
2	61
