A25	0.4723594972503915 
A19	0.5398387088101988 
A13	0.4611630910670918 
A32	0.487105530503009 
A8	0.5282877216480418 
A22	0.5229035742923 
A11	0.3299527994846065 
A37	0.5643980635499125 
A7	0.5529331063026705 
A34	0.549645168691754 
A28	0.538211925276172 
A6	0.6143438913208942 
A23	0.5200496355839316 
A16	0.5195343820910588 
A20	0.5382478509956636 
A35	0.48791118325775185 
A1	0.4572786853679698 
A31	0.5330541447706795 
A17	0.44256134014865417 
A21	0.5411995379835877 
A4	0.552620567015895 
A15	0.5086079838443484 
A39	0.480838060643761 
A10	0.43479555276303633 
A26	0.4581143310855103 
A30	0.45947866525812814 
A5	0.539801797435874 
A38	0.5712735897316712 
A14	0.4765499331097551 
A18	0.46925455409574107 
A24	0.4493572607605995 
A33	0.5383565924700929 
A2	0.5337298506989405 
A12	0.4832873001187928 
A3	0.5352254088684655 
A40	0.4760687202672241 
A9	0.5349274963363398 
A27	0.50870655177376 
A0	0.4828686426192875 
A36	0.5464004263537776 
A29	0.5300283948269225 
