Node	Value
25	47
19	28
13	38
8	69
32	77
22	129
11	4
37	15
7	64
34	49
28	75
6	154
23	107
16	119
20	70
35	39
1	27
31	89
17	84
4	234
21	107
15	62
39	285
10	18
26	89
5	72
38	129
14	90
18	163
24	97
33	42
2	88
12	76
3	147
40	51
9	73
27	18
0	82
29	43
36	134
