25 35.26644736842105
19 35.73750000000001
13 34.573684210526324
8 35.71447368421052
32 35.04802631578948
22 34.16907894736844
11 2.4611842105263158
7 36.49868421052633
37 21.232894736842102
34 35.16644736842106
28 36.22697368421052
6 29.59210526315789
23 37.22631578947368
16 37.086842105263166
20 27.258552631578947
1 28.19342105263157
35 22.095394736842096
31 35.76710526315789
4 35.608552631578945
17 21.61842105263157
21 37.221710526315796
15 35.47236842105262
10 33.23157894736843
39 36.52434210526316
26 36.5217105263158
30 1.996052631578948
5 31.89276315789473
38 36.777631578947364
14 28.16644736842106
18 34.3921052631579
24 34.871052631578955
2 36.52565789473685
12 23.56973684210526
33 35.757236842105264
3 33.71907894736843
40 19.663815789473695
9 36.56315789473685
27 24.6046052631579
0 36.26644736842104
29 35.322368421052644
36 37.048026315789464
