NrofDelivered/Time = 
57600 327
115200 1642
172800 2284
230400 2682
1800 0
59400 328
117000 1651
174600 2325
232200 2685
3600 0
61200 329
118800 1667
176400 2347
234000 2685
5400 0
63000 329
120600 1675
178200 2384
235800 2685
7200 0
64800 329
122400 1675
180000 2444
237600 2685
9000 0
66600 330
124200 1686
181800 2480
239400 2685
10800 0
68400 330
126000 1686
183600 2507
241200 2688
12600 0
70200 332
127800 1687
185400 2527
243000 2693
14400 0
72000 343
129600 1689
187200 2537
244800 2746
16200 0
73800 476
131400 1698
189000 2561
246600 2839
18000 0
75600 719
133200 1704
190800 2574
248400 3003
19800 0
77400 880
135000 1710
192600 2576
250200 3105
21600 61
79200 957
136800 1711
194400 2611
252000 3174
23400 245
81000 1023
138600 1711
196200 2617
253800 3189
25200 286
82800 1092
140400 1711
198000 2617
255600 3225
27000 297
84600 1150
142200 1713
199800 2640
257400 3283
28800 298
86400 1158
144000 1713
201600 2640
259200 3296
30600 301
88200 1197
145800 1713
203400 2644
261000 3324
32400 302
90000 1283
147600 1713
205200 2644
262800 3336
34200 304
91800 1313
149400 1713
207000 2644
264600 3340
36000 305
93600 1330
151200 1714
208800 2644
266400 3374
37800 312
95400 1336
153000 1714
210600 2646
268200 3382
39600 312
97200 1374
154800 1714
212400 2648
270000 3382
41400 314
99000 1385
156600 1717
214200 2648
271800 3382
43200 315
100800 1427
158400 1731
216000 2678
273600 3382
45000 316
102600 1439
160200 1815
217800 2679
46800 317
104400 1475
162000 1903
219600 2679
48600 322
106200 1487
163800 1939
221400 2682
50400 325
108000 1508
165600 2021
223200 2682
52200 326
109800 1565
167400 2091
225000 2682
54000 326
111600 1613
169200 2144
226800 2682
55800 326
113400 1631
171000 2201
228600 2682

