64	1573
94	11005
28	13340
15	9915
18	5258
60	268
57	101
55	203
45	2121
96	2168
9	5452
38	12692
32	5135
17	607
13	7487
40	42
87	92
6	5594
39	158
53	4032
23	3555
4	289
78	843
46	2277
27	1798
8	14
72	3761
90	2540
76	4419
49	3581
2	237
37	1412
79	4514
21	879
75	6507
1	234
20	890
74	5115
70	3288
61	45
69	832
34	6495
42	9663
68	2717
77	6308
48	5049
88	5047
3	3823
91	1257
92	21
11	4714
93	548
59	1256
44	788
81	3472
50	1690
25	418
62	2673
19	922
35	527
95	12237
82	4579
22	2780
31	40
56	14012
58	6405
65	546
85	13325
41	5567
83	3322
36	4874
14	3254
71	2809
73	4801
33	1291
80	2850
84	3349
67	233
26	124
30	383
29	425
89	17
43	3057
16	8569
10	1314
7	5186
5	483
