64 128
94 818
28 1208
15 583
18 330
60 55
57 3
55 8
45 125
96 148
9 259
38 959
32 128
17 19
13 399
40 7
87 10
6 415
53 201
23 170
4 29
78 38
46 34
27 46
72 195
90 133
76 326
49 340
2 8
37 43
79 229
21 36
75 201
1 26
20 117
74 266
70 127
61 4
69 73
34 440
42 390
68 107
48 84
77 466
88 267
3 81
91 105
92 1
11 303
93 74
59 26
44 61
81 151
50 69
25 31
62 125
19 98
35 22
95 1180
82 326
22 266
31 4
56 847
58 163
65 25
85 611
41 176
83 145
36 172
14 174
71 175
73 209
33 62
80 404
84 288
67 13
26 38
30 80
29 35
89 1
43 39
10 41
16 326
7 303
5 25
