A64 0.5572012666828209 
A94 0.5801858952147231 
A28 0.630998804024175 
A15 0.5977147833503033 
A18 0.540519980430041 
A60 0.5858238681639693 
A57 0.4355254998630018 
A55 0.5432032923587361 
A45 0.5455981353663544 
A96 0.5711795087020571 
A9 0.5548537827654227 
A38 0.5722184210604445 
A17 0.5544920341313971 
A32 0.5711640534521885 
A13 0.5658221772170752 
A40 0.3686673499348063 
A87 0.4710362027925507 
A6 0.5369838362796228 
A39 0.4826580605232906 
A53 0.5559055173730685 
A23 0.5760014391209803 
A4 0.584997557256638 
A78 0.6017666738528835 
A46 0.5377394458521433 
A27 0.5563807672452419 
A8 0.43793440446826265 
A72 0.5364021196996047 
A90 0.555253233036502 
A76 0.5503476098168629 
A49 0.5421210955381108 
A2 0.5323942619791825 
A37 0.5414148548608904 
A79 0.5309902904736722 
A21 0.5709812360726169 
A47 0.19460293734844442 
A75 0.5817890834520001 
A1 0.5474039912355143 
A52 0.04873644320618877 
A20 0.5550496839413385 
A74 0.5815965921776829 
A70 0.5368866078299835 
A61 0.48761852209883944 
A69 0.629422319280799 
A34 0.5632120172082526 
A42 0.5962026865362425 
A63 0.1137337649668587 
A68 0.5225553635111886 
A77 0.5971584529272784 
A48 0.5903977525748105 
A88 0.5300288146626018 
A54 0.14289867787414648 
A91 0.5715231958935252 
A3 0.508779478093824 
A92 0.270559102214053 
A86 0.0 
A11 0.5179230828206236 
A12 0.1822475282122137 
A93 0.6265352776099827 
A59 0.5437757790961015 
A81 0.5561993496941838 
A44 0.5377465322011736 
A50 0.5506278202531376 
A25 0.5399299356850816 
A62 0.5306833029118396 
A19 0.5557118398848272 
A35 0.6420465216749373 
A95 0.5919189635150554 
A82 0.5524132747953592 
A22 0.532343389917726 
A31 0.48841391083957564 
A56 0.5932552534916289 
A58 0.576577727420446 
A65 0.6744828995801286 
A85 0.5515817384613207 
A41 0.5714454834148608 
A83 0.5085603907924287 
A36 0.5577976281379722 
A14 0.5535093706739151 
A71 0.5612606514130684 
A73 0.5426545056997423 
A33 0.566619883770876 
A80 0.5370809695343688 
A84 0.5358827627701804 
A67 0.5592491072365162 
A26 0.48228874134394467 
A30 0.5543936897619893 
A29 0.5296866073864591 
A89 0.5990331071554472 
A43 0.6091085710000937 
A16 0.5919637761010196 
A10 0.5553454598541282 
A0 0.006033284781466635 
A7 0.5439872932232647 
A5 0.5944074744990195 
