Message stats for scenario HCREALITY_1
sim_time: 16981816.0000
created: 25299
started: 334598
relayed: 309679
aborted: 24919
dropped: 326063
removed: 0
delivered: 8915
delivery_prob: 0.3524
response_prob: 0.0000
overhead_ratio: 33.7368
latency_avg: 260970.8901
latency_med: 243515.0000
hopcount_avg: 3.0062
hopcount_med: 3
buffertime_avg: 360630.4473
buffertime_med: 379582.0000
rtt_avg: NaN
rtt_med: NaN
TotalCopy: 300764
