Node	Value
78	12
4	3
0	1
7	128
9	126
34	314
74	84
31	4
71	59
69	34
59	12
25	6
13	118
11	135
47	4
33	16
30	9
54	1
53	128
23	119
67	4
39	1
95	721
8	1
38	542
43	40
60	16
88	94
10	15
92	4
63	1
52	2
19	39
36	84
61	2
2	3
20	27
91	24
18	181
15	233
90	41
6	161
75	115
79	87
85	343
49	155
56	733
77	291
84	114
62	49
93	12
21	15
68	21
80	111
5	11
27	15
29	3
94	344
73	87
96	34
58	46
41	113
64	33
76	94
16	162
35	7
50	30
37	8
12	5
46	13
70	35
72	106
81	87
55	4
14	52
65	15
40	3
28	1266
87	8
89	1
48	30
3	43
83	38
42	363
45	45
44	8
57	1
32	63
17	3
26	2
22	49
1	13
82	80
