A78	0.5258254069041811 
A4	0.5521992892252207 
A0	0.011951039744955285 
A7	0.5321198819982789 
A9	0.5403774534187078 
A74	0.5616693340129056 
A34	0.5540310979054064 
A31	0.502016795367324 
A71	0.5639668698008048 
A69	0.5850875345435558 
A59	0.5303209635963935 
A25	0.5439326886900174 
A13	0.5466922747645501 
A11	0.5065794036918858 
A33	0.5378500941734871 
A47	0.17028058773675817 
A54	0.1604152208057058 
A30	0.5512744400409229 
A53	0.550165599782692 
A23	0.5622859183443218 
A67	0.5241655523423562 
A39	0.6157640263299603 
A95	0.5693043108819734 
A8	0.46431127666797484 
A38	0.5574988548510703 
A43	0.586074795017152 
A60	0.5970111993847927 
A88	0.5264948110137808 
A92	0.26119958664227017 
A10	0.5358265805987635 
A63	0.1321892343034372 
A19	0.5208590109483825 
A52	0.05511315441763772 
A36	0.5356099200603488 
A61	0.49531110807685114 
A2	0.5401896772233206 
A20	0.5468237431702375 
A91	0.5650008584433888 
A18	0.5424706151629625 
A15	0.5726701475339901 
A90	0.5440581766531211 
A6	0.5234763100702005 
A86	0.0 
A79	0.5179224247366969 
A75	0.5646440732088422 
A85	0.5377188579861626 
A49	0.5376095310312327 
A56	0.569116925908655 
A77	0.5721317565210643 
A84	0.5299719991813193 
A62	0.5213834183309892 
A93	0.5962016334441659 
A21	0.5547766045910815 
A68	0.5083390951276584 
A80	0.5291392906961231 
A5	0.5718385864007425 
A27	0.5430533074832211 
A29	0.5188125448321523 
A94	0.5646260985218997 
A73	0.5367178974948877 
A96	0.53995469173385 
A58	0.5446800896984512 
A41	0.5467005272590982 
A64	0.5507839256105044 
A16	0.5628644286724853 
A76	0.5450959693955072 
A35	0.6289393576317004 
A50	0.543489271040082 
A37	0.5307270392812612 
A12	0.2204527733449693 
A46	0.5309757755487606 
A70	0.5260354455354234 
A81	0.5365156819805686 
A72	0.5232954136966526 
A55	0.5543550810623303 
A14	0.5413804296926923 
A65	0.6586068807970297 
A40	0.37594675267948857 
A28	0.5847467496783172 
A87	0.46208160938323956 
A89	0.6404601055803458 
A48	0.5625913692359653 
A3	0.5070674298150237 
A83	0.5126685906742188 
A42	0.5820256262263556 
A45	0.5354498068741763 
A44	0.5378327989310784 
A57	0.45278446888462615 
A17	0.5275803144726685 
A26	0.4627152392762043 
A32	0.5548682694065556 
A1	0.569891794701357 
A82	0.5355885733925361 
A22	0.5202782603324211 
