NrofDelivered/Contact
32000 3589
64000 6767
10500 1161
42500 4666
74500 8035
21000 2209
53000 5658
85000 8915
31500 3499
63500 6741
10000 1122
42000 4614
74000 7985
20500 2167
52500 5623
84500 8915
31000 3410
63000 6679
9500 1054
41500 4555
73500 7924
20000 2138
52000 5597
84000 8915
30500 3310
62500 6649
9000 994
41000 4508
73000 7863
19500 2101
51500 5570
83500 8915
30000 3179
62000 6609
8500 938
40500 4445
72500 7767
19000 2030
51000 5541
83000 8915
29500 3117
61500 6556
8000 900
40000 4387
72000 7688
18500 1985
50500 5479
82500 8915
29000 3043
61000 6522
7500 813
39500 4346
71500 7597
18000 1964
50000 5437
82000 8915
28500 3016
60500 6455
7000 773
39000 4266
71000 7534
17500 1929
49500 5364
81500 8915
28000 2983
60000 6393
6500 735
38500 4209
70500 7433
17000 1876
49000 5289
81000 8895
27500 2893
59500 6351
6000 655
38000 4164
70000 7363
16500 1817
48500 5210
80500 8865
27000 2870
59000 6329
5500 563
37500 4093
69500 7310
16000 1751
48000 5162
80000 8794
26500 2779
58500 6292
5000 532
37000 4063
69000 7271
15500 1694
47500 5122
79500 8728
26000 2746
58000 6250
4500 512
36500 4009
68500 7214
15000 1667
47000 5107
79000 8676
25500 2688
57500 6221
4000 423
36000 3966
68000 7153
14500 1622
46500 5045
78500 8619
25000 2634
57000 6179
3500 319
35500 3885
67500 7101
14000 1564
46000 4974
78000 8549
24500 2573
56500 6095
3000 224
35000 3820
67000 7054
13500 1490
45500 4927
77500 8496
24000 2532
56000 6049
2500 150
34500 3765
66500 7010
13000 1439
45000 4850
77000 8409
23500 2474
55500 5898
2000 49
34000 3735
66000 6962
12500 1376
44500 4833
76500 8309
23000 2431
55000 5866
1500 32
33500 3685
65500 6900
12000 1329
44000 4758
76000 8257
22500 2374
54500 5796
1000 19
33000 3646
65000 6860
11500 1279
43500 4739
75500 8184
22000 2299
54000 5753
500 2
32500 3611
64500 6806
11000 1217
43000 4689
75000 8099
21500 2216
53500 5707
85500 8915

