Message stats for scenario DF_1
sim_time: 274883.0000
created: 3892
started: 15052
relayed: 11898
aborted: 3154
dropped: 10213
removed: 0
delivered: 2885
delivery_prob: 0.7413
response_prob: 0.0000
overhead_ratio: 3.1241
latency_avg: 29364.8454
latency_med: 25333.0000
hopcount_avg: 1.5955
hopcount_med: 1
buffertime_avg: 69872.8747
buffertime_med: 82077.0000
rtt_avg: NaN
rtt_med: NaN
TotalCopy: 9013
