A25	0.41484846074692633 
A19	0.5096526300750193 
A13	0.42758503419861055 
A32	0.41963048600035074 
A8	0.60085804773328 
A22	0.5644258284451058 
A11	0.2525697962149258 
A37	0.4696970390784004 
A7	0.5573506448445612 
A34	0.4473539723569924 
A28	0.5620927691750934 
A6	0.6455416846119535 
A23	0.44985237447663545 
A16	0.5207578935273536 
A20	0.5570664499912705 
A35	0.521696046785338 
A1	0.2746564101560187 
A31	0.49427117783475977 
A17	0.3681973810838527 
A21	0.5256806908483468 
A4	0.5839343122662185 
A15	0.5219427325737729 
A39	0.4464311530133629 
A10	0.4492556101336333 
A26	0.42854083130034043 
A30	0.19666781012785634 
A5	0.5366579490537629 
A38	0.5676977664073855 
A14	0.37255104473195827 
A18	0.3855418532700287 
A24	0.37404165847605575 
A33	0.6408953954443889 
A2	0.5131288507976588 
A12	0.5435627377996259 
A3	0.5338089129524719 
A40	0.4482961469166928 
A9	0.5076903649175439 
A27	0.3655440106038001 
A0	0.40636335218367275 
A36	0.6057237249697484 
A29	0.4968154522406165 
