NrofDelivered/Contact
8000 1134
16000 2246
2500 239
10500 1383
18500 2781
5000 607
13000 1790
7500 1030
15500 2202
2000 213
10000 1299
18000 2696
4500 515
12500 1630
7000 953
15000 2156
1500 194
9500 1260
17500 2607
4000 324
12000 1495
6500 845
14500 2073
1000 176
9000 1219
17000 2483
3500 263
11500 1453
6000 734
14000 2027
500 125
8500 1183
16500 2303
3000 252
11000 1432
19000 2863
5500 677
13500 1918

