Message stats for scenario ProphetBiasa
sim_time: 16981816.0000
created: 25299
started: 208623
relayed: 184576
aborted: 24047
dropped: 16893
removed: 184576
delivered: 8406
delivery_prob: 0.3323
response_prob: 0.0000
overhead_ratio: 20.9576
latency_avg: 630953.7492
latency_med: 489971.0000
hopcount_avg: 8.2882
hopcount_med: 7
buffertime_avg: 178458.9961
buffertime_med: 14842.0000
rtt_avg: NaN
rtt_med: NaN
TotalCopy: 176170
