NrofDelivered/Contact
32000 3845
64000 8707
10500 809
42500 5736
74500 12114
21000 1950
53000 7276
85000 13779
31500 3703
63500 8688
10000 778
42000 5664
74000 12024
20500 1884
52500 7244
84500 13762
31000 3541
63000 8606
9500 734
41500 5625
73500 11799
20000 1817
52000 7226
84000 13750
30500 3405
62500 8583
9000 685
41000 5577
73000 11690
19500 1798
51500 7158
83500 13734
30000 3255
62000 8499
8500 652
40500 5488
72500 11410
19000 1733
51000 7090
83000 13675
29500 3188
61500 8384
8000 596
40000 5422
72000 11185
18500 1681
50500 7010
82500 13625
29000 3053
61000 8350
7500 559
39500 5354
71500 10965
18000 1648
50000 6927
82000 13567
28500 3034
60500 8266
7000 520
39000 5233
71000 10853
17500 1573
49500 6849
81500 13535
28000 3009
60000 8210
6500 481
38500 5094
70500 10416
17000 1505
49000 6743
81000 13438
27500 2932
59500 8172
6000 428
38000 4896
70000 10258
16500 1422
48500 6604
80500 13372
27000 2913
59000 8124
5500 376
37500 4762
69500 10167
16000 1360
48000 6546
80000 13280
26500 2835
58500 8082
5000 361
37000 4735
69000 10076
15500 1320
47500 6476
79500 13115
26000 2810
58000 8015
4500 344
36500 4653
68500 9957
15000 1259
47000 6401
79000 13013
25500 2711
57500 7973
4000 270
36000 4558
68000 9827
14500 1234
46500 6341
78500 12907
25000 2650
57000 7911
3500 232
35500 4380
67500 9675
14000 1153
46000 6222
78000 12851
24500 2594
56500 7815
3000 169
35000 4298
67000 9519
13500 1080
45500 6076
77500 12765
24000 2546
56000 7762
2500 98
34500 4213
66500 9346
13000 1022
45000 5983
77000 12598
23500 2445
55500 7610
2000 36
34000 4154
66000 9162
12500 962
44500 5947
76500 12470
23000 2387
55000 7562
1500 27
33500 4105
65500 8963
12000 934
44000 5871
76000 12404
22500 2298
54500 7417
1000 15
33000 4015
65000 8900
11500 882
43500 5868
75500 12285
22000 2116
54000 7386
500 2
32500 3981
64500 8780
11000 865
43000 5820
75000 12180
21500 1995
53500 7349
85500 13868

