78	280
4	26
7	899
34	873
9	550
74	992
31	433
71	762
69	162
59	102
25	220
13	1757
11	827
47	150
33	654
30	717
54	202
53	484
23	370
67	39
39	41
95	2245
8	73
38	2140
43	183
60	217
88	795
10	287
92	130
63	343
52	125
19	869
36	748
61	92
2	43
20	1102
91	762
18	931
15	1728
90	1117
6	1035
79	956
75	705
85	1981
49	1004
56	2026
77	961
84	1263
93	595
62	493
21	395
68	183
80	1740
5	763
27	361
29	380
94	2072
73	619
96	467
58	678
41	579
64	360
76	692
16	688
35	297
50	664
37	203
12	254
46	259
70	551
81	588
72	650
55	51
14	837
65	469
40	136
51	1
28	2370
87	143
89	136
48	565
3	551
83	581
42	1019
45	792
44	467
57	75
17	704
26	131
32	671
82	1609
1	311
22	714
