78	2596
4	8
0	1
7	5496
9	3236
34	4377
74	8097
31	2484
71	4441
69	248
59	222
25	546
13	12858
11	5659
47	473
33	3041
30	5766
54	693
53	9372
23	637
67	96
39	519
95	42085
8	203
38	19677
60	328
43	149
88	5941
10	1718
92	150
63	424
52	207
19	8362
36	3824
61	5
2	45
20	12154
91	4455
18	8132
15	17041
90	4862
6	10317
79	4285
75	3155
85	28913
49	7850
56	32482
77	5094
84	14348
93	3010
62	2438
21	1717
68	325
5	7025
80	17113
27	5866
29	1212
94	31927
73	3486
96	2351
58	4155
41	2618
64	1023
76	3721
16	3177
35	1414
50	6129
37	939
46	1208
12	384
70	2714
81	1982
72	4492
55	296
14	4077
65	2945
40	791
28	40621
87	148
89	504
48	1601
3	3254
83	4176
42	5409
45	4364
44	3359
57	326
17	2820
26	555
32	4402
82	17490
22	7078
1	948
