7 1.5368348526605877
9 1.5826902692389166
74 1.6165783336866657
71 1.825991096035625
59 1.7942442230230726
25 2.143237227051083
11 1.7366016535934021
33 1.604854780580889
30 1.6225355098579608
23 1.7440322238711166
53 1.8654017383930503
67 1.9962052151791474
39 2.0470426118295513
8 1.8498622005511938
95 1.361532753868996
24 2.073245707017167
38 1.3384036463854134
43 1.8807928768284736
63 1.894816620733519
19 1.688583845664636
52 1.9985372058512088
61 2.0540809836760605
20 1.5268178927284446
91 1.82907568369727
66 1.8994912020352
6 1.5268072927708278
49 1.7521623913504336
93 1.6734259062963812
21 1.912423150307391
68 2.034863260546985
27 1.6792452830188693
73 1.7616493534025708
96 0.0
64 1.782107271570917
35 1.8714225143099297
46 1.9427814288742742
70 1.6529149883400402
72 1.5996078015687827
81 1.8361246555013908
55 2.0309412762349015
14 1.584895060419742
65 1.8762666949332227
51 1.8243905024379756
87 2.098134407462356
89 1.831715073139725
44 1.8995548017807962
26 2.2157197371210313
32 1.6753868984524143
1 1.7325312698749056
22 1.846745813016725
82 1.5536145855416466
78 1.5729807080771756
4 2.1263938944244196
0 2.048897604409576
31 1.8355734577061973
34 1.7345346618613346
69 1.80766376934493
13 1.6014733941064285
47 1.8861352554589932
54 1.753890184439277
60 1.7635891456434172
88 1.6078227687089257
10 1.6982510069959689
92 1.729202883188469
36 1.7427284290862808
2 1.977718889124455
18 1.7597095611617544
15 1.4869620521518006
90 1.6888170447318065
86 2.066631333474666
75 1.6393894424422268
79 1.6915518337926676
85 1.4688467246131138
56 1.4594763620945774
77 1.6063175747297023
84 1.51034555861776
62 1.8973606105575624
5 1.8955374178503186
80 1.3906720373118562
29 1.8575789696841136
94 1.3234683061267798
58 1.7922196311214824
41 1.5256624973500235
16 1.6564235743056974
76 1.5551621793512658
50 1.7536251854992584
37 1.8809624761500698
12 1.9135043459826195
40 2.093279626881506
28 1.2195675217299045
48 1.7964808140767357
3 1.778789484842061
83 1.7930040279838861
42 1.6280898876404708
45 1.7458236167055545
57 1.7941488234047092
17 1.6620097519609973
