NrofLatencyAverage/Contact
64000 228406.7021
42500 234156.5095
21000 231442.3345
85000 225389.3474
63500 228406.7021
42000 233734.5059
106000 231956.7753
20500 231163.0081
84500 225127.2600
63000 228406.7021
41500 232804.8448
105500 232454.8654
20000 226042.1961
84000 225127.2600
62500 228675.3913
41000 230340.4742
105000 232454.8654
19500 221388.6380
83500 225127.2600
62000 231177.5507
40500 230340.4742
104500 232366.0152
19000 222684.1079
83000 225127.2600
61500 232547.0688
40000 230340.4742
104000 232366.0152
18500 222923.2143
82500 225127.2600
61000 231794.0705
39500 230340.4742
103500 232366.0152
18000 222603.1326
82000 225127.2600
60500 232986.1835
39000 230680.7011
103000 232165.2003
17500 222603.1326
81500 225538.6038
60000 233593.4345
38500 230680.7011
102500 232163.1596
17000 220558.5426
81000 225731.1485
59500 232607.0568
38000 230680.7011
102000 230712.1653
16500 219521.7256
80500 225731.1485
59000 234871.7712
37500 230468.1933
101500 230593.1874
16000 219674.4618
80000 225731.1485
58500 236375.6100
37000 230079.6329
101000 228775.6489
15500 219674.4618
79500 225731.1485
58000 237220.6168
36500 230589.3606
100500 229238.4245
15000 219674.4618
79000 225731.1485
57500 235662.5131
36000 232120.8195
100000 229238.4245
14500 213252.1774
78500 225731.1485
57000 235366.7026
35500 232676.7758
99500 229238.4245
14000 213252.1774
78000 225731.1485
56500 235760.3523
35000 232176.1826
99000 229238.4245
13500 213252.1774
77500 225731.1485
56000 235651.4051
34500 232176.1826
98500 228532.9007
13000 213252.1774
77000 225731.1485
55500 235651.4051
34000 232176.1826
98000 228532.9007
12500 204200.2242
76500 225731.1485
55000 235651.4051
33500 231577.8467
97500 228532.9007
12000 199051.7143
76000 226500.4079
54500 236285.4046
33000 232447.0657
97000 227703.6364
11500 199051.7143
75500 226701.4936
54000 236285.4046
32500 232670.0879
96500 227703.6364
11000 199051.7143
75000 226701.4936
53500 236285.4046
32000 232670.0879
96000 227703.6364
10500 192789.5649
74500 226701.4936
53000 236403.0013
31500 232440.8902
95500 227703.6364
10000 165026.9419
74000 227266.9968
52500 237659.8270
31000 232440.8902
95000 227660.8801
9500 141320.3937
73500 227266.9968
52000 237800.3061
30500 232440.8902
94500 227487.0340
9000 139612.0435
73000 227388.0364
51500 237800.3061
30000 232440.8902
94000 227487.0340
8500 114637.9896
72500 227670.3144
51000 237800.3061
29500 234249.5245
93500 229371.1892
8000 101465.2875
72000 227670.3144
50500 237950.6503
29000 232585.0243
93000 228606.2676
7500 91672.1408
71500 227670.3144
50000 238323.2194
28500 232978.4286
92500 228777.1454
7000 33267.1714
71000 227670.3144
49500 237894.7590
28000 232978.4286
92000 228058.3827
6500 9049.0769
70500 227670.3144
49000 237325.4337
27500 232934.8757
91500 228058.3827
6000 2257.5000
70000 227670.3144
48500 237325.4337
27000 232995.8559
91000 226800.0300
5500 853.0000
69500 227670.3144
48000 237325.4337
26500 231547.4633
90500 226452.8054
5000 265.5000
69000 227779.1366
47500 236815.2527
26000 231442.3345
90000 226452.8054
4500 265.5000
68500 227779.1366
47000 236363.1007
25500 231442.3345
89500 226639.1219
4000 265.5000
68000 227779.1366
46500 236058.5736
25000 231442.3345
89000 226639.1219
3500 478.0000
67500 227779.1366
46000 236046.9754
24500 231442.3345
88500 226422.9676
3000 478.0000
67000 227554.2201
45500 235696.1361
24000 231442.3345
88000 226543.0700
2500 478.0000
66500 227554.2201
45000 232330.0029
23500 231442.3345
87500 226534.5941
2000 478.0000
66000 227554.2201
44500 232330.0029
23000 231442.3345
87000 227587.3063
1500 478.0000
65500 227554.2201
44000 232330.0029
22500 231442.3345
86500 226872.9958
1000 478.0000
65000 227554.2201
43500 233763.6844
22000 231442.3345
86000 226872.9958
500 478.0000
64500 228163.4578
43000 234304.9621
21500 231442.3345
85500 225389.3474

