37 0.0
16 2.2641350210970423
81 0.0
39 0.0
78 0.0
45 0.0
24 0.09694092827004329
7 3.4942510548523265
73 0.0
11 1.8691719409282692
56 0.0
19 2.0333069620253155
33 0.0
77 0.0
92 0.0
44 0.0
10 2.108702531645571
15 2.006724683544305
17 1.9773206751054881
52 0.0
64 0.0
36 0.0
71 0.0
23 2.7398734177215283
47 0.0
31 0.0
95 0.0
34 0.0
72 0.0
68 0.0
27 0.0
75 0.0
76 0.0
51 0.0
91 0.0
82 0.0
41 0.0
66 0.0
63 0.0
0 2.4595464135021166
94 0.0
20 3.9776635021097113
40 0.0
42 0.0
84 0.0
32 0.0
35 0.0
50 0.0
57 0.0
60 0.0
59 0.0
28 0.0
5 2.1270042194092764
46 0.0
6 2.006724683544313
2 2.355643459915601
49 0.0
61 0.0
69 0.0
22 2.0465981012658236
62 0.0
80 0.0
43 0.0
30 0.0
14 4.469831223628674
8 2.9500263713080184
54 0.0
29 0.0
88 0.0
3 3.36089135021096
93 0.0
4 4.496809071729964
9 1.8619725738396598
90 0.0
1 2.6543776371308097
38 0.0
48 0.0
55 0.0
53 0.0
67 0.0
79 0.0
96 0.0
58 0.0
13 3.4679061181434663
18 1.9755274261603415
70 0.0
25 0.0
26 0.0
87 0.0
12 2.0151898734177154
83 0.0
85 0.0
21 2.727742616033752
65 0.0
89 0.0
86 0.0
74 0.0
