A14	0.5520256070247829 
A6	0.33304706922906296 
A8	0.4453728272873097 
A2	0.3179303573737254 
A16	0.2672855931960126 
A0	0.49808362020988617 
A13	0.48584058233920524 
A10	0.4735421023886335 
A15	0.10845751951201914 
A3	0.4337330550338798 
A17	0.4641783483028839 
A18	0.4263938975718171 
A24	0.3622027477736821 
A20	0.5045478183105244 
A4	0.4487976796205836 
A9	0.263127684480649 
A7	0.5990902386519608 
A21	0.372222847352769 
A22	0.1630677443089181 
A1	0.4998912496905287 
A23	0.4772157017815906 
A11	0.531104991954528 
A12	0.3239601933230678 
A5	0.39055548158525133 
