Message stats for scenario SimBetReality#HillClimbing_0.6
sim_time: 16981816.0000
created: 25299
started: 18841066
relayed: 18815297
aborted: 25769
dropped: 18828990
removed: 0
delivered: 11543
delivery_prob: 0.4563
response_prob: 0.0000
overhead_ratio: 1629.0179
latency_avg: 642156.9894
latency_med: 529858.0000
hopcount_avg: 13.0070
hopcount_med: 9
buffertime_avg: 47607.8900
buffertime_med: 3674.0000
rtt_avg: NaN
rtt_med: NaN
