Node	Value
49	325
46	43
30	85
10	58
18	284
48	59
79	172
20	265
67	17
70	94
17	48
88	209
6	333
93	142
16	157
96	117
77	262
73	137
35	45
63	3
92	6
83	96
31	125
50	129
52	3
36	120
41	93
84	221
89	5
45	84
27	49
5	63
62	92
51	1
25	54
1	41
59	33
33	57
7	197
15	197
90	159
40	10
28	762
39	20
4	12
75	98
58	53
14	171
94	400
91	93
11	109
19	247
22	88
76	133
68	46
57	8
23	104
2	22
47	10
54	2
9	180
37	45
65	79
0	1
3	80
95	432
13	216
78	88
34	291
69	86
42	187
8	9
81	186
55	11
44	64
72	184
32	50
12	20
74	110
43	24
71	166
56	381
60	49
61	28
38	542
29	68
21	56
53	118
82	230
80	310
64	180
26	65
87	14
85	183
