11 2795
31 1184
68 271
57 33
84 3409
61 198
59 258
14 1699
4 86
73 2343
93 1353
94 1453
92 129
72 1992
38 1414
74 647
23 651
87 130
75 1501
22 2348
46 647
17 2577
25 282
3 1703
18 3177
50 2229
48 1146
29 441
15 1102
90 2880
5 2316
58 731
78 841
69 361
70 2073
16 1905
91 1733
19 2870
21 595
55 130
41 889
35 580
81 431
96 639
37 607
1 653
89 69
9 656
80 5891
77 784
60 471
76 685
33 629
8 62
85 902
2 42
7 1036
36 979
32 387
39 104
44 1452
10 540
83 1985
40 51
95 6346
34 2015
43 197
62 1783
6 3666
20 3472
53 1533
56 1964
79 1111
27 1442
26 164
42 2288
82 4574
64 427
13 7602
28 903
67 119
12 174
65 1324
49 3115
88 3070
71 2386
45 1170
30 1083
