14	378166
69	24155
3	62068
94	512184
20	302215
10	94513
81	158854
36	243044
22	141632
40	9642
4	8906
44	90086
12	53818
92	4428
45	199608
71	104568
2	3047
70	139897
21	41936
56	1219952
82	250221
6	276898
26	1991
42	255213
49	195032
75	372979
76	76869
9	113467
11	285933
28	664623
5	150202
7	277080
48	90209
15	195155
88	230937
50	196817
59	25923
53	131356
41	246135
80	300905
33	63993
68	29221
17	145089
27	178408
13	786925
72	264825
18	488792
25	17428
31	108988
79	311467
0	17
62	115388
34	377907
16	154751
1	28893
60	12136
8	4345
64	65649
57	3850
23	73591
77	328108
39	3386
46	80229
87	21098
38	945646
67	5733
43	38708
89	7405
85	988077
30	166105
55	17317
91	97171
65	69480
61	11568
78	42951
93	92276
37	46465
74	205185
29	74906
35	35353
90	544139
83	140057
32	95807
96	165265
84	466948
19	262527
95	1088514
58	92591
73	182575
