Message stats for scenario SimBetReality#SA_0.2
sim_time: 16981816.0000
created: 25299
started: 18979543
relayed: 18953685
aborted: 25858
dropped: 18967491
removed: 0
delivered: 11436
delivery_prob: 0.4520
response_prob: 0.0000
overhead_ratio: 1656.3701
latency_avg: 636164.3278
latency_med: 520719.0000
hopcount_avg: 12.3027
hopcount_med: 9
buffertime_avg: 46962.8910
buffertime_med: 3645.0000
rtt_avg: NaN
rtt_med: NaN
