24 2.884820860716559
5 43.87163451346193
1 56.60602077591678
47 2.7885308458766067
74 62.89353402586397
23 52.34988340046648
80 86.63256306974775
43 35.631503073987666
46 55.00500317998728
39 13.043565825736508
32 74.44392622429504
3 65.62083951664177
36 71.43014627941504
37 66.89565401738379
6 81.95427178291287
29 53.159974560101745
62 74.35177019291925
79 77.55902056391784
87 46.214203943184145
12 51.89972440110247
49 67.75925376298463
10 41.66620733517039
0 2.863451346194612
38 85.57284290862889
41 65.86389654441412
69 45.96228535085842
94 82.600826796693
48 75.9319482722068
75 72.67388170447363
26 19.114755140979234
21 47.21210515157937
56 85.6663345346621
85 85.6478270086922
54 2.6283866864532652
19 62.637969048123544
55 20.590438838244822
20 72.43061267754918
90 82.59552681789273
73 74.04958660165335
9 80.03440746237015
8 15.940237439050286
42 59.41799872800483
30 50.426521093915646
14 80.80907356370577
66 2.639029043883802
93 77.90082679669298
7 76.16495654017372
84 83.57795208819155
16 80.10002119991529
27 60.13493746025017
95 83.09997880008497
61 23.80761076955688
53 67.87765528937875
40 17.01117235531065
50 79.4206911172354
34 70.78117447530191
57 24.693237227050762
83 63.00428238287026
60 37.1652957388167
92 56.62666949332171
35 58.56512613949543
15 79.28887004451987
52 2.9702141191435287
81 58.18244647021402
22 59.53536145855408
2 22.468496926012303
82 75.54352342590641
64 71.471634513462
13 86.3890184439266
89 13.29009963960133
65 39.81252914988342
72 63.892643629425564
33 59.67422090311625
44 53.44704261182954
86 2.8848208607165717
88 78.77475090099612
70 82.02543989824031
63 2.841997032011885
78 52.884206063175526
17 74.69370362518544
77 67.73504345982604
58 65.49987280050892
91 58.97513249946989
68 51.18458766164927
31 25.86989612041549
45 64.14897180411273
25 65.0527877888487
96 74.52281110875546
28 80.19213483146096
59 53.608225567097804
76 62.336866652533416
4 21.896353614585625
18 71.92047911808343
51 2.564256942972201
67 25.573733305066714
11 67.63470426118285
71 63.8135891456433
