Node	Value
11	150
31	135
68	72
57	2
84	243
61	20
59	21
14	159
4	17
73	133
93	135
94	391
92	12
72	140
38	528
74	108
87	21
23	139
63	4
75	95
22	99
46	37
17	58
25	40
0	1
3	76
18	204
50	136
48	65
47	12
29	72
15	266
90	204
5	61
58	54
51	1
78	85
69	96
70	71
16	154
91	81
19	236
41	82
21	55
55	10
35	41
52	3
81	194
96	73
37	69
1	39
89	7
9	198
80	373
77	300
60	33
76	172
33	67
8	4
85	306
2	17
7	148
36	178
32	76
39	17
44	73
10	57
83	97
40	12
95	343
34	192
43	30
62	89
20	209
6	274
53	107
56	291
79	164
27	38
26	35
42	122
82	138
64	164
28	731
13	202
67	8
12	23
65	65
49	268
88	181
71	236
54	3
45	86
30	97
