82 3940
48 1443
35 727
93 963
92 142
58 670
83 1699
55 88
79 2306
41 119
65 1431
84 3310
88 2833
28 943
44 1218
59 309
43 208
80 7804
19 2924
69 370
21 508
53 1429
30 1047
17 2750
76 1328
73 670
95 1240
5 1786
72 1906
34 357
26 116
4 242
67 118
56 5150
61 243
38 1750
39 117
46 582
81 486
22 2384
2 79
77 4752
8 50
71 2329
45 959
42 2490
89 178
20 3549
27 1447
57 31
62 1163
1 488
87 198
96 1024
6 3553
29 943
36 3675
7 1919
32 1044
12 460
37 491
25 382
18 3017
78 670
91 1529
16 1817
33 948
94 1647
23 629
14 1593
90 4960
31 2536
13 6670
85 1265
50 1394
64 607
10 588
60 454
11 2597
68 371
70 2063
75 4065
40 78
15 3028
49 3199
9 1611
74 935
3 1466
