Message Drop for scenario SimBetReality#HillClimbing_0.5
sim_time: 16981816.0000

31	33776
68	45242
59	29748
84	435341
57	5500
14	195212
93	103196
72	204130
38	812544
74	182375
23	61414
87	12700
63	266
22	256450
17	168365
25	15835
0	268
3	169105
48	63544
47	261
29	28077
15	364443
90	188975
5	136980
78	90680
70	178606
91	171434
41	205395
35	105177
1	47656
89	3303
80	595069
77	459961
33	52504
2	6801
36	308530
32	177834
44	186965
83	254410
10	54573
40	3324
34	275406
6	242507
53	168804
79	277994
86	270
65	133346
49	281735
88	285823
45	310136
11	263224
61	9492
4	10843
73	188873
94	468395
92	5450
75	323771
66	247
46	66291
18	322269
50	168275
58	65327
51	240
69	28175
24	270
16	148067
19	218328
21	78665
55	21218
52	278
81	174709
96	187369
37	64809
9	149254
60	27516
76	151908
8	3227
85	1061757
7	255732
39	28542
95	613570
43	21936
62	146846
20	301769
56	827934
27	143480
26	7387
42	265466
82	308026
64	58514
28	1442174
13	621247
67	10757
12	11122
71	212678
54	246
30	231311

