49 2971
46 216
30 616
10 388
48 997
18 1115
79 724
67 75
20 2220
70 888
17 1965
88 626
6 1131
93 977
16 980
96 479
77 4377
73 2008
35 309
92 21
83 1654
31 2333
50 1533
36 2856
84 2986
41 847
89 90
45 754
27 461
62 1423
5 1118
25 197
1 492
59 214
33 832
7 520
15 3037
90 4355
40 74
28 1461
39 286
4 107
75 3353
58 316
14 1312
94 1125
91 1282
11 2492
19 1097
22 2145
76 1064
68 253
57 72
23 756
2 87
9 1338
37 448
65 552
3 1248
13 1548
95 1085
78 330
34 552
69 340
42 540
8 34
55 26
44 885
81 1007
72 537
32 1007
12 236
74 501
43 228
71 1828
56 619
61 209
60 425
38 990
21 451
29 474
53 1593
82 1707
80 5065
64 438
26 172
87 112
85 4989
