83 1741
3 916
77 1059
34 359
37 469
12 128
74 1229
62 1701
72 766
29 520
17 1627
15 1516
50 2101
36 1124
57 13
33 1218
28 3918
56 782
26 99
70 1733
42 401
94 4519
11 2203
46 489
27 1103
91 1477
96 742
13 2375
23 450
55 77
38 4221
40 101
64 493
6 3459
95 5256
7 671
22 747
18 856
69 253
93 1358
1 158
10 354
89 25
78 775
88 1861
59 375
82 3925
87 96
65 1120
71 1830
4 166
9 1134
31 941
32 193
80 4288
14 2256
79 2638
76 1487
61 62
67 62
44 1035
19 2516
81 1270
39 48
53 1540
20 3009
41 643
16 1696
49 2548
84 2205
75 2758
73 2185
58 692
43 223
68 223
90 3485
92 141
8 35
48 1460
45 1671
60 268
35 383
21 570
30 857
85 4825
5 1795
25 354
2 41
