Node	Value
93	143
7	140
5	79
1	34
47	12
74	126
84	249
23	139
16	186
80	346
43	27
46	31
39	10
95	318
27	46
32	57
61	9
53	132
40	13
50	109
34	236
57	3
3	65
36	134
37	66
83	86
6	289
60	42
29	80
92	27
35	43
62	106
15	284
52	5
79	178
87	19
81	198
12	30
49	369
22	128
2	11
10	34
0	1
82	138
64	157
13	254
89	5
38	473
41	68
65	63
72	142
44	89
33	46
69	120
94	364
48	75
75	100
26	13
88	190
21	55
70	67
56	352
63	4
78	99
17	78
85	224
77	241
58	46
91	93
68	43
54	3
31	109
45	92
19	222
55	10
20	229
25	49
96	86
90	209
73	151
28	777
76	150
9	188
59	37
8	8
42	149
4	13
30	84
14	145
18	178
51	1
67	12
11	134
71	246
