31 26.771507313970748
68 51.679096883612466
57 16.339029043883937
59 53.32800508797963
84 82.20966716133152
14 80.42713589145643
93 78.86349374602527
72 63.73684545261822
38 85.71392834428704
74 62.95723977104074
23 52.255437778248705
63 2.841997032011885
87 43.598918804324725
22 58.985711257154804
0 2.863451346194612
17 72.28613525545906
25 64.34227263090948
3 67.16730973076103
47 2.7885308458766067
48 74.71350434598264
29 53.31732033071866
15 79.44678821284704
90 81.62058511765974
5 44.08299766800918
78 53.89417002331962
70 82.39376722493103
91 59.693491626033364
41 66.16184015263977
35 60.07148611405539
1 60.40570277718869
89 12.24110663557339
80 84.80517277930906
77 67.126266694933
33 57.74685181259268
2 23.059550561798066
36 70.99720161119365
32 74.5626033495866
44 52.476213695145276
10 41.07816408734339
83 63.93478906084353
40 14.49251642993426
34 71.79274962900152
6 80.93190587237645
53 66.11062115751544
79 75.87142251431005
86 2.8848208607165717
65 39.927496290014886
49 67.73050667797317
88 77.14252702989178
45 61.22262030951858
11 69.14861140555442
61 12.212635149459404
4 19.999067203731233
73 73.12571549713779
92 46.538096247614924
94 82.55931736273071
75 72.15745177019309
66 2.639029043883802
46 59.900466398134405
18 74.32266270934913
50 78.45382658469384
51 2.564256942972201
58 62.56054695781235
69 38.58670765316962
24 2.884820860716559
16 80.59054483782053
19 65.01456434174261
21 47.11394954420176
55 19.818677125291686
52 2.9702141191435287
81 58.075704897180074
96 78.32560949756189
37 69.25846936612258
9 78.05234259062959
60 38.85974136103421
8 14.158893364426666
76 61.092898028408015
85 86.34808140767481
7 74.68039007843961
39 13.533898664405143
95 83.16866652533388
43 34.307483570065685
62 76.41916472334124
20 75.73283866864539
56 86.05598897604432
27 57.47409370362491
26 12.517129531481977
42 59.45736697053179
82 75.6131015475939
64 70.87337290650848
13 86.03044307822806
28 80.45272418910334
67 26.16169175323293
12 23.98702565189757
54 2.6283866864532652
71 65.82122111511548
30 52.05849056603761
