Message stats for scenario SimBetReality#HillClimbing_1
sim_time: 16981816.0000
created: 25299
started: 15736111
relayed: 15709148
aborted: 26963
dropped: 15722588
removed: 0
delivered: 11801
delivery_prob: 0.4665
response_prob: 0.0000
overhead_ratio: 1330.1709
latency_avg: 620092.7276
latency_med: 500471.0000
hopcount_avg: 9.2689
hopcount_med: 7
buffertime_avg: 56259.2656
buffertime_med: 3885.0000
rtt_avg: NaN
rtt_med: NaN
