12 4.515285138859466
77 68.84642781428859
74 62.87882128471488
62 75.00869196523196
29 52.502840788636796
15 79.18024167903343
36 70.5363578545685
33 59.40262878948481
26 18.066440534237675
28 80.37000211999161
56 85.99311002756004
70 81.75109179563235
42 59.82601229595032
11 68.46379054483779
0 2.863451346194612
27 56.91676913292362
46 59.741127835488626
66 2.639029043883802
23 51.5440958236167
55 16.34265422938327
38 85.75564977740123
64 68.92618189527245
7 74.98946364214548
95 83.48132287470855
69 42.77112571549714
1 31.685117659529237
10 41.804451982191786
52 2.9702141191435287
24 2.884820860716559
71 66.1124867500528
31 24.514776340894635
76 60.603413186347304
67 25.722153911384307
39 12.824337502649787
49 67.32705109179562
73 73.72967988128039
75 71.27835488658054
84 81.98797964808114
58 64.53461946152223
68 50.66230655077366
54 2.6283866864532652
90 80.66058935764262
92 31.557621369514848
47 2.7885308458766067
30 51.734619461521966
35 56.50373118507528
5 43.895378418486146
25 62.498155607377534
85 86.23112147551448
2 15.723510705957365
83 63.27082891668427
3 66.58747085011665
34 71.58600805596751
37 69.22560949756206
72 63.35690057239775
17 72.88115327538692
50 77.51195675217281
57 11.505427178291427
94 82.81547593809678
63 2.841997032011885
91 59.38420606317565
13 85.99082043671832
96 78.34897180411292
40 7.433093067627739
6 81.72864108543571
22 58.144117023531706
18 74.22622429510281
93 76.59444562221753
89 11.181513673945254
78 56.30780156879361
88 79.79578121687501
59 53.427496290014886
82 75.06983252066999
87 32.21000635997448
65 39.49618401526408
4 23.15503497986012
9 79.78747085011663
32 75.154589781641
14 79.14769980920065
80 86.35249099003646
79 75.20178079287702
61 7.946215815136734
44 52.43394106423584
19 62.06039855840589
81 57.21573033707855
20 74.32853508585941
53 67.65261818952717
41 66.12037311850787
16 79.8379478482086
43 35.98217087131631
51 2.564256942972201
8 12.711914352342601
86 2.8848208607165717
45 61.01091795632813
48 74.62815348738637
60 31.475556497773457
21 46.00207759168966
