93 1458
7 933
5 1861
1 162
74 1156
84 4257
23 514
16 584
80 5948
46 359
43 249
39 66
95 4362
32 1218
27 655
61 225
53 580
40 46
50 1782
34 2159
57 34
3 1290
36 3084
37 750
83 2160
6 3374
60 335
29 540
92 163
62 1042
35 677
15 3323
79 4059
87 117
81 468
12 88
49 3518
22 1886
2 45
10 626
82 4511
64 864
13 8419
89 36
38 2364
41 749
65 1247
72 2127
44 1256
33 967
69 275
94 2988
48 1024
75 2564
26 134
88 2486
21 633
56 1291
70 1988
78 682
17 3359
85 3885
77 4173
58 582
91 2050
68 218
31 1837
45 2043
19 3127
55 74
20 3809
25 613
96 482
90 4369
73 2016
28 6798
76 1220
9 1128
59 215
8 13
42 1631
4 193
30 1248
14 3527
18 2958
67 107
11 2480
71 2327
