24 2.884820860716559
5 44.53368666525328
1 32.43143947424222
47 2.7885308458766067
74 63.06179775280895
23 50.77350010599962
80 87.41305914776383
43 35.05234259062959
46 57.135827856688536
39 13.250031799872596
32 74.90059359762563
3 66.34271782912867
36 70.91524273902894
37 69.52086071655727
6 82.15376298494803
29 58.8226627093491
62 74.43553105787545
79 77.82401950392212
87 43.10538477846084
12 24.639728641085423
49 68.30192919228324
10 41.89722281110848
0 2.863451346194612
38 86.25206699173253
41 66.396904812381
69 45.89241043035835
94 83.46720373118498
48 76.96677973288126
75 72.59902480390119
26 18.79166843332615
21 47.79796480814086
56 86.24721221115166
85 86.41229595081649
54 2.6283866864532652
19 64.52376510493937
55 20.102649989400238
20 71.77990248038984
90 83.10417638329456
73 73.73565825736699
9 80.3104939580244
8 11.556158575365691
42 60.81630273478891
30 52.1560525757896
14 82.08371846512611
66 2.639029043883802
93 79.04017383930481
7 76.53847784608841
84 83.37542929828254
16 80.9073351706595
27 60.30491838032623
95 83.66680093279635
61 31.62215391138422
53 68.52319270722899
40 11.765274538901828
50 76.92768708925176
34 71.49397922408293
57 16.443078227687245
83 64.20797116811511
60 33.73421666313302
92 23.650540597837573
35 61.97530209879138
15 79.70515157939363
52 2.9702141191435287
81 58.7753868984521
22 56.1599533601863
2 13.39609921560314
82 75.15126139495459
64 70.89643841424646
13 86.84208183167271
89 9.769429722281043
65 39.55024379902485
72 63.658829764681045
33 57.634852660589374
44 52.74674581301673
86 2.8848208607165717
88 81.89641721433081
70 80.4747297010812
63 2.841997032011885
78 55.677952088191404
17 74.03661225355104
77 69.12088191647227
58 65.08666525333902
91 60.31706593173611
68 52.21134195463222
31 26.359041763832977
45 62.03921984312058
25 64.94326902692397
96 78.64973500105972
28 80.59510281958904
59 53.51394954420196
76 61.63290226839092
4 24.86279414882347
18 73.30464278142878
51 2.564256942972201
67 23.912253550985774
11 68.11043035827849
71 65.89179563281749
