A83 0.5013295677197512 
A3 0.4963992147871068 
A77 0.6180045353007967 
A12 0.5116737615874138 
A34 0.557522981139032 
A37 0.5156721773039983 
A74 0.512813857793555 
A62 0.48642652822746385 
A72 0.5073475896399954 
A29 0.5112221087322523 
A17 0.5550066390742084 
A15 0.5313837420975775 
A50 0.4919149277009009 
A36 0.5451409480917769 
A57 0.4168202599579492 
A33 0.4639122084489332 
A56 0.5999879041872215 
A28 0.5844386935701802 
A26 0.383074082062037 
A70 0.5241211359297959 
A42 0.6737782901789733 
A94 0.5285002872565786 
A11 0.49691003184105614 
A46 0.48445817194046864 
A27 0.5397054223977841 
A63 0.2778695748447213 
A0 0.018820501665900217 
A91 0.4711026566730326 
A13 0.60856955571436 
A96 0.4716362513248346 
A55 0.5050754582689706 
A23 0.6134008083758208 
A38 0.5505821765265757 
A40 0.427875087066211 
A64 0.5041770005486926 
A6 0.5325459669405697 
A95 0.5893972107357992 
A7 0.5354483962496267 
A22 0.5139935336146588 
A18 0.5298824495305637 
A69 0.529156844120545 
A1 0.42943382683938486 
A93 0.47891745521314794 
A10 0.4403462838212102 
A89 0.25288989751142144 
A78 0.46474906563589513 
A88 0.5263838916958353 
A52 0.15254164140732748 
A82 0.527610287477348 
A59 0.5114561067846128 
A87 0.5451465445251019 
A65 0.46836382234225465 
A71 0.5087769401409571 
A9 0.5602561793907692 
A4 0.5424993726955872 
A31 0.503905276125755 
A32 0.592440327263426 
A80 0.546389276396811 
A14 0.5417304668641095 
A79 0.5498953124476603 
A76 0.5111691427912594 
A61 0.31191388173771456 
A67 0.4594465400719147 
A44 0.472064479323922 
A19 0.4513636078964808 
A81 0.5623380879156543 
A39 0.48736209910465006 
A20 0.4918611829127518 
A53 0.5422252587469121 
A41 0.5298018762894522 
A16 0.5525940966793684 
A49 0.4786148279393663 
A84 0.5408040360023421 
A75 0.5916128675168552 
A73 0.5660813343915198 
A58 0.5813922565626485 
A43 0.6862760236109413 
A68 0.527602324395546 
A54 0.15755473173547643 
A90 0.5536319196421562 
A92 0.39235138664085095 
A51 0.76082729004182 
A8 0.4120322777439099 
A86 0.0 
A48 0.44809199064383576 
A45 0.4793238088530113 
A47 0.37097610029990963 
A60 0.6555358931629363 
A30 0.48745661830116094 
A21 0.4485843975223916 
A35 0.4365566326794514 
A85 0.5562603845583716 
A5 0.5932634069588689 
A25 0.5021634126921695 
A2 0.5411939396402904 
