Message stats for scenario SAREALITY_1
sim_time: 16981816.0000
created: 25299
started: 1000544
relayed: 975800
aborted: 24744
dropped: 989368
removed: 0
delivered: 11730
delivery_prob: 0.4637
response_prob: 0.0000
overhead_ratio: 82.1884
latency_avg: 230329.9158
latency_med: 200388.0000
hopcount_avg: 5.0933
hopcount_med: 5
buffertime_avg: 374438.1707
buffertime_med: 402946.0000
rtt_avg: NaN
rtt_med: NaN
TotalCopy: 964070
