Message stats for scenario SimBetReality#SA_1
sim_time: 16981816.0000
created: 25299
started: 4064908
relayed: 4036250
aborted: 28658
dropped: 4048547
removed: 0
delivered: 12990
delivery_prob: 0.5135
response_prob: 0.0000
overhead_ratio: 309.7198
latency_avg: 596122.0633
latency_med: 459711.0000
hopcount_avg: 3.3058
hopcount_med: 3
buffertime_avg: 126863.7664
buffertime_med: 4678.0000
rtt_avg: NaN
rtt_med: NaN
