82 833
48 295
35 39
93 165
92 2
58 192
83 246
55 17
79 513
41 184
65 73
84 723
88 638
28 923
44 151
59 50
43 43
80 1061
19 288
69 127
21 56
53 292
30 105
17 73
76 429
73 371
95 1132
72 444
5 74
34 586
26 47
4 70
67 36
56 517
61 13
38 1063
39 4
46 74
81 320
22 671
2 9
77 735
8 2
71 337
45 277
42 286
89 3
20 318
27 75
57 4
62 314
1 50
87 14
96 252
6 1025
29 82
36 431
7 578
32 158
37 118
25 50
18 619
78 76
91 191
16 519
33 148
94 1069
23 245
14 288
90 342
31 42
85 634
13 965
50 145
64 242
10 88
60 114
11 468
68 190
70 341
75 386
40 30
15 800
49 605
9 444
74 418
3 155
