Message stats for scenario SimBetReality#HillClimbing_0.8
sim_time: 16981816.0000
created: 25299
started: 6232263
relayed: 6205163
aborted: 27100
dropped: 6218333
removed: 0
delivered: 12112
delivery_prob: 0.4788
response_prob: 0.0000
overhead_ratio: 511.3153
latency_avg: 602325.2721
latency_med: 464381.0000
hopcount_avg: 3.5179
hopcount_med: 3
buffertime_avg: 87033.1872
buffertime_med: 3412.0000
rtt_avg: NaN
rtt_med: NaN
