93	1446
7	45006
5	1594
1	320
74	47652
84	10059
23	24096
16	91980
80	8770
46	18454
43	12453
39	337
95	503499
32	34316
27	34831
61	75
53	49615
40	133
50	8127
34	107658
57	178
3	48575
36	32353
37	3289
83	28893
6	24733
60	560
29	1374
92	45
62	8863
35	1070
15	122238
79	18038
87	322
81	21697
49	36850
22	10144
2	441
10	2958
82	24426
64	4282
13	77437
89	57
38	407414
41	98812
65	1063
72	27242
44	1457
33	4058
69	2253
94	206699
48	26919
75	69371
26	175
88	28585
21	1531
56	734746
70	11913
78	1376
17	1955
85	606888
77	97931
58	48497
91	2787
68	14730
31	154
45	7211
19	1851
55	592
20	2604
25	1636
90	14983
96	15596
73	45251
28	1117944
9	24011
76	23641
59	4725
8	36
42	255686
4	828
30	767
14	38990
18	73142
67	566
11	88049
71	10152
