Message Drop for scenario SimBetReality#HillClimbing_0.2
sim_time: 16981816.0000

24	270
5	1879
1	570
47	261
74	47929
23	24359
80	9035
43	12712
46	18725
39	608
32	34566
3	48835
36	32635
37	3563
6	24992
29	1643
62	9145
79	18307
87	614
12	273
49	37124
10	3206
0	268
38	407666
41	99047
69	2508
94	206940
75	69632
48	27183
26	471
21	1810
56	735005
85	607129
54	246
19	2122
55	866
20	2849
90	15269
73	45518
9	24257
8	285
42	255949
30	1004
14	39238
66	247
93	1698
7	45266
84	10306
16	92253
95	503751
27	35074
61	358
53	49898
40	414
50	8394
34	107938
57	415
83	29152
60	809
92	281
35	1346
15	122490
52	278
81	21966
22	10410
2	705
82	24693
64	4561
13	77699
89	304
65	1336
72	27493
33	4295
44	1722
86	270
88	28853
70	12170
63	266
78	1602
17	2204
77	98215
58	48770
91	3066
68	15030
31	418
45	7474
25	1929
96	15596
28	1118195
59	4972
76	23886
4	1112
18	73414
51	240
67	834
11	88312
71	10425

