Message Drop for scenario SimBetReality#SA_1
sim_time: 16981816.0000

28	609062
60	943
57	407
45	3744
9	25035
17	2024
13	99783
87	2261
6	51195
39	441
53	12592
23	15310
78	2909
4	797
27	6175
8	317
90	9641
49	8483
2	541
37	2241
79	25095
47	261
75	16580
52	278
20	14490
34	31683
77	12825
3	2011
54	246
11	4095
93	3784
59	2221
81	6457
50	3249
19	4648
31	526
56	550209
58	29176
65	2327
85	426599
41	14352
51	240
36	5042
71	2550
73	28769
84	26998
29	3689
89	512
16	15688
10	3553
7	59023
5	2798
66	247
64	5422
94	190532
15	36910
18	7962
55	1612
96	9126
38	531723
32	15120
40	334
46	3350
72	5954
76	11127
21	3029
1	1047
74	60472
70	8880
61	927
69	2141
42	173232
63	266
68	2439
48	15150
88	59466
91	2499
92	300
86	270
12	796
44	1382
25	1664
62	5172
35	2162
95	613689
82	43122
22	3957
83	3926
24	270
14	11156
33	2851
80	41012
67	788
26	442
30	2348
43	10130
0	268

