41	51092
53	73055
32	67976
29	2082
84	28064
58	52257
36	15970
79	27968
44	1346
33	3482
80	16627
81	16578
2	351
57	150
48	31581
26	154
72	10372
56	885826
78	2222
91	2396
42	324827
14	34346
50	5156
4	755
38	519353
23	27592
31	163
5	1805
11	14255
37	2641
30	1331
69	2111
95	649190
28	930236
16	88372
46	8090
92	61
35	1341
17	1323
6	63965
43	14539
77	100599
75	112346
55	917
60	595
3	3591
13	156417
27	22604
19	3303
89	89
15	131239
73	73303
83	5288
34	78272
67	622
59	2985
9	32818
49	16421
74	71778
45	3912
7	67672
93	2321
18	16398
39	233
90	19262
61	174
8	44
22	4648
20	5231
82	53007
25	1354
85	691079
62	12798
70	16104
21	2392
1	380
71	3688
10	3666
88	61767
87	767
64	4477
96	21023
76	20460
12	97
65	1342
94	221712
68	3987
40	63
