Node	Value
49	297
46	31
30	12
10	23
18	278
48	48
79	145
20	56
67	8
70	76
17	6
88	193
6	361
93	25
16	247
96	63
77	481
73	141
35	11
63	1
92	6
83	86
31	7
50	40
52	2
36	193
41	137
84	178
89	3
45	72
27	20
5	21
62	78
51	1
25	6
1	16
59	18
33	33
7	181
15	383
90	67
40	7
28	962
39	3
4	9
75	196
58	61
14	91
94	529
91	45
11	238
19	79
22	110
76	191
68	48
57	1
23	192
2	5
47	12
54	1
9	221
37	27
65	22
0	1
3	87
95	584
13	223
78	31
34	473
69	63
42	263
8	4
55	9
81	195
44	16
72	212
32	69
12	8
74	111
43	43
71	124
56	422
60	19
61	8
38	596
21	27
29	8
53	145
82	177
80	224
64	70
26	3
87	14
85	382
