Message Drop for scenario SimBetReality#HillClimbing_0.5
sim_time: 16981816.0000

49	28288
46	16438
30	1188
48	30682
18	40787
20	3199
67	865
70	10952
16	94775
96	20192
73	57500
35	1529
92	290
31	418
50	6733
52	278
36	21619
41	70829
84	17847
89	322
5	1963
33	4090
15	132762
39	587
4	999
58	57656
14	45281
94	205853
91	2550
22	5907
76	24255
68	7658
2	671
54	246
9	30586
37	2996
65	1496
3	6330
95	572769
13	117051
78	1957
34	94983
69	2475
42	307499
8	285
81	16871
44	1685
32	55227
12	278
43	14772
71	4616
82	42696
80	10940
85	656259
10	4126
24	270
79	24869
66	247
17	1622
88	48452
6	39223
93	1875
77	96487
63	266
83	8359
45	4623
27	28540
62	10646
25	1669
51	240
1	569
59	3473
7	54009
90	14492
40	388
28	1107453
75	96971
86	270
11	41020
19	2769
23	26210
57	390
47	261
0	268
55	986
72	12806
74	63898
56	831199
60	792
61	417
38	481032
21	2210
29	2039
53	66666
64	4707
26	452
87	810

