Node	Value
11	272
31	9
68	73
57	1
84	121
59	16
61	7
14	83
4	11
73	132
93	20
94	572
92	6
72	223
38	539
74	129
23	176
87	11
63	1
75	203
22	113
46	43
17	8
25	6
0	1
3	67
18	233
50	36
48	47
47	9
29	7
15	384
90	66
5	22
58	77
51	1
78	24
69	52
70	68
16	232
91	47
19	62
41	130
21	31
55	8
35	15
52	2
81	123
96	57
37	26
1	15
89	2
9	208
80	154
77	516
60	19
76	169
33	26
8	5
85	358
2	5
7	140
36	184
32	60
39	4
44	15
10	20
83	83
40	8
95	578
34	486
43	40
62	56
20	43
6	312
53	133
56	478
79	120
27	22
26	3
42	273
82	155
64	77
28	965
13	201
67	6
12	5
65	21
49	188
88	175
71	188
54	2
45	68
30	18
