A64 0.523973723049856 
A94 0.49872723292280674 
A28 0.49833621803033024 
A15 0.5018556282161623 
A18 0.49497795373677433 
A60 0.548192345521016 
A57 0.37553107699293353 
A55 0.4693839404359843 
A45 0.5126944154780468 
A96 0.4918911392424897 
A9 0.4988295803890729 
A38 0.4982104826175639 
A17 0.4803679052995467 
A32 0.49948291482512885 
A13 0.5142245009583408 
A40 0.44859888446503837 
A87 0.49507106138432283 
A6 0.5022897331732322 
A39 0.6146385600864778 
A53 0.5140101465209934 
A23 0.5106307250661773 
A4 0.4467371711317403 
A78 0.47494240295801865 
A46 0.5211021640704783 
A27 0.47707176865327716 
A8 0.5731989950997265 
A72 0.509648717773067 
A90 0.5137775049280523 
A76 0.5135854158570946 
A49 0.5132245226670185 
A2 0.49891128299705095 
A37 0.5181455498089487 
A79 0.508934516709129 
A21 0.5155311475616261 
A47 0.21502444891021616 
A75 0.517442144196143 
A1 0.5188506191700487 
A52 0.09220991909780445 
A20 0.49291960441900207 
A74 0.5174096795556669 
A70 0.48461555123163064 
A61 0.47884439535902473 
A69 0.49203736275498416 
A34 0.4716020973480106 
A42 0.5169825111297607 
A63 0.19881764708613703 
A68 0.48991673668565117 
A77 0.5063133126552645 
A48 0.5016774342075526 
A88 0.5059848731169739 
A54 0.21241846089928815 
A91 0.5232475268081278 
A3 0.5400957004500285 
A92 0.307255232152225 
A86 0.0 
A11 0.5024177241424713 
A12 0.45499328971633524 
A93 0.5258192790505657 
A59 0.515268358665375 
A81 0.5045566499276256 
A44 0.5265001653526911 
A50 0.51436974984537 
A25 0.4858348944295965 
A62 0.5023527735983496 
A19 0.4937643591955614 
A35 0.5079425372647862 
A95 0.5089051062749749 
A82 0.5064699590793986 
A22 0.447698349709953 
A31 0.5755270495000581 
A56 0.5049922621178121 
A58 0.5077884525093392 
A65 0.5333839735614301 
A85 0.5075798852361454 
A41 0.47947012781025755 
A51 0.6122448979591835 
A83 0.49968175912956037 
A36 0.5025650116563806 
A14 0.4930972268485909 
A71 0.5511162136017722 
A73 0.5055207634726162 
A33 0.507761381481078 
A80 0.5111695766474073 
A84 0.5001146857324108 
A67 0.4873840474030007 
A26 0.4430547306880724 
A30 0.4882293496855134 
A29 0.5110616772207563 
A89 0.5902575083603382 
A43 0.5148528131947123 
A16 0.49542383079140034 
A10 0.5054273890139345 
A7 0.49999582068986703 
A5 0.5418053775906139 
