A41 0.4674883390336065 
A53 0.5248861852357332 
A32 0.5482246093432656 
A29 0.5328929519138531 
A84 0.5286228665267881 
A58 0.5376121642695142 
A36 0.5096726993331713 
A79 0.5053219490889549 
A33 0.546666266592993 
A44 0.5176997471629046 
A80 0.5196419278409806 
A81 0.495234343794274 
A2 0.5104255631956013 
A57 0.4375331550450634 
A0 0.03130181818181818 
A48 0.5072199980744032 
A26 0.4580702127837297 
A72 0.5084648531077934 
A56 0.5044603036546025 
A78 0.5062895719770721 
A91 0.5624829909175071 
A42 0.5457135350269564 
A14 0.5112659820369742 
A50 0.5368518477044314 
A4 0.5311982328283656 
A38 0.519229984935158 
A23 0.5094655213422761 
A31 0.5985304732818602 
A5 0.5833931903149714 
A11 0.4897484286886935 
A30 0.5252003764202307 
A37 0.5029900019807672 
A69 0.5199282726239769 
A95 0.5270511667180193 
A28 0.5069826994887694 
A16 0.5388000931598947 
A51 0.3956688988800992 
A46 0.5021116242585686 
A92 0.3262856766704771 
A35 0.5911940871669165 
A63 0.15531035982629907 
A17 0.46191456579637896 
A6 0.5152843803385062 
A52 0.07666686715449583 
A43 0.5450988194404139 
A77 0.5230018011462515 
A75 0.5311004673145325 
A55 0.47049717959137455 
A3 0.5068056712471267 
A60 0.5782309993401404 
A13 0.5359145340121622 
A19 0.49190412760329677 
A27 0.5367284907716028 
A89 0.6953170618201007 
A15 0.5306975366022356 
A73 0.5434241734587427 
A47 0.2309296455258781 
A83 0.509770232137061 
A34 0.47787176371168283 
A67 0.5402391195607416 
A59 0.5361896631266599 
A9 0.512075484789692 
A74 0.541444548673901 
A49 0.45754409356015524 
A45 0.5194859678006509 
A7 0.5221287748072856 
A93 0.5598742754761689 
A18 0.4990623269366189 
A39 0.609300003210891 
A90 0.5328876109564041 
A61 0.5381765782356026 
A54 0.12018214401130127 
A8 0.5355139423141538 
A20 0.5276665791196056 
A22 0.4778401349154493 
A82 0.5278645953856318 
A25 0.4913019995855477 
A85 0.5128951601402457 
A62 0.4905138707695479 
A70 0.5159365974876143 
A21 0.5073775163702213 
A1 0.5832650313375666 
A86 0.0 
A71 0.534527631314012 
A10 0.5338523854450413 
A88 0.516232963981243 
A87 0.5889749995605793 
A64 0.5321258593998045 
A96 0.5128768444462638 
A76 0.49957919248229415 
A12 0.37532552769111477 
A65 0.58405577530613 
A94 0.5315617347319919 
A40 0.3971672644663802 
A68 0.509618758043879 
