Node	Value
50	40
92	6
49	345
27	24
37	27
30	10
40	5
51	1
20	89
89	3
96	65
71	94
5	21
43	52
88	190
94	519
19	87
23	210
22	99
75	188
87	17
70	65
59	19
34	461
76	195
57	1
81	194
91	42
52	2
7	190
55	8
44	17
26	2
25	7
62	68
80	241
3	68
36	156
32	84
54	1
90	76
17	10
73	162
4	9
2	5
39	3
69	69
79	157
29	6
53	142
77	468
38	599
47	8
74	108
8	4
1	14
10	23
67	8
6	373
28	985
18	299
68	45
85	339
42	255
9	211
31	9
56	439
15	386
95	575
14	87
12	9
61	10
16	234
21	28
58	50
60	18
72	203
93	30
11	240
33	26
64	70
78	29
65	20
0	1
82	196
45	57
84	203
13	232
48	56
41	137
83	73
35	9
63	1
46	34
