11	84778
31	154
68	14079
57	184
84	8256
61	72
59	4740
14	37459
4	1094
73	45644
93	1312
94	200183
92	45
72	26995
38	405201
74	44087
23	23734
87	328
75	65666
22	12767
46	19900
17	2070
25	1761
3	63714
18	72356
50	7855
48	24491
29	1315
15	120264
90	14268
58	48853
5	1599
78	1334
69	2347
70	9886
16	84568
91	3449
19	1887
41	91221
21	1650
55	546
35	1287
81	20115
96	12707
37	3596
1	319
89	57
9	19285
80	8220
77	91582
60	535
76	21597
33	4269
8	36
85	585206
2	453
7	38915
36	31012
32	29517
39	337
44	1734
10	2863
83	34575
40	138
95	479828
34	105509
43	11896
62	8143
6	20866
20	2521
53	44138
56	711674
79	18130
27	20577
26	181
42	249669
82	20662
64	4354
28	1100565
13	69888
67	544
65	1354
49	42902
88	19277
71	15710
45	7974
30	776
