A70 0.5035282415753872 
A86 0.0 
A54 0.1583563524568842 
A45 0.5140622422634803 
A11 0.48931933075103334 
A85 0.5105557564196821 
A7 0.5111690122837473 
A6 0.513813762349143 
A94 0.5219510229829704 
A80 0.5252405427022153 
A61 0.4737799167713625 
A73 0.53235071685512 
A23 0.5114304456652589 
A4 0.5373164291784256 
A53 0.5272305995470459 
A83 0.49774708382372707 
A55 0.4146237952031902 
A35 0.555821636468812 
A17 0.5044956201224331 
A27 0.5294500172256055 
A91 0.5573084665462775 
A42 0.534496260722323 
A18 0.49045280428093707 
A76 0.4869575775691555 
A39 0.6127855504817329 
A13 0.5262287660880817 
A96 0.507657289675142 
A67 0.5239376088674151 
A25 0.48986620511583845 
A8 0.5507714256665777 
A12 0.38235011391068696 
A92 0.3250063370863585 
A90 0.5246632821191818 
A26 0.4545084275682055 
A40 0.41800783771736394 
A43 0.5373323365869993 
A5 0.5582338805318361 
A36 0.5076193223717653 
A64 0.5247862862342536 
A33 0.5362522433398393 
A21 0.5035871039461198 
A15 0.523379716282388 
A32 0.5312877210921162 
A52 0.13243757506802348 
A2 0.519075635185507 
A93 0.5408196054854726 
A51 0.17134776103885077 
A46 0.5017683366761143 
A78 0.4972502817074736 
A82 0.5268085384357926 
A14 0.5044024136332754 
A34 0.4705512672485744 
A37 0.4974283448775255 
A31 0.6052352981840033 
A56 0.5011312649547446 
A84 0.5180022179574395 
A95 0.5156239664320192 
A62 0.4948742034568381 
A41 0.44442919478826615 
A58 0.5320635946322452 
A29 0.5197249791720128 
A63 0.13800618123581976 
A60 0.5654709392093688 
A20 0.5201294170978241 
A69 0.5098402470913839 
A49 0.484659584966256 
A10 0.5316163764728057 
A75 0.5253834101976074 
A79 0.5051233561843829 
A9 0.5041989942924753 
A1 0.5617389565095852 
A50 0.5233629849403211 
A68 0.5119141189009209 
A72 0.4966890529849713 
A0 0.0430426716141002 
A22 0.4694259334102226 
A65 0.565411395275183 
A81 0.5125131498326876 
A59 0.5214997875341226 
A88 0.5113418561873266 
A89 0.6808881701144082 
A38 0.5092389237166876 
A77 0.5094837506587279 
A30 0.5062182415960098 
A57 0.43284157608012697 
A87 0.5622269347551855 
A47 0.23826550295157398 
A74 0.533062713332417 
A16 0.5242891952640273 
A28 0.5034220022771706 
A48 0.5041327010513501 
A44 0.5132258162223758 
A3 0.5122152506583191 
A71 0.5397978438989356 
A19 0.4847619443098108 
