Message stats for scenario SimBetReality#HillClimbing_0.5
sim_time: 16981816.0000
created: 25299
started: 5957582
relayed: 5931499
aborted: 26083
dropped: 5945051
removed: 0
delivered: 11712
delivery_prob: 0.4629
response_prob: 0.0000
overhead_ratio: 505.4463
latency_avg: 617658.9594
latency_med: 487310.0000
hopcount_avg: 3.4342
hopcount_med: 3
buffertime_avg: 89161.0634
buffertime_med: 3557.0000
rtt_avg: NaN
rtt_med: NaN
