Message Drop for scenario SimBetHaggleInfocom_#SA_FIXTTL1HARI
sim_time: 274883.0000

28	2767
22	2768
16	2786
35	1708
11	166
25	2516
14	2374
40	1083
10	2732
0	2504
37	1524
31	2772
9	2790
26	2491
19	2583
23	2769
4	2878
38	2753
34	2528
24	2607
20	2429
7	2791
18	2637
13	2414
33	2803
29	2486
8	2752
17	1700
21	2766
27	1784
15	2784
5	2755
36	2764
1	2403
6	2531
2	2760
12	1769
30	76
3	2750
39	2640
32	2417

