Message Drop for scenario SimBetHaggleInfocom_#SA_DONE
sim_time: 274883.0000

25	2079
19	2250
13	1938
32	2014
8	2512
22	2473
11	153
7	2766
37	1456
34	2138
28	2609
6	1966
23	2676
16	2703
20	2003
35	1558
1	1529
31	2645
21	2781
4	2612
17	1097
15	2593
10	2189
39	2328
26	2156
30	92
5	2232
38	2664
14	1471
18	2133
24	2217
33	2678
2	2768
12	1321
3	2399
40	783
9	2737
27	1559
0	2043
36	2720
29	2141

