25 10.052631578947365
19 10.724342105263151
13 9.468421052631586
8 12.05
32 10.167763157894735
22 12.363815789473684
11 0.8986842105263158
7 13.804605263157892
37 8.13355263157894
34 10.350000000000003
28 12.927631578947365
6 9.24342105263158
23 13.205921052631572
16 13.02763157894737
20 8.648026315789476
1 7.0796052631578945
35 8.750000000000004
31 12.995394736842103
4 12.671052631578945
17 4.663157894736843
21 14.24736842105263
15 12.544078947368419
10 9.931578947368424
39 11.130921052631585
26 10.438815789473686
30 0.725
5 10.66513157894737
38 13.11578947368421
14 7.347368421052634
18 10.028947368421052
24 9.815789473684209
2 13.34802631578947
12 5.611184210526318
33 13.326973684210527
3 11.346052631578946
40 3.5276315789473696
9 13.554605263157892
27 8.678947368421053
0 9.432894736842107
29 10.721710526315789
36 13.567105263157893
