A25 0.6014268221223832 
A19 0.521172196810314 
A13 0.5519977132545018 
A32 0.4843082401502256 
A8 0.5871428881257827 
A22 0.5562837688636681 
A11 0.4042429779489031 
A37 0.5363396825208409 
A7 0.5546891379833611 
A34 0.5754368523608985 
A28 0.5673794170144135 
A6 0.6475893996596309 
A23 0.46077019406574965 
A16 0.5259908252026224 
A20 0.6313895000801438 
A35 0.5395030174041036 
A1 0.49342209108205604 
A31 0.5052942290781374 
A4 0.6707921932410595 
A17 0.5598703056513843 
A21 0.5391136167858146 
A15 0.4924369942464705 
A39 0.4994702034935655 
A10 0.44686827164612936 
A26 0.5561254646326861 
A30 0.0 
A5 0.5059685143982687 
A38 0.5770388323917045 
A14 0.4585595855911571 
A18 0.5290469151965246 
A24 0.45797528879944543 
A33 0.6211625236100561 
A2 0.5161103609639186 
A12 0.4627642873552289 
A3 0.5277484074533793 
A40 0.6105354265829255 
A9 0.5065046066759794 
A27 0.46654159941630524 
A0 0.5353129713633611 
A36 0.5686844849930941 
A29 0.5869717675146819 
