NrofTotalCopy/Contact
32000 368483
64000 701991
10500 105581
42500 488412
74500 826415
21000 229000
53000 596615
85000 924083
31500 359397
63500 699150
10000 101525
42000 482667
74000 819980
20500 224425
52500 592549
84500 924083
31000 350311
63000 693913
9500 96904
41500 476065
73500 813172
20000 218095
52000 590909
84000 924083
30500 339484
62500 688832
9000 89074
41000 470695
73000 808122
19500 214087
51500 586913
83500 924083
30000 328330
62000 686546
8500 83894
40500 462010
72500 797395
19000 208528
51000 583454
83000 924083
29500 323715
61500 681388
8000 78711
40000 457677
72000 790528
18500 202575
50500 576767
82500 924083
29000 317389
61000 677280
7500 68271
39500 451001
71500 781420
18000 198159
50000 570838
82000 924079
28500 314349
60500 673220
7000 63408
39000 443935
71000 775521
17500 193273
49500 561734
81500 923729
28000 310036
60000 667179
6500 59040
38500 438011
70500 766043
17000 187771
49000 550336
81000 921602
27500 300983
59500 662448
6000 53049
38000 432493
70000 760279
16500 182093
48500 542342
80500 917744
27000 295951
59000 659326
5500 46936
37500 425992
69500 755208
16000 175645
48000 538171
80000 910028
26500 288730
58500 655699
5000 43129
37000 421635
69000 750416
15500 170479
47500 532993
79500 904225
26000 284199
58000 650254
4500 39599
36500 415256
68500 746448
15000 164073
47000 530375
79000 898870
25500 277895
57500 647543
4000 32769
36000 408163
68000 740944
14500 156416
46500 525311
78500 892861
25000 271976
57000 644692
3500 26337
35500 401547
67500 734887
14000 149251
46000 519327
78000 883378
24500 267407
56500 635544
3000 15962
35000 395687
67000 731069
13500 141234
45500 512857
77500 876385
24000 261880
56000 630688
2500 9475
34500 390825
66500 725164
13000 135870
45000 506118
77000 868966
23500 255127
55500 622448
2000 4550
34000 386591
66000 718693
12500 130392
44500 503314
76500 858263
23000 249084
55000 617473
1500 3325
33500 380904
65500 712662
12000 126201
44000 498640
76000 853492
22500 243435
54500 609363
1000 1626
33000 376658
65000 708566
11500 119852
43500 496292
75500 846093
22000 237984
54000 604967
500 164
32500 372814
64500 704293
11000 109883
43000 491520
75000 833657
21500 231648
53500 600546
85500 924083

